{
    "unit": {
        "Time": "s",
        "Voltage": "V",
        "Current": "A"
    },
    "V_step": -5,
    "Step_duration": 2,
    "N_measurements_per_step": 10,
    "A_Compliance": 1e-05,
    "Sensor_IV": [
        {
            "Time": 47.23539972305298,
            "Voltage": 0.0,
            "Current_mean": -1.0377377e-07,
            "Current_sigma": 2.1886892744517195e-09
        },
        {
            "Time": 53.231926679611206,
            "Voltage": -5.0,
            "Current_mean": -2.4387517999999997e-07,
            "Current_sigma": 7.716469867471778e-09
        },
        {
            "Time": 59.67618680000305,
            "Voltage": -10.0,
            "Current_mean": -1.0000002608318899,
            "Current_sigma": 2.999999913056037
        },
        {
            "Time": 65.81661796569824,
            "Voltage": -15.0,
            "Current_mean": -3.0006184999999994e-07,
            "Current_sigma": 2.4755705181836394e-09
        },
        {
            "Time": 72.11692118644714,
            "Voltage": -20.0,
            "Current_mean": -2.9294309e-07,
            "Current_sigma": 6.589477558114903e-09
        },
        {
            "Time": 78.11348938941956,
            "Voltage": -25.0,
            "Current_mean": -2.9596454999999995e-07,
            "Current_sigma": 2.501181035131195e-09
        },
        {
            "Time": 84.30180478096008,
            "Voltage": -30.0,
            "Current_mean": -2.9328668999999996e-07,
            "Current_sigma": 5.621791217121107e-09
        },
        {
            "Time": 90.2983181476593,
            "Voltage": -35.0,
            "Current_mean": -3.0151561e-07,
            "Current_sigma": 1.920249815753149e-09
        },
        {
            "Time": 96.59876155853271,
            "Voltage": -40.0,
            "Current_mean": -3.0190983000000005e-07,
            "Current_sigma": 4.795700706059548e-09
        },
        {
            "Time": 102.59530901908875,
            "Voltage": -45.0,
            "Current_mean": -2.9678117e-07,
            "Current_sigma": 2.4187023355716903e-09
        },
        {
            "Time": 108.79988193511963,
            "Voltage": -50.0,
            "Current_mean": -3.0527949e-07,
            "Current_sigma": 5.5428303382748415e-09
        },
        {
            "Time": 114.79629158973694,
            "Voltage": -55.0,
            "Current_mean": -3.0339153e-07,
            "Current_sigma": 5.095899416207115e-09
        },
        {
            "Time": 120.98475456237793,
            "Voltage": -60.0,
            "Current_mean": -3.0097496e-07,
            "Current_sigma": 5.6098034579118705e-09
        },
        {
            "Time": 126.9812023639679,
            "Voltage": -65.0,
            "Current_mean": -3.0217565999999995e-07,
            "Current_sigma": 5.3748113541221185e-09
        },
        {
            "Time": 133.2814438343048,
            "Voltage": -70.0,
            "Current_mean": -3.0498723e-07,
            "Current_sigma": 6.170294778055582e-09
        },
        {
            "Time": 139.27777409553528,
            "Voltage": -75.0,
            "Current_mean": -3.0871650999999997e-07,
            "Current_sigma": 4.682484317848798e-09
        },
        {
            "Time": 145.46617245674133,
            "Voltage": -80.0,
            "Current_mean": -3.0864975e-07,
            "Current_sigma": 5.080205144135427e-09
        },
        {
            "Time": 151.46263885498047,
            "Voltage": -85.0,
            "Current_mean": -3.0912526e-07,
            "Current_sigma": 5.297312085425968e-09
        },
        {
            "Time": 157.7629430294037,
            "Voltage": -90.0,
            "Current_mean": -3.0913988e-07,
            "Current_sigma": 4.836906420388957e-09
        },
        {
            "Time": 163.75960564613342,
            "Voltage": -95.0,
            "Current_mean": -3.1191896e-07,
            "Current_sigma": 5.078093165194988e-09
        },
        {
            "Time": 169.9481086730957,
            "Voltage": -100.0,
            "Current_mean": -3.1301383e-07,
            "Current_sigma": 5.123817301202304e-09
        },
        {
            "Time": 175.94459748268127,
            "Voltage": -105.0,
            "Current_mean": -3.1372205e-07,
            "Current_sigma": 5.161402659597485e-09
        },
        {
            "Time": 182.24496340751648,
            "Voltage": -110.0,
            "Current_mean": -3.1333882999999996e-07,
            "Current_sigma": 4.180932485474977e-09
        },
        {
            "Time": 188.24151515960693,
            "Voltage": -115.0,
            "Current_mean": -3.1625177e-07,
            "Current_sigma": 5.061879130728029e-09
        },
        {
            "Time": 194.557959318161,
            "Voltage": -120.0,
            "Current_mean": -3.1511053e-07,
            "Current_sigma": 4.898559869808668e-09
        },
        {
            "Time": 200.55448174476624,
            "Voltage": -125.0,
            "Current_mean": -3.1856319e-07,
            "Current_sigma": 4.581786917448254e-09
        },
        {
            "Time": 206.55093216896057,
            "Voltage": -130.0,
            "Current_mean": -3.2016557e-07,
            "Current_sigma": 4.2154938633688015e-09
        },
        {
            "Time": 212.54737782478333,
            "Voltage": -135.0,
            "Current_mean": -3.2070236e-07,
            "Current_sigma": 4.933133931731426e-09
        },
        {
            "Time": 218.86372923851013,
            "Voltage": -140.0,
            "Current_mean": -3.2178561e-07,
            "Current_sigma": 4.5145353502769245e-09
        },
        {
            "Time": 225.1321723461151,
            "Voltage": -145.0,
            "Current_mean": -3.212645e-07,
            "Current_sigma": 4.651105745519024e-09
        },
        {
            "Time": 231.27262926101685,
            "Voltage": -150.0,
            "Current_mean": -3.2521332e-07,
            "Current_sigma": 4.150373217145656e-09
        },
        {
            "Time": 237.42914986610413,
            "Voltage": -155.0,
            "Current_mean": -3.2674813e-07,
            "Current_sigma": 4.527655936364866e-09
        },
        {
            "Time": 243.56942558288574,
            "Voltage": -160.0,
            "Current_mean": -3.267282e-07,
            "Current_sigma": 4.040197306815591e-09
        },
        {
            "Time": 249.86988639831543,
            "Voltage": -165.0,
            "Current_mean": -3.2978784e-07,
            "Current_sigma": 3.744429299158943e-09
        },
        {
            "Time": 255.8663935661316,
            "Voltage": -170.0,
            "Current_mean": -3.2936469e-07,
            "Current_sigma": 3.741427449370088e-09
        },
        {
            "Time": 262.054735660553,
            "Voltage": -175.0,
            "Current_mean": -3.2894356e-07,
            "Current_sigma": 3.780077779675968e-09
        },
        {
            "Time": 268.05127358436584,
            "Voltage": -180.0,
            "Current_mean": -3.3132095e-07,
            "Current_sigma": 3.89872355835855e-09
        },
        {
            "Time": 274.2397110462189,
            "Voltage": -185.0,
            "Current_mean": -3.3360272999999997e-07,
            "Current_sigma": 4.62677011662564e-09
        },
        {
            "Time": 280.23633098602295,
            "Voltage": -190.0,
            "Current_mean": -3.3206112000000006e-07,
            "Current_sigma": 3.386519695144262e-09
        },
        {
            "Time": 286.6484658718109,
            "Voltage": -195.0,
            "Current_mean": -3.3446042000000003e-07,
            "Current_sigma": 3.982003819887674e-09
        },
        {
            "Time": 292.64495944976807,
            "Voltage": -200.0,
            "Current_mean": -3.3605702000000005e-07,
            "Current_sigma": 3.5675692494470207e-09
        }
    ]
}