{'measurement': 'measName', 'fields': {'measV_HV2': -50.0, 'measI_HV2': -3.252993e-08, 'settV_HV2': -50.0, 'settI_HV2': 0.0}, 'tags': {'user': 'root'}}
{'measurement': 'measName', 'fields': {'measV_HV2': -50.0, 'measI_HV2': -4.860981e-08, 'settV_HV2': -50.0, 'settI_HV2': 0.0}, 'tags': {'user': 'root'}}
{'measurement': 'measName', 'fields': {'measV_HV2': -50.0, 'measI_HV2': -3.395223e-08, 'settV_HV2': -50.0, 'settI_HV2': 0.0}, 'tags': {'user': 'root'}}
{'measurement': 'measName', 'fields': {'measV_HV2': -50.0, 'measI_HV2': -4.605292e-08, 'settV_HV2': -50.0, 'settI_HV2': 0.0}, 'tags': {'user': 'root'}}
{'measurement': 'measName', 'fields': {'measV_HV2': -50.0, 'measI_HV2': -3.721836e-08, 'settV_HV2': -50.0, 'settI_HV2': 0.0}, 'tags': {'user': 'root'}}
{'measurement': 'measName', 'fields': {'measV_HV2': -50.0, 'measI_HV2': -3.686871e-08, 'settV_HV2': -50.0, 'settI_HV2': 0.0}, 'tags': {'user': 'root'}}
{'measurement': 'measName', 'fields': {'measV_HV2': -50.0, 'measI_HV2': -4.85972e-08, 'settV_HV2': -50.0, 'settI_HV2': 0.0}, 'tags': {'user': 'root'}}
{'measurement': 'measName', 'fields': {'measV_HV2': -50.0, 'measI_HV2': -3.388602e-08, 'settV_HV2': -50.0, 'settI_HV2': 0.0}, 'tags': {'user': 'root'}}
{'measurement': 'measName', 'fields': {'measV_HV2': -50.0, 'measI_HV2': -4.698623e-08, 'settV_HV2': -50.0, 'settI_HV2': 0.0}, 'tags': {'user': 'root'}}
{'measurement': 'measName', 'fields': {'measV_HV2': -50.0, 'measI_HV2': -4.051575e-08, 'settV_HV2': -50.0, 'settI_HV2': 0.0}, 'tags': {'user': 'root'}}
{'measurement': 'measName', 'fields': {'measV_HV2': -50.0, 'measI_HV2': -3.674108e-08, 'settV_HV2': -50.0, 'settI_HV2': 0.0}, 'tags': {'user': 'root'}}
{'measurement': 'measName', 'fields': {'measV_HV2': -50.0, 'measI_HV2': -4.682824e-08, 'settV_HV2': -50.0, 'settI_HV2': 0.0}, 'tags': {'user': 'root'}}
{'measurement': 'measName', 'fields': {'measV_HV2': -50.0, 'measI_HV2': -3.667565e-08, 'settV_HV2': -50.0, 'settI_HV2': 0.0}, 'tags': {'user': 'root'}}
{'measurement': 'measName', 'fields': {'measV_HV2': -50.0, 'measI_HV2': -4.73075e-08, 'settV_HV2': -50.0, 'settI_HV2': 0.0}, 'tags': {'user': 'root'}}
{'measurement': 'measName', 'fields': {'measV_HV2': -50.0, 'measI_HV2': -3.543822e-08, 'settV_HV2': -50.0, 'settI_HV2': 0.0}, 'tags': {'user': 'root'}}
{'measurement': 'measName', 'fields': {'measV_HV2': -50.0, 'measI_HV2': -4.645465e-08, 'settV_HV2': -50.0, 'settI_HV2': 0.0}, 'tags': {'user': 'root'}}
{'measurement': 'measName', 'fields': {'measV_HV2': -50.0, 'measI_HV2': -3.403878e-08, 'settV_HV2': -50.0, 'settI_HV2': 0.0}, 'tags': {'user': 'root'}}
{'measurement': 'measName', 'fields': {'measV_HV2': -50.0, 'measI_HV2': -4.823786e-08, 'settV_HV2': -50.0, 'settI_HV2': 0.0}, 'tags': {'user': 'root'}}
{'measurement': 'measName', 'fields': {'measV_HV2': -50.0, 'measI_HV2': -3.684508e-08, 'settV_HV2': -50.0, 'settI_HV2': 0.0}, 'tags': {'user': 'root'}}
{'measurement': 'measName', 'fields': {'measV_HV2': -50.0, 'measI_HV2': -4.295109e-08, 'settV_HV2': -50.0, 'settI_HV2': 0.0}, 'tags': {'user': 'root'}}
{'measurement': 'measName', 'fields': {'measV_HV2': -50.0, 'measI_HV2': -4.197073e-08, 'settV_HV2': -50.0, 'settI_HV2': 0.0}, 'tags': {'user': 'root'}}
{'measurement': 'measName', 'fields': {'measV_HV2': -50.0, 'measI_HV2': -3.510037e-08, 'settV_HV2': -50.0, 'settI_HV2': 0.0}, 'tags': {'user': 'root'}}
{'measurement': 'measName', 'fields': {'measV_HV2': -50.0, 'measI_HV2': -4.711911e-08, 'settV_HV2': -50.0, 'settI_HV2': 0.0}, 'tags': {'user': 'root'}}
{'measurement': 'measName', 'fields': {'measV_HV2': -50.0, 'measI_HV2': -3.518363e-08, 'settV_HV2': -50.0, 'settI_HV2': 0.0}, 'tags': {'user': 'root'}}
{'measurement': 'measName', 'fields': {'measV_HV2': -50.0, 'measI_HV2': -4.827817e-08, 'settV_HV2': -50.0, 'settI_HV2': 0.0}, 'tags': {'user': 'root'}}
{'measurement': 'measName', 'fields': {'measV_HV2': -50.0, 'measI_HV2': -3.308412e-08, 'settV_HV2': -50.0, 'settI_HV2': 0.0}, 'tags': {'user': 'root'}}
{'measurement': 'measName', 'fields': {'measV_HV2': -50.0, 'measI_HV2': -4.660772e-08, 'settV_HV2': -50.0, 'settI_HV2': 0.0}, 'tags': {'user': 'root'}}
{'measurement': 'measName', 'fields': {'measV_HV2': -50.0, 'measI_HV2': -3.742539e-08, 'settV_HV2': -50.0, 'settI_HV2': 0.0}, 'tags': {'user': 'root'}}
{'measurement': 'measName', 'fields': {'measV_HV2': -50.0, 'measI_HV2': -4.420566e-08, 'settV_HV2': -50.0, 'settI_HV2': 0.0}, 'tags': {'user': 'root'}}
{'measurement': 'measName', 'fields': {'measV_HV2': -50.0, 'measI_HV2': -4.043749e-08, 'settV_HV2': -50.0, 'settI_HV2': 0.0}, 'tags': {'user': 'root'}}
{'measurement': 'measName', 'fields': {'measV_HV2': -50.0, 'measI_HV2': -3.581019e-08, 'settV_HV2': -50.0, 'settI_HV2': 0.0}, 'tags': {'user': 'root'}}
{'measurement': 'measName', 'fields': {'measV_HV2': -50.0, 'measI_HV2': -4.770463e-08, 'settV_HV2': -50.0, 'settI_HV2': 0.0}, 'tags': {'user': 'root'}}
{'measurement': 'measName', 'fields': {'measV_HV2': -50.0, 'measI_HV2': -3.28882e-08, 'settV_HV2': -50.0, 'settI_HV2': 0.0}, 'tags': {'user': 'root'}}
{'measurement': 'measName', 'fields': {'measV_HV2': -50.0, 'measI_HV2': -4.798263e-08, 'settV_HV2': -50.0, 'settI_HV2': 0.0}, 'tags': {'user': 'root'}}
{'measurement': 'measName', 'fields': {'measV_HV2': -50.0, 'measI_HV2': -3.456638e-08, 'settV_HV2': -50.0, 'settI_HV2': 0.0}, 'tags': {'user': 'root'}}
{'measurement': 'measName', 'fields': {'measV_HV2': -50.0, 'measI_HV2': -4.319608e-08, 'settV_HV2': -50.0, 'settI_HV2': 0.0}, 'tags': {'user': 'root'}}
{'measurement': 'measName', 'fields': {'measV_HV2': -50.0, 'measI_HV2': -4.18651e-08, 'settV_HV2': -50.0, 'settI_HV2': 0.0}, 'tags': {'user': 'root'}}
{'measurement': 'measName', 'fields': {'measV_HV2': -50.0, 'measI_HV2': -3.613238e-08, 'settV_HV2': -50.0, 'settI_HV2': 0.0}, 'tags': {'user': 'root'}}
{'measurement': 'measName', 'fields': {'measV_HV2': -50.0, 'measI_HV2': -4.827737e-08, 'settV_HV2': -50.0, 'settI_HV2': 0.0}, 'tags': {'user': 'root'}}
{'measurement': 'measName', 'fields': {'measV_HV2': -50.0, 'measI_HV2': -3.44206e-08, 'settV_HV2': -50.0, 'settI_HV2': 0.0}, 'tags': {'user': 'root'}}
{'measurement': 'measName', 'fields': {'measV_HV2': -50.0, 'measI_HV2': -4.441607e-08, 'settV_HV2': -50.0, 'settI_HV2': 0.0}, 'tags': {'user': 'root'}}
{'measurement': 'measName', 'fields': {'measV_HV2': -50.0, 'measI_HV2': -4.230632e-08, 'settV_HV2': -50.0, 'settI_HV2': 0.0}, 'tags': {'user': 'root'}}
{'measurement': 'measName', 'fields': {'measV_HV2': -50.0, 'measI_HV2': -3.652254e-08, 'settV_HV2': -50.0, 'settI_HV2': 0.0}, 'tags': {'user': 'root'}}
{'measurement': 'measName', 'fields': {'measV_HV2': -50.0, 'measI_HV2': -4.665904e-08, 'settV_HV2': -50.0, 'settI_HV2': 0.0}, 'tags': {'user': 'root'}}
{'measurement': 'measName', 'fields': {'measV_HV2': -50.0, 'measI_HV2': -3.465181e-08, 'settV_HV2': -50.0, 'settI_HV2': 0.0}, 'tags': {'user': 'root'}}
{'measurement': 'measName', 'fields': {'measV_HV2': -50.0, 'measI_HV2': -4.817942e-08, 'settV_HV2': -50.0, 'settI_HV2': 0.0}, 'tags': {'user': 'root'}}
{'measurement': 'measName', 'fields': {'measV_HV2': -50.0, 'measI_HV2': -3.251753e-08, 'settV_HV2': -50.0, 'settI_HV2': 0.0}, 'tags': {'user': 'root'}}
{'measurement': 'measName', 'fields': {'measV_HV2': -50.0, 'measI_HV2': -4.743154e-08, 'settV_HV2': -50.0, 'settI_HV2': 0.0}, 'tags': {'user': 'root'}}
{'measurement': 'measName', 'fields': {'measV_HV2': -50.0, 'measI_HV2': -3.302024e-08, 'settV_HV2': -50.0, 'settI_HV2': 0.0}, 'tags': {'user': 'root'}}
{'measurement': 'measName', 'fields': {'measV_HV2': -50.0, 'measI_HV2': -4.877636e-08, 'settV_HV2': -50.0, 'settI_HV2': 0.0}, 'tags': {'user': 'root'}}
{'measurement': 'measName', 'fields': {'measV_HV2': -50.0, 'measI_HV2': -3.297481e-08, 'settV_HV2': -50.0, 'settI_HV2': 0.0}, 'tags': {'user': 'root'}}
{'measurement': 'measName', 'fields': {'measV_HV2': -50.0, 'measI_HV2': -4.833979e-08, 'settV_HV2': -50.0, 'settI_HV2': 0.0}, 'tags': {'user': 'root'}}
{'measurement': 'measName', 'fields': {'measV_HV2': -50.0, 'measI_HV2': -3.401345e-08, 'settV_HV2': -50.0, 'settI_HV2': 0.0}, 'tags': {'user': 'root'}}
{'measurement': 'measName', 'fields': {'measV_HV2': -50.0, 'measI_HV2': -4.7492e-08, 'settV_HV2': -50.0, 'settI_HV2': 0.0}, 'tags': {'user': 'root'}}
{'measurement': 'measName', 'fields': {'measV_HV2': -50.0, 'measI_HV2': -3.352013e-08, 'settV_HV2': -50.0, 'settI_HV2': 0.0}, 'tags': {'user': 'root'}}
{'measurement': 'measName', 'fields': {'measV_HV2': -50.0, 'measI_HV2': -4.605536e-08, 'settV_HV2': -50.0, 'settI_HV2': 0.0}, 'tags': {'user': 'root'}}
{'measurement': 'measName', 'fields': {'measV_HV2': -50.0, 'measI_HV2': -3.517265e-08, 'settV_HV2': -50.0, 'settI_HV2': 0.0}, 'tags': {'user': 'root'}}
{'measurement': 'measName', 'fields': {'measV_HV2': -50.0, 'measI_HV2': -4.495702e-08, 'settV_HV2': -50.0, 'settI_HV2': 0.0}, 'tags': {'user': 'root'}}
{'measurement': 'measName', 'fields': {'measV_HV2': -50.0, 'measI_HV2': -3.63075e-08, 'settV_HV2': -50.0, 'settI_HV2': 0.0}, 'tags': {'user': 'root'}}
{'measurement': 'measName', 'fields': {'measV_HV2': -50.0, 'measI_HV2': -4.5231e-08, 'settV_HV2': -50.0, 'settI_HV2': 0.0}, 'tags': {'user': 'root'}}
{'measurement': 'measName', 'fields': {'measV_HV2': -50.0, 'measI_HV2': -3.333296e-08, 'settV_HV2': -50.0, 'settI_HV2': 0.0}, 'tags': {'user': 'root'}}
{'measurement': 'measName', 'fields': {'measV_HV2': -50.0, 'measI_HV2': -4.731621e-08, 'settV_HV2': -50.0, 'settI_HV2': 0.0}, 'tags': {'user': 'root'}}
{'measurement': 'measName', 'fields': {'measV_HV2': -50.0, 'measI_HV2': -3.11135e-08, 'settV_HV2': -50.0, 'settI_HV2': 0.0}, 'tags': {'user': 'root'}}
{'measurement': 'measName', 'fields': {'measV_HV2': -50.0, 'measI_HV2': -4.671934e-08, 'settV_HV2': -50.0, 'settI_HV2': 0.0}, 'tags': {'user': 'root'}}
{'measurement': 'measName', 'fields': {'measV_HV2': -50.0, 'measI_HV2': -3.316447e-08, 'settV_HV2': -50.0, 'settI_HV2': 0.0}, 'tags': {'user': 'root'}}
{'measurement': 'measName', 'fields': {'measV_HV2': -50.0, 'measI_HV2': -4.45361e-08, 'settV_HV2': -50.0, 'settI_HV2': 0.0}, 'tags': {'user': 'root'}}
{'measurement': 'measName', 'fields': {'measV_HV2': -50.0, 'measI_HV2': -3.488733e-08, 'settV_HV2': -50.0, 'settI_HV2': 0.0}, 'tags': {'user': 'root'}}
{'measurement': 'measName', 'fields': {'measV_HV2': -50.0, 'measI_HV2': -4.274109e-08, 'settV_HV2': -50.0, 'settI_HV2': 0.0}, 'tags': {'user': 'root'}}
{'measurement': 'measName', 'fields': {'measV_HV2': -50.0, 'measI_HV2': -4.124031e-08, 'settV_HV2': -50.0, 'settI_HV2': 0.0}, 'tags': {'user': 'root'}}
{'measurement': 'measName', 'fields': {'measV_HV2': -50.0, 'measI_HV2': -4.01121e-08, 'settV_HV2': -50.0, 'settI_HV2': 0.0}, 'tags': {'user': 'root'}}
{'measurement': 'measName', 'fields': {'measV_HV2': -50.0, 'measI_HV2': -4.248211e-08, 'settV_HV2': -50.0, 'settI_HV2': 0.0}, 'tags': {'user': 'root'}}
{'measurement': 'measName', 'fields': {'measV_HV2': -50.0, 'measI_HV2': -3.604024e-08, 'settV_HV2': -50.0, 'settI_HV2': 0.0}, 'tags': {'user': 'root'}}
{'measurement': 'measName', 'fields': {'measV_HV2': -50.0, 'measI_HV2': -4.181814e-08, 'settV_HV2': -50.0, 'settI_HV2': 0.0}, 'tags': {'user': 'root'}}
{'measurement': 'measName', 'fields': {'measV_HV2': -50.0, 'measI_HV2': -3.247901e-08, 'settV_HV2': -50.0, 'settI_HV2': 0.0}, 'tags': {'user': 'root'}}
{'measurement': 'measName', 'fields': {'measV_HV2': -50.0, 'measI_HV2': -4.491625e-08, 'settV_HV2': -50.0, 'settI_HV2': 0.0}, 'tags': {'user': 'root'}}
{'measurement': 'measName', 'fields': {'measV_HV2': -50.0, 'measI_HV2': -3.340912e-08, 'settV_HV2': -50.0, 'settI_HV2': 0.0}, 'tags': {'user': 'root'}}
{'measurement': 'measName', 'fields': {'measV_HV2': -50.0, 'measI_HV2': -4.135631e-08, 'settV_HV2': -50.0, 'settI_HV2': 0.0}, 'tags': {'user': 'root'}}
{'measurement': 'measName', 'fields': {'measV_HV2': -50.0, 'measI_HV2': -3.465045e-08, 'settV_HV2': -50.0, 'settI_HV2': 0.0}, 'tags': {'user': 'root'}}
{'measurement': 'measName', 'fields': {'measV_HV2': -50.0, 'measI_HV2': -4.522664e-08, 'settV_HV2': -50.0, 'settI_HV2': 0.0}, 'tags': {'user': 'root'}}
{'measurement': 'measName', 'fields': {'measV_HV2': -50.0, 'measI_HV2': -3.115685e-08, 'settV_HV2': -50.0, 'settI_HV2': 0.0}, 'tags': {'user': 'root'}}
{'measurement': 'measName', 'fields': {'measV_HV2': -50.0, 'measI_HV2': -4.420942e-08, 'settV_HV2': -50.0, 'settI_HV2': 0.0}, 'tags': {'user': 'root'}}
{'measurement': 'measName', 'fields': {'measV_HV2': -50.0, 'measI_HV2': -3.543534e-08, 'settV_HV2': -50.0, 'settI_HV2': 0.0}, 'tags': {'user': 'root'}}
{'measurement': 'measName', 'fields': {'measV_HV2': -50.0, 'measI_HV2': -4.462069e-08, 'settV_HV2': -50.0, 'settI_HV2': 0.0}, 'tags': {'user': 'root'}}
{'measurement': 'measName', 'fields': {'measV_HV2': -50.0, 'measI_HV2': -3.361884e-08, 'settV_HV2': -50.0, 'settI_HV2': 0.0}, 'tags': {'user': 'root'}}
{'measurement': 'measName', 'fields': {'measV_HV2': -50.0, 'measI_HV2': -4.576937e-08, 'settV_HV2': -50.0, 'settI_HV2': 0.0}, 'tags': {'user': 'root'}}
{'measurement': 'measName', 'fields': {'measV_HV2': -50.0, 'measI_HV2': -3.193117e-08, 'settV_HV2': -50.0, 'settI_HV2': 0.0}, 'tags': {'user': 'root'}}
{'measurement': 'measName', 'fields': {'measV_HV2': -50.0, 'measI_HV2': -4.670619e-08, 'settV_HV2': -50.0, 'settI_HV2': 0.0}, 'tags': {'user': 'root'}}
{'measurement': 'measName', 'fields': {'measV_HV2': -50.0, 'measI_HV2': -3.218647e-08, 'settV_HV2': -50.0, 'settI_HV2': 0.0}, 'tags': {'user': 'root'}}
{'measurement': 'measName', 'fields': {'measV_HV2': -50.0, 'measI_HV2': -4.579024e-08, 'settV_HV2': -50.0, 'settI_HV2': 0.0}, 'tags': {'user': 'root'}}
{'measurement': 'measName', 'fields': {'measV_HV2': -50.0, 'measI_HV2': -3.223331e-08, 'settV_HV2': -50.0, 'settI_HV2': 0.0}, 'tags': {'user': 'root'}}
{'measurement': 'measName', 'fields': {'measV_HV2': -50.0, 'measI_HV2': -4.681873e-08, 'settV_HV2': -50.0, 'settI_HV2': 0.0}, 'tags': {'user': 'root'}}
{'measurement': 'measName', 'fields': {'measV_HV2': -50.0, 'measI_HV2': -3.083885e-08, 'settV_HV2': -50.0, 'settI_HV2': 0.0}, 'tags': {'user': 'root'}}
{'measurement': 'measName', 'fields': {'measV_HV2': -50.0, 'measI_HV2': -4.36125e-08, 'settV_HV2': -50.0, 'settI_HV2': 0.0}, 'tags': {'user': 'root'}}
{'measurement': 'measName', 'fields': {'measV_HV2': -50.0, 'measI_HV2': -3.716077e-08, 'settV_HV2': -50.0, 'settI_HV2': 0.0}, 'tags': {'user': 'root'}}
{'measurement': 'measName', 'fields': {'measV_HV2': -50.0, 'measI_HV2': -3.939809e-08, 'settV_HV2': -50.0, 'settI_HV2': 0.0}, 'tags': {'user': 'root'}}
{'measurement': 'measName', 'fields': {'measV_HV2': -50.0, 'measI_HV2': -3.922561e-08, 'settV_HV2': -50.0, 'settI_HV2': 0.0}, 'tags': {'user': 'root'}}
{'measurement': 'measName', 'fields': {'measV_HV2': -50.0, 'measI_HV2': -3.634069e-08, 'settV_HV2': -50.0, 'settI_HV2': 0.0}, 'tags': {'user': 'root'}}
{'measurement': 'measName', 'fields': {'measV_HV2': -50.0, 'measI_HV2': -4.155469e-08, 'settV_HV2': -50.0, 'settI_HV2': 0.0}, 'tags': {'user': 'root'}}
{'measurement': 'measName', 'fields': {'measV_HV2': -50.0, 'measI_HV2': -3.383125e-08, 'settV_HV2': -50.0, 'settI_HV2': 0.0}, 'tags': {'user': 'root'}}
{'measurement': 'measName', 'fields': {'measV_HV2': -50.0, 'measI_HV2': -4.378841e-08, 'settV_HV2': -50.0, 'settI_HV2': 0.0}, 'tags': {'user': 'root'}}
{'measurement': 'measName', 'fields': {'measV_HV2': -50.0, 'measI_HV2': -2.899134e-08, 'settV_HV2': -50.0, 'settI_HV2': 0.0}, 'tags': {'user': 'root'}}
{'measurement': 'measName', 'fields': {'measV_HV2': -50.0, 'measI_HV2': -4.566333e-08, 'settV_HV2': -50.0, 'settI_HV2': 0.0}, 'tags': {'user': 'root'}}
{'measurement': 'measName', 'fields': {'measV_HV2': -50.0, 'measI_HV2': -2.950031e-08, 'settV_HV2': -50.0, 'settI_HV2': 0.0}, 'tags': {'user': 'root'}}
{'measurement': 'measName', 'fields': {'measV_HV2': -50.0, 'measI_HV2': -4.429558e-08, 'settV_HV2': -50.0, 'settI_HV2': 0.0}, 'tags': {'user': 'root'}}
{'measurement': 'measName', 'fields': {'measV_HV2': -50.0, 'measI_HV2': -3.779686e-08, 'settV_HV2': -50.0, 'settI_HV2': 0.0}, 'tags': {'user': 'root'}}
{'measurement': 'measName', 'fields': {'measV_HV2': -50.0, 'measI_HV2': -3.358401e-08, 'settV_HV2': -50.0, 'settI_HV2': 0.0}, 'tags': {'user': 'root'}}
{'measurement': 'measName', 'fields': {'measV_HV2': -50.0, 'measI_HV2': -4.056021e-08, 'settV_HV2': -50.0, 'settI_HV2': 0.0}, 'tags': {'user': 'root'}}
{'measurement': 'measName', 'fields': {'measV_HV2': -50.0, 'measI_HV2': -3.23919e-08, 'settV_HV2': -50.0, 'settI_HV2': 0.0}, 'tags': {'user': 'root'}}
{'measurement': 'measName', 'fields': {'measV_HV2': -50.0, 'measI_HV2': -4.380685e-08, 'settV_HV2': -50.0, 'settI_HV2': 0.0}, 'tags': {'user': 'root'}}
{'measurement': 'measName', 'fields': {'measV_HV2': -50.0, 'measI_HV2': -3.110109e-08, 'settV_HV2': -50.0, 'settI_HV2': 0.0}, 'tags': {'user': 'root'}}
{'measurement': 'measName', 'fields': {'measV_HV2': -50.0, 'measI_HV2': -4.382315e-08, 'settV_HV2': -50.0, 'settI_HV2': 0.0}, 'tags': {'user': 'root'}}
{'measurement': 'measName', 'fields': {'measV_HV2': -50.0, 'measI_HV2': -3.081066e-08, 'settV_HV2': -50.0, 'settI_HV2': 0.0}, 'tags': {'user': 'root'}}
{'measurement': 'measName', 'fields': {'measV_HV2': -50.0, 'measI_HV2': -4.42545e-08, 'settV_HV2': -50.0, 'settI_HV2': 0.0}, 'tags': {'user': 'root'}}
{'measurement': 'measName', 'fields': {'measV_HV2': -50.0, 'measI_HV2': -2.932338e-08, 'settV_HV2': -50.0, 'settI_HV2': 0.0}, 'tags': {'user': 'root'}}
{'measurement': 'measName', 'fields': {'measV_HV2': -50.0, 'measI_HV2': -4.153146e-08, 'settV_HV2': -50.0, 'settI_HV2': 0.0}, 'tags': {'user': 'root'}}
{'measurement': 'measName', 'fields': {'measV_HV2': -50.0, 'measI_HV2': -3.924606e-08, 'settV_HV2': -50.0, 'settI_HV2': 0.0}, 'tags': {'user': 'root'}}
{'measurement': 'measName', 'fields': {'measV_HV2': -50.0, 'measI_HV2': -3.45523e-08, 'settV_HV2': -50.0, 'settI_HV2': 0.0}, 'tags': {'user': 'root'}}
{'measurement': 'measName', 'fields': {'measV_HV2': -50.0, 'measI_HV2': -4.24612e-08, 'settV_HV2': -50.0, 'settI_HV2': 0.0}, 'tags': {'user': 'root'}}
{'measurement': 'measName', 'fields': {'measV_HV2': -50.0, 'measI_HV2': -3.007969e-08, 'settV_HV2': -50.0, 'settI_HV2': 0.0}, 'tags': {'user': 'root'}}
{'measurement': 'measName', 'fields': {'measV_HV2': -50.0, 'measI_HV2': -4.38101e-08, 'settV_HV2': -50.0, 'settI_HV2': 0.0}, 'tags': {'user': 'root'}}
{'measurement': 'measName', 'fields': {'measV_HV2': -50.0, 'measI_HV2': -3.167422e-08, 'settV_HV2': -50.0, 'settI_HV2': 0.0}, 'tags': {'user': 'root'}}
{'measurement': 'measName', 'fields': {'measV_HV2': -50.0, 'measI_HV2': -3.969917e-08, 'settV_HV2': -50.0, 'settI_HV2': 0.0}, 'tags': {'user': 'root'}}

