{
    "connectivity": [{
            "chipType": "RD53A",
            "chips": [{
                    "chipId": 1,
                    "config": "configs/KEKQ17/20UPGFC0013396.json",
                    "enable": 1,
                    "locked": 0,
                    "name": "20UPGFC0013396",
                    "rx": 4,
                    "tx": 1
                }, {
                    "chipId": 2,
                    "config": "configs/KEKQ17/20UPGFC0013428.json",
                    "enable": 1,
                    "locked": 0,
                    "name": "20UPGFC0013428",
                    "rx": 5,
                    "tx": 1
                }, {
                    "chipId": 3,
                    "config": "configs/KEKQ17/20UPGFC0013381.json",
                    "enable": 1,
                    "locked": 0,
                    "name": "20UPGFC0013381",
                    "rx": 6,
                    "tx": 1
                }, {
                    "chipId": 4,
                    "config": "configs/KEKQ17/20UPGFC0013349.json",
                    "enable": 1,
                    "locked": 0,
                    "name": "20UPGFC0013349",
                    "rx": 7,
                    "tx": 1
                }],
            "module": {
                "componentType": "module",
                "serialNumber": "20UPGM20021012"
            },
            "stage": "Testing"
        }],
    "ctrlCfg": {
        "ctrlCfg": {
            "cfg": {
                "cmdPeriod": 6.250000073038109e-9,
                "idle": {
                    "word": 1768515945
                },
                "pulse": {
                    "interval": 500,
                    "word": 1549575846
                },
                "rxActiveLanes": 1,
                "rxPolarity": 0,
                "specNum": 0,
                "spiConfig": 541200,
                "sync": {
                    "interval": 32,
                    "word": 2172551550
                },
                "trigConfig": null,
                "txPolarity": 0
            },
            "type": "spec"
        }
    },
    "ctrlStatus": {
        "channel_configuration": "16x1",
        "fe_chip_type": "RD53A/B",
        "firmware_identifier": "0x4030232",
        "firmware_version": "0x4d9ff6d",
        "fmc_card_type": "Ohio Card (Display Port)",
        "fpga_card": "PLDA XpressK7 325",
        "rx_speed": "640Mbps"
    },
    "exec": "-r configs/controller/specCfg-rd53a-16x1.json -c configs/KEKQ17/connectivity.json -s configs/scans/rd53a/reg_readtemp.json -p ",
    "finishTime": 1661431954,
    "runNumber": 1814,
    "startTime": 1661431952,
    "stopwatch": {
        "analysis": 800,
        "config": 121,
        "processing": 0,
        "scan": 205
    },
    "targetCharge": -1,
    "targetTot": -1,
    "testType": "reg_readtemp",
    "timestamp": "2022-08-25_14:52:32"
}