{
    "Module": {
	"ModuleID": "Paris12",
	"FolderPath": {
	    "Stage1": "/home/itkpix/YARRs/YARR_FELIX_MASTER/data/M6Demonstrator",
		"Stage2": "/home/itkpix/YARRs/YARR_FELIX_MASTER/data/M6Demonstrator_-10degC",
	    "Stage3": "",
	    "Stage4": "",
	    "Stage5": "",
		"Stage6": ""
	},
	"FWB": {
	    "Stage1": "",
	    "Stage2": "",
	    "Stage3": "",
	    "Stage4": "",
	    "Stage5": "",
	    "Stage6": ""
	}, 
	"Temperature": {
	    "Stage1": 1,
	    "Stage2": 1,
	    "Stage3": 1,
	    "Stage4": 1,
	    "Stage5": 1,
	    "Stage6": 1 
	},
	"Type": [ "diff", "lin", "syn" ],
	"FE1": "20UPGFC0012598",
	"FE2": "20UPGFC0012566",
	"FE3": "20UPGFC0012664",
	"FE4": "20UPGFC0012693"
    },
    "PlotConfig": "./PlotConfig.json",
    "OutputFormat": [ ".png", ".pdf" ]
}
