{
	"Modules": [
		"ThinQ10",
		"Paris10",
		"Paris12",
		"SiegenQ1",
		"SiegenQ2"
	],
	"ModulesNames": [
		"ThinQ10",
		"Paris10",
		"Paris12",
		"SiegenQ1",
		"SiegenQ2"
	],
	"FEs": [
		"FE2",
		"FE4"
	],
	"Ignore": {
		"Paris10": [
			"FE4"
		],
		"Paris12": [
			"FE4"
		]
	},
	"Stages": {
		"Stage1": {
			"Name": "CO_{2} at 10#circC"
		},
		"Stage2": {
			"Name": "CO_{2} at -10#circC"
		}
	},
	"Path": "/home/itkpix/module-dossier/Figure/M6Demonstrator_TemperatureComparison",
	"Plots": {
		"NoiseDist": {
			"Title": "Noise",
			"ytitle": "Noise [e]",
			"Data": "Noise[e]",
			"Error": "Stdev[e]",
			"Scan": "",
			"Limits": [
				200,
				130,
				130
			]
		},
		"ThresholdDist": {
			"Title": "Threshold",
			"ytitle": "Threshold [e]",
			"Data": "Threshold[e]",
			"Error": "Stdev[e]",
			"Scan": ""
		},
		"MeanTotDist": {
			"Title": "Mean ToT",
			"ytitle": "Mean ToT [bc]",
			"Data": "MeanTot[bc]",
			"Error": "Stdev[bc]",
			"Scan": ""
		},
		"digitalscan": {
			"Title": "digitalscan occupancy = 0",
			"ytitle": "# of dead pixels",
			"Data": "#dead_pixels",
			"Error": "",
			"Scan": ""
		},
		"analogscan_evolution_0": {
			"Title": "analogscan occupancy = 0",
			"ytitle": "# of not masked dead pixels",
			"Data": "#pixels_nm",
			"Error": "",
			"Scan": ""
		},
		"analogscan_evolution_(0, 98)": {
			"Title": "analogscan, 0 < occupancy < 98",
			"ytitle": "# of inefficient pixels",
			"Data": "#pixels_in_range",
			"Error": "",
			"Scan": ""
		},
		"analogscan_evolution_(97, 103)": {
			"Title": "analogscan, 97 < occupancy < 103",
			"ytitle": "# of good pixels",
			"Data": "#pixels_in_range",
			"Error": "",
			"Scan": ""
		},
		"analogscan_evolution_102": {
			"Title": "analogscan, occupancy > 102",
			"ytitle": "# of noisy pixels",
			"Data": "#pixels_in_range",
			"Error": "",
			"Scan": ""
		},
		"discbumpscan": {
			"Title": "discbumpscan Occupancy = 0",
			"ytitle": "# of 0 hits in not-masked pixels",
			"Data": "#pixels_nm",
			"Error": "",
			"Scan": "",
			"Comment_nm": [
				600,
				600,
				500
			]
		},
		"FE_counter": {
			"Data": "#FEs",
			"Error": "",
			"Scan": "thresholdscan",
			"Limits": 6
		}
	},
	"SumPlots": {
		"digitalscan_notgood": {
			"Title": "digitalscan occupancy < 98 or > 102",
			"ytitle": "# of not good pixels",
			"Data": {
				"digitalscan_evolution_0": "#dead_pixels",
				"digitalscan_evolution_(0, 98)": "#pixels_in_range",
				"digitalscan_evolution_102": "#pixels_in_range"
			},
			"Error": "",
			"Scan": ""
		}
	}
}