2022-03-17 12:37:14 {'measurement': 'measName', 'fields': {'measV_HV': -90.0, 'measI_HV': -9.667608e-08, 'settV_HV': -90.0, 'settI_HV': 0.0}, 'tags': {'user': 'itkpix'}}
2022-03-17 12:37:14 {'measurement': 'measName', 'fields': {'measV_HV': -90.0, 'measI_HV': -1.014716e-07, 'settV_HV': -90.0, 'settI_HV': 0.0}, 'tags': {'user': 'itkpix'}}
2022-03-17 12:37:15 {'measurement': 'measName', 'fields': {'measV_HV': -90.0, 'measI_HV': -1.085969e-07, 'settV_HV': -90.0, 'settI_HV': 0.0}, 'tags': {'user': 'itkpix'}}
2022-03-17 12:37:16 {'measurement': 'measName', 'fields': {'measV_HV': -90.0, 'measI_HV': -1.060484e-07, 'settV_HV': -90.0, 'settI_HV': 0.0}, 'tags': {'user': 'itkpix'}}
2022-03-17 12:37:16 {'measurement': 'measName', 'fields': {'measV_HV': -90.0, 'measI_HV': -1.054068e-07, 'settV_HV': -90.0, 'settI_HV': 0.0}, 'tags': {'user': 'itkpix'}}
2022-03-17 12:37:17 {'measurement': 'measName', 'fields': {'measV_HV': -90.0, 'measI_HV': -9.838868e-08, 'settV_HV': -90.0, 'settI_HV': 0.0}, 'tags': {'user': 'itkpix'}}
2022-03-17 12:37:18 {'measurement': 'measName', 'fields': {'measV_HV': -90.0, 'measI_HV': -1.045069e-07, 'settV_HV': -90.0, 'settI_HV': 0.0}, 'tags': {'user': 'itkpix'}}
2022-03-17 12:37:18 {'measurement': 'measName', 'fields': {'measV_HV': -90.0, 'measI_HV': -1.063038e-07, 'settV_HV': -90.0, 'settI_HV': 0.0}, 'tags': {'user': 'itkpix'}}
2022-03-17 12:37:19 {'measurement': 'measName', 'fields': {'measV_HV': -90.0, 'measI_HV': -1.071639e-07, 'settV_HV': -90.0, 'settI_HV': 0.0}, 'tags': {'user': 'itkpix'}}
2022-03-17 12:37:20 {'measurement': 'measName', 'fields': {'measV_HV': -90.0, 'measI_HV': -1.071578e-07, 'settV_HV': -90.0, 'settI_HV': 0.0}, 'tags': {'user': 'itkpix'}}
2022-03-17 12:37:20 {'measurement': 'measName', 'fields': {'measV_HV': -90.0, 'measI_HV': -1.021485e-07, 'settV_HV': -90.0, 'settI_HV': 0.0}, 'tags': {'user': 'itkpix'}}
2022-03-17 12:37:21 {'measurement': 'measName', 'fields': {'measV_HV': -90.0, 'measI_HV': -9.567955e-08, 'settV_HV': -90.0, 'settI_HV': 0.0}, 'tags': {'user': 'itkpix'}}
2022-03-17 12:37:22 {'measurement': 'measName', 'fields': {'measV_HV': -90.0, 'measI_HV': -1.038191e-07, 'settV_HV': -90.0, 'settI_HV': 0.0}, 'tags': {'user': 'itkpix'}}
2022-03-17 12:37:23 {'measurement': 'measName', 'fields': {'measV_HV': -90.0, 'measI_HV': -9.597177e-08, 'settV_HV': -90.0, 'settI_HV': 0.0}, 'tags': {'user': 'itkpix'}}
2022-03-17 12:37:23 {'measurement': 'measName', 'fields': {'measV_HV': -90.0, 'measI_HV': -9.899435e-08, 'settV_HV': -90.0, 'settI_HV': 0.0}, 'tags': {'user': 'itkpix'}}
2022-03-17 12:37:24 {'measurement': 'measName', 'fields': {'measV_HV': -90.0, 'measI_HV': -9.708821e-08, 'settV_HV': -90.0, 'settI_HV': 0.0}, 'tags': {'user': 'itkpix'}}
2022-03-17 12:37:25 {'measurement': 'measName', 'fields': {'measV_HV': -90.0, 'measI_HV': -1.044058e-07, 'settV_HV': -90.0, 'settI_HV': 0.0}, 'tags': {'user': 'itkpix'}}
2022-03-17 12:37:25 {'measurement': 'measName', 'fields': {'measV_HV': -90.0, 'measI_HV': -1.046884e-07, 'settV_HV': -90.0, 'settI_HV': 0.0}, 'tags': {'user': 'itkpix'}}
2022-03-17 12:37:26 {'measurement': 'measName', 'fields': {'measV_HV': -90.0, 'measI_HV': -9.592477e-08, 'settV_HV': -90.0, 'settI_HV': 0.0}, 'tags': {'user': 'itkpix'}}
2022-03-17 12:37:27 {'measurement': 'measName', 'fields': {'measV_HV': -90.0, 'measI_HV': -1.011584e-07, 'settV_HV': -90.0, 'settI_HV': 0.0}, 'tags': {'user': 'itkpix'}}
2022-03-17 12:37:27 {'measurement': 'measName', 'fields': {'measV_HV': -90.0, 'measI_HV': -1.082446e-07, 'settV_HV': -90.0, 'settI_HV': 0.0}, 'tags': {'user': 'itkpix'}}
2022-03-17 12:37:28 {'measurement': 'measName', 'fields': {'measV_HV': -90.0, 'measI_HV': -1.028945e-07, 'settV_HV': -90.0, 'settI_HV': 0.0}, 'tags': {'user': 'itkpix'}}
2022-03-17 12:37:29 {'measurement': 'measName', 'fields': {'measV_HV': -90.0, 'measI_HV': -9.658693e-08, 'settV_HV': -90.0, 'settI_HV': 0.0}, 'tags': {'user': 'itkpix'}}
2022-03-17 12:37:29 {'measurement': 'measName', 'fields': {'measV_HV': -90.0, 'measI_HV': -1.064864e-07, 'settV_HV': -90.0, 'settI_HV': 0.0}, 'tags': {'user': 'itkpix'}}
2022-03-17 12:37:30 {'measurement': 'measName', 'fields': {'measV_HV': -90.0, 'measI_HV': -1.049413e-07, 'settV_HV': -90.0, 'settI_HV': 0.0}, 'tags': {'user': 'itkpix'}}
2022-03-17 12:37:31 {'measurement': 'measName', 'fields': {'measV_HV': -90.0, 'measI_HV': -9.794056e-08, 'settV_HV': -90.0, 'settI_HV': 0.0}, 'tags': {'user': 'itkpix'}}
2022-03-17 12:37:31 {'measurement': 'measName', 'fields': {'measV_HV': -90.0, 'measI_HV': -1.070881e-07, 'settV_HV': -90.0, 'settI_HV': 0.0}, 'tags': {'user': 'itkpix'}}
2022-03-17 12:37:32 {'measurement': 'measName', 'fields': {'measV_HV': -90.0, 'measI_HV': -9.499932e-08, 'settV_HV': -90.0, 'settI_HV': 0.0}, 'tags': {'user': 'itkpix'}}
2022-03-17 12:37:33 {'measurement': 'measName', 'fields': {'measV_HV': -90.0, 'measI_HV': -1.090103e-07, 'settV_HV': -90.0, 'settI_HV': 0.0}, 'tags': {'user': 'itkpix'}}
2022-03-17 12:37:34 {'measurement': 'measName', 'fields': {'measV_HV': -90.0, 'measI_HV': -9.878718e-08, 'settV_HV': -90.0, 'settI_HV': 0.0}, 'tags': {'user': 'itkpix'}}
2022-03-17 12:37:34 {'measurement': 'measName', 'fields': {'measV_HV': -90.0, 'measI_HV': -9.885031e-08, 'settV_HV': -90.0, 'settI_HV': 0.0}, 'tags': {'user': 'itkpix'}}
2022-03-17 12:37:35 {'measurement': 'measName', 'fields': {'measV_HV': -90.0, 'measI_HV': -1.081352e-07, 'settV_HV': -90.0, 'settI_HV': 0.0}, 'tags': {'user': 'itkpix'}}
2022-03-17 12:37:36 {'measurement': 'measName', 'fields': {'measV_HV': -90.0, 'measI_HV': -1.012652e-07, 'settV_HV': -90.0, 'settI_HV': 0.0}, 'tags': {'user': 'itkpix'}}
2022-03-17 12:37:36 {'measurement': 'measName', 'fields': {'measV_HV': -90.0, 'measI_HV': -9.617726e-08, 'settV_HV': -90.0, 'settI_HV': 0.0}, 'tags': {'user': 'itkpix'}}
2022-03-17 12:37:37 {'measurement': 'measName', 'fields': {'measV_HV': -90.0, 'measI_HV': -9.655221e-08, 'settV_HV': -90.0, 'settI_HV': 0.0}, 'tags': {'user': 'itkpix'}}
2022-03-17 12:37:38 {'measurement': 'measName', 'fields': {'measV_HV': -90.0, 'measI_HV': -9.697312e-08, 'settV_HV': -90.0, 'settI_HV': 0.0}, 'tags': {'user': 'itkpix'}}
2022-03-17 12:37:38 {'measurement': 'measName', 'fields': {'measV_HV': -90.0, 'measI_HV': -9.687662e-08, 'settV_HV': -90.0, 'settI_HV': 0.0}, 'tags': {'user': 'itkpix'}}
2022-03-17 12:37:39 {'measurement': 'measName', 'fields': {'measV_HV': -90.0, 'measI_HV': -9.765137e-08, 'settV_HV': -90.0, 'settI_HV': 0.0}, 'tags': {'user': 'itkpix'}}
2022-03-17 12:37:40 {'measurement': 'measName', 'fields': {'measV_HV': -90.0, 'measI_HV': -1.068343e-07, 'settV_HV': -90.0, 'settI_HV': 0.0}, 'tags': {'user': 'itkpix'}}
2022-03-17 12:37:40 {'measurement': 'measName', 'fields': {'measV_HV': -90.0, 'measI_HV': -1.023779e-07, 'settV_HV': -90.0, 'settI_HV': 0.0}, 'tags': {'user': 'itkpix'}}
2022-03-17 12:37:41 {'measurement': 'measName', 'fields': {'measV_HV': -90.0, 'measI_HV': -9.664505e-08, 'settV_HV': -90.0, 'settI_HV': 0.0}, 'tags': {'user': 'itkpix'}}
2022-03-17 12:37:42 {'measurement': 'measName', 'fields': {'measV_HV': -90.0, 'measI_HV': -1.074709e-07, 'settV_HV': -90.0, 'settI_HV': 0.0}, 'tags': {'user': 'itkpix'}}
2022-03-17 12:37:42 {'measurement': 'measName', 'fields': {'measV_HV': -90.0, 'measI_HV': -1.015751e-07, 'settV_HV': -90.0, 'settI_HV': 0.0}, 'tags': {'user': 'itkpix'}}
2022-03-17 12:37:43 {'measurement': 'measName', 'fields': {'measV_HV': -90.0, 'measI_HV': -9.533723e-08, 'settV_HV': -90.0, 'settI_HV': 0.0}, 'tags': {'user': 'itkpix'}}
2022-03-17 12:37:44 {'measurement': 'measName', 'fields': {'measV_HV': -90.0, 'measI_HV': -1.009186e-07, 'settV_HV': -90.0, 'settI_HV': 0.0}, 'tags': {'user': 'itkpix'}}
2022-03-17 12:37:45 {'measurement': 'measName', 'fields': {'measV_HV': -90.0, 'measI_HV': -1.056436e-07, 'settV_HV': -90.0, 'settI_HV': 0.0}, 'tags': {'user': 'itkpix'}}
2022-03-17 12:37:45 {'measurement': 'measName', 'fields': {'measV_HV': -90.0, 'measI_HV': -9.774915e-08, 'settV_HV': -90.0, 'settI_HV': 0.0}, 'tags': {'user': 'itkpix'}}
2022-03-17 12:37:46 {'measurement': 'measName', 'fields': {'measV_HV': -90.0, 'measI_HV': -9.86857e-08, 'settV_HV': -90.0, 'settI_HV': 0.0}, 'tags': {'user': 'itkpix'}}
2022-03-17 12:37:47 {'measurement': 'measName', 'fields': {'measV_HV': -90.0, 'measI_HV': -9.752145e-08, 'settV_HV': -90.0, 'settI_HV': 0.0}, 'tags': {'user': 'itkpix'}}
2022-03-17 12:37:47 {'measurement': 'measName', 'fields': {'measV_HV': -90.0, 'measI_HV': -9.590988e-08, 'settV_HV': -90.0, 'settI_HV': 0.0}, 'tags': {'user': 'itkpix'}}
2022-03-17 12:37:48 {'measurement': 'measName', 'fields': {'measV_HV': -90.0, 'measI_HV': -9.610007e-08, 'settV_HV': -90.0, 'settI_HV': 0.0}, 'tags': {'user': 'itkpix'}}
2022-03-17 12:37:49 {'measurement': 'measName', 'fields': {'measV_HV': -90.0, 'measI_HV': -9.59759e-08, 'settV_HV': -90.0, 'settI_HV': 0.0}, 'tags': {'user': 'itkpix'}}
2022-03-17 12:37:49 {'measurement': 'measName', 'fields': {'measV_HV': -90.0, 'measI_HV': -9.605588e-08, 'settV_HV': -90.0, 'settI_HV': 0.0}, 'tags': {'user': 'itkpix'}}
2022-03-17 12:37:50 {'measurement': 'measName', 'fields': {'measV_HV': -90.0, 'measI_HV': -9.865975e-08, 'settV_HV': -90.0, 'settI_HV': 0.0}, 'tags': {'user': 'itkpix'}}
2022-03-17 12:37:51 {'measurement': 'measName', 'fields': {'measV_HV': -90.0, 'measI_HV': -1.02814e-07, 'settV_HV': -90.0, 'settI_HV': 0.0}, 'tags': {'user': 'itkpix'}}
2022-03-17 12:37:51 {'measurement': 'measName', 'fields': {'measV_HV': -90.0, 'measI_HV': -1.076269e-07, 'settV_HV': -90.0, 'settI_HV': 0.0}, 'tags': {'user': 'itkpix'}}
2022-03-17 12:37:52 {'measurement': 'measName', 'fields': {'measV_HV': -90.0, 'measI_HV': -1.073364e-07, 'settV_HV': -90.0, 'settI_HV': 0.0}, 'tags': {'user': 'itkpix'}}
2022-03-17 12:37:53 {'measurement': 'measName', 'fields': {'measV_HV': -90.0, 'measI_HV': -1.063722e-07, 'settV_HV': -90.0, 'settI_HV': 0.0}, 'tags': {'user': 'itkpix'}}
2022-03-17 12:37:53 {'measurement': 'measName', 'fields': {'measV_HV': -90.0, 'measI_HV': -9.589787e-08, 'settV_HV': -90.0, 'settI_HV': 0.0}, 'tags': {'user': 'itkpix'}}
2022-03-17 12:37:54 {'measurement': 'measName', 'fields': {'measV_HV': -90.0, 'measI_HV': -1.040304e-07, 'settV_HV': -90.0, 'settI_HV': 0.0}, 'tags': {'user': 'itkpix'}}
2022-03-17 12:37:55 {'measurement': 'measName', 'fields': {'measV_HV': -90.0, 'measI_HV': -1.07428e-07, 'settV_HV': -90.0, 'settI_HV': 0.0}, 'tags': {'user': 'itkpix'}}
2022-03-17 12:37:56 {'measurement': 'measName', 'fields': {'measV_HV': -90.0, 'measI_HV': -9.850871e-08, 'settV_HV': -90.0, 'settI_HV': 0.0}, 'tags': {'user': 'itkpix'}}
2022-03-17 12:37:56 {'measurement': 'measName', 'fields': {'measV_HV': -90.0, 'measI_HV': -9.962515e-08, 'settV_HV': -90.0, 'settI_HV': 0.0}, 'tags': {'user': 'itkpix'}}
2022-03-17 12:37:57 {'measurement': 'measName', 'fields': {'measV_HV': -90.0, 'measI_HV': -1.003007e-07, 'settV_HV': -90.0, 'settI_HV': 0.0}, 'tags': {'user': 'itkpix'}}
2022-03-17 12:37:58 {'measurement': 'measName', 'fields': {'measV_HV': -90.0, 'measI_HV': -1.038258e-07, 'settV_HV': -90.0, 'settI_HV': 0.0}, 'tags': {'user': 'itkpix'}}
2022-03-17 12:37:58 {'measurement': 'measName', 'fields': {'measV_HV': -90.0, 'measI_HV': -9.608402e-08, 'settV_HV': -90.0, 'settI_HV': 0.0}, 'tags': {'user': 'itkpix'}}
2022-03-17 12:37:59 {'measurement': 'measName', 'fields': {'measV_HV': -90.0, 'measI_HV': -1.039116e-07, 'settV_HV': -90.0, 'settI_HV': 0.0}, 'tags': {'user': 'itkpix'}}
2022-03-17 12:38:00 {'measurement': 'measName', 'fields': {'measV_HV': -90.0, 'measI_HV': -1.041052e-07, 'settV_HV': -90.0, 'settI_HV': 0.0}, 'tags': {'user': 'itkpix'}}
2022-03-17 12:38:00 {'measurement': 'measName', 'fields': {'measV_HV': -90.0, 'measI_HV': -9.843562e-08, 'settV_HV': -90.0, 'settI_HV': 0.0}, 'tags': {'user': 'itkpix'}}
2022-03-17 12:38:01 {'measurement': 'measName', 'fields': {'measV_HV': -90.0, 'measI_HV': -1.078538e-07, 'settV_HV': -90.0, 'settI_HV': 0.0}, 'tags': {'user': 'itkpix'}}
2022-03-17 12:38:02 {'measurement': 'measName', 'fields': {'measV_HV': -90.0, 'measI_HV': -9.567294e-08, 'settV_HV': -90.0, 'settI_HV': 0.0}, 'tags': {'user': 'itkpix'}}
2022-03-17 12:38:02 {'measurement': 'measName', 'fields': {'measV_HV': -90.0, 'measI_HV': -1.083934e-07, 'settV_HV': -90.0, 'settI_HV': 0.0}, 'tags': {'user': 'itkpix'}}
2022-03-17 12:38:03 {'measurement': 'measName', 'fields': {'measV_HV': -90.0, 'measI_HV': -9.627873e-08, 'settV_HV': -90.0, 'settI_HV': 0.0}, 'tags': {'user': 'itkpix'}}
2022-03-17 12:38:04 {'measurement': 'measName', 'fields': {'measV_HV': -90.0, 'measI_HV': -1.063042e-07, 'settV_HV': -90.0, 'settI_HV': 0.0}, 'tags': {'user': 'itkpix'}}
2022-03-17 12:38:04 {'measurement': 'measName', 'fields': {'measV_HV': -90.0, 'measI_HV': -9.543166e-08, 'settV_HV': -90.0, 'settI_HV': 0.0}, 'tags': {'user': 'itkpix'}}
2022-03-17 12:38:05 {'measurement': 'measName', 'fields': {'measV_HV': -90.0, 'measI_HV': -1.087492e-07, 'settV_HV': -90.0, 'settI_HV': 0.0}, 'tags': {'user': 'itkpix'}}
2022-03-17 12:38:06 {'measurement': 'measName', 'fields': {'measV_HV': -90.0, 'measI_HV': -9.582025e-08, 'settV_HV': -90.0, 'settI_HV': 0.0}, 'tags': {'user': 'itkpix'}}
2022-03-17 12:38:07 {'measurement': 'measName', 'fields': {'measV_HV': -90.0, 'measI_HV': -1.073578e-07, 'settV_HV': -90.0, 'settI_HV': 0.0}, 'tags': {'user': 'itkpix'}}
2022-03-17 12:38:07 {'measurement': 'measName', 'fields': {'measV_HV': -90.0, 'measI_HV': -9.617844e-08, 'settV_HV': -90.0, 'settI_HV': 0.0}, 'tags': {'user': 'itkpix'}}
2022-03-17 12:38:08 {'measurement': 'measName', 'fields': {'measV_HV': -90.0, 'measI_HV': -1.086988e-07, 'settV_HV': -90.0, 'settI_HV': 0.0}, 'tags': {'user': 'itkpix'}}
2022-03-17 12:38:09 {'measurement': 'measName', 'fields': {'measV_HV': -90.0, 'measI_HV': -9.624245e-08, 'settV_HV': -90.0, 'settI_HV': 0.0}, 'tags': {'user': 'itkpix'}}
2022-03-17 12:38:09 {'measurement': 'measName', 'fields': {'measV_HV': -90.0, 'measI_HV': -1.071548e-07, 'settV_HV': -90.0, 'settI_HV': 0.0}, 'tags': {'user': 'itkpix'}}
2022-03-17 12:38:10 {'measurement': 'measName', 'fields': {'measV_HV': -90.0, 'measI_HV': -1.052863e-07, 'settV_HV': -90.0, 'settI_HV': 0.0}, 'tags': {'user': 'itkpix'}}
2022-03-17 12:38:11 {'measurement': 'measName', 'fields': {'measV_HV': -90.0, 'measI_HV': -1.006687e-07, 'settV_HV': -90.0, 'settI_HV': 0.0}, 'tags': {'user': 'itkpix'}}
2022-03-17 12:38:11 {'measurement': 'measName', 'fields': {'measV_HV': -90.0, 'measI_HV': -1.034164e-07, 'settV_HV': -90.0, 'settI_HV': 0.0}, 'tags': {'user': 'itkpix'}}
2022-03-17 12:38:12 {'measurement': 'measName', 'fields': {'measV_HV': -90.0, 'measI_HV': -9.669212e-08, 'settV_HV': -90.0, 'settI_HV': 0.0}, 'tags': {'user': 'itkpix'}}
2022-03-17 12:38:13 {'measurement': 'measName', 'fields': {'measV_HV': -90.0, 'measI_HV': -1.077396e-07, 'settV_HV': -90.0, 'settI_HV': 0.0}, 'tags': {'user': 'itkpix'}}
2022-03-17 12:38:13 {'measurement': 'measName', 'fields': {'measV_HV': -90.0, 'measI_HV': -9.691524e-08, 'settV_HV': -90.0, 'settI_HV': 0.0}, 'tags': {'user': 'itkpix'}}
2022-03-17 12:38:14 {'measurement': 'measName', 'fields': {'measV_HV': -90.0, 'measI_HV': -1.01601e-07, 'settV_HV': -90.0, 'settI_HV': 0.0}, 'tags': {'user': 'itkpix'}}
2022-03-17 12:38:15 {'measurement': 'measName', 'fields': {'measV_HV': -90.0, 'measI_HV': -1.04266e-07, 'settV_HV': -90.0, 'settI_HV': 0.0}, 'tags': {'user': 'itkpix'}}
2022-03-17 12:38:15 {'measurement': 'measName', 'fields': {'measV_HV': -90.0, 'measI_HV': -9.612847e-08, 'settV_HV': -90.0, 'settI_HV': 0.0}, 'tags': {'user': 'itkpix'}}
2022-03-17 12:38:16 {'measurement': 'measName', 'fields': {'measV_HV': -90.0, 'measI_HV': -1.07858e-07, 'settV_HV': -90.0, 'settI_HV': 0.0}, 'tags': {'user': 'itkpix'}}
2022-03-17 12:38:17 {'measurement': 'measName', 'fields': {'measV_HV': -90.0, 'measI_HV': -9.538713e-08, 'settV_HV': -90.0, 'settI_HV': 0.0}, 'tags': {'user': 'itkpix'}}
2022-03-17 12:38:18 {'measurement': 'measName', 'fields': {'measV_HV': -90.0, 'measI_HV': -1.057409e-07, 'settV_HV': -90.0, 'settI_HV': 0.0}, 'tags': {'user': 'itkpix'}}
2022-03-17 12:38:18 {'measurement': 'measName', 'fields': {'measV_HV': -90.0, 'measI_HV': -1.020619e-07, 'settV_HV': -90.0, 'settI_HV': 0.0}, 'tags': {'user': 'itkpix'}}
2022-03-17 12:38:19 {'measurement': 'measName', 'fields': {'measV_HV': -90.0, 'measI_HV': -9.633276e-08, 'settV_HV': -90.0, 'settI_HV': 0.0}, 'tags': {'user': 'itkpix'}}
2022-03-17 12:38:20 {'measurement': 'measName', 'fields': {'measV_HV': -90.0, 'measI_HV': -1.015437e-07, 'settV_HV': -90.0, 'settI_HV': 0.0}, 'tags': {'user': 'itkpix'}}
2022-03-17 12:38:20 {'measurement': 'measName', 'fields': {'measV_HV': -90.0, 'measI_HV': -1.031754e-07, 'settV_HV': -90.0, 'settI_HV': 0.0}, 'tags': {'user': 'itkpix'}}
2022-03-17 12:38:21 {'measurement': 'measName', 'fields': {'measV_HV': -90.0, 'measI_HV': -1.010808e-07, 'settV_HV': -90.0, 'settI_HV': 0.0}, 'tags': {'user': 'itkpix'}}
2022-03-17 12:38:22 {'measurement': 'measName', 'fields': {'measV_HV': -90.0, 'measI_HV': -9.71397e-08, 'settV_HV': -90.0, 'settI_HV': 0.0}, 'tags': {'user': 'itkpix'}}
2022-03-17 12:38:22 {'measurement': 'measName', 'fields': {'measV_HV': -90.0, 'measI_HV': -1.030385e-07, 'settV_HV': -90.0, 'settI_HV': 0.0}, 'tags': {'user': 'itkpix'}}
2022-03-17 12:38:23 {'measurement': 'measName', 'fields': {'measV_HV': -90.0, 'measI_HV': -1.00013e-07, 'settV_HV': -90.0, 'settI_HV': 0.0}, 'tags': {'user': 'itkpix'}}
2022-03-17 12:38:24 {'measurement': 'measName', 'fields': {'measV_HV': -90.0, 'measI_HV': -9.67305e-08, 'settV_HV': -90.0, 'settI_HV': 0.0}, 'tags': {'user': 'itkpix'}}
2022-03-17 12:38:24 {'measurement': 'measName', 'fields': {'measV_HV': -90.0, 'measI_HV': -9.899471e-08, 'settV_HV': -90.0, 'settI_HV': 0.0}, 'tags': {'user': 'itkpix'}}
2022-03-17 12:38:25 {'measurement': 'measName', 'fields': {'measV_HV': -90.0, 'measI_HV': -1.00945e-07, 'settV_HV': -90.0, 'settI_HV': 0.0}, 'tags': {'user': 'itkpix'}}
2022-03-17 12:38:26 {'measurement': 'measName', 'fields': {'measV_HV': -90.0, 'measI_HV': -1.006075e-07, 'settV_HV': -90.0, 'settI_HV': 0.0}, 'tags': {'user': 'itkpix'}}
2022-03-17 12:38:26 {'measurement': 'measName', 'fields': {'measV_HV': -90.0, 'measI_HV': -1.024799e-07, 'settV_HV': -90.0, 'settI_HV': 0.0}, 'tags': {'user': 'itkpix'}}
2022-03-17 12:38:27 {'measurement': 'measName', 'fields': {'measV_HV': -90.0, 'measI_HV': -1.030043e-07, 'settV_HV': -90.0, 'settI_HV': 0.0}, 'tags': {'user': 'itkpix'}}
2022-03-17 12:38:28 {'measurement': 'measName', 'fields': {'measV_HV': -90.0, 'measI_HV': -9.808166e-08, 'settV_HV': -90.0, 'settI_HV': 0.0}, 'tags': {'user': 'itkpix'}}
2022-03-17 12:38:29 {'measurement': 'measName', 'fields': {'measV_HV': -90.0, 'measI_HV': -1.076917e-07, 'settV_HV': -90.0, 'settI_HV': 0.0}, 'tags': {'user': 'itkpix'}}
2022-03-17 12:38:29 {'measurement': 'measName', 'fields': {'measV_HV': -90.0, 'measI_HV': -9.633854e-08, 'settV_HV': -90.0, 'settI_HV': 0.0}, 'tags': {'user': 'itkpix'}}
2022-03-17 12:38:30 {'measurement': 'measName', 'fields': {'measV_HV': -90.0, 'measI_HV': -1.070597e-07, 'settV_HV': -90.0, 'settI_HV': 0.0}, 'tags': {'user': 'itkpix'}}
2022-03-17 12:38:31 {'measurement': 'measName', 'fields': {'measV_HV': -90.0, 'measI_HV': -9.572128e-08, 'settV_HV': -90.0, 'settI_HV': 0.0}, 'tags': {'user': 'itkpix'}}
2022-03-17 12:38:31 {'measurement': 'measName', 'fields': {'measV_HV': -90.0, 'measI_HV': -1.087561e-07, 'settV_HV': -90.0, 'settI_HV': 0.0}, 'tags': {'user': 'itkpix'}}
2022-03-17 12:38:32 {'measurement': 'measName', 'fields': {'measV_HV': -90.0, 'measI_HV': -9.745339e-08, 'settV_HV': -90.0, 'settI_HV': 0.0}, 'tags': {'user': 'itkpix'}}
2022-03-17 12:38:33 {'measurement': 'measName', 'fields': {'measV_HV': -90.0, 'measI_HV': -1.069337e-07, 'settV_HV': -90.0, 'settI_HV': 0.0}, 'tags': {'user': 'itkpix'}}
2022-03-17 12:38:33 {'measurement': 'measName', 'fields': {'measV_HV': -90.0, 'measI_HV': -9.678696e-08, 'settV_HV': -90.0, 'settI_HV': 0.0}, 'tags': {'user': 'itkpix'}}
2022-03-17 12:38:34 {'measurement': 'measName', 'fields': {'measV_HV': -90.0, 'measI_HV': -1.060792e-07, 'settV_HV': -90.0, 'settI_HV': 0.0}, 'tags': {'user': 'itkpix'}}
2022-03-17 12:38:35 {'measurement': 'measName', 'fields': {'measV_HV': -90.0, 'measI_HV': -9.647792e-08, 'settV_HV': -90.0, 'settI_HV': 0.0}, 'tags': {'user': 'itkpix'}}
2022-03-17 12:38:35 {'measurement': 'measName', 'fields': {'measV_HV': -90.0, 'measI_HV': -1.062088e-07, 'settV_HV': -90.0, 'settI_HV': 0.0}, 'tags': {'user': 'itkpix'}}
2022-03-17 12:38:36 {'measurement': 'measName', 'fields': {'measV_HV': -90.0, 'measI_HV': -1.034053e-07, 'settV_HV': -90.0, 'settI_HV': 0.0}, 'tags': {'user': 'itkpix'}}
2022-03-17 12:38:37 {'measurement': 'measName', 'fields': {'measV_HV': -90.0, 'measI_HV': -9.697673e-08, 'settV_HV': -90.0, 'settI_HV': 0.0}, 'tags': {'user': 'itkpix'}}
2022-03-17 12:38:37 {'measurement': 'measName', 'fields': {'measV_HV': -90.0, 'measI_HV': -1.004967e-07, 'settV_HV': -90.0, 'settI_HV': 0.0}, 'tags': {'user': 'itkpix'}}
2022-03-17 12:38:38 {'measurement': 'measName', 'fields': {'measV_HV': -90.0, 'measI_HV': -9.857682e-08, 'settV_HV': -90.0, 'settI_HV': 0.0}, 'tags': {'user': 'itkpix'}}
2022-03-17 12:38:39 {'measurement': 'measName', 'fields': {'measV_HV': -90.0, 'measI_HV': -9.968658e-08, 'settV_HV': -90.0, 'settI_HV': 0.0}, 'tags': {'user': 'itkpix'}}
2022-03-17 12:38:40 {'measurement': 'measName', 'fields': {'measV_HV': -90.0, 'measI_HV': -1.013325e-07, 'settV_HV': -90.0, 'settI_HV': 0.0}, 'tags': {'user': 'itkpix'}}
2022-03-17 12:38:40 {'measurement': 'measName', 'fields': {'measV_HV': -90.0, 'measI_HV': -1.034955e-07, 'settV_HV': -90.0, 'settI_HV': 0.0}, 'tags': {'user': 'itkpix'}}
2022-03-17 12:38:41 {'measurement': 'measName', 'fields': {'measV_HV': -90.0, 'measI_HV': -9.766909e-08, 'settV_HV': -90.0, 'settI_HV': 0.0}, 'tags': {'user': 'itkpix'}}
2022-03-17 12:38:42 {'measurement': 'measName', 'fields': {'measV_HV': -90.0, 'measI_HV': -1.049397e-07, 'settV_HV': -90.0, 'settI_HV': 0.0}, 'tags': {'user': 'itkpix'}}
2022-03-17 12:38:42 {'measurement': 'measName', 'fields': {'measV_HV': -90.0, 'measI_HV': -9.893536e-08, 'settV_HV': -90.0, 'settI_HV': 0.0}, 'tags': {'user': 'itkpix'}}
2022-03-17 12:38:43 {'measurement': 'measName', 'fields': {'measV_HV': -90.0, 'measI_HV': -1.040634e-07, 'settV_HV': -90.0, 'settI_HV': 0.0}, 'tags': {'user': 'itkpix'}}
2022-03-17 12:38:44 {'measurement': 'measName', 'fields': {'measV_HV': -90.0, 'measI_HV': -9.767988e-08, 'settV_HV': -90.0, 'settI_HV': 0.0}, 'tags': {'user': 'itkpix'}}
2022-03-17 12:38:44 {'measurement': 'measName', 'fields': {'measV_HV': -90.0, 'measI_HV': -1.069651e-07, 'settV_HV': -90.0, 'settI_HV': 0.0}, 'tags': {'user': 'itkpix'}}
2022-03-17 12:38:45 {'measurement': 'measName', 'fields': {'measV_HV': -90.0, 'measI_HV': -1.011084e-07, 'settV_HV': -90.0, 'settI_HV': 0.0}, 'tags': {'user': 'itkpix'}}
2022-03-17 12:38:46 {'measurement': 'measName', 'fields': {'measV_HV': -90.0, 'measI_HV': -1.009352e-07, 'settV_HV': -90.0, 'settI_HV': 0.0}, 'tags': {'user': 'itkpix'}}
2022-03-17 12:38:46 {'measurement': 'measName', 'fields': {'measV_HV': -90.0, 'measI_HV': -1.046769e-07, 'settV_HV': -90.0, 'settI_HV': 0.0}, 'tags': {'user': 'itkpix'}}
2022-03-17 12:38:47 {'measurement': 'measName', 'fields': {'measV_HV': -90.0, 'measI_HV': -9.850711e-08, 'settV_HV': -90.0, 'settI_HV': 0.0}, 'tags': {'user': 'itkpix'}}
2022-03-17 12:38:48 {'measurement': 'measName', 'fields': {'measV_HV': -90.0, 'measI_HV': -1.071677e-07, 'settV_HV': -90.0, 'settI_HV': 0.0}, 'tags': {'user': 'itkpix'}}
2022-03-17 12:38:48 {'measurement': 'measName', 'fields': {'measV_HV': -90.0, 'measI_HV': -9.628772e-08, 'settV_HV': -90.0, 'settI_HV': 0.0}, 'tags': {'user': 'itkpix'}}
2022-03-17 12:38:49 {'measurement': 'measName', 'fields': {'measV_HV': -90.0, 'measI_HV': -1.071697e-07, 'settV_HV': -90.0, 'settI_HV': 0.0}, 'tags': {'user': 'itkpix'}}
2022-03-17 12:38:50 {'measurement': 'measName', 'fields': {'measV_HV': -90.0, 'measI_HV': -9.641144e-08, 'settV_HV': -90.0, 'settI_HV': 0.0}, 'tags': {'user': 'itkpix'}}
2022-03-17 12:38:50 {'measurement': 'measName', 'fields': {'measV_HV': -90.0, 'measI_HV': -1.074132e-07, 'settV_HV': -90.0, 'settI_HV': 0.0}, 'tags': {'user': 'itkpix'}}
2022-03-17 12:38:51 {'measurement': 'measName', 'fields': {'measV_HV': -90.0, 'measI_HV': -9.817452e-08, 'settV_HV': -90.0, 'settI_HV': 0.0}, 'tags': {'user': 'itkpix'}}
2022-03-17 12:38:52 {'measurement': 'measName', 'fields': {'measV_HV': -90.0, 'measI_HV': -1.077139e-07, 'settV_HV': -90.0, 'settI_HV': 0.0}, 'tags': {'user': 'itkpix'}}
2022-03-17 12:38:53 {'measurement': 'measName', 'fields': {'measV_HV': -90.0, 'measI_HV': -9.607029e-08, 'settV_HV': -90.0, 'settI_HV': 0.0}, 'tags': {'user': 'itkpix'}}
2022-03-17 12:38:53 {'measurement': 'measName', 'fields': {'measV_HV': -90.0, 'measI_HV': -1.079512e-07, 'settV_HV': -90.0, 'settI_HV': 0.0}, 'tags': {'user': 'itkpix'}}
2022-03-17 12:38:54 {'measurement': 'measName', 'fields': {'measV_HV': -90.0, 'measI_HV': -9.785682e-08, 'settV_HV': -90.0, 'settI_HV': 0.0}, 'tags': {'user': 'itkpix'}}
2022-03-17 12:38:55 {'measurement': 'measName', 'fields': {'measV_HV': -90.0, 'measI_HV': -1.049149e-07, 'settV_HV': -90.0, 'settI_HV': 0.0}, 'tags': {'user': 'itkpix'}}
2022-03-17 12:38:55 {'measurement': 'measName', 'fields': {'measV_HV': -90.0, 'measI_HV': -1.005629e-07, 'settV_HV': -90.0, 'settI_HV': 0.0}, 'tags': {'user': 'itkpix'}}
2022-03-17 12:38:56 {'measurement': 'measName', 'fields': {'measV_HV': -90.0, 'measI_HV': -1.008073e-07, 'settV_HV': -90.0, 'settI_HV': 0.0}, 'tags': {'user': 'itkpix'}}
2022-03-17 12:38:57 {'measurement': 'measName', 'fields': {'measV_HV': -90.0, 'measI_HV': -1.036401e-07, 'settV_HV': -90.0, 'settI_HV': 0.0}, 'tags': {'user': 'itkpix'}}
2022-03-17 12:38:57 {'measurement': 'measName', 'fields': {'measV_HV': -90.0, 'measI_HV': -9.9072e-08, 'settV_HV': -90.0, 'settI_HV': 0.0}, 'tags': {'user': 'itkpix'}}
2022-03-17 12:38:58 {'measurement': 'measName', 'fields': {'measV_HV': -90.0, 'measI_HV': -1.051641e-07, 'settV_HV': -90.0, 'settI_HV': 0.0}, 'tags': {'user': 'itkpix'}}
2022-03-17 12:38:59 {'measurement': 'measName', 'fields': {'measV_HV': -90.0, 'measI_HV': -1.007289e-07, 'settV_HV': -90.0, 'settI_HV': 0.0}, 'tags': {'user': 'itkpix'}}
2022-03-17 12:38:59 {'measurement': 'measName', 'fields': {'measV_HV': -90.0, 'measI_HV': -1.045023e-07, 'settV_HV': -90.0, 'settI_HV': 0.0}, 'tags': {'user': 'itkpix'}}
2022-03-17 12:39:00 {'measurement': 'measName', 'fields': {'measV_HV': -90.0, 'measI_HV': -9.973285e-08, 'settV_HV': -90.0, 'settI_HV': 0.0}, 'tags': {'user': 'itkpix'}}
2022-03-17 12:39:01 {'measurement': 'measName', 'fields': {'measV_HV': -90.0, 'measI_HV': -9.927199e-08, 'settV_HV': -90.0, 'settI_HV': 0.0}, 'tags': {'user': 'itkpix'}}
2022-03-17 12:39:01 {'measurement': 'measName', 'fields': {'measV_HV': -90.0, 'measI_HV': -1.067951e-07, 'settV_HV': -90.0, 'settI_HV': 0.0}, 'tags': {'user': 'itkpix'}}
2022-03-17 12:39:02 {'measurement': 'measName', 'fields': {'measV_HV': -90.0, 'measI_HV': -9.759191e-08, 'settV_HV': -90.0, 'settI_HV': 0.0}, 'tags': {'user': 'itkpix'}}
2022-03-17 12:39:03 {'measurement': 'measName', 'fields': {'measV_HV': -90.0, 'measI_HV': -1.07435e-07, 'settV_HV': -90.0, 'settI_HV': 0.0}, 'tags': {'user': 'itkpix'}}
2022-03-17 12:39:04 {'measurement': 'measName', 'fields': {'measV_HV': -90.0, 'measI_HV': -9.593088e-08, 'settV_HV': -90.0, 'settI_HV': 0.0}, 'tags': {'user': 'itkpix'}}
2022-03-17 12:39:04 {'measurement': 'measName', 'fields': {'measV_HV': -90.0, 'measI_HV': -1.068214e-07, 'settV_HV': -90.0, 'settI_HV': 0.0}, 'tags': {'user': 'itkpix'}}
2022-03-17 12:39:05 {'measurement': 'measName', 'fields': {'measV_HV': -90.0, 'measI_HV': -1.022761e-07, 'settV_HV': -90.0, 'settI_HV': 0.0}, 'tags': {'user': 'itkpix'}}
2022-03-17 12:39:06 {'measurement': 'measName', 'fields': {'measV_HV': -90.0, 'measI_HV': -9.636371e-08, 'settV_HV': -90.0, 'settI_HV': 0.0}, 'tags': {'user': 'itkpix'}}
2022-03-17 12:39:06 {'measurement': 'measName', 'fields': {'measV_HV': -90.0, 'measI_HV': -1.090577e-07, 'settV_HV': -90.0, 'settI_HV': 0.0}, 'tags': {'user': 'itkpix'}}
2022-03-17 12:39:07 {'measurement': 'measName', 'fields': {'measV_HV': -90.0, 'measI_HV': -9.866714e-08, 'settV_HV': -90.0, 'settI_HV': 0.0}, 'tags': {'user': 'itkpix'}}
2022-03-17 12:39:08 {'measurement': 'measName', 'fields': {'measV_HV': -90.0, 'measI_HV': -1.027746e-07, 'settV_HV': -90.0, 'settI_HV': 0.0}, 'tags': {'user': 'itkpix'}}
2022-03-17 12:39:08 {'measurement': 'measName', 'fields': {'measV_HV': -90.0, 'measI_HV': -1.069259e-07, 'settV_HV': -90.0, 'settI_HV': 0.0}, 'tags': {'user': 'itkpix'}}
2022-03-17 12:39:09 {'measurement': 'measName', 'fields': {'measV_HV': -90.0, 'measI_HV': -9.72124e-08, 'settV_HV': -90.0, 'settI_HV': 0.0}, 'tags': {'user': 'itkpix'}}
2022-03-17 12:39:10 {'measurement': 'measName', 'fields': {'measV_HV': -90.0, 'measI_HV': -1.001281e-07, 'settV_HV': -90.0, 'settI_HV': 0.0}, 'tags': {'user': 'itkpix'}}
2022-03-17 12:39:10 {'measurement': 'measName', 'fields': {'measV_HV': -90.0, 'measI_HV': -1.065236e-07, 'settV_HV': -90.0, 'settI_HV': 0.0}, 'tags': {'user': 'itkpix'}}
2022-03-17 12:39:11 {'measurement': 'measName', 'fields': {'measV_HV': -90.0, 'measI_HV': -1.05613e-07, 'settV_HV': -90.0, 'settI_HV': 0.0}, 'tags': {'user': 'itkpix'}}
2022-03-17 12:39:12 {'measurement': 'measName', 'fields': {'measV_HV': -90.0, 'measI_HV': -9.92721e-08, 'settV_HV': -90.0, 'settI_HV': 0.0}, 'tags': {'user': 'itkpix'}}
2022-03-17 12:39:12 {'measurement': 'measName', 'fields': {'measV_HV': -90.0, 'measI_HV': -9.657651e-08, 'settV_HV': -90.0, 'settI_HV': 0.0}, 'tags': {'user': 'itkpix'}}
2022-03-17 12:39:13 {'measurement': 'measName', 'fields': {'measV_HV': -90.0, 'measI_HV': -1.053911e-07, 'settV_HV': -90.0, 'settI_HV': 0.0}, 'tags': {'user': 'itkpix'}}
2022-03-17 12:39:14 {'measurement': 'measName', 'fields': {'measV_HV': -90.0, 'measI_HV': -9.880537e-08, 'settV_HV': -90.0, 'settI_HV': 0.0}, 'tags': {'user': 'itkpix'}}
2022-03-17 12:39:15 {'measurement': 'measName', 'fields': {'measV_HV': -90.0, 'measI_HV': -9.805528e-08, 'settV_HV': -90.0, 'settI_HV': 0.0}, 'tags': {'user': 'itkpix'}}
2022-03-17 12:39:15 {'measurement': 'measName', 'fields': {'measV_HV': -90.0, 'measI_HV': -9.566934e-08, 'settV_HV': -90.0, 'settI_HV': 0.0}, 'tags': {'user': 'itkpix'}}
2022-03-17 12:39:16 {'measurement': 'measName', 'fields': {'measV_HV': -90.0, 'measI_HV': -9.835944e-08, 'settV_HV': -90.0, 'settI_HV': 0.0}, 'tags': {'user': 'itkpix'}}
2022-03-17 12:39:17 {'measurement': 'measName', 'fields': {'measV_HV': -90.0, 'measI_HV': -9.881865e-08, 'settV_HV': -90.0, 'settI_HV': 0.0}, 'tags': {'user': 'itkpix'}}
2022-03-17 12:39:17 {'measurement': 'measName', 'fields': {'measV_HV': -90.0, 'measI_HV': -1.072824e-07, 'settV_HV': -90.0, 'settI_HV': 0.0}, 'tags': {'user': 'itkpix'}}
2022-03-17 12:39:18 {'measurement': 'measName', 'fields': {'measV_HV': -90.0, 'measI_HV': -1.066519e-07, 'settV_HV': -90.0, 'settI_HV': 0.0}, 'tags': {'user': 'itkpix'}}
2022-03-17 12:39:19 {'measurement': 'measName', 'fields': {'measV_HV': -90.0, 'measI_HV': -1.043038e-07, 'settV_HV': -90.0, 'settI_HV': 0.0}, 'tags': {'user': 'itkpix'}}
2022-03-17 12:39:19 {'measurement': 'measName', 'fields': {'measV_HV': -90.0, 'measI_HV': -9.807537e-08, 'settV_HV': -90.0, 'settI_HV': 0.0}, 'tags': {'user': 'itkpix'}}
2022-03-17 12:39:20 {'measurement': 'measName', 'fields': {'measV_HV': -90.0, 'measI_HV': -9.511599e-08, 'settV_HV': -90.0, 'settI_HV': 0.0}, 'tags': {'user': 'itkpix'}}
2022-03-17 12:39:21 {'measurement': 'measName', 'fields': {'measV_HV': -90.0, 'measI_HV': -9.695827e-08, 'settV_HV': -90.0, 'settI_HV': 0.0}, 'tags': {'user': 'itkpix'}}
2022-03-17 12:39:21 {'measurement': 'measName', 'fields': {'measV_HV': -90.0, 'measI_HV': -1.049863e-07, 'settV_HV': -90.0, 'settI_HV': 0.0}, 'tags': {'user': 'itkpix'}}
2022-03-17 12:39:22 {'measurement': 'measName', 'fields': {'measV_HV': -90.0, 'measI_HV': -1.005052e-07, 'settV_HV': -90.0, 'settI_HV': 0.0}, 'tags': {'user': 'itkpix'}}
2022-03-17 12:39:23 {'measurement': 'measName', 'fields': {'measV_HV': -90.0, 'measI_HV': -1.057706e-07, 'settV_HV': -90.0, 'settI_HV': 0.0}, 'tags': {'user': 'itkpix'}}
2022-03-17 12:39:23 {'measurement': 'measName', 'fields': {'measV_HV': -90.0, 'measI_HV': -1.003204e-07, 'settV_HV': -90.0, 'settI_HV': 0.0}, 'tags': {'user': 'itkpix'}}
2022-03-17 12:39:24 {'measurement': 'measName', 'fields': {'measV_HV': -90.0, 'measI_HV': -1.009409e-07, 'settV_HV': -90.0, 'settI_HV': 0.0}, 'tags': {'user': 'itkpix'}}
2022-03-17 12:39:25 {'measurement': 'measName', 'fields': {'measV_HV': -90.0, 'measI_HV': -1.056188e-07, 'settV_HV': -90.0, 'settI_HV': 0.0}, 'tags': {'user': 'itkpix'}}
2022-03-17 12:39:26 {'measurement': 'measName', 'fields': {'measV_HV': -90.0, 'measI_HV': -9.983396e-08, 'settV_HV': -90.0, 'settI_HV': 0.0}, 'tags': {'user': 'itkpix'}}
2022-03-17 12:39:26 {'measurement': 'measName', 'fields': {'measV_HV': -90.0, 'measI_HV': -1.042301e-07, 'settV_HV': -90.0, 'settI_HV': 0.0}, 'tags': {'user': 'itkpix'}}
2022-03-17 12:39:27 {'measurement': 'measName', 'fields': {'measV_HV': -90.0, 'measI_HV': -9.741408e-08, 'settV_HV': -90.0, 'settI_HV': 0.0}, 'tags': {'user': 'itkpix'}}
2022-03-17 12:39:28 {'measurement': 'measName', 'fields': {'measV_HV': -90.0, 'measI_HV': -1.077495e-07, 'settV_HV': -90.0, 'settI_HV': 0.0}, 'tags': {'user': 'itkpix'}}
2022-03-17 12:39:28 {'measurement': 'measName', 'fields': {'measV_HV': -90.0, 'measI_HV': -9.663559e-08, 'settV_HV': -90.0, 'settI_HV': 0.0}, 'tags': {'user': 'itkpix'}}
2022-03-17 12:39:29 {'measurement': 'measName', 'fields': {'measV_HV': -90.0, 'measI_HV': -1.060862e-07, 'settV_HV': -90.0, 'settI_HV': 0.0}, 'tags': {'user': 'itkpix'}}
2022-03-17 12:39:30 {'measurement': 'measName', 'fields': {'measV_HV': -90.0, 'measI_HV': -9.817243e-08, 'settV_HV': -90.0, 'settI_HV': 0.0}, 'tags': {'user': 'itkpix'}}
2022-03-17 12:39:30 {'measurement': 'measName', 'fields': {'measV_HV': -90.0, 'measI_HV': -1.060157e-07, 'settV_HV': -90.0, 'settI_HV': 0.0}, 'tags': {'user': 'itkpix'}}
2022-03-17 12:39:31 {'measurement': 'measName', 'fields': {'measV_HV': -90.0, 'measI_HV': -9.799463e-08, 'settV_HV': -90.0, 'settI_HV': 0.0}, 'tags': {'user': 'itkpix'}}
2022-03-17 12:39:32 {'measurement': 'measName', 'fields': {'measV_HV': -90.0, 'measI_HV': -1.026916e-07, 'settV_HV': -90.0, 'settI_HV': 0.0}, 'tags': {'user': 'itkpix'}}
2022-03-17 12:39:32 {'measurement': 'measName', 'fields': {'measV_HV': -90.0, 'measI_HV': -9.840716e-08, 'settV_HV': -90.0, 'settI_HV': 0.0}, 'tags': {'user': 'itkpix'}}
2022-03-17 12:39:33 {'measurement': 'measName', 'fields': {'measV_HV': -90.0, 'measI_HV': -1.059997e-07, 'settV_HV': -90.0, 'settI_HV': 0.0}, 'tags': {'user': 'itkpix'}}
2022-03-17 12:39:34 {'measurement': 'measName', 'fields': {'measV_HV': -90.0, 'measI_HV': -9.826197e-08, 'settV_HV': -90.0, 'settI_HV': 0.0}, 'tags': {'user': 'itkpix'}}
2022-03-17 12:39:34 {'measurement': 'measName', 'fields': {'measV_HV': -90.0, 'measI_HV': -1.042371e-07, 'settV_HV': -90.0, 'settI_HV': 0.0}, 'tags': {'user': 'itkpix'}}
2022-03-17 12:39:35 {'measurement': 'measName', 'fields': {'measV_HV': -90.0, 'measI_HV': -1.036701e-07, 'settV_HV': -90.0, 'settI_HV': 0.0}, 'tags': {'user': 'itkpix'}}
2022-03-17 12:39:36 {'measurement': 'measName', 'fields': {'measV_HV': -90.0, 'measI_HV': -1.016852e-07, 'settV_HV': -90.0, 'settI_HV': 0.0}, 'tags': {'user': 'itkpix'}}
2022-03-17 12:39:37 {'measurement': 'measName', 'fields': {'measV_HV': -90.0, 'measI_HV': -1.052512e-07, 'settV_HV': -90.0, 'settI_HV': 0.0}, 'tags': {'user': 'itkpix'}}
2022-03-17 12:39:37 {'measurement': 'measName', 'fields': {'measV_HV': -90.0, 'measI_HV': -9.598536e-08, 'settV_HV': -90.0, 'settI_HV': 0.0}, 'tags': {'user': 'itkpix'}}
2022-03-17 12:39:38 {'measurement': 'measName', 'fields': {'measV_HV': -90.0, 'measI_HV': -1.069473e-07, 'settV_HV': -90.0, 'settI_HV': 0.0}, 'tags': {'user': 'itkpix'}}
2022-03-17 12:39:39 {'measurement': 'measName', 'fields': {'measV_HV': -90.0, 'measI_HV': -1.013064e-07, 'settV_HV': -90.0, 'settI_HV': 0.0}, 'tags': {'user': 'itkpix'}}
2022-03-17 12:39:39 {'measurement': 'measName', 'fields': {'measV_HV': -90.0, 'measI_HV': -9.771036e-08, 'settV_HV': -90.0, 'settI_HV': 0.0}, 'tags': {'user': 'itkpix'}}
2022-03-17 12:39:40 {'measurement': 'measName', 'fields': {'measV_HV': -90.0, 'measI_HV': -1.091307e-07, 'settV_HV': -90.0, 'settI_HV': 0.0}, 'tags': {'user': 'itkpix'}}
2022-03-17 12:39:41 {'measurement': 'measName', 'fields': {'measV_HV': -90.0, 'measI_HV': -9.715339e-08, 'settV_HV': -90.0, 'settI_HV': 0.0}, 'tags': {'user': 'itkpix'}}
2022-03-17 12:39:41 {'measurement': 'measName', 'fields': {'measV_HV': -90.0, 'measI_HV': -1.062456e-07, 'settV_HV': -90.0, 'settI_HV': 0.0}, 'tags': {'user': 'itkpix'}}
2022-03-17 12:39:42 {'measurement': 'measName', 'fields': {'measV_HV': -90.0, 'measI_HV': -1.000403e-07, 'settV_HV': -90.0, 'settI_HV': 0.0}, 'tags': {'user': 'itkpix'}}
2022-03-17 12:39:43 {'measurement': 'measName', 'fields': {'measV_HV': -90.0, 'measI_HV': -1.013011e-07, 'settV_HV': -90.0, 'settI_HV': 0.0}, 'tags': {'user': 'itkpix'}}
2022-03-17 12:39:43 {'measurement': 'measName', 'fields': {'measV_HV': -90.0, 'measI_HV': -1.067967e-07, 'settV_HV': -90.0, 'settI_HV': 0.0}, 'tags': {'user': 'itkpix'}}
2022-03-17 12:39:44 {'measurement': 'measName', 'fields': {'measV_HV': -90.0, 'measI_HV': -9.765914e-08, 'settV_HV': -90.0, 'settI_HV': 0.0}, 'tags': {'user': 'itkpix'}}
2022-03-17 12:39:45 {'measurement': 'measName', 'fields': {'measV_HV': -90.0, 'measI_HV': -1.02646e-07, 'settV_HV': -90.0, 'settI_HV': 0.0}, 'tags': {'user': 'itkpix'}}
2022-03-17 12:39:45 {'measurement': 'measName', 'fields': {'measV_HV': -90.0, 'measI_HV': -1.0782e-07, 'settV_HV': -90.0, 'settI_HV': 0.0}, 'tags': {'user': 'itkpix'}}
2022-03-17 12:39:46 {'measurement': 'measName', 'fields': {'measV_HV': -90.0, 'measI_HV': -9.731766e-08, 'settV_HV': -90.0, 'settI_HV': 0.0}, 'tags': {'user': 'itkpix'}}
2022-03-17 12:39:47 {'measurement': 'measName', 'fields': {'measV_HV': -90.0, 'measI_HV': -1.00622e-07, 'settV_HV': -90.0, 'settI_HV': 0.0}, 'tags': {'user': 'itkpix'}}
2022-03-17 12:39:48 {'measurement': 'measName', 'fields': {'measV_HV': -90.0, 'measI_HV': -1.068755e-07, 'settV_HV': -90.0, 'settI_HV': 0.0}, 'tags': {'user': 'itkpix'}}
2022-03-17 12:39:48 {'measurement': 'measName', 'fields': {'measV_HV': -90.0, 'measI_HV': -9.5512e-08, 'settV_HV': -90.0, 'settI_HV': 0.0}, 'tags': {'user': 'itkpix'}}
2022-03-17 12:39:49 {'measurement': 'measName', 'fields': {'measV_HV': -90.0, 'measI_HV': -1.054447e-07, 'settV_HV': -90.0, 'settI_HV': 0.0}, 'tags': {'user': 'itkpix'}}
2022-03-17 12:39:50 {'measurement': 'measName', 'fields': {'measV_HV': -90.0, 'measI_HV': -1.054105e-07, 'settV_HV': -90.0, 'settI_HV': 0.0}, 'tags': {'user': 'itkpix'}}
2022-03-17 12:39:50 {'measurement': 'measName', 'fields': {'measV_HV': -90.0, 'measI_HV': -9.596224e-08, 'settV_HV': -90.0, 'settI_HV': 0.0}, 'tags': {'user': 'itkpix'}}
2022-03-17 12:39:51 {'measurement': 'measName', 'fields': {'measV_HV': -90.0, 'measI_HV': -1.061181e-07, 'settV_HV': -90.0, 'settI_HV': 0.0}, 'tags': {'user': 'itkpix'}}
2022-03-17 12:39:52 {'measurement': 'measName', 'fields': {'measV_HV': -90.0, 'measI_HV': -1.049001e-07, 'settV_HV': -90.0, 'settI_HV': 0.0}, 'tags': {'user': 'itkpix'}}
2022-03-17 12:39:52 {'measurement': 'measName', 'fields': {'measV_HV': -90.0, 'measI_HV': -9.557152e-08, 'settV_HV': -90.0, 'settI_HV': 0.0}, 'tags': {'user': 'itkpix'}}
2022-03-17 12:39:53 {'measurement': 'measName', 'fields': {'measV_HV': -90.0, 'measI_HV': -1.02149e-07, 'settV_HV': -90.0, 'settI_HV': 0.0}, 'tags': {'user': 'itkpix'}}
2022-03-17 12:39:54 {'measurement': 'measName', 'fields': {'measV_HV': -90.0, 'measI_HV': -1.079339e-07, 'settV_HV': -90.0, 'settI_HV': 0.0}, 'tags': {'user': 'itkpix'}}
2022-03-17 12:39:54 {'measurement': 'measName', 'fields': {'measV_HV': -90.0, 'measI_HV': -1.022178e-07, 'settV_HV': -90.0, 'settI_HV': 0.0}, 'tags': {'user': 'itkpix'}}
2022-03-17 12:39:55 {'measurement': 'measName', 'fields': {'measV_HV': -90.0, 'measI_HV': -9.684192e-08, 'settV_HV': -90.0, 'settI_HV': 0.0}, 'tags': {'user': 'itkpix'}}
2022-03-17 12:39:56 {'measurement': 'measName', 'fields': {'measV_HV': -90.0, 'measI_HV': -1.0587e-07, 'settV_HV': -90.0, 'settI_HV': 0.0}, 'tags': {'user': 'itkpix'}}
2022-03-17 12:39:56 {'measurement': 'measName', 'fields': {'measV_HV': -90.0, 'measI_HV': -1.0689e-07, 'settV_HV': -90.0, 'settI_HV': 0.0}, 'tags': {'user': 'itkpix'}}
2022-03-17 12:39:57 {'measurement': 'measName', 'fields': {'measV_HV': -90.0, 'measI_HV': -9.670613e-08, 'settV_HV': -90.0, 'settI_HV': 0.0}, 'tags': {'user': 'itkpix'}}
2022-03-17 12:39:58 {'measurement': 'measName', 'fields': {'measV_HV': -90.0, 'measI_HV': -1.024572e-07, 'settV_HV': -90.0, 'settI_HV': 0.0}, 'tags': {'user': 'itkpix'}}
2022-03-17 12:39:59 {'measurement': 'measName', 'fields': {'measV_HV': -90.0, 'measI_HV': -1.088586e-07, 'settV_HV': -90.0, 'settI_HV': 0.0}, 'tags': {'user': 'itkpix'}}
2022-03-17 12:39:59 {'measurement': 'measName', 'fields': {'measV_HV': -90.0, 'measI_HV': -1.002321e-07, 'settV_HV': -90.0, 'settI_HV': 0.0}, 'tags': {'user': 'itkpix'}}
2022-03-17 12:40:00 {'measurement': 'measName', 'fields': {'measV_HV': -90.0, 'measI_HV': -9.787622e-08, 'settV_HV': -90.0, 'settI_HV': 0.0}, 'tags': {'user': 'itkpix'}}
2022-03-17 12:40:01 {'measurement': 'measName', 'fields': {'measV_HV': -90.0, 'measI_HV': -1.083464e-07, 'settV_HV': -90.0, 'settI_HV': 0.0}, 'tags': {'user': 'itkpix'}}
2022-03-17 12:40:01 {'measurement': 'measName', 'fields': {'measV_HV': -90.0, 'measI_HV': -9.775789e-08, 'settV_HV': -90.0, 'settI_HV': 0.0}, 'tags': {'user': 'itkpix'}}
2022-03-17 12:40:02 {'measurement': 'measName', 'fields': {'measV_HV': -90.0, 'measI_HV': -1.019422e-07, 'settV_HV': -90.0, 'settI_HV': 0.0}, 'tags': {'user': 'itkpix'}}
2022-03-17 12:40:03 {'measurement': 'measName', 'fields': {'measV_HV': -90.0, 'measI_HV': -1.083926e-07, 'settV_HV': -90.0, 'settI_HV': 0.0}, 'tags': {'user': 'itkpix'}}
2022-03-17 12:40:03 {'measurement': 'measName', 'fields': {'measV_HV': -90.0, 'measI_HV': -9.823728e-08, 'settV_HV': -90.0, 'settI_HV': 0.0}, 'tags': {'user': 'itkpix'}}
2022-03-17 12:40:04 {'measurement': 'measName', 'fields': {'measV_HV': -90.0, 'measI_HV': -1.010671e-07, 'settV_HV': -90.0, 'settI_HV': 0.0}, 'tags': {'user': 'itkpix'}}
2022-03-17 12:40:05 {'measurement': 'measName', 'fields': {'measV_HV': -90.0, 'measI_HV': -1.062621e-07, 'settV_HV': -90.0, 'settI_HV': 0.0}, 'tags': {'user': 'itkpix'}}
2022-03-17 12:40:05 {'measurement': 'measName', 'fields': {'measV_HV': -90.0, 'measI_HV': -9.677255e-08, 'settV_HV': -90.0, 'settI_HV': 0.0}, 'tags': {'user': 'itkpix'}}
2022-03-17 12:40:06 {'measurement': 'measName', 'fields': {'measV_HV': -90.0, 'measI_HV': -1.063648e-07, 'settV_HV': -90.0, 'settI_HV': 0.0}, 'tags': {'user': 'itkpix'}}
2022-03-17 12:40:07 {'measurement': 'measName', 'fields': {'measV_HV': -90.0, 'measI_HV': -1.026222e-07, 'settV_HV': -90.0, 'settI_HV': 0.0}, 'tags': {'user': 'itkpix'}}
2022-03-17 12:40:07 {'measurement': 'measName', 'fields': {'measV_HV': -90.0, 'measI_HV': -9.785527e-08, 'settV_HV': -90.0, 'settI_HV': 0.0}, 'tags': {'user': 'itkpix'}}
2022-03-17 12:40:08 {'measurement': 'measName', 'fields': {'measV_HV': -90.0, 'measI_HV': -1.058086e-07, 'settV_HV': -90.0, 'settI_HV': 0.0}, 'tags': {'user': 'itkpix'}}
2022-03-17 12:40:09 {'measurement': 'measName', 'fields': {'measV_HV': -90.0, 'measI_HV': -1.063231e-07, 'settV_HV': -90.0, 'settI_HV': 0.0}, 'tags': {'user': 'itkpix'}}
2022-03-17 12:40:10 {'measurement': 'measName', 'fields': {'measV_HV': -90.0, 'measI_HV': -1.086534e-07, 'settV_HV': -90.0, 'settI_HV': 0.0}, 'tags': {'user': 'itkpix'}}
2022-03-17 12:40:10 {'measurement': 'measName', 'fields': {'measV_HV': -90.0, 'measI_HV': -1.064015e-07, 'settV_HV': -90.0, 'settI_HV': 0.0}, 'tags': {'user': 'itkpix'}}
2022-03-17 12:40:11 {'measurement': 'measName', 'fields': {'measV_HV': -90.0, 'measI_HV': -1.037745e-07, 'settV_HV': -90.0, 'settI_HV': 0.0}, 'tags': {'user': 'itkpix'}}
2022-03-17 12:40:12 {'measurement': 'measName', 'fields': {'measV_HV': -90.0, 'measI_HV': -9.67312e-08, 'settV_HV': -90.0, 'settI_HV': 0.0}, 'tags': {'user': 'itkpix'}}
2022-03-17 12:40:12 {'measurement': 'measName', 'fields': {'measV_HV': -90.0, 'measI_HV': -9.681801e-08, 'settV_HV': -90.0, 'settI_HV': 0.0}, 'tags': {'user': 'itkpix'}}
2022-03-17 12:40:13 {'measurement': 'measName', 'fields': {'measV_HV': -90.0, 'measI_HV': -9.681671e-08, 'settV_HV': -90.0, 'settI_HV': 0.0}, 'tags': {'user': 'itkpix'}}
2022-03-17 12:40:14 {'measurement': 'measName', 'fields': {'measV_HV': -90.0, 'measI_HV': -9.752053e-08, 'settV_HV': -90.0, 'settI_HV': 0.0}, 'tags': {'user': 'itkpix'}}
2022-03-17 12:40:14 {'measurement': 'measName', 'fields': {'measV_HV': -90.0, 'measI_HV': -1.000263e-07, 'settV_HV': -90.0, 'settI_HV': 0.0}, 'tags': {'user': 'itkpix'}}
2022-03-17 12:40:15 {'measurement': 'measName', 'fields': {'measV_HV': -90.0, 'measI_HV': -1.081434e-07, 'settV_HV': -90.0, 'settI_HV': 0.0}, 'tags': {'user': 'itkpix'}}
2022-03-17 12:40:16 {'measurement': 'measName', 'fields': {'measV_HV': -90.0, 'measI_HV': -9.998291e-08, 'settV_HV': -90.0, 'settI_HV': 0.0}, 'tags': {'user': 'itkpix'}}
2022-03-17 12:40:16 {'measurement': 'measName', 'fields': {'measV_HV': -90.0, 'measI_HV': -9.80553e-08, 'settV_HV': -90.0, 'settI_HV': 0.0}, 'tags': {'user': 'itkpix'}}
2022-03-17 12:40:17 {'measurement': 'measName', 'fields': {'measV_HV': -90.0, 'measI_HV': -1.076026e-07, 'settV_HV': -90.0, 'settI_HV': 0.0}, 'tags': {'user': 'itkpix'}}
2022-03-17 12:40:18 {'measurement': 'measName', 'fields': {'measV_HV': -90.0, 'measI_HV': -1.005989e-07, 'settV_HV': -90.0, 'settI_HV': 0.0}, 'tags': {'user': 'itkpix'}}
2022-03-17 12:40:18 {'measurement': 'measName', 'fields': {'measV_HV': -90.0, 'measI_HV': -9.814568e-08, 'settV_HV': -90.0, 'settI_HV': 0.0}, 'tags': {'user': 'itkpix'}}
2022-03-17 12:40:19 {'measurement': 'measName', 'fields': {'measV_HV': -90.0, 'measI_HV': -1.07626e-07, 'settV_HV': -90.0, 'settI_HV': 0.0}, 'tags': {'user': 'itkpix'}}
2022-03-17 12:40:20 {'measurement': 'measName', 'fields': {'measV_HV': -90.0, 'measI_HV': -9.65902e-08, 'settV_HV': -90.0, 'settI_HV': 0.0}, 'tags': {'user': 'itkpix'}}
2022-03-17 12:40:21 {'measurement': 'measName', 'fields': {'measV_HV': -90.0, 'measI_HV': -1.041099e-07, 'settV_HV': -90.0, 'settI_HV': 0.0}, 'tags': {'user': 'itkpix'}}
2022-03-17 12:40:21 {'measurement': 'measName', 'fields': {'measV_HV': -90.0, 'measI_HV': -1.070104e-07, 'settV_HV': -90.0, 'settI_HV': 0.0}, 'tags': {'user': 'itkpix'}}
2022-03-17 12:40:22 {'measurement': 'measName', 'fields': {'measV_HV': -90.0, 'measI_HV': -1.087066e-07, 'settV_HV': -90.0, 'settI_HV': 0.0}, 'tags': {'user': 'itkpix'}}
2022-03-17 12:40:23 {'measurement': 'measName', 'fields': {'measV_HV': -90.0, 'measI_HV': -1.068779e-07, 'settV_HV': -90.0, 'settI_HV': 0.0}, 'tags': {'user': 'itkpix'}}
2022-03-17 12:40:23 {'measurement': 'measName', 'fields': {'measV_HV': -90.0, 'measI_HV': -1.037354e-07, 'settV_HV': -90.0, 'settI_HV': 0.0}, 'tags': {'user': 'itkpix'}}
2022-03-17 12:40:24 {'measurement': 'measName', 'fields': {'measV_HV': -90.0, 'measI_HV': -9.677292e-08, 'settV_HV': -90.0, 'settI_HV': 0.0}, 'tags': {'user': 'itkpix'}}
2022-03-17 12:40:25 {'measurement': 'measName', 'fields': {'measV_HV': -90.0, 'measI_HV': -9.624986e-08, 'settV_HV': -90.0, 'settI_HV': 0.0}, 'tags': {'user': 'itkpix'}}
2022-03-17 12:40:25 {'measurement': 'measName', 'fields': {'measV_HV': -90.0, 'measI_HV': -9.53734e-08, 'settV_HV': -90.0, 'settI_HV': 0.0}, 'tags': {'user': 'itkpix'}}
2022-03-17 12:40:26 {'measurement': 'measName', 'fields': {'measV_HV': -90.0, 'measI_HV': -1.008051e-07, 'settV_HV': -90.0, 'settI_HV': 0.0}, 'tags': {'user': 'itkpix'}}
2022-03-17 12:40:27 {'measurement': 'measName', 'fields': {'measV_HV': -90.0, 'measI_HV': -1.069882e-07, 'settV_HV': -90.0, 'settI_HV': 0.0}, 'tags': {'user': 'itkpix'}}
2022-03-17 12:40:27 {'measurement': 'measName', 'fields': {'measV_HV': -90.0, 'measI_HV': -9.898042e-08, 'settV_HV': -90.0, 'settI_HV': 0.0}, 'tags': {'user': 'itkpix'}}
2022-03-17 12:40:28 {'measurement': 'measName', 'fields': {'measV_HV': -90.0, 'measI_HV': -9.894607e-08, 'settV_HV': -90.0, 'settI_HV': 0.0}, 'tags': {'user': 'itkpix'}}
2022-03-17 12:40:29 {'measurement': 'measName', 'fields': {'measV_HV': -90.0, 'measI_HV': -1.07388e-07, 'settV_HV': -90.0, 'settI_HV': 0.0}, 'tags': {'user': 'itkpix'}}
2022-03-17 12:40:29 {'measurement': 'measName', 'fields': {'measV_HV': -90.0, 'measI_HV': -9.587308e-08, 'settV_HV': -90.0, 'settI_HV': 0.0}, 'tags': {'user': 'itkpix'}}
2022-03-17 12:40:30 {'measurement': 'measName', 'fields': {'measV_HV': -90.0, 'measI_HV': -1.028579e-07, 'settV_HV': -90.0, 'settI_HV': 0.0}, 'tags': {'user': 'itkpix'}}
2022-03-17 12:40:31 {'measurement': 'measName', 'fields': {'measV_HV': -90.0, 'measI_HV': -1.023746e-07, 'settV_HV': -90.0, 'settI_HV': 0.0}, 'tags': {'user': 'itkpix'}}
2022-03-17 12:40:32 {'measurement': 'measName', 'fields': {'measV_HV': -90.0, 'measI_HV': -9.671192e-08, 'settV_HV': -90.0, 'settI_HV': 0.0}, 'tags': {'user': 'itkpix'}}
2022-03-17 12:40:32 {'measurement': 'measName', 'fields': {'measV_HV': -90.0, 'measI_HV': -1.065211e-07, 'settV_HV': -90.0, 'settI_HV': 0.0}, 'tags': {'user': 'itkpix'}}
2022-03-17 12:40:33 {'measurement': 'measName', 'fields': {'measV_HV': -90.0, 'measI_HV': -1.068107e-07, 'settV_HV': -90.0, 'settI_HV': 0.0}, 'tags': {'user': 'itkpix'}}
2022-03-17 12:40:34 {'measurement': 'measName', 'fields': {'measV_HV': -90.0, 'measI_HV': -9.590161e-08, 'settV_HV': -90.0, 'settI_HV': 0.0}, 'tags': {'user': 'itkpix'}}
2022-03-17 12:40:34 {'measurement': 'measName', 'fields': {'measV_HV': -90.0, 'measI_HV': -1.007581e-07, 'settV_HV': -90.0, 'settI_HV': 0.0}, 'tags': {'user': 'itkpix'}}
2022-03-17 12:40:35 {'measurement': 'measName', 'fields': {'measV_HV': -90.0, 'measI_HV': -1.055255e-07, 'settV_HV': -90.0, 'settI_HV': 0.0}, 'tags': {'user': 'itkpix'}}
2022-03-17 12:40:36 {'measurement': 'measName', 'fields': {'measV_HV': -90.0, 'measI_HV': -9.644331e-08, 'settV_HV': -90.0, 'settI_HV': 0.0}, 'tags': {'user': 'itkpix'}}
2022-03-17 12:40:36 {'measurement': 'measName', 'fields': {'measV_HV': -90.0, 'measI_HV': -1.084058e-07, 'settV_HV': -90.0, 'settI_HV': 0.0}, 'tags': {'user': 'itkpix'}}
2022-03-17 12:40:37 {'measurement': 'measName', 'fields': {'measV_HV': -90.0, 'measI_HV': -9.668963e-08, 'settV_HV': -90.0, 'settI_HV': 0.0}, 'tags': {'user': 'itkpix'}}
2022-03-17 12:40:38 {'measurement': 'measName', 'fields': {'measV_HV': -90.0, 'measI_HV': -1.012222e-07, 'settV_HV': -90.0, 'settI_HV': 0.0}, 'tags': {'user': 'itkpix'}}
2022-03-17 12:40:38 {'measurement': 'measName', 'fields': {'measV_HV': -90.0, 'measI_HV': -1.08e-07, 'settV_HV': -90.0, 'settI_HV': 0.0}, 'tags': {'user': 'itkpix'}}
2022-03-17 12:40:39 {'measurement': 'measName', 'fields': {'measV_HV': -90.0, 'measI_HV': -9.682494e-08, 'settV_HV': -90.0, 'settI_HV': 0.0}, 'tags': {'user': 'itkpix'}}
2022-03-17 12:40:40 {'measurement': 'measName', 'fields': {'measV_HV': -90.0, 'measI_HV': -1.023516e-07, 'settV_HV': -90.0, 'settI_HV': 0.0}, 'tags': {'user': 'itkpix'}}
2022-03-17 12:40:40 {'measurement': 'measName', 'fields': {'measV_HV': -90.0, 'measI_HV': -1.082061e-07, 'settV_HV': -90.0, 'settI_HV': 0.0}, 'tags': {'user': 'itkpix'}}
2022-03-17 12:40:41 {'measurement': 'measName', 'fields': {'measV_HV': -90.0, 'measI_HV': -9.944574e-08, 'settV_HV': -90.0, 'settI_HV': 0.0}, 'tags': {'user': 'itkpix'}}
2022-03-17 12:40:42 {'measurement': 'measName', 'fields': {'measV_HV': -90.0, 'measI_HV': -9.595148e-08, 'settV_HV': -90.0, 'settI_HV': 0.0}, 'tags': {'user': 'itkpix'}}
2022-03-17 12:40:43 {'measurement': 'measName', 'fields': {'measV_HV': -90.0, 'measI_HV': -1.061907e-07, 'settV_HV': -90.0, 'settI_HV': 0.0}, 'tags': {'user': 'itkpix'}}
2022-03-17 12:40:43 {'measurement': 'measName', 'fields': {'measV_HV': -90.0, 'measI_HV': -1.062859e-07, 'settV_HV': -90.0, 'settI_HV': 0.0}, 'tags': {'user': 'itkpix'}}
2022-03-17 12:40:44 {'measurement': 'measName', 'fields': {'measV_HV': -90.0, 'measI_HV': -9.801682e-08, 'settV_HV': -90.0, 'settI_HV': 0.0}, 'tags': {'user': 'itkpix'}}
2022-03-17 12:40:45 {'measurement': 'measName', 'fields': {'measV_HV': -90.0, 'measI_HV': -1.037181e-07, 'settV_HV': -90.0, 'settI_HV': 0.0}, 'tags': {'user': 'itkpix'}}
2022-03-17 12:40:45 {'measurement': 'measName', 'fields': {'measV_HV': -90.0, 'measI_HV': -1.069634e-07, 'settV_HV': -90.0, 'settI_HV': 0.0}, 'tags': {'user': 'itkpix'}}
2022-03-17 12:40:46 {'measurement': 'measName', 'fields': {'measV_HV': -90.0, 'measI_HV': -9.613923e-08, 'settV_HV': -90.0, 'settI_HV': 0.0}, 'tags': {'user': 'itkpix'}}
2022-03-17 12:40:47 {'measurement': 'measName', 'fields': {'measV_HV': -90.0, 'measI_HV': -9.991685e-08, 'settV_HV': -90.0, 'settI_HV': 0.0}, 'tags': {'user': 'itkpix'}}
2022-03-17 12:40:47 {'measurement': 'measName', 'fields': {'measV_HV': -90.0, 'measI_HV': -1.068813e-07, 'settV_HV': -90.0, 'settI_HV': 0.0}, 'tags': {'user': 'itkpix'}}
2022-03-17 12:40:48 {'measurement': 'measName', 'fields': {'measV_HV': -90.0, 'measI_HV': -9.682001e-08, 'settV_HV': -90.0, 'settI_HV': 0.0}, 'tags': {'user': 'itkpix'}}
2022-03-17 12:40:49 {'measurement': 'measName', 'fields': {'measV_HV': -90.0, 'measI_HV': -1.039643e-07, 'settV_HV': -90.0, 'settI_HV': 0.0}, 'tags': {'user': 'itkpix'}}
2022-03-17 12:40:49 {'measurement': 'measName', 'fields': {'measV_HV': -90.0, 'measI_HV': -1.048535e-07, 'settV_HV': -90.0, 'settI_HV': 0.0}, 'tags': {'user': 'itkpix'}}
2022-03-17 12:40:50 {'measurement': 'measName', 'fields': {'measV_HV': -90.0, 'measI_HV': -9.631255e-08, 'settV_HV': -90.0, 'settI_HV': 0.0}, 'tags': {'user': 'itkpix'}}
2022-03-17 12:40:51 {'measurement': 'measName', 'fields': {'measV_HV': -90.0, 'measI_HV': -9.8184e-08, 'settV_HV': -90.0, 'settI_HV': 0.0}, 'tags': {'user': 'itkpix'}}
2022-03-17 12:40:51 {'measurement': 'measName', 'fields': {'measV_HV': -90.0, 'measI_HV': -9.870676e-08, 'settV_HV': -90.0, 'settI_HV': 0.0}, 'tags': {'user': 'itkpix'}}
2022-03-17 12:40:52 {'measurement': 'measName', 'fields': {'measV_HV': -90.0, 'measI_HV': -9.729901e-08, 'settV_HV': -90.0, 'settI_HV': 0.0}, 'tags': {'user': 'itkpix'}}
2022-03-17 12:40:53 {'measurement': 'measName', 'fields': {'measV_HV': -90.0, 'measI_HV': -9.610044e-08, 'settV_HV': -90.0, 'settI_HV': 0.0}, 'tags': {'user': 'itkpix'}}
2022-03-17 12:40:54 {'measurement': 'measName', 'fields': {'measV_HV': -90.0, 'measI_HV': -1.03888e-07, 'settV_HV': -90.0, 'settI_HV': 0.0}, 'tags': {'user': 'itkpix'}}
2022-03-17 12:40:54 {'measurement': 'measName', 'fields': {'measV_HV': -90.0, 'measI_HV': -9.657123e-08, 'settV_HV': -90.0, 'settI_HV': 0.0}, 'tags': {'user': 'itkpix'}}
2022-03-17 12:40:55 {'measurement': 'measName', 'fields': {'measV_HV': -90.0, 'measI_HV': -1.007656e-07, 'settV_HV': -90.0, 'settI_HV': 0.0}, 'tags': {'user': 'itkpix'}}
2022-03-17 12:40:56 {'measurement': 'measName', 'fields': {'measV_HV': -90.0, 'measI_HV': -1.078393e-07, 'settV_HV': -90.0, 'settI_HV': 0.0}, 'tags': {'user': 'itkpix'}}
2022-03-17 12:40:56 {'measurement': 'measName', 'fields': {'measV_HV': -90.0, 'measI_HV': -1.069361e-07, 'settV_HV': -90.0, 'settI_HV': 0.0}, 'tags': {'user': 'itkpix'}}
2022-03-17 12:40:57 {'measurement': 'measName', 'fields': {'measV_HV': -90.0, 'measI_HV': -9.930945e-08, 'settV_HV': -90.0, 'settI_HV': 0.0}, 'tags': {'user': 'itkpix'}}
2022-03-17 12:40:58 {'measurement': 'measName', 'fields': {'measV_HV': -90.0, 'measI_HV': -9.811059e-08, 'settV_HV': -90.0, 'settI_HV': 0.0}, 'tags': {'user': 'itkpix'}}
2022-03-17 12:40:58 {'measurement': 'measName', 'fields': {'measV_HV': -90.0, 'measI_HV': -1.093556e-07, 'settV_HV': -90.0, 'settI_HV': 0.0}, 'tags': {'user': 'itkpix'}}
2022-03-17 12:40:59 {'measurement': 'measName', 'fields': {'measV_HV': -90.0, 'measI_HV': -9.931983e-08, 'settV_HV': -90.0, 'settI_HV': 0.0}, 'tags': {'user': 'itkpix'}}
2022-03-17 12:41:00 {'measurement': 'measName', 'fields': {'measV_HV': -90.0, 'measI_HV': -9.970027e-08, 'settV_HV': -90.0, 'settI_HV': 0.0}, 'tags': {'user': 'itkpix'}}
2022-03-17 12:41:00 {'measurement': 'measName', 'fields': {'measV_HV': -90.0, 'measI_HV': -1.075134e-07, 'settV_HV': -90.0, 'settI_HV': 0.0}, 'tags': {'user': 'itkpix'}}
2022-03-17 12:41:01 {'measurement': 'measName', 'fields': {'measV_HV': -90.0, 'measI_HV': -9.616561e-08, 'settV_HV': -90.0, 'settI_HV': 0.0}, 'tags': {'user': 'itkpix'}}
2022-03-17 12:41:02 {'measurement': 'measName', 'fields': {'measV_HV': -90.0, 'measI_HV': -1.046892e-07, 'settV_HV': -90.0, 'settI_HV': 0.0}, 'tags': {'user': 'itkpix'}}
2022-03-17 12:41:02 {'measurement': 'measName', 'fields': {'measV_HV': -90.0, 'measI_HV': -1.036872e-07, 'settV_HV': -90.0, 'settI_HV': 0.0}, 'tags': {'user': 'itkpix'}}
2022-03-17 12:41:03 {'measurement': 'measName', 'fields': {'measV_HV': -90.0, 'measI_HV': -9.767653e-08, 'settV_HV': -90.0, 'settI_HV': 0.0}, 'tags': {'user': 'itkpix'}}
2022-03-17 12:41:04 {'measurement': 'measName', 'fields': {'measV_HV': -90.0, 'measI_HV': -1.081942e-07, 'settV_HV': -90.0, 'settI_HV': 0.0}, 'tags': {'user': 'itkpix'}}
2022-03-17 12:41:05 {'measurement': 'measName', 'fields': {'measV_HV': -90.0, 'measI_HV': -1.072865e-07, 'settV_HV': -90.0, 'settI_HV': 0.0}, 'tags': {'user': 'itkpix'}}
2022-03-17 12:41:05 {'measurement': 'measName', 'fields': {'measV_HV': -90.0, 'measI_HV': -1.065372e-07, 'settV_HV': -90.0, 'settI_HV': 0.0}, 'tags': {'user': 'itkpix'}}
2022-03-17 12:41:06 {'measurement': 'measName', 'fields': {'measV_HV': -90.0, 'measI_HV': -1.037106e-07, 'settV_HV': -90.0, 'settI_HV': 0.0}, 'tags': {'user': 'itkpix'}}
2022-03-17 12:41:07 {'measurement': 'measName', 'fields': {'measV_HV': -90.0, 'measI_HV': -9.776642e-08, 'settV_HV': -90.0, 'settI_HV': 0.0}, 'tags': {'user': 'itkpix'}}
2022-03-17 12:41:07 {'measurement': 'measName', 'fields': {'measV_HV': -90.0, 'measI_HV': -1.088959e-07, 'settV_HV': -90.0, 'settI_HV': 0.0}, 'tags': {'user': 'itkpix'}}
2022-03-17 12:41:08 {'measurement': 'measName', 'fields': {'measV_HV': -90.0, 'measI_HV': -9.648829e-08, 'settV_HV': -90.0, 'settI_HV': 0.0}, 'tags': {'user': 'itkpix'}}
2022-03-17 12:41:09 {'measurement': 'measName', 'fields': {'measV_HV': -90.0, 'measI_HV': -1.043039e-07, 'settV_HV': -90.0, 'settI_HV': 0.0}, 'tags': {'user': 'itkpix'}}
2022-03-17 12:41:09 {'measurement': 'measName', 'fields': {'measV_HV': -90.0, 'measI_HV': -1.068034e-07, 'settV_HV': -90.0, 'settI_HV': 0.0}, 'tags': {'user': 'itkpix'}}
2022-03-17 12:41:10 {'measurement': 'measName', 'fields': {'measV_HV': -90.0, 'measI_HV': -9.611818e-08, 'settV_HV': -90.0, 'settI_HV': 0.0}, 'tags': {'user': 'itkpix'}}
2022-03-17 12:41:11 {'measurement': 'measName', 'fields': {'measV_HV': -90.0, 'measI_HV': -1.030988e-07, 'settV_HV': -90.0, 'settI_HV': 0.0}, 'tags': {'user': 'itkpix'}}
2022-03-17 12:41:11 {'measurement': 'measName', 'fields': {'measV_HV': -90.0, 'measI_HV': -1.049742e-07, 'settV_HV': -90.0, 'settI_HV': 0.0}, 'tags': {'user': 'itkpix'}}
2022-03-17 12:41:12 {'measurement': 'measName', 'fields': {'measV_HV': -90.0, 'measI_HV': -9.923779e-08, 'settV_HV': -90.0, 'settI_HV': 0.0}, 'tags': {'user': 'itkpix'}}
2022-03-17 12:41:13 {'measurement': 'measName', 'fields': {'measV_HV': -90.0, 'measI_HV': -1.074354e-07, 'settV_HV': -90.0, 'settI_HV': 0.0}, 'tags': {'user': 'itkpix'}}
2022-03-17 12:41:13 {'measurement': 'measName', 'fields': {'measV_HV': -90.0, 'measI_HV': -9.69891e-08, 'settV_HV': -90.0, 'settI_HV': 0.0}, 'tags': {'user': 'itkpix'}}
2022-03-17 12:41:14 {'measurement': 'measName', 'fields': {'measV_HV': -90.0, 'measI_HV': -9.997052e-08, 'settV_HV': -90.0, 'settI_HV': 0.0}, 'tags': {'user': 'itkpix'}}
2022-03-17 12:41:15 {'measurement': 'measName', 'fields': {'measV_HV': -90.0, 'measI_HV': -1.076467e-07, 'settV_HV': -90.0, 'settI_HV': 0.0}, 'tags': {'user': 'itkpix'}}
2022-03-17 12:41:16 {'measurement': 'measName', 'fields': {'measV_HV': -90.0, 'measI_HV': -9.981617e-08, 'settV_HV': -90.0, 'settI_HV': 0.0}, 'tags': {'user': 'itkpix'}}
2022-03-17 12:41:16 {'measurement': 'measName', 'fields': {'measV_HV': -90.0, 'measI_HV': -9.787457e-08, 'settV_HV': -90.0, 'settI_HV': 0.0}, 'tags': {'user': 'itkpix'}}
2022-03-17 12:41:17 {'measurement': 'measName', 'fields': {'measV_HV': -90.0, 'measI_HV': -1.074655e-07, 'settV_HV': -90.0, 'settI_HV': 0.0}, 'tags': {'user': 'itkpix'}}
2022-03-17 12:41:18 {'measurement': 'measName', 'fields': {'measV_HV': -90.0, 'measI_HV': -1.002481e-07, 'settV_HV': -90.0, 'settI_HV': 0.0}, 'tags': {'user': 'itkpix'}}
2022-03-17 12:41:18 {'measurement': 'measName', 'fields': {'measV_HV': -90.0, 'measI_HV': -1.021481e-07, 'settV_HV': -90.0, 'settI_HV': 0.0}, 'tags': {'user': 'itkpix'}}
2022-03-17 12:41:19 {'measurement': 'measName', 'fields': {'measV_HV': -90.0, 'measI_HV': -1.05483e-07, 'settV_HV': -90.0, 'settI_HV': 0.0}, 'tags': {'user': 'itkpix'}}
2022-03-17 12:41:20 {'measurement': 'measName', 'fields': {'measV_HV': -90.0, 'measI_HV': -9.765836e-08, 'settV_HV': -90.0, 'settI_HV': 0.0}, 'tags': {'user': 'itkpix'}}
2022-03-17 12:41:20 {'measurement': 'measName', 'fields': {'measV_HV': -90.0, 'measI_HV': -1.083984e-07, 'settV_HV': -90.0, 'settI_HV': 0.0}, 'tags': {'user': 'itkpix'}}
2022-03-17 12:41:21 {'measurement': 'measName', 'fields': {'measV_HV': -90.0, 'measI_HV': -1.088481e-07, 'settV_HV': -90.0, 'settI_HV': 0.0}, 'tags': {'user': 'itkpix'}}
2022-03-17 12:41:22 {'measurement': 'measName', 'fields': {'measV_HV': -90.0, 'measI_HV': -1.076534e-07, 'settV_HV': -90.0, 'settI_HV': 0.0}, 'tags': {'user': 'itkpix'}}
2022-03-17 12:41:22 {'measurement': 'measName', 'fields': {'measV_HV': -90.0, 'measI_HV': -9.608974e-08, 'settV_HV': -90.0, 'settI_HV': 0.0}, 'tags': {'user': 'itkpix'}}
2022-03-17 12:41:23 {'measurement': 'measName', 'fields': {'measV_HV': -90.0, 'measI_HV': -1.053313e-07, 'settV_HV': -90.0, 'settI_HV': 0.0}, 'tags': {'user': 'itkpix'}}
2022-03-17 12:41:24 {'measurement': 'measName', 'fields': {'measV_HV': -90.0, 'measI_HV': -1.046186e-07, 'settV_HV': -90.0, 'settI_HV': 0.0}, 'tags': {'user': 'itkpix'}}
2022-03-17 12:41:24 {'measurement': 'measName', 'fields': {'measV_HV': -90.0, 'measI_HV': -1.056171e-07, 'settV_HV': -90.0, 'settI_HV': 0.0}, 'tags': {'user': 'itkpix'}}
2022-03-17 12:41:25 {'measurement': 'measName', 'fields': {'measV_HV': -90.0, 'measI_HV': -9.620269e-08, 'settV_HV': -90.0, 'settI_HV': 0.0}, 'tags': {'user': 'itkpix'}}
2022-03-17 12:41:26 {'measurement': 'measName', 'fields': {'measV_HV': -90.0, 'measI_HV': -1.047189e-07, 'settV_HV': -90.0, 'settI_HV': 0.0}, 'tags': {'user': 'itkpix'}}
2022-03-17 12:41:27 {'measurement': 'measName', 'fields': {'measV_HV': -90.0, 'measI_HV': -1.074412e-07, 'settV_HV': -90.0, 'settI_HV': 0.0}, 'tags': {'user': 'itkpix'}}
2022-03-17 12:41:27 {'measurement': 'measName', 'fields': {'measV_HV': -90.0, 'measI_HV': -1.090395e-07, 'settV_HV': -90.0, 'settI_HV': 0.0}, 'tags': {'user': 'itkpix'}}
2022-03-17 12:41:28 {'measurement': 'measName', 'fields': {'measV_HV': -90.0, 'measI_HV': -1.009743e-07, 'settV_HV': -90.0, 'settI_HV': 0.0}, 'tags': {'user': 'itkpix'}}
2022-03-17 12:41:29 {'measurement': 'measName', 'fields': {'measV_HV': -90.0, 'measI_HV': -9.775533e-08, 'settV_HV': -90.0, 'settI_HV': 0.0}, 'tags': {'user': 'itkpix'}}
2022-03-17 12:41:29 {'measurement': 'measName', 'fields': {'measV_HV': -90.0, 'measI_HV': -1.062604e-07, 'settV_HV': -90.0, 'settI_HV': 0.0}, 'tags': {'user': 'itkpix'}}
2022-03-17 12:41:30 {'measurement': 'measName', 'fields': {'measV_HV': -90.0, 'measI_HV': -1.053159e-07, 'settV_HV': -90.0, 'settI_HV': 0.0}, 'tags': {'user': 'itkpix'}}
2022-03-17 12:41:31 {'measurement': 'measName', 'fields': {'measV_HV': -90.0, 'measI_HV': -9.713973e-08, 'settV_HV': -90.0, 'settI_HV': 0.0}, 'tags': {'user': 'itkpix'}}
2022-03-17 12:41:31 {'measurement': 'measName', 'fields': {'measV_HV': -90.0, 'measI_HV': -9.903614e-08, 'settV_HV': -90.0, 'settI_HV': 0.0}, 'tags': {'user': 'itkpix'}}
2022-03-17 12:41:32 {'measurement': 'measName', 'fields': {'measV_HV': -90.0, 'measI_HV': -1.069729e-07, 'settV_HV': -90.0, 'settI_HV': 0.0}, 'tags': {'user': 'itkpix'}}
2022-03-17 12:41:33 {'measurement': 'measName', 'fields': {'measV_HV': -90.0, 'measI_HV': -1.058091e-07, 'settV_HV': -90.0, 'settI_HV': 0.0}, 'tags': {'user': 'itkpix'}}
2022-03-17 12:41:33 {'measurement': 'measName', 'fields': {'measV_HV': -90.0, 'measI_HV': -9.732632e-08, 'settV_HV': -90.0, 'settI_HV': 0.0}, 'tags': {'user': 'itkpix'}}
2022-03-17 12:41:34 {'measurement': 'measName', 'fields': {'measV_HV': -90.0, 'measI_HV': -9.85648e-08, 'settV_HV': -90.0, 'settI_HV': 0.0}, 'tags': {'user': 'itkpix'}}
2022-03-17 12:41:35 {'measurement': 'measName', 'fields': {'measV_HV': -90.0, 'measI_HV': -1.05743e-07, 'settV_HV': -90.0, 'settI_HV': 0.0}, 'tags': {'user': 'itkpix'}}
2022-03-17 12:41:35 {'measurement': 'measName', 'fields': {'measV_HV': -90.0, 'measI_HV': -1.080159e-07, 'settV_HV': -90.0, 'settI_HV': 0.0}, 'tags': {'user': 'itkpix'}}
2022-03-17 12:41:36 {'measurement': 'measName', 'fields': {'measV_HV': -90.0, 'measI_HV': -1.085923e-07, 'settV_HV': -90.0, 'settI_HV': 0.0}, 'tags': {'user': 'itkpix'}}
2022-03-17 12:41:37 {'measurement': 'measName', 'fields': {'measV_HV': -90.0, 'measI_HV': -1.036037e-07, 'settV_HV': -90.0, 'settI_HV': 0.0}, 'tags': {'user': 'itkpix'}}
2022-03-17 12:41:38 {'measurement': 'measName', 'fields': {'measV_HV': -90.0, 'measI_HV': -1.038344e-07, 'settV_HV': -90.0, 'settI_HV': 0.0}, 'tags': {'user': 'itkpix'}}
2022-03-17 12:41:38 {'measurement': 'measName', 'fields': {'measV_HV': -90.0, 'measI_HV': -1.05391e-07, 'settV_HV': -90.0, 'settI_HV': 0.0}, 'tags': {'user': 'itkpix'}}
2022-03-17 12:41:39 {'measurement': 'measName', 'fields': {'measV_HV': -90.0, 'measI_HV': -1.037692e-07, 'settV_HV': -90.0, 'settI_HV': 0.0}, 'tags': {'user': 'itkpix'}}
2022-03-17 12:41:40 {'measurement': 'measName', 'fields': {'measV_HV': -90.0, 'measI_HV': -9.700114e-08, 'settV_HV': -90.0, 'settI_HV': 0.0}, 'tags': {'user': 'itkpix'}}
2022-03-17 12:41:40 {'measurement': 'measName', 'fields': {'measV_HV': -90.0, 'measI_HV': -1.057718e-07, 'settV_HV': -90.0, 'settI_HV': 0.0}, 'tags': {'user': 'itkpix'}}
2022-03-17 12:41:41 {'measurement': 'measName', 'fields': {'measV_HV': -90.0, 'measI_HV': -1.087012e-07, 'settV_HV': -90.0, 'settI_HV': 0.0}, 'tags': {'user': 'itkpix'}}
2022-03-17 12:41:42 {'measurement': 'measName', 'fields': {'measV_HV': -90.0, 'measI_HV': -1.071606e-07, 'settV_HV': -90.0, 'settI_HV': 0.0}, 'tags': {'user': 'itkpix'}}
2022-03-17 12:41:42 {'measurement': 'measName', 'fields': {'measV_HV': -90.0, 'measI_HV': -1.087998e-07, 'settV_HV': -90.0, 'settI_HV': 0.0}, 'tags': {'user': 'itkpix'}}
2022-03-17 12:41:43 {'measurement': 'measName', 'fields': {'measV_HV': -90.0, 'measI_HV': -1.042291e-07, 'settV_HV': -90.0, 'settI_HV': 0.0}, 'tags': {'user': 'itkpix'}}
2022-03-17 12:41:44 {'measurement': 'measName', 'fields': {'measV_HV': -90.0, 'measI_HV': -9.596593e-08, 'settV_HV': -90.0, 'settI_HV': 0.0}, 'tags': {'user': 'itkpix'}}
2022-03-17 12:41:44 {'measurement': 'measName', 'fields': {'measV_HV': -90.0, 'measI_HV': -1.000576e-07, 'settV_HV': -90.0, 'settI_HV': 0.0}, 'tags': {'user': 'itkpix'}}
2022-03-17 12:41:45 {'measurement': 'measName', 'fields': {'measV_HV': -90.0, 'measI_HV': -1.074371e-07, 'settV_HV': -90.0, 'settI_HV': 0.0}, 'tags': {'user': 'itkpix'}}
2022-03-17 12:41:46 {'measurement': 'measName', 'fields': {'measV_HV': -90.0, 'measI_HV': -1.050206e-07, 'settV_HV': -90.0, 'settI_HV': 0.0}, 'tags': {'user': 'itkpix'}}
2022-03-17 12:41:46 {'measurement': 'measName', 'fields': {'measV_HV': -90.0, 'measI_HV': -9.593047e-08, 'settV_HV': -90.0, 'settI_HV': 0.0}, 'tags': {'user': 'itkpix'}}
2022-03-17 12:41:47 {'measurement': 'measName', 'fields': {'measV_HV': -90.0, 'measI_HV': -1.038022e-07, 'settV_HV': -90.0, 'settI_HV': 0.0}, 'tags': {'user': 'itkpix'}}
2022-03-17 12:41:48 {'measurement': 'measName', 'fields': {'measV_HV': -90.0, 'measI_HV': -1.084066e-07, 'settV_HV': -90.0, 'settI_HV': 0.0}, 'tags': {'user': 'itkpix'}}
2022-03-17 12:41:49 {'measurement': 'measName', 'fields': {'measV_HV': -90.0, 'measI_HV': -1.007553e-07, 'settV_HV': -90.0, 'settI_HV': 0.0}, 'tags': {'user': 'itkpix'}}
2022-03-17 12:41:49 {'measurement': 'measName', 'fields': {'measV_HV': -90.0, 'measI_HV': -9.753214e-08, 'settV_HV': -90.0, 'settI_HV': 0.0}, 'tags': {'user': 'itkpix'}}
2022-03-17 12:41:50 {'measurement': 'measName', 'fields': {'measV_HV': -90.0, 'measI_HV': -1.078768e-07, 'settV_HV': -90.0, 'settI_HV': 0.0}, 'tags': {'user': 'itkpix'}}
2022-03-17 12:41:51 {'measurement': 'measName', 'fields': {'measV_HV': -90.0, 'measI_HV': -1.049801e-07, 'settV_HV': -90.0, 'settI_HV': 0.0}, 'tags': {'user': 'itkpix'}}
2022-03-17 12:41:51 {'measurement': 'measName', 'fields': {'measV_HV': -90.0, 'measI_HV': -9.596512e-08, 'settV_HV': -90.0, 'settI_HV': 0.0}, 'tags': {'user': 'itkpix'}}
2022-03-17 12:41:52 {'measurement': 'measName', 'fields': {'measV_HV': -90.0, 'measI_HV': -1.00581e-07, 'settV_HV': -90.0, 'settI_HV': 0.0}, 'tags': {'user': 'itkpix'}}
2022-03-17 12:41:53 {'measurement': 'measName', 'fields': {'measV_HV': -90.0, 'measI_HV': -1.074647e-07, 'settV_HV': -90.0, 'settI_HV': 0.0}, 'tags': {'user': 'itkpix'}}
2022-03-17 12:41:53 {'measurement': 'measName', 'fields': {'measV_HV': -90.0, 'measI_HV': -1.002927e-07, 'settV_HV': -90.0, 'settI_HV': 0.0}, 'tags': {'user': 'itkpix'}}
2022-03-17 12:41:54 {'measurement': 'measName', 'fields': {'measV_HV': -90.0, 'measI_HV': -1.01941e-07, 'settV_HV': -90.0, 'settI_HV': 0.0}, 'tags': {'user': 'itkpix'}}
2022-03-17 12:41:55 {'measurement': 'measName', 'fields': {'measV_HV': -90.0, 'measI_HV': -1.063016e-07, 'settV_HV': -90.0, 'settI_HV': 0.0}, 'tags': {'user': 'itkpix'}}
2022-03-17 12:41:55 {'measurement': 'measName', 'fields': {'measV_HV': -90.0, 'measI_HV': -9.689009e-08, 'settV_HV': -90.0, 'settI_HV': 0.0}, 'tags': {'user': 'itkpix'}}
2022-03-17 12:41:56 {'measurement': 'measName', 'fields': {'measV_HV': -90.0, 'measI_HV': -1.069361e-07, 'settV_HV': -90.0, 'settI_HV': 0.0}, 'tags': {'user': 'itkpix'}}
2022-03-17 12:41:57 {'measurement': 'measName', 'fields': {'measV_HV': -90.0, 'measI_HV': -1.063743e-07, 'settV_HV': -90.0, 'settI_HV': 0.0}, 'tags': {'user': 'itkpix'}}
2022-03-17 12:41:57 {'measurement': 'measName', 'fields': {'measV_HV': -90.0, 'measI_HV': -9.800373e-08, 'settV_HV': -90.0, 'settI_HV': 0.0}, 'tags': {'user': 'itkpix'}}
2022-03-17 12:41:58 {'measurement': 'measName', 'fields': {'measV_HV': -90.0, 'measI_HV': -9.901042e-08, 'settV_HV': -90.0, 'settI_HV': 0.0}, 'tags': {'user': 'itkpix'}}
2022-03-17 12:41:59 {'measurement': 'measName', 'fields': {'measV_HV': -90.0, 'measI_HV': -1.068367e-07, 'settV_HV': -90.0, 'settI_HV': 0.0}, 'tags': {'user': 'itkpix'}}
2022-03-17 12:42:00 {'measurement': 'measName', 'fields': {'measV_HV': -90.0, 'measI_HV': -1.087029e-07, 'settV_HV': -90.0, 'settI_HV': 0.0}, 'tags': {'user': 'itkpix'}}
2022-03-17 12:42:00 {'measurement': 'measName', 'fields': {'measV_HV': -90.0, 'measI_HV': -1.027319e-07, 'settV_HV': -90.0, 'settI_HV': 0.0}, 'tags': {'user': 'itkpix'}}
2022-03-17 12:42:01 {'measurement': 'measName', 'fields': {'measV_HV': -90.0, 'measI_HV': -9.673291e-08, 'settV_HV': -90.0, 'settI_HV': 0.0}, 'tags': {'user': 'itkpix'}}
2022-03-17 12:42:02 {'measurement': 'measName', 'fields': {'measV_HV': -90.0, 'measI_HV': -9.643256e-08, 'settV_HV': -90.0, 'settI_HV': 0.0}, 'tags': {'user': 'itkpix'}}
2022-03-17 12:42:02 {'measurement': 'measName', 'fields': {'measV_HV': -90.0, 'measI_HV': -9.614537e-08, 'settV_HV': -90.0, 'settI_HV': 0.0}, 'tags': {'user': 'itkpix'}}
2022-03-17 12:42:03 {'measurement': 'measName', 'fields': {'measV_HV': -90.0, 'measI_HV': -9.650234e-08, 'settV_HV': -90.0, 'settI_HV': 0.0}, 'tags': {'user': 'itkpix'}}
2022-03-17 12:42:04 {'measurement': 'measName', 'fields': {'measV_HV': -90.0, 'measI_HV': -9.593133e-08, 'settV_HV': -90.0, 'settI_HV': 0.0}, 'tags': {'user': 'itkpix'}}
2022-03-17 12:42:04 {'measurement': 'measName', 'fields': {'measV_HV': -90.0, 'measI_HV': -1.018981e-07, 'settV_HV': -90.0, 'settI_HV': 0.0}, 'tags': {'user': 'itkpix'}}
2022-03-17 12:42:05 {'measurement': 'measName', 'fields': {'measV_HV': -90.0, 'measI_HV': -1.066062e-07, 'settV_HV': -90.0, 'settI_HV': 0.0}, 'tags': {'user': 'itkpix'}}
2022-03-17 12:42:06 {'measurement': 'measName', 'fields': {'measV_HV': -90.0, 'measI_HV': -1.004066e-07, 'settV_HV': -90.0, 'settI_HV': 0.0}, 'tags': {'user': 'itkpix'}}
2022-03-17 12:42:06 {'measurement': 'measName', 'fields': {'measV_HV': -90.0, 'measI_HV': -1.000778e-07, 'settV_HV': -90.0, 'settI_HV': 0.0}, 'tags': {'user': 'itkpix'}}
2022-03-17 12:42:07 {'measurement': 'measName', 'fields': {'measV_HV': -90.0, 'measI_HV': -1.069419e-07, 'settV_HV': -90.0, 'settI_HV': 0.0}, 'tags': {'user': 'itkpix'}}
2022-03-17 12:42:08 {'measurement': 'measName', 'fields': {'measV_HV': -90.0, 'measI_HV': -9.893209e-08, 'settV_HV': -90.0, 'settI_HV': 0.0}, 'tags': {'user': 'itkpix'}}
2022-03-17 12:42:08 {'measurement': 'measName', 'fields': {'measV_HV': -90.0, 'measI_HV': -9.876411e-08, 'settV_HV': -90.0, 'settI_HV': 0.0}, 'tags': {'user': 'itkpix'}}
2022-03-17 12:42:09 {'measurement': 'measName', 'fields': {'measV_HV': -90.0, 'measI_HV': -1.071895e-07, 'settV_HV': -90.0, 'settI_HV': 0.0}, 'tags': {'user': 'itkpix'}}
2022-03-17 12:42:10 {'measurement': 'measName', 'fields': {'measV_HV': -90.0, 'measI_HV': -1.029073e-07, 'settV_HV': -90.0, 'settI_HV': 0.0}, 'tags': {'user': 'itkpix'}}
2022-03-17 12:42:11 {'measurement': 'measName', 'fields': {'measV_HV': -90.0, 'measI_HV': -9.746773e-08, 'settV_HV': -90.0, 'settI_HV': 0.0}, 'tags': {'user': 'itkpix'}}
2022-03-17 12:42:11 {'measurement': 'measName', 'fields': {'measV_HV': -90.0, 'measI_HV': -1.054699e-07, 'settV_HV': -90.0, 'settI_HV': 0.0}, 'tags': {'user': 'itkpix'}}
2022-03-17 12:42:12 {'measurement': 'measName', 'fields': {'measV_HV': -90.0, 'measI_HV': -1.010848e-07, 'settV_HV': -90.0, 'settI_HV': 0.0}, 'tags': {'user': 'itkpix'}}
2022-03-17 12:42:13 {'measurement': 'measName', 'fields': {'measV_HV': -90.0, 'measI_HV': -9.632371e-08, 'settV_HV': -90.0, 'settI_HV': 0.0}, 'tags': {'user': 'itkpix'}}
2022-03-17 12:42:13 {'measurement': 'measName', 'fields': {'measV_HV': -90.0, 'measI_HV': -1.040159e-07, 'settV_HV': -90.0, 'settI_HV': 0.0}, 'tags': {'user': 'itkpix'}}
2022-03-17 12:42:14 {'measurement': 'measName', 'fields': {'measV_HV': -90.0, 'measI_HV': -1.075266e-07, 'settV_HV': -90.0, 'settI_HV': 0.0}, 'tags': {'user': 'itkpix'}}
2022-03-17 12:42:15 {'measurement': 'measName', 'fields': {'measV_HV': -90.0, 'measI_HV': -9.745124e-08, 'settV_HV': -90.0, 'settI_HV': 0.0}, 'tags': {'user': 'itkpix'}}
2022-03-17 12:42:15 {'measurement': 'measName', 'fields': {'measV_HV': -90.0, 'measI_HV': -9.707046e-08, 'settV_HV': -90.0, 'settI_HV': 0.0}, 'tags': {'user': 'itkpix'}}
2022-03-17 12:42:16 {'measurement': 'measName', 'fields': {'measV_HV': -90.0, 'measI_HV': -1.02023e-07, 'settV_HV': -90.0, 'settI_HV': 0.0}, 'tags': {'user': 'itkpix'}}
2022-03-17 12:42:17 {'measurement': 'measName', 'fields': {'measV_HV': -90.0, 'measI_HV': -1.070987e-07, 'settV_HV': -90.0, 'settI_HV': 0.0}, 'tags': {'user': 'itkpix'}}
2022-03-17 12:42:17 {'measurement': 'measName', 'fields': {'measV_HV': -90.0, 'measI_HV': -1.082721e-07, 'settV_HV': -90.0, 'settI_HV': 0.0}, 'tags': {'user': 'itkpix'}}
2022-03-17 12:42:18 {'measurement': 'measName', 'fields': {'measV_HV': -90.0, 'measI_HV': -1.065491e-07, 'settV_HV': -90.0, 'settI_HV': 0.0}, 'tags': {'user': 'itkpix'}}
2022-03-17 12:42:19 {'measurement': 'measName', 'fields': {'measV_HV': -90.0, 'measI_HV': -1.010692e-07, 'settV_HV': -90.0, 'settI_HV': 0.0}, 'tags': {'user': 'itkpix'}}
2022-03-17 12:42:19 {'measurement': 'measName', 'fields': {'measV_HV': -90.0, 'measI_HV': -9.603612e-08, 'settV_HV': -90.0, 'settI_HV': 0.0}, 'tags': {'user': 'itkpix'}}
2022-03-17 12:42:20 {'measurement': 'measName', 'fields': {'measV_HV': -90.0, 'measI_HV': -9.610581e-08, 'settV_HV': -90.0, 'settI_HV': 0.0}, 'tags': {'user': 'itkpix'}}
2022-03-17 12:42:21 {'measurement': 'measName', 'fields': {'measV_HV': -90.0, 'measI_HV': -9.654684e-08, 'settV_HV': -90.0, 'settI_HV': 0.0}, 'tags': {'user': 'itkpix'}}
2022-03-17 12:42:22 {'measurement': 'measName', 'fields': {'measV_HV': -90.0, 'measI_HV': -9.583553e-08, 'settV_HV': -90.0, 'settI_HV': 0.0}, 'tags': {'user': 'itkpix'}}
2022-03-17 12:42:22 {'measurement': 'measName', 'fields': {'measV_HV': -90.0, 'measI_HV': -9.958104e-08, 'settV_HV': -90.0, 'settI_HV': 0.0}, 'tags': {'user': 'itkpix'}}
2022-03-17 12:42:23 {'measurement': 'measName', 'fields': {'measV_HV': -90.0, 'measI_HV': -1.029287e-07, 'settV_HV': -90.0, 'settI_HV': 0.0}, 'tags': {'user': 'itkpix'}}
2022-03-17 12:42:24 {'measurement': 'measName', 'fields': {'measV_HV': -90.0, 'measI_HV': -1.044078e-07, 'settV_HV': -90.0, 'settI_HV': 0.0}, 'tags': {'user': 'itkpix'}}
2022-03-17 12:42:24 {'measurement': 'measName', 'fields': {'measV_HV': -90.0, 'measI_HV': -1.084987e-07, 'settV_HV': -90.0, 'settI_HV': 0.0}, 'tags': {'user': 'itkpix'}}
2022-03-17 12:42:25 {'measurement': 'measName', 'fields': {'measV_HV': -90.0, 'measI_HV': -1.079805e-07, 'settV_HV': -90.0, 'settI_HV': 0.0}, 'tags': {'user': 'itkpix'}}
2022-03-17 12:42:26 {'measurement': 'measName', 'fields': {'measV_HV': -90.0, 'measI_HV': -1.046146e-07, 'settV_HV': -90.0, 'settI_HV': 0.0}, 'tags': {'user': 'itkpix'}}
2022-03-17 12:42:26 {'measurement': 'measName', 'fields': {'measV_HV': -90.0, 'measI_HV': -1.049632e-07, 'settV_HV': -90.0, 'settI_HV': 0.0}, 'tags': {'user': 'itkpix'}}
2022-03-17 12:42:27 {'measurement': 'measName', 'fields': {'measV_HV': -90.0, 'measI_HV': -1.020672e-07, 'settV_HV': -90.0, 'settI_HV': 0.0}, 'tags': {'user': 'itkpix'}}
2022-03-17 12:42:28 {'measurement': 'measName', 'fields': {'measV_HV': -90.0, 'measI_HV': -1.083027e-07, 'settV_HV': -90.0, 'settI_HV': 0.0}, 'tags': {'user': 'itkpix'}}
2022-03-17 12:42:28 {'measurement': 'measName', 'fields': {'measV_HV': -90.0, 'measI_HV': -1.074049e-07, 'settV_HV': -90.0, 'settI_HV': 0.0}, 'tags': {'user': 'itkpix'}}
2022-03-17 12:42:29 {'measurement': 'measName', 'fields': {'measV_HV': -90.0, 'measI_HV': -1.045671e-07, 'settV_HV': -90.0, 'settI_HV': 0.0}, 'tags': {'user': 'itkpix'}}
2022-03-17 12:42:30 {'measurement': 'measName', 'fields': {'measV_HV': -90.0, 'measI_HV': -1.077629e-07, 'settV_HV': -90.0, 'settI_HV': 0.0}, 'tags': {'user': 'itkpix'}}
2022-03-17 12:42:30 {'measurement': 'measName', 'fields': {'measV_HV': -90.0, 'measI_HV': -1.040802e-07, 'settV_HV': -90.0, 'settI_HV': 0.0}, 'tags': {'user': 'itkpix'}}
2022-03-17 12:42:31 {'measurement': 'measName', 'fields': {'measV_HV': -90.0, 'measI_HV': -9.622137e-08, 'settV_HV': -90.0, 'settI_HV': 0.0}, 'tags': {'user': 'itkpix'}}
2022-03-17 12:42:32 {'measurement': 'measName', 'fields': {'measV_HV': -90.0, 'measI_HV': -1.012417e-07, 'settV_HV': -90.0, 'settI_HV': 0.0}, 'tags': {'user': 'itkpix'}}
2022-03-17 12:42:33 {'measurement': 'measName', 'fields': {'measV_HV': -90.0, 'measI_HV': -1.080233e-07, 'settV_HV': -90.0, 'settI_HV': 0.0}, 'tags': {'user': 'itkpix'}}
2022-03-17 12:42:33 {'measurement': 'measName', 'fields': {'measV_HV': -90.0, 'measI_HV': -1.065108e-07, 'settV_HV': -90.0, 'settI_HV': 0.0}, 'tags': {'user': 'itkpix'}}
2022-03-17 12:42:34 {'measurement': 'measName', 'fields': {'measV_HV': -90.0, 'measI_HV': -1.04429e-07, 'settV_HV': -90.0, 'settI_HV': 0.0}, 'tags': {'user': 'itkpix'}}
2022-03-17 12:42:35 {'measurement': 'measName', 'fields': {'measV_HV': -90.0, 'measI_HV': -9.96569e-08, 'settV_HV': -90.0, 'settI_HV': 0.0}, 'tags': {'user': 'itkpix'}}
2022-03-17 12:42:35 {'measurement': 'measName', 'fields': {'measV_HV': -90.0, 'measI_HV': -1.035192e-07, 'settV_HV': -90.0, 'settI_HV': 0.0}, 'tags': {'user': 'itkpix'}}
2022-03-17 12:42:36 {'measurement': 'measName', 'fields': {'measV_HV': -90.0, 'measI_HV': -1.07458e-07, 'settV_HV': -90.0, 'settI_HV': 0.0}, 'tags': {'user': 'itkpix'}}
2022-03-17 12:42:37 {'measurement': 'measName', 'fields': {'measV_HV': -90.0, 'measI_HV': -1.005992e-07, 'settV_HV': -90.0, 'settI_HV': 0.0}, 'tags': {'user': 'itkpix'}}
2022-03-17 12:42:37 {'measurement': 'measName', 'fields': {'measV_HV': -90.0, 'measI_HV': -9.598238e-08, 'settV_HV': -90.0, 'settI_HV': 0.0}, 'tags': {'user': 'itkpix'}}
2022-03-17 12:42:38 {'measurement': 'measName', 'fields': {'measV_HV': -90.0, 'measI_HV': -1.061457e-07, 'settV_HV': -90.0, 'settI_HV': 0.0}, 'tags': {'user': 'itkpix'}}
2022-03-17 12:42:39 {'measurement': 'measName', 'fields': {'measV_HV': -90.0, 'measI_HV': -1.086158e-07, 'settV_HV': -90.0, 'settI_HV': 0.0}, 'tags': {'user': 'itkpix'}}
2022-03-17 12:42:39 {'measurement': 'measName', 'fields': {'measV_HV': -90.0, 'measI_HV': -1.07562e-07, 'settV_HV': -90.0, 'settI_HV': 0.0}, 'tags': {'user': 'itkpix'}}
2022-03-17 12:42:40 {'measurement': 'measName', 'fields': {'measV_HV': -90.0, 'measI_HV': -1.044463e-07, 'settV_HV': -90.0, 'settI_HV': 0.0}, 'tags': {'user': 'itkpix'}}
2022-03-17 12:42:41 {'measurement': 'measName', 'fields': {'measV_HV': -90.0, 'measI_HV': -9.61904e-08, 'settV_HV': -90.0, 'settI_HV': 0.0}, 'tags': {'user': 'itkpix'}}
2022-03-17 12:42:41 {'measurement': 'measName', 'fields': {'measV_HV': -90.0, 'measI_HV': -9.710631e-08, 'settV_HV': -90.0, 'settI_HV': 0.0}, 'tags': {'user': 'itkpix'}}
2022-03-17 12:42:42 {'measurement': 'measName', 'fields': {'measV_HV': -90.0, 'measI_HV': -9.810561e-08, 'settV_HV': -90.0, 'settI_HV': 0.0}, 'tags': {'user': 'itkpix'}}
2022-03-17 12:42:43 {'measurement': 'measName', 'fields': {'measV_HV': -90.0, 'measI_HV': -9.797856e-08, 'settV_HV': -90.0, 'settI_HV': 0.0}, 'tags': {'user': 'itkpix'}}
2022-03-17 12:42:44 {'measurement': 'measName', 'fields': {'measV_HV': -90.0, 'measI_HV': -9.939082e-08, 'settV_HV': -90.0, 'settI_HV': 0.0}, 'tags': {'user': 'itkpix'}}
2022-03-17 12:42:44 {'measurement': 'measName', 'fields': {'measV_HV': -90.0, 'measI_HV': -9.767853e-08, 'settV_HV': -90.0, 'settI_HV': 0.0}, 'tags': {'user': 'itkpix'}}
2022-03-17 12:42:45 {'measurement': 'measName', 'fields': {'measV_HV': -90.0, 'measI_HV': -9.658474e-08, 'settV_HV': -90.0, 'settI_HV': 0.0}, 'tags': {'user': 'itkpix'}}
2022-03-17 12:42:46 {'measurement': 'measName', 'fields': {'measV_HV': -90.0, 'measI_HV': -1.021258e-07, 'settV_HV': -90.0, 'settI_HV': 0.0}, 'tags': {'user': 'itkpix'}}
2022-03-17 12:42:46 {'measurement': 'measName', 'fields': {'measV_HV': -90.0, 'measI_HV': -1.034701e-07, 'settV_HV': -90.0, 'settI_HV': 0.0}, 'tags': {'user': 'itkpix'}}
2022-03-17 12:42:47 {'measurement': 'measName', 'fields': {'measV_HV': -90.0, 'measI_HV': -1.043838e-07, 'settV_HV': -90.0, 'settI_HV': 0.0}, 'tags': {'user': 'itkpix'}}
2022-03-17 12:42:48 {'measurement': 'measName', 'fields': {'measV_HV': -90.0, 'measI_HV': -9.943869e-08, 'settV_HV': -90.0, 'settI_HV': 0.0}, 'tags': {'user': 'itkpix'}}
2022-03-17 12:42:48 {'measurement': 'measName', 'fields': {'measV_HV': -90.0, 'measI_HV': -9.668627e-08, 'settV_HV': -90.0, 'settI_HV': 0.0}, 'tags': {'user': 'itkpix'}}
2022-03-17 12:42:49 {'measurement': 'measName', 'fields': {'measV_HV': -90.0, 'measI_HV': -9.789522e-08, 'settV_HV': -90.0, 'settI_HV': 0.0}, 'tags': {'user': 'itkpix'}}
2022-03-17 12:42:50 {'measurement': 'measName', 'fields': {'measV_HV': -90.0, 'measI_HV': -1.000609e-07, 'settV_HV': -90.0, 'settI_HV': 0.0}, 'tags': {'user': 'itkpix'}}
2022-03-17 12:42:50 {'measurement': 'measName', 'fields': {'measV_HV': -90.0, 'measI_HV': -1.042506e-07, 'settV_HV': -90.0, 'settI_HV': 0.0}, 'tags': {'user': 'itkpix'}}
2022-03-17 12:42:51 {'measurement': 'measName', 'fields': {'measV_HV': -90.0, 'measI_HV': -1.070252e-07, 'settV_HV': -90.0, 'settI_HV': 0.0}, 'tags': {'user': 'itkpix'}}
2022-03-17 12:42:52 {'measurement': 'measName', 'fields': {'measV_HV': -90.0, 'measI_HV': -1.090993e-07, 'settV_HV': -90.0, 'settI_HV': 0.0}, 'tags': {'user': 'itkpix'}}
2022-03-17 12:42:52 {'measurement': 'measName', 'fields': {'measV_HV': -90.0, 'measI_HV': -1.074705e-07, 'settV_HV': -90.0, 'settI_HV': 0.0}, 'tags': {'user': 'itkpix'}}
2022-03-17 12:42:53 {'measurement': 'measName', 'fields': {'measV_HV': -90.0, 'measI_HV': -1.033933e-07, 'settV_HV': -90.0, 'settI_HV': 0.0}, 'tags': {'user': 'itkpix'}}
2022-03-17 12:42:54 {'measurement': 'measName', 'fields': {'measV_HV': -90.0, 'measI_HV': -9.648237e-08, 'settV_HV': -90.0, 'settI_HV': 0.0}, 'tags': {'user': 'itkpix'}}
2022-03-17 12:42:55 {'measurement': 'measName', 'fields': {'measV_HV': -90.0, 'measI_HV': -9.59366e-08, 'settV_HV': -90.0, 'settI_HV': 0.0}, 'tags': {'user': 'itkpix'}}
2022-03-17 12:42:55 {'measurement': 'measName', 'fields': {'measV_HV': -90.0, 'measI_HV': -1.085996e-07, 'settV_HV': -90.0, 'settI_HV': 0.0}, 'tags': {'user': 'itkpix'}}
2022-03-17 12:42:56 {'measurement': 'measName', 'fields': {'measV_HV': -90.0, 'measI_HV': -1.022748e-07, 'settV_HV': -90.0, 'settI_HV': 0.0}, 'tags': {'user': 'itkpix'}}
2022-03-17 12:42:57 {'measurement': 'measName', 'fields': {'measV_HV': -90.0, 'measI_HV': -1.092433e-07, 'settV_HV': -90.0, 'settI_HV': 0.0}, 'tags': {'user': 'itkpix'}}
2022-03-17 12:42:57 {'measurement': 'measName', 'fields': {'measV_HV': -90.0, 'measI_HV': -1.049301e-07, 'settV_HV': -90.0, 'settI_HV': 0.0}, 'tags': {'user': 'itkpix'}}
2022-03-17 12:42:58 {'measurement': 'measName', 'fields': {'measV_HV': -90.0, 'measI_HV': -9.784981e-08, 'settV_HV': -90.0, 'settI_HV': 0.0}, 'tags': {'user': 'itkpix'}}
2022-03-17 12:42:59 {'measurement': 'measName', 'fields': {'measV_HV': -90.0, 'measI_HV': -9.916673e-08, 'settV_HV': -90.0, 'settI_HV': 0.0}, 'tags': {'user': 'itkpix'}}
2022-03-17 12:42:59 {'measurement': 'measName', 'fields': {'measV_HV': -90.0, 'measI_HV': -1.077041e-07, 'settV_HV': -90.0, 'settI_HV': 0.0}, 'tags': {'user': 'itkpix'}}
2022-03-17 12:43:00 {'measurement': 'measName', 'fields': {'measV_HV': -90.0, 'measI_HV': -1.001561e-07, 'settV_HV': -90.0, 'settI_HV': 0.0}, 'tags': {'user': 'itkpix'}}
2022-03-17 12:43:01 {'measurement': 'measName', 'fields': {'measV_HV': -90.0, 'measI_HV': -9.596806e-08, 'settV_HV': -90.0, 'settI_HV': 0.0}, 'tags': {'user': 'itkpix'}}
2022-03-17 12:43:01 {'measurement': 'measName', 'fields': {'measV_HV': -90.0, 'measI_HV': -9.858666e-08, 'settV_HV': -90.0, 'settI_HV': 0.0}, 'tags': {'user': 'itkpix'}}
2022-03-17 12:43:02 {'measurement': 'measName', 'fields': {'measV_HV': -90.0, 'measI_HV': -1.081091e-07, 'settV_HV': -90.0, 'settI_HV': 0.0}, 'tags': {'user': 'itkpix'}}
2022-03-17 12:43:03 {'measurement': 'measName', 'fields': {'measV_HV': -90.0, 'measI_HV': -1.057822e-07, 'settV_HV': -90.0, 'settI_HV': 0.0}, 'tags': {'user': 'itkpix'}}
2022-03-17 12:43:03 {'measurement': 'measName', 'fields': {'measV_HV': -90.0, 'measI_HV': -1.079838e-07, 'settV_HV': -90.0, 'settI_HV': 0.0}, 'tags': {'user': 'itkpix'}}
2022-03-17 12:43:04 {'measurement': 'measName', 'fields': {'measV_HV': -90.0, 'measI_HV': -9.99903e-08, 'settV_HV': -90.0, 'settI_HV': 0.0}, 'tags': {'user': 'itkpix'}}
2022-03-17 12:43:05 {'measurement': 'measName', 'fields': {'measV_HV': -90.0, 'measI_HV': -9.599231e-08, 'settV_HV': -90.0, 'settI_HV': 0.0}, 'tags': {'user': 'itkpix'}}
2022-03-17 12:43:06 {'measurement': 'measName', 'fields': {'measV_HV': -90.0, 'measI_HV': -1.017916e-07, 'settV_HV': -90.0, 'settI_HV': 0.0}, 'tags': {'user': 'itkpix'}}
2022-03-17 12:43:06 {'measurement': 'measName', 'fields': {'measV_HV': -90.0, 'measI_HV': -1.064109e-07, 'settV_HV': -90.0, 'settI_HV': 0.0}, 'tags': {'user': 'itkpix'}}
2022-03-17 12:43:07 {'measurement': 'measName', 'fields': {'measV_HV': -90.0, 'measI_HV': -1.089018e-07, 'settV_HV': -90.0, 'settI_HV': 0.0}, 'tags': {'user': 'itkpix'}}
2022-03-17 12:43:08 {'measurement': 'measName', 'fields': {'measV_HV': -90.0, 'measI_HV': -1.041301e-07, 'settV_HV': -90.0, 'settI_HV': 0.0}, 'tags': {'user': 'itkpix'}}
2022-03-17 12:43:08 {'measurement': 'measName', 'fields': {'measV_HV': -90.0, 'measI_HV': -9.971214e-08, 'settV_HV': -90.0, 'settI_HV': 0.0}, 'tags': {'user': 'itkpix'}}
2022-03-17 12:43:09 {'measurement': 'measName', 'fields': {'measV_HV': -90.0, 'measI_HV': -9.525338e-08, 'settV_HV': -90.0, 'settI_HV': 0.0}, 'tags': {'user': 'itkpix'}}
2022-03-17 12:43:10 {'measurement': 'measName', 'fields': {'measV_HV': -90.0, 'measI_HV': -9.718926e-08, 'settV_HV': -90.0, 'settI_HV': 0.0}, 'tags': {'user': 'itkpix'}}
2022-03-17 12:43:10 {'measurement': 'measName', 'fields': {'measV_HV': -90.0, 'measI_HV': -9.650141e-08, 'settV_HV': -90.0, 'settI_HV': 0.0}, 'tags': {'user': 'itkpix'}}
2022-03-17 12:43:11 {'measurement': 'measName', 'fields': {'measV_HV': -90.0, 'measI_HV': -9.751071e-08, 'settV_HV': -90.0, 'settI_HV': 0.0}, 'tags': {'user': 'itkpix'}}
2022-03-17 12:43:12 {'measurement': 'measName', 'fields': {'measV_HV': -90.0, 'measI_HV': -9.618668e-08, 'settV_HV': -90.0, 'settI_HV': 0.0}, 'tags': {'user': 'itkpix'}}
2022-03-17 12:43:12 {'measurement': 'measName', 'fields': {'measV_HV': -90.0, 'measI_HV': -9.676962e-08, 'settV_HV': -90.0, 'settI_HV': 0.0}, 'tags': {'user': 'itkpix'}}
2022-03-17 12:43:13 {'measurement': 'measName', 'fields': {'measV_HV': -90.0, 'measI_HV': -1.040896e-07, 'settV_HV': -90.0, 'settI_HV': 0.0}, 'tags': {'user': 'itkpix'}}
2022-03-17 12:43:14 {'measurement': 'measName', 'fields': {'measV_HV': -90.0, 'measI_HV': -1.060545e-07, 'settV_HV': -90.0, 'settI_HV': 0.0}, 'tags': {'user': 'itkpix'}}
2022-03-17 12:43:14 {'measurement': 'measName', 'fields': {'measV_HV': -90.0, 'measI_HV': -9.636697e-08, 'settV_HV': -90.0, 'settI_HV': 0.0}, 'tags': {'user': 'itkpix'}}
2022-03-17 12:43:15 {'measurement': 'measName', 'fields': {'measV_HV': -90.0, 'measI_HV': -1.053399e-07, 'settV_HV': -90.0, 'settI_HV': 0.0}, 'tags': {'user': 'itkpix'}}
2022-03-17 12:43:16 {'measurement': 'measName', 'fields': {'measV_HV': -90.0, 'measI_HV': -1.038393e-07, 'settV_HV': -90.0, 'settI_HV': 0.0}, 'tags': {'user': 'itkpix'}}
2022-03-17 12:43:17 {'measurement': 'measName', 'fields': {'measV_HV': -90.0, 'measI_HV': -9.660419e-08, 'settV_HV': -90.0, 'settI_HV': 0.0}, 'tags': {'user': 'itkpix'}}
2022-03-17 12:43:17 {'measurement': 'measName', 'fields': {'measV_HV': -90.0, 'measI_HV': -1.045596e-07, 'settV_HV': -90.0, 'settI_HV': 0.0}, 'tags': {'user': 'itkpix'}}
2022-03-17 12:43:18 {'measurement': 'measName', 'fields': {'measV_HV': -90.0, 'measI_HV': -1.055333e-07, 'settV_HV': -90.0, 'settI_HV': 0.0}, 'tags': {'user': 'itkpix'}}
2022-03-17 12:43:19 {'measurement': 'measName', 'fields': {'measV_HV': -90.0, 'measI_HV': -9.662977e-08, 'settV_HV': -90.0, 'settI_HV': 0.0}, 'tags': {'user': 'itkpix'}}
2022-03-17 12:43:19 {'measurement': 'measName', 'fields': {'measV_HV': -90.0, 'measI_HV': -1.065364e-07, 'settV_HV': -90.0, 'settI_HV': 0.0}, 'tags': {'user': 'itkpix'}}
