{
    "Module": {
	"ModuleID": "SiegenQ2",
	"FolderPath": {
		"Stage1": "/home/itkpix/YARRs/YARR_FELIX_MASTER/data/M6M12DemonstratorNoiseInjection/0Mhz",
		"Stage2": "/home/itkpix/YARRs/YARR_FELIX_MASTER/data/M6M12DemonstratorNoiseInjection/2.621Mhz",
		"Stage3": "/home/itkpix/YARRs/YARR_FELIX_MASTER/data/M6M12DemonstratorNoiseInjection/7Mhz",
		"Stage4": "/home/itkpix/YARRs/YARR_FELIX_MASTER/data/M6M12DemonstratorNoiseInjection/11Mhz",
		"Stage5": "",
		"Stage6": ""
	},
	"FWB": {
	    "Stage1": "",
	    "Stage2": "",
	    "Stage3": "",
	    "Stage4": "",
		"Stage5": "",
		"Stage6": ""
	}, 
	"Temperature": {
	    "Stage1": 1,
	    "Stage2": 1,
	    "Stage3": 1,
	    "Stage4": 1,
	    "Stage5": 1,
		"Stage6": 1
	},
	"Type": [ "diff", "lin", "syn" ],
	"FE1": "Siegen2_chip_1",
	"FE2": "Siegen2_Chip_2",
	"FE3": "Siegen2_Chip_3",
	"FE4": "Siegen2_Chip_4"
    },
    "PlotConfig": "./PlotConfig.json",
    "OutputFormat": [ ".png", ".pdf" ]
}
