{
    "Module": {
	"ModuleID": "SiegenQ1",
	"FolderPath": {
		"Stage1": "/home/itkpix/YARRs/YARR_FELIX_MASTER/data/M6M12DemonstratorNoiseInjection/0Mhz",
		"Stage2": "/home/itkpix/YARRs/YARR_FELIX_MASTER/data/M6M12DemonstratorNoiseInjection/2.621Mhz",
		"Stage3": "/home/itkpix/YARRs/YARR_FELIX_MASTER/data/M6M12DemonstratorNoiseInjection/7Mhz",
		"Stage4": "/home/itkpix/YARRs/YARR_FELIX_MASTER/data/M6M12DemonstratorNoiseInjection/11Mhz",
		"Stage5": "",
		"Stage6": ""
	},
	"FWB": {
	    "Stage1": "",
	    "Stage2": "",
	    "Stage3": "",
	    "Stage4": "",
	    "Stage5": "",
		"Stage6": ""
	}, 
	"Temperature": {
	    "Stage1": 1,
	    "Stage2": 1,
	    "Stage3": 1,
	    "Stage4": 1,
	    "Stage5": 1,
		"Stage6": 1
	},
	"Type": [ "diff", "lin", "syn" ],
	"FE1": "20UPGFC0012435",
	"FE2": "20UPGFC0012405",
	"FE3": "20UPGFC0012340",
	"FE4": "20UPGFC0012420"
    },
    "PlotConfig": "./PlotConfig.json",
    "OutputFormat": [ ".png", ".pdf" ]
}
