{
    "Module": {
	"ModuleID": "Thick14",
	"FolderPath": {
	    "Stage1": "/eos/atlas/atlascerngroupdisk/det-itk/general/pixels/systemtest/lls-prototype-rd53a-ob/moduledata/Thick14/Initial-ModuleQCAtParis/AfterTCBurnIn",
	    "Stage2": "/eos/atlas/atlascerngroupdisk/det-itk/general/pixels/systemtest/lls-prototype-rd53a-ob/moduledata/Thick14/1-ReceptionTestCERN/AfterPotting",
	    "Stage3": "",
	    "Stage4": "",
	    "Stage5": "",
	    "Stage6": ""
	},
	"FWB": {
	    "Stage1": "/eos/atlas/atlascerngroupdisk/det-itk/general/pixels/systemtest/lls-prototype-rd53a-ob/moduledata/Thick14/Initial-ModuleQCAtParis/AfterTCBurnIn/fwb",
	    "Stage2": "/eos/atlas/atlascerngroupdisk/det-itk/general/pixels/systemtest/lls-prototype-rd53a-ob/moduledata/Thick14/1-ReceptionTestCERN/AfterPotting/fwb",
	    "Stage3": "",
	    "Stage4": "",
	    "Stage5": "",
	    "Stage6": ""
	}, 
	"Temperature": {
	    "Stage1": 1,
	    "Stage2": 1,
	    "Stage3": 1,
	    "Stage4": 1,
	    "Stage5": 1,
	    "Stage6": 1 
	},
	"Type": [ "diff", "lin", "syn" ],
	"FE1": "20UPGFC0008791",
	"FE2": "20UPGFC0008775",
	"FE3": "20UPGFC0008743",
	"FE4": "20UPGFC0008759"
    },
    "PlotConfig": "./PlotConfig.json",
    "OutputFormat": [ ".pdf" ]
}
