{
    "Module": {
	"ModuleID": "DQ14",
	"FolderPath": {
	    "Stage1": "/eos/atlas/atlascerngroupdisk/det-itk/general/pixels/systemtest/lls-prototype-rd53a-ob/moduledata/DQ14/Initial-ModuleQCAtflyingdutchman/BeforeTC",
	    "Stage2": "/eos/atlas/atlascerngroupdisk/det-itk/general/pixels/systemtest/lls-prototype-rd53a-ob/moduledata/DQ14/1-ReceptionTestCERN_monkeyisland",
	    "Stage3": "/eos/atlas/atlascerngroupdisk/det-itk/general/pixels/systemtest/lls-prototype-rd53a-ob/moduledata/DQ14/2-AfterLoading_duckdevil"

	},
	"IV": {
	    "Stage1": "",
	    "Stage2": "",
	    "Stage3": ""
	},
	"FWB": {
	    "Stage1": "",
	    "Stage2": "",
	    "Stage3": ""
	}, 
	"Temperature": {
	    "Stage1": 288.15,
	    "Stage2": 288.15,
	    "Stage3": 288.15
	},
	"Type": [ "diff", "lin", "syn" ],
	"FE1": "20UPGFC0029051",
	"FE2": "20UPGFC0029052",
	"FE3": "20UPGFC0029060",
	"FE4": "20UPGFC0029061"
    },
    "PlotConfig": "./PlotConfig.json",
    "OutputFormat": [ ".png", ".pdf" ]
}
