{
    "Module": {
	"ModuleID": "Paris9",
	"FolderPath": {
	    "Stage1": "/eos/atlas/atlascerngroupdisk/det-itk/general/pixels/systemtest/lls-prototype-rd53a-ob/moduledata/Paris9/Initial-ModuleQCAtParis/AfterTCBurnIn",
	    "Stage2": "/eos/atlas/atlascerngroupdisk/det-itk/general/pixels/systemtest/lls-prototype-rd53a-ob/moduledata/Paris9/1-ReceptionTestCERN/AfterPotting",
            "Stage3": "/eos/atlas/atlascerngroupdisk/det-itk/general/pixels/systemtest/lls-prototype-rd53a-ob/moduledata/Paris9/1-ReceptionTestCERN/AfterTabCutting"
	},
	"FWB": {
	    "Stage1": "/eos/atlas/atlascerngroupdisk/det-itk/general/pixels/systemtest/lls-prototype-rd53a-ob/moduledata/Paris9/Initial-ModuleQCAtParis/AfterTCBurnIn/fwb",
	    "Stage2": "/eos/atlas/atlascerngroupdisk/det-itk/general/pixels/systemtest/lls-prototype-rd53a-ob/moduledata/Paris9/1-ReceptionTestCERN/AfterPotting/fwb",
	    "Stage3": ""
	}, 
	"Temperature": {
	    "Stage1": 293.15,
	    "Stage2": 289.15,
	    "Stage3": 289.15,
	    "Stage4": 1,
	    "Stage5": 1
	},
	"Type": [ "diff", "lin", "syn" ],
	"FE1": "20UPGFC0010089",
	"FE2": "20UPGFC0010073",
	"FE3": "20UPGFC0010152",
	"FE4": "20UPGFC0010057"
    },
    "PlotConfig": "./PlotConfig.json",
    "OutputFormat": [ ".png", ".pdf" ]
}
