{
    "Module": {
	"ModuleID": "DQ12",
	"FolderPath": {
	    "Stage1": "/eos/atlas/atlascerngroupdisk/det-itk/general/pixels/systemtest/lls-prototype-rd53a-ob/moduledata/DQ12/Initial-ModuleQCAtduckdevil/BeforeTC",
	    "Stage2": "/eos/atlas/atlascerngroupdisk/det-itk/general/pixels/systemtest/lls-prototype-rd53a-ob/moduledata/DQ12/1-ReceptionTestCERN_monkeyisland",
	    "Stage3": "/eos/atlas/atlascerngroupdisk/det-itk/general/pixels/systemtest/lls-prototype-rd53a-ob/moduledata/DQ12/2-FELIX/newcoldrunddconfigs",
	    "Stage4": "/eos/atlas/atlascerngroupdisk/det-itk/general/pixels/systemtest/lls-prototype-rd53a-ob/moduledata/DQ12/3-AfterFELIX",
	    "Stage5": "/eos/atlas/atlascerngroupdisk/det-itk/general/pixels/systemtest/lls-prototype-rd53a-ob/moduledata/DQ12/4-DemonstratorPP0/DDTuning",
	    "Stage6": "/eos/atlas/atlascerngroupdisk/det-itk/general/pixels/systemtest/lls-prototype-rd53a-ob/moduledata/DQ12/4-DemonstratorPP0/PP0Tuning"
	},
	"FWB": {
	    "Stage1": "",
	    "Stage2": "",
	    "Stage3": "",
	    "Stage4": "",
	    "Stage5": "",
	    "Stage6": ""
	}, 
	"Temperature": {
	    "Stage1": 1,
	    "Stage2": 1,
	    "Stage3": 1,
	    "Stage4": 1,
	    "Stage5": 1,
	    "Stage6": 1

	},
	"Type": [ "diff", "lin", "syn" ],
	"FE1": "20UPGFC0029305",
	"FE2": "20UPGFC0029315",
	"FE3": "20UPGFC0029317",
	"FE4": "20UPGFC0029318"
    },
    "PlotConfig": "./PlotConfig.json",
    "OutputFormat": [ ".png", ".pdf" ]
}
