{
    "Module": {
	"ModuleID": "Goe4",
	"FolderPath": {
	    "Stage1": "/eos/atlas/atlascerngroupdisk/det-itk/general/pixels/systemtest/lls-prototype-rd53a-ob/moduledata/Goe4/Initial-ModuleQCAtGoe/AfterTCBurnIn",
	    "Stage2": "/eos/atlas/atlascerngroupdisk/det-itk/general/pixels/systemtest/lls-prototype-rd53a-ob/moduledata/Goe4/1-ReceptionTestCERN/AfterPotting",
	    "Stage3": "/eos/atlas/atlascerngroupdisk/det-itk/general/pixels/systemtest/lls-prototype-rd53a-ob/moduledata/Goe4/1-ReceptionTestCERN/AfterTabCutting"
	},
	"FWB": {
	    "Stage1": "/eos/atlas/atlascerngroupdisk/det-itk/general/pixels/systemtest/lls-prototype-rd53a-ob/moduledata/Goe4/Initial-ModuleQCAtGoe/AfterTCBurnIn/fwb",
	    "Stage2": "/eos/atlas/atlascerngroupdisk/det-itk/general/pixels/systemtest/lls-prototype-rd53a-ob/moduledata/Goe4/1-ReceptionTestCERN/AfterPotting/20UPGM20021053_FWB_AfterPotting",
	    "Stage3": ""
	}, 
	"Temperature": {
	    "Stage1": 293.15,
	    "Stage2": 289.15,
	    "Stage3": 294.15,
	    "Stage4": 1,
	    "Stage5": 1,
	    "Stage6": 1
	},
	"Type": [ "diff", "lin", "syn" ],
	"FE1": "20UPGFC0012354",
	"FE2": "20UPGFC0012370",
	"FE3": "20UPGFC0012386",
	"FE4": "20UPGFC0012339"
    },
    "PlotConfig": "./PlotConfig.json",
    "OutputFormat": [ ".png", ".pdf" ]
}
