{
    "Module": {
	"ModuleID": "SiegenQ3",
	"FolderPath": {
	    "Stage1": "/eos/atlas/atlascerngroupdisk/det-itk/general/pixels/systemtest/lls-prototype-rd53a-ob/moduledata/SiegenQ3/Initial-ModuleQCAtSiegen",
	    "Stage2": "/eos/atlas/atlascerngroupdisk/det-itk/general/pixels/systemtest/lls-prototype-rd53a-ob/moduledata/SiegenQ3/1-ReceptionTestCERN/AfterPotting",
            "Stage3": "/eos/atlas/atlascerngroupdisk/det-itk/general/pixels/systemtest/lls-prototype-rd53a-ob/moduledata/SiegenQ3/1-ReceptionTestCERN/AfterTabCutting"
	},
	"FWB": {
	    "Stage1": "",
	    "Stage2": "/eos/atlas/atlascerngroupdisk/det-itk/general/pixels/systemtest/lls-prototype-rd53a-ob/moduledata/SiegenQ3/1-ReceptionTestCERN/AfterPotting/fwb",
	    "Stage3": "",
	    "Stage4": "",
	    "Stage5": "",
	    "Stage6": ""
	}, 
	"Temperature": {
	    "Stage1": 1,
	    "Stage2": 298.15,
	    "Stage3": 296.15
	},
	"Type": [ "diff", "lin", "syn" ],
	"FE1": "Chip1_08728",
	"FE2": "Chip2_08822",
	"FE3": "Chip3_08803",
	"FE4": "Chip4_08852"
    },
    "PlotConfig": "./PlotConfig.json",
    "OutputFormat": [ ".png", ".pdf" ]
}
