{
    "Module": {
	"ModuleID": "SiegenQ2",
	"FolderPath": {
	    "Stage1": "/eos/atlas/atlascerngroupdisk/det-itk/general/pixels/systemtest/lls-prototype-rd53a-ob/moduledata/SiegenQ2/Initial-ModuleQCAtSiegen",
	    "Stage2": "/eos/atlas/atlascerngroupdisk/det-itk/general/pixels/systemtest/lls-prototype-rd53a-ob/moduledata/SiegenQ2/1-ReceptionTestCERN/AfterPotting",
            "Stage3": "/eos/atlas/atlascerngroupdisk/det-itk/general/pixels/systemtest/lls-prototype-rd53a-ob/moduledata/SiegenQ2/1-ReceptionTestCERN/AfterTabCutting"
	},
	"FWB": {
	    "Stage1": "",
	    "Stage2": "/eos/atlas/atlascerngroupdisk/det-itk/general/pixels/systemtest/lls-prototype-rd53a-ob/moduledata/SiegenQ2/1-ReceptionTestCERN/AfterPotting/fwb",
	    "Stage3": "",
	    "Stage4": "",
	    "Stage5": "",
	    "Stage6": ""
	}, 
	"Temperature": {
	    "Stage1": 293.15,
	    "Stage2": 288.15,
	    "Stage3": 294.15,
	    "Stage4": 1,
	    "Stage5": 1,
	    "Stage6": 1 
	},
	"Type": [ "diff", "lin", "syn" ],
	"FE1": "Siegen2_chip_1",
	"FE2": "Siegen2_Chip_2",
	"FE3": "Siegen2_Chip_3",
	"FE4": "Siegen2_Chip_4"
    },
    "PlotConfig": "./PlotConfig.json",
    "OutputFormat": [ ".png", ".pdf" ]
}
