{
    "Module": {
	"ModuleID": "DQ13",
	"FolderPath": {
	    "Stage1": "/eos/atlas/atlascerngroupdisk/det-itk/general/pixels/systemtest/lls-prototype-rd53a-ob/moduledata/DQ13/Initial-ModuleQCAtXY/BeforeTC",
	    "Stage2": "",
	    "Stage3": ""

	},
	"IV": {
	    "Stage1": "",
	    "Stage2": "",
	    "Stage3": ""
	},
	"FWB": {
	    "Stage1": "",
	    "Stage2": "",
	    "Stage3": ""
	}, 
	"Temperature": {
	    "Stage1": 288.15,
	    "Stage2": 288.15,
	    "Stage3": 288.15
	},
	"Type": [ "diff", "lin", "syn" ],
	"FE1": "20UPGFC0029042",
	"FE2": "20UPGFC0029046",
	"FE3": "20UPGFC0029049",
	"FE4": "20UPGFC0029050"
    },
    "PlotConfig": "./PlotConfig.json",
    "OutputFormat": [ ".png", ".pdf" ]
}
