{
    "Module": {
	"ModuleID": "KEKQ20",
	"FolderPath": {
	    "Stage1": "/eos/atlas/atlascerngroupdisk/det-itk/general/pixels/systemtest/lls-prototype-rd53a-ob/moduledata/KEKQ20/Initial-ModuleQCAtKEK/BeforeShipping",
	    "Stage2": "/eos/atlas/atlascerngroupdisk/det-itk/general/pixels/systemtest/lls-prototype-rd53a-ob/moduledata/KEKQ20/3-AfterTCLoading",
	    "Stage3": "/eos/atlas/atlascerngroupdisk/det-itk/general/pixels/systemtest/lls-prototype-rd53a-ob/moduledata/KEKQ20/4-AfterTabCutLoaded"
	},
	"FWB": {
	    "Stage1": "",
	    "Stage2": "/eos/atlas/atlascerngroupdisk/det-itk/general/pixels/systemtest/lls-prototype-rd53a-ob/moduledata/KEKQ20/3-AfterTCLoading/fwb",
	    "Stage3": ""
	}, 
	"Temperature": {
	    "Stage1": 293.15,
	    "Stage2": 293.15,
	    "Stage3": 294.15
	},
	"Type": [ "diff", "lin", "syn" ],
	"FE1": "20UPGFC0005672",
	"FE2": "20UPGFC0005704",
	"FE3": "20UPGFC0005736",
	"FE4": "20UPGFC0005720"
    },
    "PlotConfig": "./PlotConfig.json",
    "OutputFormat": [ ".png", ".pdf" ]
}
