{
    "Module": {
	"ModuleID": "Paris17",
	"FolderPath": {
	    "Stage1": "/eos/atlas/atlascerngroupdisk/det-itk/general/pixels/systemtest/lls-prototype-rd53a-ob/moduledata/Paris17/Initial-ModuleQCAtParis/AfterTCBurnIn",
	    "Stage2": "/eos/atlas/atlascerngroupdisk/det-itk/general/pixels/systemtest/lls-prototype-rd53a-ob/moduledata/Paris17/1-ReceptionTestCERN/AfterPotting",
	    "Stage3": "/eos/atlas/atlascerngroupdisk/det-itk/general/pixels/systemtest/lls-prototype-rd53a-ob/moduledata/Paris17/1-ReceptionTestCERN/AfterTabCutting"
	},
	"FWB": {
	    "Stage1": "/eos/atlas/atlascerngroupdisk/det-itk/general/pixels/systemtest/lls-prototype-rd53a-ob/moduledata/Paris17/Initial-ModuleQCAtParis/AfterTCBurnIn/fwb",
	    "Stage2": "/eos/atlas/atlascerngroupdisk/det-itk/general/pixels/systemtest/lls-prototype-rd53a-ob/moduledata/Paris17/1-ReceptionTestCERN/AfterPotting/fwb",
	    "Stage3": ""
	}, 
	"Temperature": {
	    "Stage1": 303.15,
	    "Stage2": 293.15,
	    "Stage3": 292.15,
	    "Stage4": 1,
	    "Stage5": 1,
	    "Stage6": 1
	},
	"Type": [ "diff", "lin", "syn" ],
	"FE1": "20UPGFC0012908",
	"FE2": "20UPGFC0012892",
	"FE3": "20UPGFC0012859",
	"FE4": "20UPGFC0012875"
    },
    "PlotConfig": "./PlotConfig.json",
    "OutputFormat": [ ".png", ".pdf" ]
}
