{
    "Module": {
	"ModuleID": "KEKQ21",
	"FolderPath": {
	    "Stage1": "/eos/atlas/atlascerngroupdisk/det-itk/general/pixels/systemtest/lls-prototype-rd53a-ob/moduledata/KEKQ21/Initial-ModuleQCAtKEK/BeforeShipping",
	    "Stage2": "/eos/atlas/atlascerngroupdisk/det-itk/general/pixels/systemtest/lls-prototype-rd53a-ob/moduledata/KEKQ21/3-AfterTCLoading",
	    "Stage3": "/eos/atlas/atlascerngroupdisk/det-itk/general/pixels/systemtest/lls-prototype-rd53a-ob/moduledata/KEKQ21/4-AfterTabCutLoaded"
	},
	"FWB": {
	    "Stage1": "",
	    "Stage2": "/eos/atlas/atlascerngroupdisk/det-itk/general/pixels/systemtest/lls-prototype-rd53a-ob/moduledata/KEKQ21/3-AfterTCLoading/fwb",
	    "Stage3": "",
	    "Stage4": "",
	    "Stage5": "",
	    "Stage6": ""
	},
	"Temperature": {
	    "Stage1": 293.15,
	    "Stage2": 293.15,
	    "Stage3": 294.15
	},
	"Type": [ "diff", "lin", "syn" ],
	"FE1": "20UPGFC0005752",
	"FE2": "20UPGFC0005768",
	"FE3": "20UPGFC0005800",
	"FE4": "20UPGFC0005784"
    },
    "PlotConfig": "./PlotConfig.json",
    "OutputFormat": [ ".png", ".pdf" ]
}
    
