{
    "Layout": "Longeron",
    "NumberOfMods": 6,
    "Plot": {
	"analogscan":{
	    "ScanName": "OccupancyMap",
	    "Type": ["syn", "lin", "diff", "lindiff"]
	},
	"sourcescan":{
	    "ScanName": "Occupancy",
	    "Type": ["syn", "lindiff"]
	}
    },
    "Stages": ["Stage3", "Stage2", "Stage1"],
    "OutputFormat": [ ".png", ".pdf" ],
    "Module1": {
	"ModuleID": "Thin10",
	"FolderPath": {
	    "Stage1": "/eos/atlas/atlascerngroupdisk/det-itk/general/pixels/systemtest/lls-prototype-rd53a-ob/moduledata/CERN_Thin_Q10_20UPGM20025080/1-ReceptionTestCERN/BeforePotting",
            "Stage2": "/eos/atlas/atlascerngroupdisk/det-itk/general/pixels/systemtest/lls-prototype-rd53a-ob/moduledata/CERN_Thin_Q10_20UPGM20025080/1-ReceptionTestCERN/AfterPotting",
	    "Stage3": "/eos/atlas/atlascerngroupdisk/det-itk/general/pixels/systemtest/lls-prototype-rd53a-ob/moduledata/M6Demonstrator"
	},
	"FE1": "20UPGFC0013650",
	"FE2": "20UPGFC0013668",
	"FE3": "20UPGFC0013653",
	"FE4": "20UPGFC0013716"
    },
    "Module2": {
	"ModuleID": "Paris10",
        "FolderPath": {
            "Stage1": "/eos/atlas/atlascerngroupdisk/det-itk/general/pixels/systemtest/lls-prototype-rd53a-ob/moduledata/Paris10/Initial-ModuleQCAtParis/AfterTCBurnIn",
            "Stage2": "/eos/atlas/atlascerngroupdisk/det-itk/general/pixels/systemtest/lls-prototype-rd53a-ob/moduledata/Paris10/1-ReceptionTestCERN/AfterPotting",
	    "Stage3": "/eos/atlas/atlascerngroupdisk/det-itk/general/pixels/systemtest/lls-prototype-rd53a-ob/moduledata/M6Demonstrator"
	},
	"FE1": "20UPGFC0008787",
	"FE2": "20UPGFC0008771",
	"FE3": "20UPGFC0008819",
	"FE4": "20UPGFC0008835"
    },
    "Module3": {
	"ModuleID": "Paris3",
	"FolderPath": {
            "Stage1": "/eos/atlas/atlascerngroupdisk/det-itk/general/pixels/systemtest/lls-prototype-rd53a-ob/moduledata/Paris3/Initial-ModuleQCAtParis/AfterTCBurnIn",
            "Stage2": "/eos/atlas/atlascerngroupdisk/det-itk/general/pixels/systemtest/lls-prototype-rd53a-ob/moduledata/Paris3/1-ReceptionTestCERN/AfterPotting125",
	    "Stage3": "/eos/atlas/atlascerngroupdisk/det-itk/general/pixels/systemtest/lls-prototype-rd53a-ob/moduledata/M6Demonstrator"
	},
	"FE1": "20UPGFC0012627",
	"FE2": "20UPGFC0012659",
	"FE3": "20UPGFC0012580",
	"FE4": "20UPGFC0012675"
    },
    "Module4": {
	"ModuleID": "Siegen1",
	"FolderPath": {
	    "Stage1": "/eos/atlas/atlascerngroupdisk/det-itk/general/pixels/systemtest/lls-prototype-rd53a-ob/moduledata/SiegenQ1/Initial-ModuleQCAtSiegen",
	    "Stage2": "/eos/atlas/atlascerngroupdisk/det-itk/general/pixels/systemtest/lls-prototype-rd53a-ob/moduledata/SiegenQ1/1-ReceptionTestCERN/AfterPotting",
	    "Stage3": "/eos/atlas/atlascerngroupdisk/det-itk/general/pixels/systemtest/lls-prototype-rd53a-ob/moduledata/M6Demonstrator"
	},
	"FE1": "20UPGFC0012435",
	"FE2": "20UPGFC0012405",
	"FE3": "20UPGFC0012340",
	"FE4": "20UPGFC0012420"
    },
    "Module5": {
	"ModuleID": "Paris12",
	"FolderPath": {
	    "Stage1": "/eos/atlas/atlascerngroupdisk/det-itk/general/pixels/systemtest/lls-prototype-rd53a-ob/moduledata/Paris12/Initial-ModuleQCAtParis/AfterParylene",
	    "Stage2": "/eos/atlas/atlascerngroupdisk/det-itk/general/pixels/systemtest/lls-prototype-rd53a-ob/moduledata/Paris12/1-ReceptionTestCERN/AfterPotting",
	    "Stage3": "/eos/atlas/atlascerngroupdisk/det-itk/general/pixels/systemtest/lls-prototype-rd53a-ob/moduledata/M6Demonstrator"
	},
	"FE1": "20UPGFC0012598",
	"FE2": "20UPGFC0012566",
	"FE3": "20UPGFC0012664",
	"FE4": "20UPGFC0012693"
    },
    "Module6": {
	"ModuleID": "Siegen2",
        "FolderPath": {
            "Stage1": "/eos/atlas/atlascerngroupdisk/det-itk/general/pixels/systemtest/lls-prototype-rd53a-ob/moduledata/SiegenQ2/Initial-ModuleQCAtSiegen",
            "Stage2": "/eos/atlas/atlascerngroupdisk/det-itk/general/pixels/systemtest/lls-prototype-rd53a-ob/moduledata/SiegenQ2/1-ReceptionTestCERN/AfterPotting",
	    "Stage3": "/eos/atlas/atlascerngroupdisk/det-itk/general/pixels/systemtest/lls-prototype-rd53a-ob/moduledata/M6Demonstrator"
	},
	"FE1": "Siegen2_chip_1",
	"FE2": "Siegen2_Chip_2",
	"FE3": "Siegen2_Chip_3",
	"FE4": "Siegen2_Chip_4"
    }
}
