{
    "Hist2D": {
	"analogscan": {
	    "Name": "OccupancyMap",
	    "Mask": "OccupancyMap",
	    "Cut1": 98,
	    "Cut2": 102,
	    "EvolutionPlot": { "Y": "Absolute" }
	}
    },
    "Graph": {
    },
    "Hist1D": {
    }
}

