{
    "Hist2D": {
	"sourcescan": {
	    "Name": "Occupancy",
	    "Mask": "json.before",
	    "Cut1": 10,
	    "Cut2": 50,
	    "EvolutionPlot": { "Y": "Absolute" }
	}
    },
    "Hist1D": {
    },
    "Graph": {
    }
}
