{
    "Modules": ["M-B-1", "M-T-1", "M-B-2", "M-T-2", "M-B-3", "M-T-3"],
    "Stages": {
	"Stage1": {
	    "Name": "Initial Module QC"
	},
	"Stage2":{
 	    "Name": "After Potting"
	},
	"Stage3":{
 	    "Name": "After TabCutting"
	}	    		    
    },
    "Path": "/eos/atlas/atlascerngroupdisk/det-itk/general/pixels/systemtest/lls-prototype-rd53a-ob/moduledata/ModuleComparisons/Data",
    "Plots": {
	"IV": {
	    "Data": "IC",
	    "Error": "IC_e",
	    "Scan": "Voltage",
	    "Limits": 100
	},
	"NoiseDist": {
	    "Data": "Noise[e]",
	    "Error": "Stdev[e]",
	    "Scan": "",
	    "Limits": [200, 130, 130]
	},
	"discbumpscan": {
	    "Data": "#pixels_mask",
	    "Error": "",
	    "Scan": "",
	    "Limits": [500, 500, 40],
	    "Comment_nm": [500, 500, 200]
	},
	"sourcescan": {
	    "Data": "#pixels_mask",
	    "Error": "",
	    "Scan": "",
	    "Limits": [80, 80, 80]
	},
	"FE_counter": {
	    "Data": "#FEs",
	    "Error": "",
	    "Scan": "Scan",
	    "Limits": 6
	}	
    }
}
