2022-08-20 16:13:47 {'measurement': 'measName', 'fields': {'measV_HV2': -150.0, 'measI_HV2': -2.565986e-07, 'settV_HV2': -150.0, 'settI_HV2': 0.0}, 'tags': {'user': 'root'}}
2022-08-20 16:13:48 {'measurement': 'measName', 'fields': {'measV_HV2': -150.0, 'measI_HV2': -2.539713e-07, 'settV_HV2': -150.0, 'settI_HV2': 0.0}, 'tags': {'user': 'root'}}
2022-08-20 16:13:49 {'measurement': 'measName', 'fields': {'measV_HV2': -150.0, 'measI_HV2': -2.456341e-07, 'settV_HV2': -150.0, 'settI_HV2': 0.0}, 'tags': {'user': 'root'}}
2022-08-20 16:13:49 {'measurement': 'measName', 'fields': {'measV_HV2': -150.0, 'measI_HV2': -2.465748e-07, 'settV_HV2': -150.0, 'settI_HV2': 0.0}, 'tags': {'user': 'root'}}
2022-08-20 16:13:50 {'measurement': 'measName', 'fields': {'measV_HV2': -150.0, 'measI_HV2': -2.51001e-07, 'settV_HV2': -150.0, 'settI_HV2': 0.0}, 'tags': {'user': 'root'}}
2022-08-20 16:13:51 {'measurement': 'measName', 'fields': {'measV_HV2': -150.0, 'measI_HV2': -2.587053e-07, 'settV_HV2': -150.0, 'settI_HV2': 0.0}, 'tags': {'user': 'root'}}
2022-08-20 16:13:51 {'measurement': 'measName', 'fields': {'measV_HV2': -150.0, 'measI_HV2': -2.562372e-07, 'settV_HV2': -150.0, 'settI_HV2': 0.0}, 'tags': {'user': 'root'}}
2022-08-20 16:13:52 {'measurement': 'measName', 'fields': {'measV_HV2': -150.0, 'measI_HV2': -2.514952e-07, 'settV_HV2': -150.0, 'settI_HV2': 0.0}, 'tags': {'user': 'root'}}
2022-08-20 16:13:53 {'measurement': 'measName', 'fields': {'measV_HV2': -150.0, 'measI_HV2': -2.475105e-07, 'settV_HV2': -150.0, 'settI_HV2': 0.0}, 'tags': {'user': 'root'}}
2022-08-20 16:13:53 {'measurement': 'measName', 'fields': {'measV_HV2': -150.0, 'measI_HV2': -2.469039e-07, 'settV_HV2': -150.0, 'settI_HV2': 0.0}, 'tags': {'user': 'root'}}
2022-08-20 16:13:55 {'measurement': 'measName', 'fields': {'measV_HV2': -150.0, 'measI_HV2': -2.545881e-07, 'settV_HV2': -150.0, 'settI_HV2': 0.0}, 'tags': {'user': 'root'}}
2022-08-20 16:13:56 {'measurement': 'measName', 'fields': {'measV_HV2': -150.0, 'measI_HV2': -2.525639e-07, 'settV_HV2': -150.0, 'settI_HV2': 0.0}, 'tags': {'user': 'root'}}
2022-08-20 16:13:56 {'measurement': 'measName', 'fields': {'measV_HV2': -150.0, 'measI_HV2': -2.477437e-07, 'settV_HV2': -150.0, 'settI_HV2': 0.0}, 'tags': {'user': 'root'}}
2022-08-20 16:13:57 {'measurement': 'measName', 'fields': {'measV_HV2': -150.0, 'measI_HV2': -2.4357e-07, 'settV_HV2': -150.0, 'settI_HV2': 0.0}, 'tags': {'user': 'root'}}
2022-08-20 16:13:58 {'measurement': 'measName', 'fields': {'measV_HV2': -150.0, 'measI_HV2': -2.473713e-07, 'settV_HV2': -150.0, 'settI_HV2': 0.0}, 'tags': {'user': 'root'}}
2022-08-20 16:13:58 {'measurement': 'measName', 'fields': {'measV_HV2': -150.0, 'measI_HV2': -2.517924e-07, 'settV_HV2': -150.0, 'settI_HV2': 0.0}, 'tags': {'user': 'root'}}
2022-08-20 16:13:59 {'measurement': 'measName', 'fields': {'measV_HV2': -150.0, 'measI_HV2': -2.548664e-07, 'settV_HV2': -150.0, 'settI_HV2': 0.0}, 'tags': {'user': 'root'}}
2022-08-20 16:14:00 {'measurement': 'measName', 'fields': {'measV_HV2': -150.0, 'measI_HV2': -2.563049e-07, 'settV_HV2': -150.0, 'settI_HV2': 0.0}, 'tags': {'user': 'root'}}
2022-08-20 16:14:00 {'measurement': 'measName', 'fields': {'measV_HV2': -150.0, 'measI_HV2': -2.556066e-07, 'settV_HV2': -150.0, 'settI_HV2': 0.0}, 'tags': {'user': 'root'}}
2022-08-20 16:14:01 {'measurement': 'measName', 'fields': {'measV_HV2': -150.0, 'measI_HV2': -2.500506e-07, 'settV_HV2': -150.0, 'settI_HV2': 0.0}, 'tags': {'user': 'root'}}
2022-08-20 16:14:02 {'measurement': 'measName', 'fields': {'measV_HV2': -150.0, 'measI_HV2': -2.469705e-07, 'settV_HV2': -150.0, 'settI_HV2': 0.0}, 'tags': {'user': 'root'}}
2022-08-20 16:14:03 {'measurement': 'measName', 'fields': {'measV_HV2': -150.0, 'measI_HV2': -2.446502e-07, 'settV_HV2': -150.0, 'settI_HV2': 0.0}, 'tags': {'user': 'root'}}
2022-08-20 16:14:03 {'measurement': 'measName', 'fields': {'measV_HV2': -150.0, 'measI_HV2': -2.461229e-07, 'settV_HV2': -150.0, 'settI_HV2': 0.0}, 'tags': {'user': 'root'}}
2022-08-20 16:14:04 {'measurement': 'measName', 'fields': {'measV_HV2': -150.0, 'measI_HV2': -2.455052e-07, 'settV_HV2': -150.0, 'settI_HV2': 0.0}, 'tags': {'user': 'root'}}
2022-08-20 16:14:05 {'measurement': 'measName', 'fields': {'measV_HV2': -150.0, 'measI_HV2': -2.442202e-07, 'settV_HV2': -150.0, 'settI_HV2': 0.0}, 'tags': {'user': 'root'}}
2022-08-20 16:14:05 {'measurement': 'measName', 'fields': {'measV_HV2': -150.0, 'measI_HV2': -2.456192e-07, 'settV_HV2': -150.0, 'settI_HV2': 0.0}, 'tags': {'user': 'root'}}
2022-08-20 16:14:06 {'measurement': 'measName', 'fields': {'measV_HV2': -150.0, 'measI_HV2': -2.536465e-07, 'settV_HV2': -150.0, 'settI_HV2': 0.0}, 'tags': {'user': 'root'}}
2022-08-20 16:14:07 {'measurement': 'measName', 'fields': {'measV_HV2': -150.0, 'measI_HV2': -2.572964e-07, 'settV_HV2': -150.0, 'settI_HV2': 0.0}, 'tags': {'user': 'root'}}
2022-08-20 16:14:08 {'measurement': 'measName', 'fields': {'measV_HV2': -150.0, 'measI_HV2': -2.559121e-07, 'settV_HV2': -150.0, 'settI_HV2': 0.0}, 'tags': {'user': 'root'}}
2022-08-20 16:14:09 {'measurement': 'measName', 'fields': {'measV_HV2': -150.0, 'measI_HV2': -2.499642e-07, 'settV_HV2': -150.0, 'settI_HV2': 0.0}, 'tags': {'user': 'root'}}
2022-08-20 16:14:09 {'measurement': 'measName', 'fields': {'measV_HV2': -150.0, 'measI_HV2': -2.478203e-07, 'settV_HV2': -150.0, 'settI_HV2': 0.0}, 'tags': {'user': 'root'}}
2022-08-20 16:14:10 {'measurement': 'measName', 'fields': {'measV_HV2': -150.0, 'measI_HV2': -2.441129e-07, 'settV_HV2': -150.0, 'settI_HV2': 0.0}, 'tags': {'user': 'root'}}
2022-08-20 16:14:11 {'measurement': 'measName', 'fields': {'measV_HV2': -150.0, 'measI_HV2': -2.437107e-07, 'settV_HV2': -150.0, 'settI_HV2': 0.0}, 'tags': {'user': 'root'}}
2022-08-20 16:14:11 {'measurement': 'measName', 'fields': {'measV_HV2': -150.0, 'measI_HV2': -2.4585e-07, 'settV_HV2': -150.0, 'settI_HV2': 0.0}, 'tags': {'user': 'root'}}
2022-08-20 16:14:12 {'measurement': 'measName', 'fields': {'measV_HV2': -150.0, 'measI_HV2': -2.526297e-07, 'settV_HV2': -150.0, 'settI_HV2': 0.0}, 'tags': {'user': 'root'}}
2022-08-20 16:14:13 {'measurement': 'measName', 'fields': {'measV_HV2': -150.0, 'measI_HV2': -2.559516e-07, 'settV_HV2': -150.0, 'settI_HV2': 0.0}, 'tags': {'user': 'root'}}
2022-08-20 16:14:14 {'measurement': 'measName', 'fields': {'measV_HV2': -150.0, 'measI_HV2': -2.561002e-07, 'settV_HV2': -150.0, 'settI_HV2': 0.0}, 'tags': {'user': 'root'}}
2022-08-20 16:14:14 {'measurement': 'measName', 'fields': {'measV_HV2': -150.0, 'measI_HV2': -2.569847e-07, 'settV_HV2': -150.0, 'settI_HV2': 0.0}, 'tags': {'user': 'root'}}
2022-08-20 16:14:15 {'measurement': 'measName', 'fields': {'measV_HV2': -150.0, 'measI_HV2': -2.540431e-07, 'settV_HV2': -150.0, 'settI_HV2': 0.0}, 'tags': {'user': 'root'}}
2022-08-20 16:14:16 {'measurement': 'measName', 'fields': {'measV_HV2': -150.0, 'measI_HV2': -2.482077e-07, 'settV_HV2': -150.0, 'settI_HV2': 0.0}, 'tags': {'user': 'root'}}
2022-08-20 16:14:16 {'measurement': 'measName', 'fields': {'measV_HV2': -150.0, 'measI_HV2': -2.463831e-07, 'settV_HV2': -150.0, 'settI_HV2': 0.0}, 'tags': {'user': 'root'}}
2022-08-20 16:14:17 {'measurement': 'measName', 'fields': {'measV_HV2': -150.0, 'measI_HV2': -2.454942e-07, 'settV_HV2': -150.0, 'settI_HV2': 0.0}, 'tags': {'user': 'root'}}
2022-08-20 16:14:18 {'measurement': 'measName', 'fields': {'measV_HV2': -150.0, 'measI_HV2': -2.571199e-07, 'settV_HV2': -150.0, 'settI_HV2': 0.0}, 'tags': {'user': 'root'}}
2022-08-20 16:14:19 {'measurement': 'measName', 'fields': {'measV_HV2': -150.0, 'measI_HV2': -2.46471e-07, 'settV_HV2': -150.0, 'settI_HV2': 0.0}, 'tags': {'user': 'root'}}
2022-08-20 16:14:20 {'measurement': 'measName', 'fields': {'measV_HV2': -150.0, 'measI_HV2': -2.46095e-07, 'settV_HV2': -150.0, 'settI_HV2': 0.0}, 'tags': {'user': 'root'}}
2022-08-20 16:14:20 {'measurement': 'measName', 'fields': {'measV_HV2': -150.0, 'measI_HV2': -2.525068e-07, 'settV_HV2': -150.0, 'settI_HV2': 0.0}, 'tags': {'user': 'root'}}
2022-08-20 16:14:21 {'measurement': 'measName', 'fields': {'measV_HV2': -150.0, 'measI_HV2': -2.555149e-07, 'settV_HV2': -150.0, 'settI_HV2': 0.0}, 'tags': {'user': 'root'}}
2022-08-20 16:14:22 {'measurement': 'measName', 'fields': {'measV_HV2': -150.0, 'measI_HV2': -2.486e-07, 'settV_HV2': -150.0, 'settI_HV2': 0.0}, 'tags': {'user': 'root'}}
2022-08-20 16:14:23 {'measurement': 'measName', 'fields': {'measV_HV2': -150.0, 'measI_HV2': -2.448695e-07, 'settV_HV2': -150.0, 'settI_HV2': 0.0}, 'tags': {'user': 'root'}}
2022-08-20 16:14:23 {'measurement': 'measName', 'fields': {'measV_HV2': -150.0, 'measI_HV2': -2.512488e-07, 'settV_HV2': -150.0, 'settI_HV2': 0.0}, 'tags': {'user': 'root'}}
2022-08-20 16:14:24 {'measurement': 'measName', 'fields': {'measV_HV2': -150.0, 'measI_HV2': -2.567025e-07, 'settV_HV2': -150.0, 'settI_HV2': 0.0}, 'tags': {'user': 'root'}}
2022-08-20 16:14:25 {'measurement': 'measName', 'fields': {'measV_HV2': -150.0, 'measI_HV2': -2.549235e-07, 'settV_HV2': -150.0, 'settI_HV2': 0.0}, 'tags': {'user': 'root'}}
2022-08-20 16:14:25 {'measurement': 'measName', 'fields': {'measV_HV2': -150.0, 'measI_HV2': -2.487177e-07, 'settV_HV2': -150.0, 'settI_HV2': 0.0}, 'tags': {'user': 'root'}}
2022-08-20 16:14:26 {'measurement': 'measName', 'fields': {'measV_HV2': -150.0, 'measI_HV2': -2.446475e-07, 'settV_HV2': -150.0, 'settI_HV2': 0.0}, 'tags': {'user': 'root'}}
2022-08-20 16:14:27 {'measurement': 'measName', 'fields': {'measV_HV2': -150.0, 'measI_HV2': -2.450935e-07, 'settV_HV2': -150.0, 'settI_HV2': 0.0}, 'tags': {'user': 'root'}}
2022-08-20 16:14:27 {'measurement': 'measName', 'fields': {'measV_HV2': -150.0, 'measI_HV2': -2.513652e-07, 'settV_HV2': -150.0, 'settI_HV2': 0.0}, 'tags': {'user': 'root'}}
2022-08-20 16:14:28 {'measurement': 'measName', 'fields': {'measV_HV2': -150.0, 'measI_HV2': -2.535447e-07, 'settV_HV2': -150.0, 'settI_HV2': 0.0}, 'tags': {'user': 'root'}}
2022-08-20 16:14:29 {'measurement': 'measName', 'fields': {'measV_HV2': -150.0, 'measI_HV2': -2.489095e-07, 'settV_HV2': -150.0, 'settI_HV2': 0.0}, 'tags': {'user': 'root'}}
2022-08-20 16:14:30 {'measurement': 'measName', 'fields': {'measV_HV2': -150.0, 'measI_HV2': -2.558724e-07, 'settV_HV2': -150.0, 'settI_HV2': 0.0}, 'tags': {'user': 'root'}}
2022-08-20 16:14:31 {'measurement': 'measName', 'fields': {'measV_HV2': -150.0, 'measI_HV2': -2.533413e-07, 'settV_HV2': -150.0, 'settI_HV2': 0.0}, 'tags': {'user': 'root'}}
2022-08-20 16:14:32 {'measurement': 'measName', 'fields': {'measV_HV2': -150.0, 'measI_HV2': -2.477131e-07, 'settV_HV2': -150.0, 'settI_HV2': 0.0}, 'tags': {'user': 'root'}}
2022-08-20 16:14:32 {'measurement': 'measName', 'fields': {'measV_HV2': -150.0, 'measI_HV2': -2.443469e-07, 'settV_HV2': -150.0, 'settI_HV2': 0.0}, 'tags': {'user': 'root'}}
2022-08-20 16:14:33 {'measurement': 'measName', 'fields': {'measV_HV2': -150.0, 'measI_HV2': -2.478035e-07, 'settV_HV2': -150.0, 'settI_HV2': 0.0}, 'tags': {'user': 'root'}}
2022-08-20 16:14:34 {'measurement': 'measName', 'fields': {'measV_HV2': -150.0, 'measI_HV2': -2.520703e-07, 'settV_HV2': -150.0, 'settI_HV2': 0.0}, 'tags': {'user': 'root'}}
2022-08-20 16:14:34 {'measurement': 'measName', 'fields': {'measV_HV2': -150.0, 'measI_HV2': -2.549177e-07, 'settV_HV2': -150.0, 'settI_HV2': 0.0}, 'tags': {'user': 'root'}}
2022-08-20 16:14:35 {'measurement': 'measName', 'fields': {'measV_HV2': -150.0, 'measI_HV2': -2.561129e-07, 'settV_HV2': -150.0, 'settI_HV2': 0.0}, 'tags': {'user': 'root'}}
2022-08-20 16:14:36 {'measurement': 'measName', 'fields': {'measV_HV2': -150.0, 'measI_HV2': -2.514428e-07, 'settV_HV2': -150.0, 'settI_HV2': 0.0}, 'tags': {'user': 'root'}}
2022-08-20 16:14:36 {'measurement': 'measName', 'fields': {'measV_HV2': -150.0, 'measI_HV2': -2.465248e-07, 'settV_HV2': -150.0, 'settI_HV2': 0.0}, 'tags': {'user': 'root'}}
2022-08-20 16:14:37 {'measurement': 'measName', 'fields': {'measV_HV2': -150.0, 'measI_HV2': -2.459172e-07, 'settV_HV2': -150.0, 'settI_HV2': 0.0}, 'tags': {'user': 'root'}}
2022-08-20 16:14:38 {'measurement': 'measName', 'fields': {'measV_HV2': -150.0, 'measI_HV2': -2.53574e-07, 'settV_HV2': -150.0, 'settI_HV2': 0.0}, 'tags': {'user': 'root'}}
2022-08-20 16:14:38 {'measurement': 'measName', 'fields': {'measV_HV2': -150.0, 'measI_HV2': -2.561742e-07, 'settV_HV2': -150.0, 'settI_HV2': 0.0}, 'tags': {'user': 'root'}}
2022-08-20 16:14:39 {'measurement': 'measName', 'fields': {'measV_HV2': -150.0, 'measI_HV2': -2.574382e-07, 'settV_HV2': -150.0, 'settI_HV2': 0.0}, 'tags': {'user': 'root'}}
2022-08-20 16:14:40 {'measurement': 'measName', 'fields': {'measV_HV2': -150.0, 'measI_HV2': -2.542672e-07, 'settV_HV2': -150.0, 'settI_HV2': 0.0}, 'tags': {'user': 'root'}}
2022-08-20 16:14:41 {'measurement': 'measName', 'fields': {'measV_HV2': -150.0, 'measI_HV2': -2.509787e-07, 'settV_HV2': -150.0, 'settI_HV2': 0.0}, 'tags': {'user': 'root'}}
2022-08-20 16:14:42 {'measurement': 'measName', 'fields': {'measV_HV2': -150.0, 'measI_HV2': -2.451595e-07, 'settV_HV2': -150.0, 'settI_HV2': 0.0}, 'tags': {'user': 'root'}}
2022-08-20 16:14:43 {'measurement': 'measName', 'fields': {'measV_HV2': -150.0, 'measI_HV2': -2.462949e-07, 'settV_HV2': -150.0, 'settI_HV2': 0.0}, 'tags': {'user': 'root'}}
2022-08-20 16:14:43 {'measurement': 'measName', 'fields': {'measV_HV2': -150.0, 'measI_HV2': -2.522554e-07, 'settV_HV2': -150.0, 'settI_HV2': 0.0}, 'tags': {'user': 'root'}}
2022-08-20 16:14:44 {'measurement': 'measName', 'fields': {'measV_HV2': -150.0, 'measI_HV2': -2.555971e-07, 'settV_HV2': -150.0, 'settI_HV2': 0.0}, 'tags': {'user': 'root'}}
2022-08-20 16:14:45 {'measurement': 'measName', 'fields': {'measV_HV2': -150.0, 'measI_HV2': -2.569298e-07, 'settV_HV2': -150.0, 'settI_HV2': 0.0}, 'tags': {'user': 'root'}}
2022-08-20 16:14:45 {'measurement': 'measName', 'fields': {'measV_HV2': -150.0, 'measI_HV2': -2.561197e-07, 'settV_HV2': -150.0, 'settI_HV2': 0.0}, 'tags': {'user': 'root'}}
2022-08-20 16:14:46 {'measurement': 'measName', 'fields': {'measV_HV2': -150.0, 'measI_HV2': -2.518142e-07, 'settV_HV2': -150.0, 'settI_HV2': 0.0}, 'tags': {'user': 'root'}}
2022-08-20 16:14:47 {'measurement': 'measName', 'fields': {'measV_HV2': -150.0, 'measI_HV2': -2.468267e-07, 'settV_HV2': -150.0, 'settI_HV2': 0.0}, 'tags': {'user': 'root'}}
2022-08-20 16:14:47 {'measurement': 'measName', 'fields': {'measV_HV2': -150.0, 'measI_HV2': -2.434735e-07, 'settV_HV2': -150.0, 'settI_HV2': 0.0}, 'tags': {'user': 'root'}}
2022-08-20 16:14:48 {'measurement': 'measName', 'fields': {'measV_HV2': -150.0, 'measI_HV2': -2.456053e-07, 'settV_HV2': -150.0, 'settI_HV2': 0.0}, 'tags': {'user': 'root'}}
2022-08-20 16:14:49 {'measurement': 'measName', 'fields': {'measV_HV2': -150.0, 'measI_HV2': -2.495672e-07, 'settV_HV2': -150.0, 'settI_HV2': 0.0}, 'tags': {'user': 'root'}}
2022-08-20 16:14:49 {'measurement': 'measName', 'fields': {'measV_HV2': -150.0, 'measI_HV2': -2.537255e-07, 'settV_HV2': -150.0, 'settI_HV2': 0.0}, 'tags': {'user': 'root'}}
2022-08-20 16:14:50 {'measurement': 'measName', 'fields': {'measV_HV2': -150.0, 'measI_HV2': -2.560286e-07, 'settV_HV2': -150.0, 'settI_HV2': 0.0}, 'tags': {'user': 'root'}}
2022-08-20 16:14:51 {'measurement': 'measName', 'fields': {'measV_HV2': -150.0, 'measI_HV2': -2.561168e-07, 'settV_HV2': -150.0, 'settI_HV2': 0.0}, 'tags': {'user': 'root'}}
2022-08-20 16:14:52 {'measurement': 'measName', 'fields': {'measV_HV2': -150.0, 'measI_HV2': -2.504194e-07, 'settV_HV2': -150.0, 'settI_HV2': 0.0}, 'tags': {'user': 'root'}}
2022-08-20 16:14:53 {'measurement': 'measName', 'fields': {'measV_HV2': -150.0, 'measI_HV2': -2.477637e-07, 'settV_HV2': -150.0, 'settI_HV2': 0.0}, 'tags': {'user': 'root'}}
2022-08-20 16:14:53 {'measurement': 'measName', 'fields': {'measV_HV2': -150.0, 'measI_HV2': -2.570411e-07, 'settV_HV2': -150.0, 'settI_HV2': 0.0}, 'tags': {'user': 'root'}}
2022-08-20 16:14:54 {'measurement': 'measName', 'fields': {'measV_HV2': -150.0, 'measI_HV2': -2.531537e-07, 'settV_HV2': -150.0, 'settI_HV2': 0.0}, 'tags': {'user': 'root'}}
2022-08-20 16:14:55 {'measurement': 'measName', 'fields': {'measV_HV2': -150.0, 'measI_HV2': -2.481575e-07, 'settV_HV2': -150.0, 'settI_HV2': 0.0}, 'tags': {'user': 'root'}}
2022-08-20 16:14:56 {'measurement': 'measName', 'fields': {'measV_HV2': -150.0, 'measI_HV2': -2.439672e-07, 'settV_HV2': -150.0, 'settI_HV2': 0.0}, 'tags': {'user': 'root'}}
2022-08-20 16:14:56 {'measurement': 'measName', 'fields': {'measV_HV2': -150.0, 'measI_HV2': -2.458842e-07, 'settV_HV2': -150.0, 'settI_HV2': 0.0}, 'tags': {'user': 'root'}}
2022-08-20 16:14:57 {'measurement': 'measName', 'fields': {'measV_HV2': -150.0, 'measI_HV2': -2.519364e-07, 'settV_HV2': -150.0, 'settI_HV2': 0.0}, 'tags': {'user': 'root'}}
2022-08-20 16:14:58 {'measurement': 'measName', 'fields': {'measV_HV2': -150.0, 'measI_HV2': -2.537244e-07, 'settV_HV2': -150.0, 'settI_HV2': 0.0}, 'tags': {'user': 'root'}}
2022-08-20 16:14:58 {'measurement': 'measName', 'fields': {'measV_HV2': -150.0, 'measI_HV2': -2.570482e-07, 'settV_HV2': -150.0, 'settI_HV2': 0.0}, 'tags': {'user': 'root'}}
2022-08-20 16:14:59 {'measurement': 'measName', 'fields': {'measV_HV2': -150.0, 'measI_HV2': -2.547277e-07, 'settV_HV2': -150.0, 'settI_HV2': 0.0}, 'tags': {'user': 'root'}}
2022-08-20 16:15:00 {'measurement': 'measName', 'fields': {'measV_HV2': -150.0, 'measI_HV2': -2.513717e-07, 'settV_HV2': -150.0, 'settI_HV2': 0.0}, 'tags': {'user': 'root'}}
2022-08-20 16:15:00 {'measurement': 'measName', 'fields': {'measV_HV2': -150.0, 'measI_HV2': -2.467364e-07, 'settV_HV2': -150.0, 'settI_HV2': 0.0}, 'tags': {'user': 'root'}}
2022-08-20 16:15:01 {'measurement': 'measName', 'fields': {'measV_HV2': -150.0, 'measI_HV2': -2.438735e-07, 'settV_HV2': -150.0, 'settI_HV2': 0.0}, 'tags': {'user': 'root'}}
2022-08-20 16:15:02 {'measurement': 'measName', 'fields': {'measV_HV2': -150.0, 'measI_HV2': -2.466724e-07, 'settV_HV2': -150.0, 'settI_HV2': 0.0}, 'tags': {'user': 'root'}}
2022-08-20 16:15:02 {'measurement': 'measName', 'fields': {'measV_HV2': -150.0, 'measI_HV2': -2.506107e-07, 'settV_HV2': -150.0, 'settI_HV2': 0.0}, 'tags': {'user': 'root'}}
2022-08-20 16:15:03 {'measurement': 'measName', 'fields': {'measV_HV2': -150.0, 'measI_HV2': -2.557536e-07, 'settV_HV2': -150.0, 'settI_HV2': 0.0}, 'tags': {'user': 'root'}}
2022-08-20 16:15:04 {'measurement': 'measName', 'fields': {'measV_HV2': -150.0, 'measI_HV2': -2.433707e-07, 'settV_HV2': -150.0, 'settI_HV2': 0.0}, 'tags': {'user': 'root'}}
2022-08-20 16:15:05 {'measurement': 'measName', 'fields': {'measV_HV2': -150.0, 'measI_HV2': -2.469349e-07, 'settV_HV2': -150.0, 'settI_HV2': 0.0}, 'tags': {'user': 'root'}}
2022-08-20 16:15:06 {'measurement': 'measName', 'fields': {'measV_HV2': -150.0, 'measI_HV2': -2.492166e-07, 'settV_HV2': -150.0, 'settI_HV2': 0.0}, 'tags': {'user': 'root'}}
2022-08-20 16:15:06 {'measurement': 'measName', 'fields': {'measV_HV2': -150.0, 'measI_HV2': -2.535891e-07, 'settV_HV2': -150.0, 'settI_HV2': 0.0}, 'tags': {'user': 'root'}}
2022-08-20 16:15:07 {'measurement': 'measName', 'fields': {'measV_HV2': -150.0, 'measI_HV2': -2.558249e-07, 'settV_HV2': -150.0, 'settI_HV2': 0.0}, 'tags': {'user': 'root'}}
2022-08-20 16:15:08 {'measurement': 'measName', 'fields': {'measV_HV2': -150.0, 'measI_HV2': -2.556717e-07, 'settV_HV2': -150.0, 'settI_HV2': 0.0}, 'tags': {'user': 'root'}}
2022-08-20 16:15:09 {'measurement': 'measName', 'fields': {'measV_HV2': -150.0, 'measI_HV2': -2.545712e-07, 'settV_HV2': -150.0, 'settI_HV2': 0.0}, 'tags': {'user': 'root'}}
2022-08-20 16:15:09 {'measurement': 'measName', 'fields': {'measV_HV2': -150.0, 'measI_HV2': -2.491954e-07, 'settV_HV2': -150.0, 'settI_HV2': 0.0}, 'tags': {'user': 'root'}}
2022-08-20 16:15:10 {'measurement': 'measName', 'fields': {'measV_HV2': -150.0, 'measI_HV2': -2.465994e-07, 'settV_HV2': -150.0, 'settI_HV2': 0.0}, 'tags': {'user': 'root'}}
2022-08-20 16:15:11 {'measurement': 'measName', 'fields': {'measV_HV2': -150.0, 'measI_HV2': -2.435942e-07, 'settV_HV2': -150.0, 'settI_HV2': 0.0}, 'tags': {'user': 'root'}}
2022-08-20 16:15:11 {'measurement': 'measName', 'fields': {'measV_HV2': -150.0, 'measI_HV2': -2.44329e-07, 'settV_HV2': -150.0, 'settI_HV2': 0.0}, 'tags': {'user': 'root'}}
2022-08-20 16:15:12 {'measurement': 'measName', 'fields': {'measV_HV2': -150.0, 'measI_HV2': -2.51259e-07, 'settV_HV2': -150.0, 'settI_HV2': 0.0}, 'tags': {'user': 'root'}}
2022-08-20 16:15:13 {'measurement': 'measName', 'fields': {'measV_HV2': -150.0, 'measI_HV2': -2.568691e-07, 'settV_HV2': -150.0, 'settI_HV2': 0.0}, 'tags': {'user': 'root'}}
2022-08-20 16:15:13 {'measurement': 'measName', 'fields': {'measV_HV2': -150.0, 'measI_HV2': -2.529086e-07, 'settV_HV2': -150.0, 'settI_HV2': 0.0}, 'tags': {'user': 'root'}}
2022-08-20 16:15:14 {'measurement': 'measName', 'fields': {'measV_HV2': -150.0, 'measI_HV2': -2.454419e-07, 'settV_HV2': -150.0, 'settI_HV2': 0.0}, 'tags': {'user': 'root'}}
2022-08-20 16:15:15 {'measurement': 'measName', 'fields': {'measV_HV2': -150.0, 'measI_HV2': -2.444645e-07, 'settV_HV2': -150.0, 'settI_HV2': 0.0}, 'tags': {'user': 'root'}}
2022-08-20 16:15:16 {'measurement': 'measName', 'fields': {'measV_HV2': -150.0, 'measI_HV2': -2.539602e-07, 'settV_HV2': -150.0, 'settI_HV2': 0.0}, 'tags': {'user': 'root'}}
2022-08-20 16:15:17 {'measurement': 'measName', 'fields': {'measV_HV2': -150.0, 'measI_HV2': -2.502044e-07, 'settV_HV2': -150.0, 'settI_HV2': 0.0}, 'tags': {'user': 'root'}}
2022-08-20 16:15:18 {'measurement': 'measName', 'fields': {'measV_HV2': -150.0, 'measI_HV2': -2.441394e-07, 'settV_HV2': -150.0, 'settI_HV2': 0.0}, 'tags': {'user': 'root'}}
2022-08-20 16:15:18 {'measurement': 'measName', 'fields': {'measV_HV2': -150.0, 'measI_HV2': -2.459076e-07, 'settV_HV2': -150.0, 'settI_HV2': 0.0}, 'tags': {'user': 'root'}}
2022-08-20 16:15:19 {'measurement': 'measName', 'fields': {'measV_HV2': -150.0, 'measI_HV2': -2.508364e-07, 'settV_HV2': -150.0, 'settI_HV2': 0.0}, 'tags': {'user': 'root'}}
2022-08-20 16:15:20 {'measurement': 'measName', 'fields': {'measV_HV2': -150.0, 'measI_HV2': -2.540493e-07, 'settV_HV2': -150.0, 'settI_HV2': 0.0}, 'tags': {'user': 'root'}}
2022-08-20 16:15:20 {'measurement': 'measName', 'fields': {'measV_HV2': -150.0, 'measI_HV2': -2.554296e-07, 'settV_HV2': -150.0, 'settI_HV2': 0.0}, 'tags': {'user': 'root'}}
2022-08-20 16:15:21 {'measurement': 'measName', 'fields': {'measV_HV2': -150.0, 'measI_HV2': -2.560561e-07, 'settV_HV2': -150.0, 'settI_HV2': 0.0}, 'tags': {'user': 'root'}}
2022-08-20 16:15:22 {'measurement': 'measName', 'fields': {'measV_HV2': -150.0, 'measI_HV2': -2.550817e-07, 'settV_HV2': -150.0, 'settI_HV2': 0.0}, 'tags': {'user': 'root'}}
2022-08-20 16:15:22 {'measurement': 'measName', 'fields': {'measV_HV2': -150.0, 'measI_HV2': -2.510465e-07, 'settV_HV2': -150.0, 'settI_HV2': 0.0}, 'tags': {'user': 'root'}}
2022-08-20 16:15:23 {'measurement': 'measName', 'fields': {'measV_HV2': -150.0, 'measI_HV2': -2.496146e-07, 'settV_HV2': -150.0, 'settI_HV2': 0.0}, 'tags': {'user': 'root'}}
2022-08-20 16:15:24 {'measurement': 'measName', 'fields': {'measV_HV2': -150.0, 'measI_HV2': -2.470644e-07, 'settV_HV2': -150.0, 'settI_HV2': 0.0}, 'tags': {'user': 'root'}}
2022-08-20 16:15:24 {'measurement': 'measName', 'fields': {'measV_HV2': -150.0, 'measI_HV2': -2.442767e-07, 'settV_HV2': -150.0, 'settI_HV2': 0.0}, 'tags': {'user': 'root'}}
2022-08-20 16:15:25 {'measurement': 'measName', 'fields': {'measV_HV2': -150.0, 'measI_HV2': -2.443036e-07, 'settV_HV2': -150.0, 'settI_HV2': 0.0}, 'tags': {'user': 'root'}}
2022-08-20 16:15:26 {'measurement': 'measName', 'fields': {'measV_HV2': -150.0, 'measI_HV2': -2.433093e-07, 'settV_HV2': -150.0, 'settI_HV2': 0.0}, 'tags': {'user': 'root'}}
2022-08-20 16:15:27 {'measurement': 'measName', 'fields': {'measV_HV2': -150.0, 'measI_HV2': -2.42571e-07, 'settV_HV2': -150.0, 'settI_HV2': 0.0}, 'tags': {'user': 'root'}}
2022-08-20 16:15:28 {'measurement': 'measName', 'fields': {'measV_HV2': -150.0, 'measI_HV2': -2.512018e-07, 'settV_HV2': -150.0, 'settI_HV2': 0.0}, 'tags': {'user': 'root'}}
2022-08-20 16:15:29 {'measurement': 'measName', 'fields': {'measV_HV2': -150.0, 'measI_HV2': -2.456204e-07, 'settV_HV2': -150.0, 'settI_HV2': 0.0}, 'tags': {'user': 'root'}}
2022-08-20 16:15:29 {'measurement': 'measName', 'fields': {'measV_HV2': -150.0, 'measI_HV2': -2.442115e-07, 'settV_HV2': -150.0, 'settI_HV2': 0.0}, 'tags': {'user': 'root'}}
2022-08-20 16:15:30 {'measurement': 'measName', 'fields': {'measV_HV2': -150.0, 'measI_HV2': -2.504221e-07, 'settV_HV2': -150.0, 'settI_HV2': 0.0}, 'tags': {'user': 'root'}}
2022-08-20 16:15:31 {'measurement': 'measName', 'fields': {'measV_HV2': -150.0, 'measI_HV2': -2.531618e-07, 'settV_HV2': -150.0, 'settI_HV2': 0.0}, 'tags': {'user': 'root'}}
2022-08-20 16:15:31 {'measurement': 'measName', 'fields': {'measV_HV2': -150.0, 'measI_HV2': -2.556438e-07, 'settV_HV2': -150.0, 'settI_HV2': 0.0}, 'tags': {'user': 'root'}}
2022-08-20 16:15:32 {'measurement': 'measName', 'fields': {'measV_HV2': -150.0, 'measI_HV2': -2.547428e-07, 'settV_HV2': -150.0, 'settI_HV2': 0.0}, 'tags': {'user': 'root'}}
2022-08-20 16:15:33 {'measurement': 'measName', 'fields': {'measV_HV2': -150.0, 'measI_HV2': -2.496265e-07, 'settV_HV2': -150.0, 'settI_HV2': 0.0}, 'tags': {'user': 'root'}}
2022-08-20 16:15:33 {'measurement': 'measName', 'fields': {'measV_HV2': -150.0, 'measI_HV2': -2.453211e-07, 'settV_HV2': -150.0, 'settI_HV2': 0.0}, 'tags': {'user': 'root'}}
2022-08-20 16:15:34 {'measurement': 'measName', 'fields': {'measV_HV2': -150.0, 'measI_HV2': -2.431537e-07, 'settV_HV2': -150.0, 'settI_HV2': 0.0}, 'tags': {'user': 'root'}}
2022-08-20 16:15:35 {'measurement': 'measName', 'fields': {'measV_HV2': -150.0, 'measI_HV2': -2.427282e-07, 'settV_HV2': -150.0, 'settI_HV2': 0.0}, 'tags': {'user': 'root'}}
2022-08-20 16:15:36 {'measurement': 'measName', 'fields': {'measV_HV2': -150.0, 'measI_HV2': -2.442466e-07, 'settV_HV2': -150.0, 'settI_HV2': 0.0}, 'tags': {'user': 'root'}}
2022-08-20 16:15:36 {'measurement': 'measName', 'fields': {'measV_HV2': -150.0, 'measI_HV2': -2.462214e-07, 'settV_HV2': -150.0, 'settI_HV2': 0.0}, 'tags': {'user': 'root'}}
2022-08-20 16:15:37 {'measurement': 'measName', 'fields': {'measV_HV2': -150.0, 'measI_HV2': -2.524891e-07, 'settV_HV2': -150.0, 'settI_HV2': 0.0}, 'tags': {'user': 'root'}}
2022-08-20 16:15:38 {'measurement': 'measName', 'fields': {'measV_HV2': -150.0, 'measI_HV2': -2.551743e-07, 'settV_HV2': -150.0, 'settI_HV2': 0.0}, 'tags': {'user': 'root'}}
2022-08-20 16:15:38 {'measurement': 'measName', 'fields': {'measV_HV2': -150.0, 'measI_HV2': -2.548807e-07, 'settV_HV2': -150.0, 'settI_HV2': 0.0}, 'tags': {'user': 'root'}}
2022-08-20 16:15:39 {'measurement': 'measName', 'fields': {'measV_HV2': -150.0, 'measI_HV2': -2.456943e-07, 'settV_HV2': -150.0, 'settI_HV2': 0.0}, 'tags': {'user': 'root'}}
2022-08-20 16:15:40 {'measurement': 'measName', 'fields': {'measV_HV2': -150.0, 'measI_HV2': -2.434902e-07, 'settV_HV2': -150.0, 'settI_HV2': 0.0}, 'tags': {'user': 'root'}}
2022-08-20 16:15:41 {'measurement': 'measName', 'fields': {'measV_HV2': -150.0, 'measI_HV2': -2.435418e-07, 'settV_HV2': -150.0, 'settI_HV2': 0.0}, 'tags': {'user': 'root'}}
2022-08-20 16:15:42 {'measurement': 'measName', 'fields': {'measV_HV2': -150.0, 'measI_HV2': -2.476678e-07, 'settV_HV2': -150.0, 'settI_HV2': 0.0}, 'tags': {'user': 'root'}}
2022-08-20 16:15:42 {'measurement': 'measName', 'fields': {'measV_HV2': -150.0, 'measI_HV2': -2.498202e-07, 'settV_HV2': -150.0, 'settI_HV2': 0.0}, 'tags': {'user': 'root'}}
2022-08-20 16:15:43 {'measurement': 'measName', 'fields': {'measV_HV2': -150.0, 'measI_HV2': -2.531245e-07, 'settV_HV2': -150.0, 'settI_HV2': 0.0}, 'tags': {'user': 'root'}}
2022-08-20 16:15:44 {'measurement': 'measName', 'fields': {'measV_HV2': -150.0, 'measI_HV2': -2.551355e-07, 'settV_HV2': -150.0, 'settI_HV2': 0.0}, 'tags': {'user': 'root'}}
2022-08-20 16:15:44 {'measurement': 'measName', 'fields': {'measV_HV2': -150.0, 'measI_HV2': -2.550128e-07, 'settV_HV2': -150.0, 'settI_HV2': 0.0}, 'tags': {'user': 'root'}}
2022-08-20 16:15:45 {'measurement': 'measName', 'fields': {'measV_HV2': -150.0, 'measI_HV2': -2.49492e-07, 'settV_HV2': -150.0, 'settI_HV2': 0.0}, 'tags': {'user': 'root'}}
2022-08-20 16:15:46 {'measurement': 'measName', 'fields': {'measV_HV2': -150.0, 'measI_HV2': -2.473926e-07, 'settV_HV2': -150.0, 'settI_HV2': 0.0}, 'tags': {'user': 'root'}}
2022-08-20 16:15:47 {'measurement': 'measName', 'fields': {'measV_HV2': -150.0, 'measI_HV2': -2.434286e-07, 'settV_HV2': -150.0, 'settI_HV2': 0.0}, 'tags': {'user': 'root'}}
2022-08-20 16:15:47 {'measurement': 'measName', 'fields': {'measV_HV2': -150.0, 'measI_HV2': -2.439779e-07, 'settV_HV2': -150.0, 'settI_HV2': 0.0}, 'tags': {'user': 'root'}}
2022-08-20 16:15:48 {'measurement': 'measName', 'fields': {'measV_HV2': -150.0, 'measI_HV2': -2.460578e-07, 'settV_HV2': -150.0, 'settI_HV2': 0.0}, 'tags': {'user': 'root'}}
2022-08-20 16:15:49 {'measurement': 'measName', 'fields': {'measV_HV2': -150.0, 'measI_HV2': -2.509391e-07, 'settV_HV2': -150.0, 'settI_HV2': 0.0}, 'tags': {'user': 'root'}}
2022-08-20 16:15:49 {'measurement': 'measName', 'fields': {'measV_HV2': -150.0, 'measI_HV2': -2.535214e-07, 'settV_HV2': -150.0, 'settI_HV2': 0.0}, 'tags': {'user': 'root'}}
2022-08-20 16:15:50 {'measurement': 'measName', 'fields': {'measV_HV2': -150.0, 'measI_HV2': -2.540167e-07, 'settV_HV2': -150.0, 'settI_HV2': 0.0}, 'tags': {'user': 'root'}}
2022-08-20 16:15:51 {'measurement': 'measName', 'fields': {'measV_HV2': -150.0, 'measI_HV2': -2.537342e-07, 'settV_HV2': -150.0, 'settI_HV2': 0.0}, 'tags': {'user': 'root'}}
2022-08-20 16:15:52 {'measurement': 'measName', 'fields': {'measV_HV2': -150.0, 'measI_HV2': -2.496359e-07, 'settV_HV2': -150.0, 'settI_HV2': 0.0}, 'tags': {'user': 'root'}}
2022-08-20 16:15:53 {'measurement': 'measName', 'fields': {'measV_HV2': -150.0, 'measI_HV2': -2.463719e-07, 'settV_HV2': -150.0, 'settI_HV2': 0.0}, 'tags': {'user': 'root'}}
2022-08-20 16:15:53 {'measurement': 'measName', 'fields': {'measV_HV2': -150.0, 'measI_HV2': -2.460393e-07, 'settV_HV2': -150.0, 'settI_HV2': 0.0}, 'tags': {'user': 'root'}}
2022-08-20 16:15:54 {'measurement': 'measName', 'fields': {'measV_HV2': -150.0, 'measI_HV2': -2.438088e-07, 'settV_HV2': -150.0, 'settI_HV2': 0.0}, 'tags': {'user': 'root'}}
2022-08-20 16:15:55 {'measurement': 'measName', 'fields': {'measV_HV2': -150.0, 'measI_HV2': -2.439519e-07, 'settV_HV2': -150.0, 'settI_HV2': 0.0}, 'tags': {'user': 'root'}}
2022-08-20 16:15:55 {'measurement': 'measName', 'fields': {'measV_HV2': -150.0, 'measI_HV2': -2.428646e-07, 'settV_HV2': -150.0, 'settI_HV2': 0.0}, 'tags': {'user': 'root'}}
2022-08-20 16:15:56 {'measurement': 'measName', 'fields': {'measV_HV2': -150.0, 'measI_HV2': -2.431111e-07, 'settV_HV2': -150.0, 'settI_HV2': 0.0}, 'tags': {'user': 'root'}}
2022-08-20 16:15:57 {'measurement': 'measName', 'fields': {'measV_HV2': -150.0, 'measI_HV2': -2.43856e-07, 'settV_HV2': -150.0, 'settI_HV2': 0.0}, 'tags': {'user': 'root'}}
2022-08-20 16:15:57 {'measurement': 'measName', 'fields': {'measV_HV2': -150.0, 'measI_HV2': -2.431181e-07, 'settV_HV2': -150.0, 'settI_HV2': 0.0}, 'tags': {'user': 'root'}}
2022-08-20 16:15:58 {'measurement': 'measName', 'fields': {'measV_HV2': -150.0, 'measI_HV2': -2.453037e-07, 'settV_HV2': -150.0, 'settI_HV2': 0.0}, 'tags': {'user': 'root'}}
2022-08-20 16:15:59 {'measurement': 'measName', 'fields': {'measV_HV2': -150.0, 'measI_HV2': -2.479297e-07, 'settV_HV2': -150.0, 'settI_HV2': 0.0}, 'tags': {'user': 'root'}}
2022-08-20 16:16:00 {'measurement': 'measName', 'fields': {'measV_HV2': -150.0, 'measI_HV2': -2.493643e-07, 'settV_HV2': -150.0, 'settI_HV2': 0.0}, 'tags': {'user': 'root'}}
2022-08-20 16:16:00 {'measurement': 'measName', 'fields': {'measV_HV2': -150.0, 'measI_HV2': -2.496737e-07, 'settV_HV2': -150.0, 'settI_HV2': 0.0}, 'tags': {'user': 'root'}}
2022-08-20 16:16:01 {'measurement': 'measName', 'fields': {'measV_HV2': -150.0, 'measI_HV2': -2.546281e-07, 'settV_HV2': -150.0, 'settI_HV2': 0.0}, 'tags': {'user': 'root'}}
2022-08-20 16:16:02 {'measurement': 'measName', 'fields': {'measV_HV2': -150.0, 'measI_HV2': -2.55816e-07, 'settV_HV2': -150.0, 'settI_HV2': 0.0}, 'tags': {'user': 'root'}}
2022-08-20 16:16:03 {'measurement': 'measName', 'fields': {'measV_HV2': -150.0, 'measI_HV2': -2.550473e-07, 'settV_HV2': -150.0, 'settI_HV2': 0.0}, 'tags': {'user': 'root'}}
2022-08-20 16:16:04 {'measurement': 'measName', 'fields': {'measV_HV2': -150.0, 'measI_HV2': -2.520569e-07, 'settV_HV2': -150.0, 'settI_HV2': 0.0}, 'tags': {'user': 'root'}}
2022-08-20 16:16:04 {'measurement': 'measName', 'fields': {'measV_HV2': -150.0, 'measI_HV2': -2.444239e-07, 'settV_HV2': -150.0, 'settI_HV2': 0.0}, 'tags': {'user': 'root'}}
2022-08-20 16:16:05 {'measurement': 'measName', 'fields': {'measV_HV2': -150.0, 'measI_HV2': -2.439945e-07, 'settV_HV2': -150.0, 'settI_HV2': 0.0}, 'tags': {'user': 'root'}}
2022-08-20 16:16:06 {'measurement': 'measName', 'fields': {'measV_HV2': -150.0, 'measI_HV2': -2.439531e-07, 'settV_HV2': -150.0, 'settI_HV2': 0.0}, 'tags': {'user': 'root'}}
2022-08-20 16:16:06 {'measurement': 'measName', 'fields': {'measV_HV2': -150.0, 'measI_HV2': -2.441558e-07, 'settV_HV2': -150.0, 'settI_HV2': 0.0}, 'tags': {'user': 'root'}}
2022-08-20 16:16:07 {'measurement': 'measName', 'fields': {'measV_HV2': -150.0, 'measI_HV2': -2.437339e-07, 'settV_HV2': -150.0, 'settI_HV2': 0.0}, 'tags': {'user': 'root'}}
2022-08-20 16:16:08 {'measurement': 'measName', 'fields': {'measV_HV2': -150.0, 'measI_HV2': -2.431231e-07, 'settV_HV2': -150.0, 'settI_HV2': 0.0}, 'tags': {'user': 'root'}}
2022-08-20 16:16:08 {'measurement': 'measName', 'fields': {'measV_HV2': -150.0, 'measI_HV2': -2.463547e-07, 'settV_HV2': -150.0, 'settI_HV2': 0.0}, 'tags': {'user': 'root'}}
2022-08-20 16:16:09 {'measurement': 'measName', 'fields': {'measV_HV2': -150.0, 'measI_HV2': -2.494915e-07, 'settV_HV2': -150.0, 'settI_HV2': 0.0}, 'tags': {'user': 'root'}}
2022-08-20 16:16:10 {'measurement': 'measName', 'fields': {'measV_HV2': -150.0, 'measI_HV2': -2.47843e-07, 'settV_HV2': -150.0, 'settI_HV2': 0.0}, 'tags': {'user': 'root'}}
2022-08-20 16:16:11 {'measurement': 'measName', 'fields': {'measV_HV2': -150.0, 'measI_HV2': -2.465589e-07, 'settV_HV2': -150.0, 'settI_HV2': 0.0}, 'tags': {'user': 'root'}}
2022-08-20 16:16:11 {'measurement': 'measName', 'fields': {'measV_HV2': -150.0, 'measI_HV2': -2.482979e-07, 'settV_HV2': -150.0, 'settI_HV2': 0.0}, 'tags': {'user': 'root'}}
2022-08-20 16:16:12 {'measurement': 'measName', 'fields': {'measV_HV2': -150.0, 'measI_HV2': -2.517372e-07, 'settV_HV2': -150.0, 'settI_HV2': 0.0}, 'tags': {'user': 'root'}}
2022-08-20 16:16:13 {'measurement': 'measName', 'fields': {'measV_HV2': -150.0, 'measI_HV2': -2.531655e-07, 'settV_HV2': -150.0, 'settI_HV2': 0.0}, 'tags': {'user': 'root'}}
2022-08-20 16:16:13 {'measurement': 'measName', 'fields': {'measV_HV2': -150.0, 'measI_HV2': -2.541647e-07, 'settV_HV2': -150.0, 'settI_HV2': 0.0}, 'tags': {'user': 'root'}}
2022-08-20 16:16:14 {'measurement': 'measName', 'fields': {'measV_HV2': -150.0, 'measI_HV2': -2.458285e-07, 'settV_HV2': -150.0, 'settI_HV2': 0.0}, 'tags': {'user': 'root'}}
2022-08-20 16:16:15 {'measurement': 'measName', 'fields': {'measV_HV2': -150.0, 'measI_HV2': -2.508046e-07, 'settV_HV2': -150.0, 'settI_HV2': 0.0}, 'tags': {'user': 'root'}}
2022-08-20 16:16:16 {'measurement': 'measName', 'fields': {'measV_HV2': -150.0, 'measI_HV2': -2.52246e-07, 'settV_HV2': -150.0, 'settI_HV2': 0.0}, 'tags': {'user': 'root'}}
2022-08-20 16:16:17 {'measurement': 'measName', 'fields': {'measV_HV2': -150.0, 'measI_HV2': -2.555772e-07, 'settV_HV2': -150.0, 'settI_HV2': 0.0}, 'tags': {'user': 'root'}}
2022-08-20 16:16:17 {'measurement': 'measName', 'fields': {'measV_HV2': -150.0, 'measI_HV2': -2.554492e-07, 'settV_HV2': -150.0, 'settI_HV2': 0.0}, 'tags': {'user': 'root'}}
2022-08-20 16:16:18 {'measurement': 'measName', 'fields': {'measV_HV2': -150.0, 'measI_HV2': -2.514911e-07, 'settV_HV2': -150.0, 'settI_HV2': 0.0}, 'tags': {'user': 'root'}}
2022-08-20 16:16:19 {'measurement': 'measName', 'fields': {'measV_HV2': -150.0, 'measI_HV2': -2.471192e-07, 'settV_HV2': -150.0, 'settI_HV2': 0.0}, 'tags': {'user': 'root'}}
2022-08-20 16:16:20 {'measurement': 'measName', 'fields': {'measV_HV2': -150.0, 'measI_HV2': -2.488619e-07, 'settV_HV2': -150.0, 'settI_HV2': 0.0}, 'tags': {'user': 'root'}}
2022-08-20 16:16:20 {'measurement': 'measName', 'fields': {'measV_HV2': -150.0, 'measI_HV2': -2.471624e-07, 'settV_HV2': -150.0, 'settI_HV2': 0.0}, 'tags': {'user': 'root'}}
2022-08-20 16:16:21 {'measurement': 'measName', 'fields': {'measV_HV2': -150.0, 'measI_HV2': -2.455317e-07, 'settV_HV2': -150.0, 'settI_HV2': 0.0}, 'tags': {'user': 'root'}}
2022-08-20 16:16:22 {'measurement': 'measName', 'fields': {'measV_HV2': -150.0, 'measI_HV2': -2.438313e-07, 'settV_HV2': -150.0, 'settI_HV2': 0.0}, 'tags': {'user': 'root'}}
2022-08-20 16:16:22 {'measurement': 'measName', 'fields': {'measV_HV2': -150.0, 'measI_HV2': -2.434443e-07, 'settV_HV2': -150.0, 'settI_HV2': 0.0}, 'tags': {'user': 'root'}}
2022-08-20 16:16:23 {'measurement': 'measName', 'fields': {'measV_HV2': -150.0, 'measI_HV2': -2.427134e-07, 'settV_HV2': -150.0, 'settI_HV2': 0.0}, 'tags': {'user': 'root'}}
2022-08-20 16:16:24 {'measurement': 'measName', 'fields': {'measV_HV2': -150.0, 'measI_HV2': -2.417021e-07, 'settV_HV2': -150.0, 'settI_HV2': 0.0}, 'tags': {'user': 'root'}}
2022-08-20 16:16:24 {'measurement': 'measName', 'fields': {'measV_HV2': -150.0, 'measI_HV2': -2.444635e-07, 'settV_HV2': -150.0, 'settI_HV2': 0.0}, 'tags': {'user': 'root'}}
2022-08-20 16:16:25 {'measurement': 'measName', 'fields': {'measV_HV2': -150.0, 'measI_HV2': -2.486198e-07, 'settV_HV2': -150.0, 'settI_HV2': 0.0}, 'tags': {'user': 'root'}}
2022-08-20 16:16:26 {'measurement': 'measName', 'fields': {'measV_HV2': -150.0, 'measI_HV2': -2.538657e-07, 'settV_HV2': -150.0, 'settI_HV2': 0.0}, 'tags': {'user': 'root'}}
2022-08-20 16:16:27 {'measurement': 'measName', 'fields': {'measV_HV2': -150.0, 'measI_HV2': -2.543437e-07, 'settV_HV2': -150.0, 'settI_HV2': 0.0}, 'tags': {'user': 'root'}}
2022-08-20 16:16:28 {'measurement': 'measName', 'fields': {'measV_HV2': -150.0, 'measI_HV2': -2.528147e-07, 'settV_HV2': -150.0, 'settI_HV2': 0.0}, 'tags': {'user': 'root'}}
2022-08-20 16:16:28 {'measurement': 'measName', 'fields': {'measV_HV2': -150.0, 'measI_HV2': -2.509384e-07, 'settV_HV2': -150.0, 'settI_HV2': 0.0}, 'tags': {'user': 'root'}}
2022-08-20 16:16:29 {'measurement': 'measName', 'fields': {'measV_HV2': -150.0, 'measI_HV2': -2.516902e-07, 'settV_HV2': -150.0, 'settI_HV2': 0.0}, 'tags': {'user': 'root'}}
2022-08-20 16:16:30 {'measurement': 'measName', 'fields': {'measV_HV2': -150.0, 'measI_HV2': -2.48798e-07, 'settV_HV2': -150.0, 'settI_HV2': 0.0}, 'tags': {'user': 'root'}}
2022-08-20 16:16:30 {'measurement': 'measName', 'fields': {'measV_HV2': -150.0, 'measI_HV2': -2.454355e-07, 'settV_HV2': -150.0, 'settI_HV2': 0.0}, 'tags': {'user': 'root'}}
2022-08-20 16:16:31 {'measurement': 'measName', 'fields': {'measV_HV2': -150.0, 'measI_HV2': -2.425193e-07, 'settV_HV2': -150.0, 'settI_HV2': 0.0}, 'tags': {'user': 'root'}}
2022-08-20 16:16:32 {'measurement': 'measName', 'fields': {'measV_HV2': -150.0, 'measI_HV2': -2.436053e-07, 'settV_HV2': -150.0, 'settI_HV2': 0.0}, 'tags': {'user': 'root'}}
2022-08-20 16:16:33 {'measurement': 'measName', 'fields': {'measV_HV2': -150.0, 'measI_HV2': -2.433734e-07, 'settV_HV2': -150.0, 'settI_HV2': 0.0}, 'tags': {'user': 'root'}}
2022-08-20 16:16:33 {'measurement': 'measName', 'fields': {'measV_HV2': -150.0, 'measI_HV2': -2.448726e-07, 'settV_HV2': -150.0, 'settI_HV2': 0.0}, 'tags': {'user': 'root'}}
2022-08-20 16:16:34 {'measurement': 'measName', 'fields': {'measV_HV2': -150.0, 'measI_HV2': -2.444425e-07, 'settV_HV2': -150.0, 'settI_HV2': 0.0}, 'tags': {'user': 'root'}}
2022-08-20 16:16:35 {'measurement': 'measName', 'fields': {'measV_HV2': -150.0, 'measI_HV2': -2.438639e-07, 'settV_HV2': -150.0, 'settI_HV2': 0.0}, 'tags': {'user': 'root'}}
2022-08-20 16:16:35 {'measurement': 'measName', 'fields': {'measV_HV2': -150.0, 'measI_HV2': -2.437546e-07, 'settV_HV2': -150.0, 'settI_HV2': 0.0}, 'tags': {'user': 'root'}}
2022-08-20 16:16:36 {'measurement': 'measName', 'fields': {'measV_HV2': -150.0, 'measI_HV2': -2.436244e-07, 'settV_HV2': -150.0, 'settI_HV2': 0.0}, 'tags': {'user': 'root'}}
2022-08-20 16:16:37 {'measurement': 'measName', 'fields': {'measV_HV2': -150.0, 'measI_HV2': -150.0, 'settV_HV2': -150.0, 'settI_HV2': 0.0}, 'tags': {'user': 'root'}}
2022-08-20 16:16:38 {'measurement': 'measName', 'fields': {'measV_HV2': -150.0, 'measI_HV2': -2.45888e-07, 'settV_HV2': -150.0, 'settI_HV2': 0.0}, 'tags': {'user': 'root'}}
2022-08-20 16:16:39 {'measurement': 'measName', 'fields': {'measV_HV2': -150.0, 'measI_HV2': -2.447121e-07, 'settV_HV2': -150.0, 'settI_HV2': 0.0}, 'tags': {'user': 'root'}}
2022-08-20 16:16:39 {'measurement': 'measName', 'fields': {'measV_HV2': -150.0, 'measI_HV2': -2.451459e-07, 'settV_HV2': -150.0, 'settI_HV2': 0.0}, 'tags': {'user': 'root'}}
2022-08-20 16:16:40 {'measurement': 'measName', 'fields': {'measV_HV2': -150.0, 'measI_HV2': -2.449785e-07, 'settV_HV2': -150.0, 'settI_HV2': 0.0}, 'tags': {'user': 'root'}}
2022-08-20 16:16:41 {'measurement': 'measName', 'fields': {'measV_HV2': -150.0, 'measI_HV2': -2.452851e-07, 'settV_HV2': -150.0, 'settI_HV2': 0.0}, 'tags': {'user': 'root'}}
2022-08-20 16:16:41 {'measurement': 'measName', 'fields': {'measV_HV2': -150.0, 'measI_HV2': -2.446837e-07, 'settV_HV2': -150.0, 'settI_HV2': 0.0}, 'tags': {'user': 'root'}}
2022-08-20 16:16:42 {'measurement': 'measName', 'fields': {'measV_HV2': -150.0, 'measI_HV2': -2.456345e-07, 'settV_HV2': -150.0, 'settI_HV2': 0.0}, 'tags': {'user': 'root'}}
2022-08-20 16:16:43 {'measurement': 'measName', 'fields': {'measV_HV2': -150.0, 'measI_HV2': -2.464437e-07, 'settV_HV2': -150.0, 'settI_HV2': 0.0}, 'tags': {'user': 'root'}}
2022-08-20 16:16:44 {'measurement': 'measName', 'fields': {'measV_HV2': -150.0, 'measI_HV2': -2.481533e-07, 'settV_HV2': -150.0, 'settI_HV2': 0.0}, 'tags': {'user': 'root'}}
2022-08-20 16:16:44 {'measurement': 'measName', 'fields': {'measV_HV2': -150.0, 'measI_HV2': -2.452243e-07, 'settV_HV2': -150.0, 'settI_HV2': 0.0}, 'tags': {'user': 'root'}}
2022-08-20 16:16:45 {'measurement': 'measName', 'fields': {'measV_HV2': -150.0, 'measI_HV2': -2.471795e-07, 'settV_HV2': -150.0, 'settI_HV2': 0.0}, 'tags': {'user': 'root'}}
2022-08-20 16:16:46 {'measurement': 'measName', 'fields': {'measV_HV2': -150.0, 'measI_HV2': -2.462696e-07, 'settV_HV2': -150.0, 'settI_HV2': 0.0}, 'tags': {'user': 'root'}}
2022-08-20 16:16:46 {'measurement': 'measName', 'fields': {'measV_HV2': -150.0, 'measI_HV2': -2.485684e-07, 'settV_HV2': -150.0, 'settI_HV2': 0.0}, 'tags': {'user': 'root'}}
2022-08-20 16:16:47 {'measurement': 'measName', 'fields': {'measV_HV2': -150.0, 'measI_HV2': -2.518439e-07, 'settV_HV2': -150.0, 'settI_HV2': 0.0}, 'tags': {'user': 'root'}}
2022-08-20 16:16:48 {'measurement': 'measName', 'fields': {'measV_HV2': -150.0, 'measI_HV2': -2.518104e-07, 'settV_HV2': -150.0, 'settI_HV2': 0.0}, 'tags': {'user': 'root'}}
2022-08-20 16:16:49 {'measurement': 'measName', 'fields': {'measV_HV2': -150.0, 'measI_HV2': -2.533493e-07, 'settV_HV2': -150.0, 'settI_HV2': 0.0}, 'tags': {'user': 'root'}}
2022-08-20 16:16:50 {'measurement': 'measName', 'fields': {'measV_HV2': -150.0, 'measI_HV2': -2.527027e-07, 'settV_HV2': -150.0, 'settI_HV2': 0.0}, 'tags': {'user': 'root'}}
2022-08-20 16:16:50 {'measurement': 'measName', 'fields': {'measV_HV2': -150.0, 'measI_HV2': -2.510641e-07, 'settV_HV2': -150.0, 'settI_HV2': 0.0}, 'tags': {'user': 'root'}}
2022-08-20 16:16:51 {'measurement': 'measName', 'fields': {'measV_HV2': -150.0, 'measI_HV2': -2.520022e-07, 'settV_HV2': -150.0, 'settI_HV2': 0.0}, 'tags': {'user': 'root'}}
2022-08-20 16:16:52 {'measurement': 'measName', 'fields': {'measV_HV2': -150.0, 'measI_HV2': -2.531559e-07, 'settV_HV2': -150.0, 'settI_HV2': 0.0}, 'tags': {'user': 'root'}}
2022-08-20 16:16:52 {'measurement': 'measName', 'fields': {'measV_HV2': -150.0, 'measI_HV2': -2.530843e-07, 'settV_HV2': -150.0, 'settI_HV2': 0.0}, 'tags': {'user': 'root'}}
2022-08-20 16:16:53 {'measurement': 'measName', 'fields': {'measV_HV2': -150.0, 'measI_HV2': -2.519623e-07, 'settV_HV2': -150.0, 'settI_HV2': 0.0}, 'tags': {'user': 'root'}}
2022-08-20 16:16:54 {'measurement': 'measName', 'fields': {'measV_HV2': -150.0, 'measI_HV2': -2.524197e-07, 'settV_HV2': -150.0, 'settI_HV2': 0.0}, 'tags': {'user': 'root'}}
2022-08-20 16:16:55 {'measurement': 'measName', 'fields': {'measV_HV2': -150.0, 'measI_HV2': -2.461047e-07, 'settV_HV2': -150.0, 'settI_HV2': 0.0}, 'tags': {'user': 'root'}}
2022-08-20 16:16:55 {'measurement': 'measName', 'fields': {'measV_HV2': -150.0, 'measI_HV2': -2.43218e-07, 'settV_HV2': -150.0, 'settI_HV2': 0.0}, 'tags': {'user': 'root'}}
2022-08-20 16:16:56 {'measurement': 'measName', 'fields': {'measV_HV2': -150.0, 'measI_HV2': -2.427236e-07, 'settV_HV2': -150.0, 'settI_HV2': 0.0}, 'tags': {'user': 'root'}}
2022-08-20 16:16:57 {'measurement': 'measName', 'fields': {'measV_HV2': -150.0, 'measI_HV2': -2.434693e-07, 'settV_HV2': -150.0, 'settI_HV2': 0.0}, 'tags': {'user': 'root'}}
2022-08-20 16:16:57 {'measurement': 'measName', 'fields': {'measV_HV2': -150.0, 'measI_HV2': -2.439764e-07, 'settV_HV2': -150.0, 'settI_HV2': 0.0}, 'tags': {'user': 'root'}}
2022-08-20 16:16:58 {'measurement': 'measName', 'fields': {'measV_HV2': -150.0, 'measI_HV2': -2.472802e-07, 'settV_HV2': -150.0, 'settI_HV2': 0.0}, 'tags': {'user': 'root'}}
2022-08-20 16:16:59 {'measurement': 'measName', 'fields': {'measV_HV2': -150.0, 'measI_HV2': -2.507072e-07, 'settV_HV2': -150.0, 'settI_HV2': 0.0}, 'tags': {'user': 'root'}}
2022-08-20 16:16:59 {'measurement': 'measName', 'fields': {'measV_HV2': -150.0, 'measI_HV2': -2.535277e-07, 'settV_HV2': -150.0, 'settI_HV2': 0.0}, 'tags': {'user': 'root'}}
2022-08-20 16:17:00 {'measurement': 'measName', 'fields': {'measV_HV2': -150.0, 'measI_HV2': -2.513424e-07, 'settV_HV2': -150.0, 'settI_HV2': 0.0}, 'tags': {'user': 'root'}}
2022-08-20 16:17:01 {'measurement': 'measName', 'fields': {'measV_HV2': -150.0, 'measI_HV2': -2.454393e-07, 'settV_HV2': -150.0, 'settI_HV2': 0.0}, 'tags': {'user': 'root'}}
2022-08-20 16:17:02 {'measurement': 'measName', 'fields': {'measV_HV2': -150.0, 'measI_HV2': -2.414621e-07, 'settV_HV2': -150.0, 'settI_HV2': 0.0}, 'tags': {'user': 'root'}}
2022-08-20 16:17:03 {'measurement': 'measName', 'fields': {'measV_HV2': -150.0, 'measI_HV2': -2.446648e-07, 'settV_HV2': -150.0, 'settI_HV2': 0.0}, 'tags': {'user': 'root'}}
2022-08-20 16:17:03 {'measurement': 'measName', 'fields': {'measV_HV2': -150.0, 'measI_HV2': -2.483611e-07, 'settV_HV2': -150.0, 'settI_HV2': 0.0}, 'tags': {'user': 'root'}}
2022-08-20 16:17:04 {'measurement': 'measName', 'fields': {'measV_HV2': -150.0, 'measI_HV2': -2.529308e-07, 'settV_HV2': -150.0, 'settI_HV2': 0.0}, 'tags': {'user': 'root'}}
2022-08-20 16:17:05 {'measurement': 'measName', 'fields': {'measV_HV2': -150.0, 'measI_HV2': -2.534181e-07, 'settV_HV2': -150.0, 'settI_HV2': 0.0}, 'tags': {'user': 'root'}}
2022-08-20 16:17:06 {'measurement': 'measName', 'fields': {'measV_HV2': -150.0, 'measI_HV2': -2.53349e-07, 'settV_HV2': -150.0, 'settI_HV2': 0.0}, 'tags': {'user': 'root'}}
2022-08-20 16:17:06 {'measurement': 'measName', 'fields': {'measV_HV2': -150.0, 'measI_HV2': -2.544949e-07, 'settV_HV2': -150.0, 'settI_HV2': 0.0}, 'tags': {'user': 'root'}}
2022-08-20 16:17:07 {'measurement': 'measName', 'fields': {'measV_HV2': -150.0, 'measI_HV2': -2.532983e-07, 'settV_HV2': -150.0, 'settI_HV2': 0.0}, 'tags': {'user': 'root'}}
2022-08-20 16:17:08 {'measurement': 'measName', 'fields': {'measV_HV2': -150.0, 'measI_HV2': -2.493113e-07, 'settV_HV2': -150.0, 'settI_HV2': 0.0}, 'tags': {'user': 'root'}}
2022-08-20 16:17:08 {'measurement': 'measName', 'fields': {'measV_HV2': -150.0, 'measI_HV2': -2.471779e-07, 'settV_HV2': -150.0, 'settI_HV2': 0.0}, 'tags': {'user': 'root'}}
2022-08-20 16:17:09 {'measurement': 'measName', 'fields': {'measV_HV2': -150.0, 'measI_HV2': -2.45059e-07, 'settV_HV2': -150.0, 'settI_HV2': 0.0}, 'tags': {'user': 'root'}}
2022-08-20 16:17:10 {'measurement': 'measName', 'fields': {'measV_HV2': -150.0, 'measI_HV2': -2.409636e-07, 'settV_HV2': -150.0, 'settI_HV2': 0.0}, 'tags': {'user': 'root'}}
2022-08-20 16:17:10 {'measurement': 'measName', 'fields': {'measV_HV2': -150.0, 'measI_HV2': -2.420507e-07, 'settV_HV2': -150.0, 'settI_HV2': 0.0}, 'tags': {'user': 'root'}}
2022-08-20 16:17:11 {'measurement': 'measName', 'fields': {'measV_HV2': -150.0, 'measI_HV2': -2.450757e-07, 'settV_HV2': -150.0, 'settI_HV2': 0.0}, 'tags': {'user': 'root'}}
2022-08-20 16:17:12 {'measurement': 'measName', 'fields': {'measV_HV2': -150.0, 'measI_HV2': -2.504486e-07, 'settV_HV2': -150.0, 'settI_HV2': 0.0}, 'tags': {'user': 'root'}}
2022-08-20 16:17:13 {'measurement': 'measName', 'fields': {'measV_HV2': -150.0, 'measI_HV2': -2.509918e-07, 'settV_HV2': -150.0, 'settI_HV2': 0.0}, 'tags': {'user': 'root'}}
2022-08-20 16:17:14 {'measurement': 'measName', 'fields': {'measV_HV2': -150.0, 'measI_HV2': -2.49456e-07, 'settV_HV2': -150.0, 'settI_HV2': 0.0}, 'tags': {'user': 'root'}}
2022-08-20 16:17:14 {'measurement': 'measName', 'fields': {'measV_HV2': -150.0, 'measI_HV2': -2.436769e-07, 'settV_HV2': -150.0, 'settI_HV2': 0.0}, 'tags': {'user': 'root'}}
2022-08-20 16:17:15 {'measurement': 'measName', 'fields': {'measV_HV2': -150.0, 'measI_HV2': -2.41273e-07, 'settV_HV2': -150.0, 'settI_HV2': 0.0}, 'tags': {'user': 'root'}}
2022-08-20 16:17:16 {'measurement': 'measName', 'fields': {'measV_HV2': -150.0, 'measI_HV2': -2.42103e-07, 'settV_HV2': -150.0, 'settI_HV2': 0.0}, 'tags': {'user': 'root'}}
2022-08-20 16:17:17 {'measurement': 'measName', 'fields': {'measV_HV2': -150.0, 'measI_HV2': -2.425238e-07, 'settV_HV2': -150.0, 'settI_HV2': 0.0}, 'tags': {'user': 'root'}}
2022-08-20 16:17:17 {'measurement': 'measName', 'fields': {'measV_HV2': -150.0, 'measI_HV2': -2.472146e-07, 'settV_HV2': -150.0, 'settI_HV2': 0.0}, 'tags': {'user': 'root'}}
2022-08-20 16:17:18 {'measurement': 'measName', 'fields': {'measV_HV2': -150.0, 'measI_HV2': -2.500481e-07, 'settV_HV2': -150.0, 'settI_HV2': 0.0}, 'tags': {'user': 'root'}}
2022-08-20 16:17:19 {'measurement': 'measName', 'fields': {'measV_HV2': -150.0, 'measI_HV2': -2.53233e-07, 'settV_HV2': -150.0, 'settI_HV2': 0.0}, 'tags': {'user': 'root'}}
2022-08-20 16:17:19 {'measurement': 'measName', 'fields': {'measV_HV2': -150.0, 'measI_HV2': -2.527521e-07, 'settV_HV2': -150.0, 'settI_HV2': 0.0}, 'tags': {'user': 'root'}}
2022-08-20 16:17:20 {'measurement': 'measName', 'fields': {'measV_HV2': -150.0, 'measI_HV2': -2.532941e-07, 'settV_HV2': -150.0, 'settI_HV2': 0.0}, 'tags': {'user': 'root'}}
2022-08-20 16:17:21 {'measurement': 'measName', 'fields': {'measV_HV2': -150.0, 'measI_HV2': -2.512386e-07, 'settV_HV2': -150.0, 'settI_HV2': 0.0}, 'tags': {'user': 'root'}}
2022-08-20 16:17:21 {'measurement': 'measName', 'fields': {'measV_HV2': -150.0, 'measI_HV2': -2.532849e-07, 'settV_HV2': -150.0, 'settI_HV2': 0.0}, 'tags': {'user': 'root'}}
2022-08-20 16:17:22 {'measurement': 'measName', 'fields': {'measV_HV2': -150.0, 'measI_HV2': -2.509527e-07, 'settV_HV2': -150.0, 'settI_HV2': 0.0}, 'tags': {'user': 'root'}}
2022-08-20 16:17:23 {'measurement': 'measName', 'fields': {'measV_HV2': -150.0, 'measI_HV2': -2.490241e-07, 'settV_HV2': -150.0, 'settI_HV2': 0.0}, 'tags': {'user': 'root'}}
2022-08-20 16:17:24 {'measurement': 'measName', 'fields': {'measV_HV2': -2.495134e-07, 'measI_HV2': -2.412791e-07, 'settV_HV2': -150.0, 'settI_HV2': 0.0}, 'tags': {'user': 'root'}}
2022-08-20 16:17:25 {'measurement': 'measName', 'fields': {'measV_HV2': -150.0, 'measI_HV2': -2.467648e-07, 'settV_HV2': -150.0, 'settI_HV2': 0.0}, 'tags': {'user': 'root'}}
2022-08-20 16:17:26 {'measurement': 'measName', 'fields': {'measV_HV2': -150.0, 'measI_HV2': -2.510304e-07, 'settV_HV2': -150.0, 'settI_HV2': 0.0}, 'tags': {'user': 'root'}}
2022-08-20 16:17:26 {'measurement': 'measName', 'fields': {'measV_HV2': -150.0, 'measI_HV2': -2.497333e-07, 'settV_HV2': -150.0, 'settI_HV2': 0.0}, 'tags': {'user': 'root'}}
2022-08-20 16:17:27 {'measurement': 'measName', 'fields': {'measV_HV2': -150.0, 'measI_HV2': -2.513014e-07, 'settV_HV2': -150.0, 'settI_HV2': 0.0}, 'tags': {'user': 'root'}}
2022-08-20 16:17:28 {'measurement': 'measName', 'fields': {'measV_HV2': -150.0, 'measI_HV2': -2.530182e-07, 'settV_HV2': -150.0, 'settI_HV2': 0.0}, 'tags': {'user': 'root'}}
2022-08-20 16:17:28 {'measurement': 'measName', 'fields': {'measV_HV2': -150.0, 'measI_HV2': -2.536831e-07, 'settV_HV2': -150.0, 'settI_HV2': 0.0}, 'tags': {'user': 'root'}}
2022-08-20 16:17:29 {'measurement': 'measName', 'fields': {'measV_HV2': -150.0, 'measI_HV2': -2.504931e-07, 'settV_HV2': -150.0, 'settI_HV2': 0.0}, 'tags': {'user': 'root'}}
2022-08-20 16:17:30 {'measurement': 'measName', 'fields': {'measV_HV2': -150.0, 'measI_HV2': -2.474262e-07, 'settV_HV2': -150.0, 'settI_HV2': 0.0}, 'tags': {'user': 'root'}}
2022-08-20 16:17:30 {'measurement': 'measName', 'fields': {'measV_HV2': -150.0, 'measI_HV2': -2.42096e-07, 'settV_HV2': -150.0, 'settI_HV2': 0.0}, 'tags': {'user': 'root'}}
2022-08-20 16:17:31 {'measurement': 'measName', 'fields': {'measV_HV2': -150.0, 'measI_HV2': -2.405888e-07, 'settV_HV2': -150.0, 'settI_HV2': 0.0}, 'tags': {'user': 'root'}}
2022-08-20 16:17:32 {'measurement': 'measName', 'fields': {'measV_HV2': -150.0, 'measI_HV2': -2.408968e-07, 'settV_HV2': -150.0, 'settI_HV2': 0.0}, 'tags': {'user': 'root'}}
2022-08-20 16:17:32 {'measurement': 'measName', 'fields': {'measV_HV2': -150.0, 'measI_HV2': -2.417415e-07, 'settV_HV2': -150.0, 'settI_HV2': 0.0}, 'tags': {'user': 'root'}}
2022-08-20 16:17:33 {'measurement': 'measName', 'fields': {'measV_HV2': -150.0, 'measI_HV2': -2.449645e-07, 'settV_HV2': -150.0, 'settI_HV2': 0.0}, 'tags': {'user': 'root'}}
2022-08-20 16:17:34 {'measurement': 'measName', 'fields': {'measV_HV2': -150.0, 'measI_HV2': -2.495316e-07, 'settV_HV2': -150.0, 'settI_HV2': 0.0}, 'tags': {'user': 'root'}}
2022-08-20 16:17:35 {'measurement': 'measName', 'fields': {'measV_HV2': -150.0, 'measI_HV2': -2.52078e-07, 'settV_HV2': -150.0, 'settI_HV2': 0.0}, 'tags': {'user': 'root'}}
2022-08-20 16:17:36 {'measurement': 'measName', 'fields': {'measV_HV2': -150.0, 'measI_HV2': -2.415914e-07, 'settV_HV2': -150.0, 'settI_HV2': 0.0}, 'tags': {'user': 'root'}}
2022-08-20 16:17:37 {'measurement': 'measName', 'fields': {'measV_HV2': -150.0, 'measI_HV2': -2.420435e-07, 'settV_HV2': -150.0, 'settI_HV2': 0.0}, 'tags': {'user': 'root'}}
2022-08-20 16:17:37 {'measurement': 'measName', 'fields': {'measV_HV2': -150.0, 'measI_HV2': -2.406227e-07, 'settV_HV2': -150.0, 'settI_HV2': 0.0}, 'tags': {'user': 'root'}}
2022-08-20 16:17:38 {'measurement': 'measName', 'fields': {'measV_HV2': -150.0, 'measI_HV2': -2.405954e-07, 'settV_HV2': -150.0, 'settI_HV2': 0.0}, 'tags': {'user': 'root'}}
2022-08-20 16:17:39 {'measurement': 'measName', 'fields': {'measV_HV2': -150.0, 'measI_HV2': -2.404595e-07, 'settV_HV2': -150.0, 'settI_HV2': 0.0}, 'tags': {'user': 'root'}}
2022-08-20 16:17:39 {'measurement': 'measName', 'fields': {'measV_HV2': -150.0, 'measI_HV2': -2.407486e-07, 'settV_HV2': -150.0, 'settI_HV2': 0.0}, 'tags': {'user': 'root'}}
2022-08-20 16:17:40 {'measurement': 'measName', 'fields': {'measV_HV2': -150.0, 'measI_HV2': -2.435162e-07, 'settV_HV2': -150.0, 'settI_HV2': 0.0}, 'tags': {'user': 'root'}}
