{
	"Module": {
		"ModuleID": "Goe4",
		"FolderPath": {
			"Stage1": "/home/itkpix/YARRs/YARR_FELIX_MASTER/data/M6M12DemonstratorCrosstalk/M12on",
			"Stage2": "/home/itkpix/YARRs/YARR_FELIX_MASTER/data/M6M12DemonstratorCrosstalk/M6M12on",
			"Stage3": "",
			"Stage4": "",
			"Stage5": "",
			"Stage6": ""
		},
		"FWB": {
			"Stage1": "",
			"Stage2": "",
			"Stage3": "",
			"Stage4": "",
			"Stage5": "",
			"Stage6": ""
		},
		"Temperature": {
			"Stage1": 1,
			"Stage2": 1,
			"Stage3": 1,
			"Stage4": 1,
			"Stage5": 1,
			"Stage6": 1
		},
		"Type": [
			"diff",
			"lin",
			"syn"
		],
		"FE1": "20UPGFC0012354",
		"FE2": "20UPGFC0012370",
		"FE3": "20UPGFC0012386",
		"FE4": "20UPGFC0012339"
	},
	"PlotConfig": "./PlotConfig.json",
	"OutputFormat": [
		".png",
		".pdf"
	]
}