\relax 
\@writefile{toc}{\contentsline {section}{\numberline {1}Section title}{2}}
\newlabel{sect:start}{{1}{2}}
\@writefile{toc}{\contentsline {subsection}{\numberline {1.1}SubSection title}{2}}
\@setckpt{FileExample}{
\setcounter{page}{3}
\setcounter{equation}{0}
\setcounter{enumi}{0}
\setcounter{enumii}{0}
\setcounter{enumiii}{0}
\setcounter{enumiv}{0}
\setcounter{footnote}{0}
\setcounter{mpfootnote}{0}
\setcounter{part}{0}
\setcounter{section}{1}
\setcounter{subsection}{1}
\setcounter{subsubsection}{0}
\setcounter{paragraph}{0}
\setcounter{subparagraph}{0}
\setcounter{figure}{0}
\setcounter{table}{0}
\setcounter{Maxaffil}{2}
\setcounter{authors}{1}
\setcounter{affil}{1}
\setcounter{parentequation}{0}
\setcounter{float@type}{4}
}
