\relax 
\@writefile{toc}{\contentsline {chapter}{\numberline {1}Thermal Test}{2}}
\@writefile{lof}{\addvspace {10\p@ }}
\@writefile{lot}{\addvspace {10\p@ }}
\newlabel{chap:thermaltest}{{1}{2}}
\@writefile{toc}{\contentsline {section}{\numberline {1.1}Section title}{2}}
\newlabel{sect:section title}{{1.1}{2}}
\@setckpt{ThermalTest}{
\setcounter{page}{3}
\setcounter{equation}{0}
\setcounter{enumi}{0}
\setcounter{enumii}{0}
\setcounter{enumiii}{0}
\setcounter{enumiv}{0}
\setcounter{footnote}{0}
\setcounter{mpfootnote}{0}
\setcounter{part}{0}
\setcounter{chapter}{1}
\setcounter{section}{1}
\setcounter{subsection}{0}
\setcounter{subsubsection}{0}
\setcounter{paragraph}{0}
\setcounter{subparagraph}{0}
\setcounter{figure}{0}
\setcounter{table}{0}
\setcounter{Maxaffil}{2}
\setcounter{authors}{1}
\setcounter{affil}{1}
\setcounter{parentequation}{0}
\setcounter{float@type}{4}
}
