{'measurement': 'measName', 'fields': {'measV_HV2': -100.0, 'measI_HV2': -3.579495e-08, 'settV_HV2': -100.0, 'settI_HV2': 0.0}, 'tags': {'user': 'root'}}
{'measurement': 'measName', 'fields': {'measV_HV2': -100.0, 'measI_HV2': -4.908553e-08, 'settV_HV2': -100.0, 'settI_HV2': 0.0}, 'tags': {'user': 'root'}}
{'measurement': 'measName', 'fields': {'measV_HV2': -100.0, 'measI_HV2': -3.922441e-08, 'settV_HV2': -100.0, 'settI_HV2': 0.0}, 'tags': {'user': 'root'}}
{'measurement': 'measName', 'fields': {'measV_HV2': -100.0, 'measI_HV2': -4.950947e-08, 'settV_HV2': -100.0, 'settI_HV2': 0.0}, 'tags': {'user': 'root'}}
{'measurement': 'measName', 'fields': {'measV_HV2': -100.0, 'measI_HV2': -3.754027e-08, 'settV_HV2': -100.0, 'settI_HV2': 0.0}, 'tags': {'user': 'root'}}
{'measurement': 'measName', 'fields': {'measV_HV2': -100.0, 'measI_HV2': -4.740794e-08, 'settV_HV2': -100.0, 'settI_HV2': 0.0}, 'tags': {'user': 'root'}}
{'measurement': 'measName', 'fields': {'measV_HV2': -100.0, 'measI_HV2': -4.08234e-08, 'settV_HV2': -100.0, 'settI_HV2': 0.0}, 'tags': {'user': 'root'}}
{'measurement': 'measName', 'fields': {'measV_HV2': -100.0, 'measI_HV2': -4.94827e-08, 'settV_HV2': -100.0, 'settI_HV2': 0.0}, 'tags': {'user': 'root'}}
{'measurement': 'measName', 'fields': {'measV_HV2': -100.0, 'measI_HV2': -3.898052e-08, 'settV_HV2': -100.0, 'settI_HV2': 0.0}, 'tags': {'user': 'root'}}
{'measurement': 'measName', 'fields': {'measV_HV2': -100.0, 'measI_HV2': -4.464151e-08, 'settV_HV2': -100.0, 'settI_HV2': 0.0}, 'tags': {'user': 'root'}}
{'measurement': 'measName', 'fields': {'measV_HV2': -100.0, 'measI_HV2': -4.448423e-08, 'settV_HV2': -100.0, 'settI_HV2': 0.0}, 'tags': {'user': 'root'}}
{'measurement': 'measName', 'fields': {'measV_HV2': -100.0, 'measI_HV2': -4.434841e-08, 'settV_HV2': -100.0, 'settI_HV2': 0.0}, 'tags': {'user': 'root'}}
{'measurement': 'measName', 'fields': {'measV_HV2': -100.0, 'measI_HV2': -4.127068e-08, 'settV_HV2': -100.0, 'settI_HV2': 0.0}, 'tags': {'user': 'root'}}
{'measurement': 'measName', 'fields': {'measV_HV2': -100.0, 'measI_HV2': -4.67455e-08, 'settV_HV2': -100.0, 'settI_HV2': 0.0}, 'tags': {'user': 'root'}}
{'measurement': 'measName', 'fields': {'measV_HV2': -100.0, 'measI_HV2': -4.191606e-08, 'settV_HV2': -100.0, 'settI_HV2': 0.0}, 'tags': {'user': 'root'}}
{'measurement': 'measName', 'fields': {'measV_HV2': -100.0, 'measI_HV2': -4.654169e-08, 'settV_HV2': -100.0, 'settI_HV2': 0.0}, 'tags': {'user': 'root'}}
{'measurement': 'measName', 'fields': {'measV_HV2': -100.0, 'measI_HV2': -3.793396e-08, 'settV_HV2': -100.0, 'settI_HV2': 0.0}, 'tags': {'user': 'root'}}
{'measurement': 'measName', 'fields': {'measV_HV2': -100.0, 'measI_HV2': -4.885926e-08, 'settV_HV2': -100.0, 'settI_HV2': 0.0}, 'tags': {'user': 'root'}}
{'measurement': 'measName', 'fields': {'measV_HV2': -100.0, 'measI_HV2': -4.286245e-08, 'settV_HV2': -100.0, 'settI_HV2': 0.0}, 'tags': {'user': 'root'}}
{'measurement': 'measName', 'fields': {'measV_HV2': -100.0, 'measI_HV2': -4.396318e-08, 'settV_HV2': -100.0, 'settI_HV2': 0.0}, 'tags': {'user': 'root'}}
{'measurement': 'measName', 'fields': {'measV_HV2': -100.0, 'measI_HV2': -4.146376e-08, 'settV_HV2': -100.0, 'settI_HV2': 0.0}, 'tags': {'user': 'root'}}
{'measurement': 'measName', 'fields': {'measV_HV2': -100.0, 'measI_HV2': -4.462455e-08, 'settV_HV2': -100.0, 'settI_HV2': 0.0}, 'tags': {'user': 'root'}}
{'measurement': 'measName', 'fields': {'measV_HV2': -100.0, 'measI_HV2': -4.636196e-08, 'settV_HV2': -100.0, 'settI_HV2': 0.0}, 'tags': {'user': 'root'}}
{'measurement': 'measName', 'fields': {'measV_HV2': -100.0, 'measI_HV2': -3.997813e-08, 'settV_HV2': -100.0, 'settI_HV2': 0.0}, 'tags': {'user': 'root'}}
{'measurement': 'measName', 'fields': {'measV_HV2': -100.0, 'measI_HV2': -4.907679e-08, 'settV_HV2': -100.0, 'settI_HV2': 0.0}, 'tags': {'user': 'root'}}
{'measurement': 'measName', 'fields': {'measV_HV2': -100.0, 'measI_HV2': -4.042131e-08, 'settV_HV2': -100.0, 'settI_HV2': 0.0}, 'tags': {'user': 'root'}}
{'measurement': 'measName', 'fields': {'measV_HV2': -100.0, 'measI_HV2': -4.655397e-08, 'settV_HV2': -100.0, 'settI_HV2': 0.0}, 'tags': {'user': 'root'}}
{'measurement': 'measName', 'fields': {'measV_HV2': -100.0, 'measI_HV2': -4.0643e-08, 'settV_HV2': -100.0, 'settI_HV2': 0.0}, 'tags': {'user': 'root'}}
{'measurement': 'measName', 'fields': {'measV_HV2': -100.0, 'measI_HV2': -4.566357e-08, 'settV_HV2': -100.0, 'settI_HV2': 0.0}, 'tags': {'user': 'root'}}
{'measurement': 'measName', 'fields': {'measV_HV2': -100.0, 'measI_HV2': -4.084917e-08, 'settV_HV2': -100.0, 'settI_HV2': 0.0}, 'tags': {'user': 'root'}}
{'measurement': 'measName', 'fields': {'measV_HV2': -100.0, 'measI_HV2': -4.680618e-08, 'settV_HV2': -100.0, 'settI_HV2': 0.0}, 'tags': {'user': 'root'}}
{'measurement': 'measName', 'fields': {'measV_HV2': -100.0, 'measI_HV2': -4.167006e-08, 'settV_HV2': -100.0, 'settI_HV2': 0.0}, 'tags': {'user': 'root'}}
{'measurement': 'measName', 'fields': {'measV_HV2': -100.0, 'measI_HV2': -4.763772e-08, 'settV_HV2': -100.0, 'settI_HV2': 0.0}, 'tags': {'user': 'root'}}
{'measurement': 'measName', 'fields': {'measV_HV2': -100.0, 'measI_HV2': -4.095395e-08, 'settV_HV2': -100.0, 'settI_HV2': 0.0}, 'tags': {'user': 'root'}}
{'measurement': 'measName', 'fields': {'measV_HV2': -100.0, 'measI_HV2': -5.092502e-08, 'settV_HV2': -100.0, 'settI_HV2': 0.0}, 'tags': {'user': 'root'}}
{'measurement': 'measName', 'fields': {'measV_HV2': -100.0, 'measI_HV2': -3.794426e-08, 'settV_HV2': -100.0, 'settI_HV2': 0.0}, 'tags': {'user': 'root'}}
{'measurement': 'measName', 'fields': {'measV_HV2': -100.0, 'measI_HV2': -4.625429e-08, 'settV_HV2': -100.0, 'settI_HV2': 0.0}, 'tags': {'user': 'root'}}
{'measurement': 'measName', 'fields': {'measV_HV2': -100.0, 'measI_HV2': -4.031797e-08, 'settV_HV2': -100.0, 'settI_HV2': 0.0}, 'tags': {'user': 'root'}}
{'measurement': 'measName', 'fields': {'measV_HV2': -100.0, 'measI_HV2': -4.408727e-08, 'settV_HV2': -100.0, 'settI_HV2': 0.0}, 'tags': {'user': 'root'}}
{'measurement': 'measName', 'fields': {'measV_HV2': -100.0, 'measI_HV2': -4.21978e-08, 'settV_HV2': -100.0, 'settI_HV2': 0.0}, 'tags': {'user': 'root'}}
{'measurement': 'measName', 'fields': {'measV_HV2': -100.0, 'measI_HV2': -4.31148e-08, 'settV_HV2': -100.0, 'settI_HV2': 0.0}, 'tags': {'user': 'root'}}
{'measurement': 'measName', 'fields': {'measV_HV2': -100.0, 'measI_HV2': -4.613232e-08, 'settV_HV2': -100.0, 'settI_HV2': 0.0}, 'tags': {'user': 'root'}}
{'measurement': 'measName', 'fields': {'measV_HV2': -100.0, 'measI_HV2': -4.03909e-08, 'settV_HV2': -100.0, 'settI_HV2': 0.0}, 'tags': {'user': 'root'}}
{'measurement': 'measName', 'fields': {'measV_HV2': -100.0, 'measI_HV2': -4.092038e-08, 'settV_HV2': -100.0, 'settI_HV2': 0.0}, 'tags': {'user': 'root'}}
{'measurement': 'measName', 'fields': {'measV_HV2': -100.0, 'measI_HV2': -4.890375e-08, 'settV_HV2': -100.0, 'settI_HV2': 0.0}, 'tags': {'user': 'root'}}
{'measurement': 'measName', 'fields': {'measV_HV2': -100.0, 'measI_HV2': -4.135484e-08, 'settV_HV2': -100.0, 'settI_HV2': 0.0}, 'tags': {'user': 'root'}}
{'measurement': 'measName', 'fields': {'measV_HV2': -100.0, 'measI_HV2': -4.281955e-08, 'settV_HV2': -100.0, 'settI_HV2': 0.0}, 'tags': {'user': 'root'}}
{'measurement': 'measName', 'fields': {'measV_HV2': -100.0, 'measI_HV2': -4.398859e-08, 'settV_HV2': -100.0, 'settI_HV2': 0.0}, 'tags': {'user': 'root'}}
{'measurement': 'measName', 'fields': {'measV_HV2': -100.0, 'measI_HV2': -4.296335e-08, 'settV_HV2': -100.0, 'settI_HV2': 0.0}, 'tags': {'user': 'root'}}
{'measurement': 'measName', 'fields': {'measV_HV2': -100.0, 'measI_HV2': -4.642616e-08, 'settV_HV2': -100.0, 'settI_HV2': 0.0}, 'tags': {'user': 'root'}}
{'measurement': 'measName', 'fields': {'measV_HV2': -100.0, 'measI_HV2': -4.058509e-08, 'settV_HV2': -100.0, 'settI_HV2': 0.0}, 'tags': {'user': 'root'}}
{'measurement': 'measName', 'fields': {'measV_HV2': -100.0, 'measI_HV2': -4.883838e-08, 'settV_HV2': -100.0, 'settI_HV2': 0.0}, 'tags': {'user': 'root'}}
{'measurement': 'measName', 'fields': {'measV_HV2': -100.0, 'measI_HV2': -3.96255e-08, 'settV_HV2': -100.0, 'settI_HV2': 0.0}, 'tags': {'user': 'root'}}
{'measurement': 'measName', 'fields': {'measV_HV2': -100.0, 'measI_HV2': -4.735419e-08, 'settV_HV2': -100.0, 'settI_HV2': 0.0}, 'tags': {'user': 'root'}}
{'measurement': 'measName', 'fields': {'measV_HV2': -100.0, 'measI_HV2': -3.948145e-08, 'settV_HV2': -100.0, 'settI_HV2': 0.0}, 'tags': {'user': 'root'}}
{'measurement': 'measName', 'fields': {'measV_HV2': -100.0, 'measI_HV2': -4.760798e-08, 'settV_HV2': -100.0, 'settI_HV2': 0.0}, 'tags': {'user': 'root'}}
{'measurement': 'measName', 'fields': {'measV_HV2': -100.0, 'measI_HV2': -4.117187e-08, 'settV_HV2': -100.0, 'settI_HV2': 0.0}, 'tags': {'user': 'root'}}
{'measurement': 'measName', 'fields': {'measV_HV2': -100.0, 'measI_HV2': -4.854268e-08, 'settV_HV2': -100.0, 'settI_HV2': 0.0}, 'tags': {'user': 'root'}}
{'measurement': 'measName', 'fields': {'measV_HV2': -100.0, 'measI_HV2': -4.208253e-08, 'settV_HV2': -100.0, 'settI_HV2': 0.0}, 'tags': {'user': 'root'}}
{'measurement': 'measName', 'fields': {'measV_HV2': -100.0, 'measI_HV2': -4.570475e-08, 'settV_HV2': -100.0, 'settI_HV2': 0.0}, 'tags': {'user': 'root'}}
{'measurement': 'measName', 'fields': {'measV_HV2': -100.0, 'measI_HV2': -4.782936e-08, 'settV_HV2': -100.0, 'settI_HV2': 0.0}, 'tags': {'user': 'root'}}
{'measurement': 'measName', 'fields': {'measV_HV2': -100.0, 'measI_HV2': -3.841149e-08, 'settV_HV2': -100.0, 'settI_HV2': 0.0}, 'tags': {'user': 'root'}}
{'measurement': 'measName', 'fields': {'measV_HV2': -100.0, 'measI_HV2': -4.948944e-08, 'settV_HV2': -100.0, 'settI_HV2': 0.0}, 'tags': {'user': 'root'}}
{'measurement': 'measName', 'fields': {'measV_HV2': -100.0, 'measI_HV2': -3.683755e-08, 'settV_HV2': -100.0, 'settI_HV2': 0.0}, 'tags': {'user': 'root'}}
{'measurement': 'measName', 'fields': {'measV_HV2': -100.0, 'measI_HV2': -5.042176e-08, 'settV_HV2': -100.0, 'settI_HV2': 0.0}, 'tags': {'user': 'root'}}
{'measurement': 'measName', 'fields': {'measV_HV2': -100.0, 'measI_HV2': -3.911281e-08, 'settV_HV2': -100.0, 'settI_HV2': 0.0}, 'tags': {'user': 'root'}}
{'measurement': 'measName', 'fields': {'measV_HV2': -100.0, 'measI_HV2': -5.006701e-08, 'settV_HV2': -100.0, 'settI_HV2': 0.0}, 'tags': {'user': 'root'}}
{'measurement': 'measName', 'fields': {'measV_HV2': -100.0, 'measI_HV2': -3.71017e-08, 'settV_HV2': -100.0, 'settI_HV2': 0.0}, 'tags': {'user': 'root'}}
{'measurement': 'measName', 'fields': {'measV_HV2': -100.0, 'measI_HV2': -5.084908e-08, 'settV_HV2': -100.0, 'settI_HV2': 0.0}, 'tags': {'user': 'root'}}
{'measurement': 'measName', 'fields': {'measV_HV2': -100.0, 'measI_HV2': -3.898378e-08, 'settV_HV2': -100.0, 'settI_HV2': 0.0}, 'tags': {'user': 'root'}}
{'measurement': 'measName', 'fields': {'measV_HV2': -100.0, 'measI_HV2': -5.168776e-08, 'settV_HV2': -100.0, 'settI_HV2': 0.0}, 'tags': {'user': 'root'}}
{'measurement': 'measName', 'fields': {'measV_HV2': -100.0, 'measI_HV2': -3.680982e-08, 'settV_HV2': -100.0, 'settI_HV2': 0.0}, 'tags': {'user': 'root'}}
{'measurement': 'measName', 'fields': {'measV_HV2': -100.0, 'measI_HV2': -4.91651e-08, 'settV_HV2': -100.0, 'settI_HV2': 0.0}, 'tags': {'user': 'root'}}
{'measurement': 'measName', 'fields': {'measV_HV2': -100.0, 'measI_HV2': -3.802935e-08, 'settV_HV2': -100.0, 'settI_HV2': 0.0}, 'tags': {'user': 'root'}}
{'measurement': 'measName', 'fields': {'measV_HV2': -100.0, 'measI_HV2': -5.030819e-08, 'settV_HV2': -100.0, 'settI_HV2': 0.0}, 'tags': {'user': 'root'}}
{'measurement': 'measName', 'fields': {'measV_HV2': -100.0, 'measI_HV2': -3.686542e-08, 'settV_HV2': -100.0, 'settI_HV2': 0.0}, 'tags': {'user': 'root'}}
{'measurement': 'measName', 'fields': {'measV_HV2': -100.0, 'measI_HV2': -4.912198e-08, 'settV_HV2': -100.0, 'settI_HV2': 0.0}, 'tags': {'user': 'root'}}
{'measurement': 'measName', 'fields': {'measV_HV2': -100.0, 'measI_HV2': -4.040536e-08, 'settV_HV2': -100.0, 'settI_HV2': 0.0}, 'tags': {'user': 'root'}}
{'measurement': 'measName', 'fields': {'measV_HV2': -100.0, 'measI_HV2': -4.90877e-08, 'settV_HV2': -100.0, 'settI_HV2': 0.0}, 'tags': {'user': 'root'}}
{'measurement': 'measName', 'fields': {'measV_HV2': -100.0, 'measI_HV2': -3.811902e-08, 'settV_HV2': -100.0, 'settI_HV2': 0.0}, 'tags': {'user': 'root'}}
{'measurement': 'measName', 'fields': {'measV_HV2': -100.0, 'measI_HV2': -4.822525e-08, 'settV_HV2': -100.0, 'settI_HV2': 0.0}, 'tags': {'user': 'root'}}
{'measurement': 'measName', 'fields': {'measV_HV2': -100.0, 'measI_HV2': -4.085448e-08, 'settV_HV2': -100.0, 'settI_HV2': 0.0}, 'tags': {'user': 'root'}}
{'measurement': 'measName', 'fields': {'measV_HV2': -100.0, 'measI_HV2': -4.753339e-08, 'settV_HV2': -100.0, 'settI_HV2': 0.0}, 'tags': {'user': 'root'}}
{'measurement': 'measName', 'fields': {'measV_HV2': -100.0, 'measI_HV2': -3.724702e-08, 'settV_HV2': -100.0, 'settI_HV2': 0.0}, 'tags': {'user': 'root'}}
{'measurement': 'measName', 'fields': {'measV_HV2': -100.0, 'measI_HV2': -5.011735e-08, 'settV_HV2': -100.0, 'settI_HV2': 0.0}, 'tags': {'user': 'root'}}
{'measurement': 'measName', 'fields': {'measV_HV2': -100.0, 'measI_HV2': -3.796908e-08, 'settV_HV2': -100.0, 'settI_HV2': 0.0}, 'tags': {'user': 'root'}}
{'measurement': 'measName', 'fields': {'measV_HV2': -100.0, 'measI_HV2': -4.892931e-08, 'settV_HV2': -100.0, 'settI_HV2': 0.0}, 'tags': {'user': 'root'}}
{'measurement': 'measName', 'fields': {'measV_HV2': -100.0, 'measI_HV2': -4.004887e-08, 'settV_HV2': -100.0, 'settI_HV2': 0.0}, 'tags': {'user': 'root'}}
{'measurement': 'measName', 'fields': {'measV_HV2': -100.0, 'measI_HV2': -4.68734e-08, 'settV_HV2': -100.0, 'settI_HV2': 0.0}, 'tags': {'user': 'root'}}
{'measurement': 'measName', 'fields': {'measV_HV2': -100.0, 'measI_HV2': -4.375361e-08, 'settV_HV2': -100.0, 'settI_HV2': 0.0}, 'tags': {'user': 'root'}}
{'measurement': 'measName', 'fields': {'measV_HV2': -100.0, 'measI_HV2': -4.386112e-08, 'settV_HV2': -100.0, 'settI_HV2': 0.0}, 'tags': {'user': 'root'}}
{'measurement': 'measName', 'fields': {'measV_HV2': -100.0, 'measI_HV2': -4.641364e-08, 'settV_HV2': -100.0, 'settI_HV2': 0.0}, 'tags': {'user': 'root'}}
{'measurement': 'measName', 'fields': {'measV_HV2': -100.0, 'measI_HV2': -4.282583e-08, 'settV_HV2': -100.0, 'settI_HV2': 0.0}, 'tags': {'user': 'root'}}
{'measurement': 'measName', 'fields': {'measV_HV2': -100.0, 'measI_HV2': -4.422119e-08, 'settV_HV2': -100.0, 'settI_HV2': 0.0}, 'tags': {'user': 'root'}}
{'measurement': 'measName', 'fields': {'measV_HV2': -100.0, 'measI_HV2': -4.094155e-08, 'settV_HV2': -100.0, 'settI_HV2': 0.0}, 'tags': {'user': 'root'}}
{'measurement': 'measName', 'fields': {'measV_HV2': -100.0, 'measI_HV2': -4.78481e-08, 'settV_HV2': -100.0, 'settI_HV2': 0.0}, 'tags': {'user': 'root'}}
{'measurement': 'measName', 'fields': {'measV_HV2': -100.0, 'measI_HV2': -4.00163e-08, 'settV_HV2': -100.0, 'settI_HV2': 0.0}, 'tags': {'user': 'root'}}
{'measurement': 'measName', 'fields': {'measV_HV2': -100.0, 'measI_HV2': -4.771056e-08, 'settV_HV2': -100.0, 'settI_HV2': 0.0}, 'tags': {'user': 'root'}}
{'measurement': 'measName', 'fields': {'measV_HV2': -100.0, 'measI_HV2': -3.984774e-08, 'settV_HV2': -100.0, 'settI_HV2': 0.0}, 'tags': {'user': 'root'}}
{'measurement': 'measName', 'fields': {'measV_HV2': -100.0, 'measI_HV2': -4.732383e-08, 'settV_HV2': -100.0, 'settI_HV2': 0.0}, 'tags': {'user': 'root'}}
{'measurement': 'measName', 'fields': {'measV_HV2': -100.0, 'measI_HV2': -4.109912e-08, 'settV_HV2': -100.0, 'settI_HV2': 0.0}, 'tags': {'user': 'root'}}
{'measurement': 'measName', 'fields': {'measV_HV2': -100.0, 'measI_HV2': -4.78516e-08, 'settV_HV2': -100.0, 'settI_HV2': 0.0}, 'tags': {'user': 'root'}}
{'measurement': 'measName', 'fields': {'measV_HV2': -100.0, 'measI_HV2': -3.969712e-08, 'settV_HV2': -100.0, 'settI_HV2': 0.0}, 'tags': {'user': 'root'}}
{'measurement': 'measName', 'fields': {'measV_HV2': -100.0, 'measI_HV2': -4.659296e-08, 'settV_HV2': -100.0, 'settI_HV2': 0.0}, 'tags': {'user': 'root'}}
{'measurement': 'measName', 'fields': {'measV_HV2': -100.0, 'measI_HV2': -4.01162e-08, 'settV_HV2': -100.0, 'settI_HV2': 0.0}, 'tags': {'user': 'root'}}
{'measurement': 'measName', 'fields': {'measV_HV2': -100.0, 'measI_HV2': -4.927434e-08, 'settV_HV2': -100.0, 'settI_HV2': 0.0}, 'tags': {'user': 'root'}}
{'measurement': 'measName', 'fields': {'measV_HV2': -100.0, 'measI_HV2': -3.835454e-08, 'settV_HV2': -100.0, 'settI_HV2': 0.0}, 'tags': {'user': 'root'}}
{'measurement': 'measName', 'fields': {'measV_HV2': -100.0, 'measI_HV2': -4.957127e-08, 'settV_HV2': -100.0, 'settI_HV2': 0.0}, 'tags': {'user': 'root'}}
{'measurement': 'measName', 'fields': {'measV_HV2': -100.0, 'measI_HV2': -3.847466e-08, 'settV_HV2': -100.0, 'settI_HV2': 0.0}, 'tags': {'user': 'root'}}
{'measurement': 'measName', 'fields': {'measV_HV2': -100.0, 'measI_HV2': -4.564025e-08, 'settV_HV2': -100.0, 'settI_HV2': 0.0}, 'tags': {'user': 'root'}}
{'measurement': 'measName', 'fields': {'measV_HV2': -100.0, 'measI_HV2': -4.212214e-08, 'settV_HV2': -100.0, 'settI_HV2': 0.0}, 'tags': {'user': 'root'}}
{'measurement': 'measName', 'fields': {'measV_HV2': -100.0, 'measI_HV2': -4.433002e-08, 'settV_HV2': -100.0, 'settI_HV2': 0.0}, 'tags': {'user': 'root'}}
{'measurement': 'measName', 'fields': {'measV_HV2': -100.0, 'measI_HV2': -4.228531e-08, 'settV_HV2': -100.0, 'settI_HV2': 0.0}, 'tags': {'user': 'root'}}
{'measurement': 'measName', 'fields': {'measV_HV2': -100.0, 'measI_HV2': -4.795712e-08, 'settV_HV2': -100.0, 'settI_HV2': 0.0}, 'tags': {'user': 'root'}}
{'measurement': 'measName', 'fields': {'measV_HV2': -100.0, 'measI_HV2': -4.3322e-08, 'settV_HV2': -100.0, 'settI_HV2': 0.0}, 'tags': {'user': 'root'}}
{'measurement': 'measName', 'fields': {'measV_HV2': -100.0, 'measI_HV2': -4.739655e-08, 'settV_HV2': -100.0, 'settI_HV2': 0.0}, 'tags': {'user': 'root'}}
{'measurement': 'measName', 'fields': {'measV_HV2': -100.0, 'measI_HV2': -4.027687e-08, 'settV_HV2': -100.0, 'settI_HV2': 0.0}, 'tags': {'user': 'root'}}
{'measurement': 'measName', 'fields': {'measV_HV2': -100.0, 'measI_HV2': -4.633637e-08, 'settV_HV2': -100.0, 'settI_HV2': 0.0}, 'tags': {'user': 'root'}}
{'measurement': 'measName', 'fields': {'measV_HV2': -100.0, 'measI_HV2': -3.947201e-08, 'settV_HV2': -100.0, 'settI_HV2': 0.0}, 'tags': {'user': 'root'}}
{'measurement': 'measName', 'fields': {'measV_HV2': -100.0, 'measI_HV2': -4.917128e-08, 'settV_HV2': -100.0, 'settI_HV2': 0.0}, 'tags': {'user': 'root'}}
{'measurement': 'measName', 'fields': {'measV_HV2': -100.0, 'measI_HV2': -3.854633e-08, 'settV_HV2': -100.0, 'settI_HV2': 0.0}, 'tags': {'user': 'root'}}
{'measurement': 'measName', 'fields': {'measV_HV2': -100.0, 'measI_HV2': -5.051464e-08, 'settV_HV2': -100.0, 'settI_HV2': 0.0}, 'tags': {'user': 'root'}}
{'measurement': 'measName', 'fields': {'measV_HV2': -100.0, 'measI_HV2': -3.764386e-08, 'settV_HV2': -100.0, 'settI_HV2': 0.0}, 'tags': {'user': 'root'}}
{'measurement': 'measName', 'fields': {'measV_HV2': -100.0, 'measI_HV2': -5.03375e-08, 'settV_HV2': -100.0, 'settI_HV2': 0.0}, 'tags': {'user': 'root'}}
{'measurement': 'measName', 'fields': {'measV_HV2': -100.0, 'measI_HV2': -3.91263e-08, 'settV_HV2': -100.0, 'settI_HV2': 0.0}, 'tags': {'user': 'root'}}
{'measurement': 'measName', 'fields': {'measV_HV2': -100.0, 'measI_HV2': -4.710189e-08, 'settV_HV2': -100.0, 'settI_HV2': 0.0}, 'tags': {'user': 'root'}}
{'measurement': 'measName', 'fields': {'measV_HV2': -100.0, 'measI_HV2': -4.508243e-08, 'settV_HV2': -100.0, 'settI_HV2': 0.0}, 'tags': {'user': 'root'}}
{'measurement': 'measName', 'fields': {'measV_HV2': -100.0, 'measI_HV2': -4.038838e-08, 'settV_HV2': -100.0, 'settI_HV2': 0.0}, 'tags': {'user': 'root'}}
{'measurement': 'measName', 'fields': {'measV_HV2': -100.0, 'measI_HV2': -5.053718e-08, 'settV_HV2': -100.0, 'settI_HV2': 0.0}, 'tags': {'user': 'root'}}
{'measurement': 'measName', 'fields': {'measV_HV2': -100.0, 'measI_HV2': -3.819106e-08, 'settV_HV2': -100.0, 'settI_HV2': 0.0}, 'tags': {'user': 'root'}}
{'measurement': 'measName', 'fields': {'measV_HV2': -100.0, 'measI_HV2': -4.856809e-08, 'settV_HV2': -100.0, 'settI_HV2': 0.0}, 'tags': {'user': 'root'}}
{'measurement': 'measName', 'fields': {'measV_HV2': -100.0, 'measI_HV2': -3.8086e-08, 'settV_HV2': -100.0, 'settI_HV2': 0.0}, 'tags': {'user': 'root'}}
{'measurement': 'measName', 'fields': {'measV_HV2': -100.0, 'measI_HV2': -5.058796e-08, 'settV_HV2': -100.0, 'settI_HV2': 0.0}, 'tags': {'user': 'root'}}
{'measurement': 'measName', 'fields': {'measV_HV2': -100.0, 'measI_HV2': -3.692917e-08, 'settV_HV2': -100.0, 'settI_HV2': 0.0}, 'tags': {'user': 'root'}}
{'measurement': 'measName', 'fields': {'measV_HV2': -100.0, 'measI_HV2': -5.130273e-08, 'settV_HV2': -100.0, 'settI_HV2': 0.0}, 'tags': {'user': 'root'}}
{'measurement': 'measName', 'fields': {'measV_HV2': -100.0, 'measI_HV2': -3.759124e-08, 'settV_HV2': -100.0, 'settI_HV2': 0.0}, 'tags': {'user': 'root'}}
{'measurement': 'measName', 'fields': {'measV_HV2': -100.0, 'measI_HV2': -5.052111e-08, 'settV_HV2': -100.0, 'settI_HV2': 0.0}, 'tags': {'user': 'root'}}
{'measurement': 'measName', 'fields': {'measV_HV2': -100.0, 'measI_HV2': -3.760535e-08, 'settV_HV2': -100.0, 'settI_HV2': 0.0}, 'tags': {'user': 'root'}}
{'measurement': 'measName', 'fields': {'measV_HV2': -100.0, 'measI_HV2': -5.173701e-08, 'settV_HV2': -100.0, 'settI_HV2': 0.0}, 'tags': {'user': 'root'}}
{'measurement': 'measName', 'fields': {'measV_HV2': -100.0, 'measI_HV2': -3.763368e-08, 'settV_HV2': -100.0, 'settI_HV2': 0.0}, 'tags': {'user': 'root'}}
{'measurement': 'measName', 'fields': {'measV_HV2': -100.0, 'measI_HV2': -5.032186e-08, 'settV_HV2': -100.0, 'settI_HV2': 0.0}, 'tags': {'user': 'root'}}
{'measurement': 'measName', 'fields': {'measV_HV2': -100.0, 'measI_HV2': -3.934835e-08, 'settV_HV2': -100.0, 'settI_HV2': 0.0}, 'tags': {'user': 'root'}}
{'measurement': 'measName', 'fields': {'measV_HV2': -100.0, 'measI_HV2': -4.802816e-08, 'settV_HV2': -100.0, 'settI_HV2': 0.0}, 'tags': {'user': 'root'}}
{'measurement': 'measName', 'fields': {'measV_HV2': -100.0, 'measI_HV2': -4.334108e-08, 'settV_HV2': -100.0, 'settI_HV2': 0.0}, 'tags': {'user': 'root'}}
{'measurement': 'measName', 'fields': {'measV_HV2': -100.0, 'measI_HV2': -4.125852e-08, 'settV_HV2': -100.0, 'settI_HV2': 0.0}, 'tags': {'user': 'root'}}
{'measurement': 'measName', 'fields': {'measV_HV2': -100.0, 'measI_HV2': -4.51225e-08, 'settV_HV2': -100.0, 'settI_HV2': 0.0}, 'tags': {'user': 'root'}}
{'measurement': 'measName', 'fields': {'measV_HV2': -100.0, 'measI_HV2': -4.1689e-08, 'settV_HV2': -100.0, 'settI_HV2': 0.0}, 'tags': {'user': 'root'}}
{'measurement': 'measName', 'fields': {'measV_HV2': -100.0, 'measI_HV2': -4.809498e-08, 'settV_HV2': -100.0, 'settI_HV2': 0.0}, 'tags': {'user': 'root'}}
{'measurement': 'measName', 'fields': {'measV_HV2': -100.0, 'measI_HV2': -4.141152e-08, 'settV_HV2': -100.0, 'settI_HV2': 0.0}, 'tags': {'user': 'root'}}
{'measurement': 'measName', 'fields': {'measV_HV2': -100.0, 'measI_HV2': -4.322023e-08, 'settV_HV2': -100.0, 'settI_HV2': 0.0}, 'tags': {'user': 'root'}}
{'measurement': 'measName', 'fields': {'measV_HV2': -100.0, 'measI_HV2': -4.410984e-08, 'settV_HV2': -100.0, 'settI_HV2': 0.0}, 'tags': {'user': 'root'}}
{'measurement': 'measName', 'fields': {'measV_HV2': -100.0, 'measI_HV2': -4.516213e-08, 'settV_HV2': -100.0, 'settI_HV2': 0.0}, 'tags': {'user': 'root'}}
{'measurement': 'measName', 'fields': {'measV_HV2': -100.0, 'measI_HV2': -4.854457e-08, 'settV_HV2': -100.0, 'settI_HV2': 0.0}, 'tags': {'user': 'root'}}
{'measurement': 'measName', 'fields': {'measV_HV2': -100.0, 'measI_HV2': -4.145139e-08, 'settV_HV2': -100.0, 'settI_HV2': 0.0}, 'tags': {'user': 'root'}}
{'measurement': 'measName', 'fields': {'measV_HV2': -100.0, 'measI_HV2': -4.6017e-08, 'settV_HV2': -100.0, 'settI_HV2': 0.0}, 'tags': {'user': 'root'}}
{'measurement': 'measName', 'fields': {'measV_HV2': -100.0, 'measI_HV2': -4.41388e-08, 'settV_HV2': -100.0, 'settI_HV2': 0.0}, 'tags': {'user': 'root'}}
{'measurement': 'measName', 'fields': {'measV_HV2': -100.0, 'measI_HV2': -4.276323e-08, 'settV_HV2': -100.0, 'settI_HV2': 0.0}, 'tags': {'user': 'root'}}
{'measurement': 'measName', 'fields': {'measV_HV2': -100.0, 'measI_HV2': -4.43555e-08, 'settV_HV2': -100.0, 'settI_HV2': 0.0}, 'tags': {'user': 'root'}}
{'measurement': 'measName', 'fields': {'measV_HV2': -100.0, 'measI_HV2': -4.071585e-08, 'settV_HV2': -100.0, 'settI_HV2': 0.0}, 'tags': {'user': 'root'}}
{'measurement': 'measName', 'fields': {'measV_HV2': -100.0, 'measI_HV2': -4.806465e-08, 'settV_HV2': -100.0, 'settI_HV2': 0.0}, 'tags': {'user': 'root'}}
{'measurement': 'measName', 'fields': {'measV_HV2': -100.0, 'measI_HV2': -3.757307e-08, 'settV_HV2': -100.0, 'settI_HV2': 0.0}, 'tags': {'user': 'root'}}
{'measurement': 'measName', 'fields': {'measV_HV2': -100.0, 'measI_HV2': -5.084907e-08, 'settV_HV2': -100.0, 'settI_HV2': 0.0}, 'tags': {'user': 'root'}}
{'measurement': 'measName', 'fields': {'measV_HV2': -100.0, 'measI_HV2': -4.04354e-08, 'settV_HV2': -100.0, 'settI_HV2': 0.0}, 'tags': {'user': 'root'}}
{'measurement': 'measName', 'fields': {'measV_HV2': -100.0, 'measI_HV2': -5.139871e-08, 'settV_HV2': -100.0, 'settI_HV2': 0.0}, 'tags': {'user': 'root'}}
{'measurement': 'measName', 'fields': {'measV_HV2': -100.0, 'measI_HV2': -3.75817e-08, 'settV_HV2': -100.0, 'settI_HV2': 0.0}, 'tags': {'user': 'root'}}
{'measurement': 'measName', 'fields': {'measV_HV2': -100.0, 'measI_HV2': -4.98878e-08, 'settV_HV2': -100.0, 'settI_HV2': 0.0}, 'tags': {'user': 'root'}}
{'measurement': 'measName', 'fields': {'measV_HV2': -100.0, 'measI_HV2': -3.868179e-08, 'settV_HV2': -100.0, 'settI_HV2': 0.0}, 'tags': {'user': 'root'}}
{'measurement': 'measName', 'fields': {'measV_HV2': -100.0, 'measI_HV2': -4.977742e-08, 'settV_HV2': -100.0, 'settI_HV2': 0.0}, 'tags': {'user': 'root'}}
{'measurement': 'measName', 'fields': {'measV_HV2': -100.0, 'measI_HV2': -3.809697e-08, 'settV_HV2': -100.0, 'settI_HV2': 0.0}, 'tags': {'user': 'root'}}
{'measurement': 'measName', 'fields': {'measV_HV2': -100.0, 'measI_HV2': -4.786543e-08, 'settV_HV2': -100.0, 'settI_HV2': 0.0}, 'tags': {'user': 'root'}}
{'measurement': 'measName', 'fields': {'measV_HV2': -100.0, 'measI_HV2': -3.83538e-08, 'settV_HV2': -100.0, 'settI_HV2': 0.0}, 'tags': {'user': 'root'}}
{'measurement': 'measName', 'fields': {'measV_HV2': -100.0, 'measI_HV2': -5.006383e-08, 'settV_HV2': -100.0, 'settI_HV2': 0.0}, 'tags': {'user': 'root'}}
{'measurement': 'measName', 'fields': {'measV_HV2': -100.0, 'measI_HV2': -3.824454e-08, 'settV_HV2': -100.0, 'settI_HV2': 0.0}, 'tags': {'user': 'root'}}
{'measurement': 'measName', 'fields': {'measV_HV2': -100.0, 'measI_HV2': -4.946219e-08, 'settV_HV2': -100.0, 'settI_HV2': 0.0}, 'tags': {'user': 'root'}}
{'measurement': 'measName', 'fields': {'measV_HV2': -100.0, 'measI_HV2': -4.019812e-08, 'settV_HV2': -100.0, 'settI_HV2': 0.0}, 'tags': {'user': 'root'}}
{'measurement': 'measName', 'fields': {'measV_HV2': -100.0, 'measI_HV2': -5.045466e-08, 'settV_HV2': -100.0, 'settI_HV2': 0.0}, 'tags': {'user': 'root'}}
{'measurement': 'measName', 'fields': {'measV_HV2': -100.0, 'measI_HV2': -4.093163e-08, 'settV_HV2': -100.0, 'settI_HV2': 0.0}, 'tags': {'user': 'root'}}
{'measurement': 'measName', 'fields': {'measV_HV2': -100.0, 'measI_HV2': -4.764997e-08, 'settV_HV2': -100.0, 'settI_HV2': 0.0}, 'tags': {'user': 'root'}}
{'measurement': 'measName', 'fields': {'measV_HV2': -100.0, 'measI_HV2': -4.213704e-08, 'settV_HV2': -100.0, 'settI_HV2': 0.0}, 'tags': {'user': 'root'}}
{'measurement': 'measName', 'fields': {'measV_HV2': -100.0, 'measI_HV2': -4.711058e-08, 'settV_HV2': -100.0, 'settI_HV2': 0.0}, 'tags': {'user': 'root'}}
{'measurement': 'measName', 'fields': {'measV_HV2': -100.0, 'measI_HV2': -3.984971e-08, 'settV_HV2': -100.0, 'settI_HV2': 0.0}, 'tags': {'user': 'root'}}
{'measurement': 'measName', 'fields': {'measV_HV2': -100.0, 'measI_HV2': -4.54734e-08, 'settV_HV2': -100.0, 'settI_HV2': 0.0}, 'tags': {'user': 'root'}}
{'measurement': 'measName', 'fields': {'measV_HV2': -100.0, 'measI_HV2': -3.981637e-08, 'settV_HV2': -100.0, 'settI_HV2': 0.0}, 'tags': {'user': 'root'}}
{'measurement': 'measName', 'fields': {'measV_HV2': -100.0, 'measI_HV2': -4.956334e-08, 'settV_HV2': -100.0, 'settI_HV2': 0.0}, 'tags': {'user': 'root'}}
{'measurement': 'measName', 'fields': {'measV_HV2': -100.0, 'measI_HV2': -3.752193e-08, 'settV_HV2': -100.0, 'settI_HV2': 0.0}, 'tags': {'user': 'root'}}
{'measurement': 'measName', 'fields': {'measV_HV2': -100.0, 'measI_HV2': -5.145052e-08, 'settV_HV2': -100.0, 'settI_HV2': 0.0}, 'tags': {'user': 'root'}}
{'measurement': 'measName', 'fields': {'measV_HV2': -100.0, 'measI_HV2': -4.098578e-08, 'settV_HV2': -100.0, 'settI_HV2': 0.0}, 'tags': {'user': 'root'}}
{'measurement': 'measName', 'fields': {'measV_HV2': -100.0, 'measI_HV2': -4.621871e-08, 'settV_HV2': -100.0, 'settI_HV2': 0.0}, 'tags': {'user': 'root'}}
{'measurement': 'measName', 'fields': {'measV_HV2': -100.0, 'measI_HV2': -4.141689e-08, 'settV_HV2': -100.0, 'settI_HV2': 0.0}, 'tags': {'user': 'root'}}
{'measurement': 'measName', 'fields': {'measV_HV2': -100.0, 'measI_HV2': -4.428768e-08, 'settV_HV2': -100.0, 'settI_HV2': 0.0}, 'tags': {'user': 'root'}}
{'measurement': 'measName', 'fields': {'measV_HV2': -100.0, 'measI_HV2': -4.490053e-08, 'settV_HV2': -100.0, 'settI_HV2': 0.0}, 'tags': {'user': 'root'}}
{'measurement': 'measName', 'fields': {'measV_HV2': -100.0, 'measI_HV2': -4.563437e-08, 'settV_HV2': -100.0, 'settI_HV2': 0.0}, 'tags': {'user': 'root'}}
{'measurement': 'measName', 'fields': {'measV_HV2': -100.0, 'measI_HV2': -4.573805e-08, 'settV_HV2': -100.0, 'settI_HV2': 0.0}, 'tags': {'user': 'root'}}
{'measurement': 'measName', 'fields': {'measV_HV2': -100.0, 'measI_HV2': -4.51444e-08, 'settV_HV2': -100.0, 'settI_HV2': 0.0}, 'tags': {'user': 'root'}}
{'measurement': 'measName', 'fields': {'measV_HV2': -100.0, 'measI_HV2': -4.676282e-08, 'settV_HV2': -100.0, 'settI_HV2': 0.0}, 'tags': {'user': 'root'}}
{'measurement': 'measName', 'fields': {'measV_HV2': -100.0, 'measI_HV2': -4.079694e-08, 'settV_HV2': -100.0, 'settI_HV2': 0.0}, 'tags': {'user': 'root'}}
{'measurement': 'measName', 'fields': {'measV_HV2': -100.0, 'measI_HV2': -5.038871e-08, 'settV_HV2': -100.0, 'settI_HV2': 0.0}, 'tags': {'user': 'root'}}
{'measurement': 'measName', 'fields': {'measV_HV2': -100.0, 'measI_HV2': -3.910878e-08, 'settV_HV2': -100.0, 'settI_HV2': 0.0}, 'tags': {'user': 'root'}}
{'measurement': 'measName', 'fields': {'measV_HV2': -100.0, 'measI_HV2': -5.052953e-08, 'settV_HV2': -100.0, 'settI_HV2': 0.0}, 'tags': {'user': 'root'}}
{'measurement': 'measName', 'fields': {'measV_HV2': -100.0, 'measI_HV2': -3.726781e-08, 'settV_HV2': -100.0, 'settI_HV2': 0.0}, 'tags': {'user': 'root'}}
{'measurement': 'measName', 'fields': {'measV_HV2': -100.0, 'measI_HV2': -5.084166e-08, 'settV_HV2': -100.0, 'settI_HV2': 0.0}, 'tags': {'user': 'root'}}
{'measurement': 'measName', 'fields': {'measV_HV2': -100.0, 'measI_HV2': -4.00258e-08, 'settV_HV2': -100.0, 'settI_HV2': 0.0}, 'tags': {'user': 'root'}}
{'measurement': 'measName', 'fields': {'measV_HV2': -100.0, 'measI_HV2': -4.999007e-08, 'settV_HV2': -100.0, 'settI_HV2': 0.0}, 'tags': {'user': 'root'}}
{'measurement': 'measName', 'fields': {'measV_HV2': -100.0, 'measI_HV2': -3.898115e-08, 'settV_HV2': -100.0, 'settI_HV2': 0.0}, 'tags': {'user': 'root'}}
{'measurement': 'measName', 'fields': {'measV_HV2': -100.0, 'measI_HV2': -4.91102e-08, 'settV_HV2': -100.0, 'settI_HV2': 0.0}, 'tags': {'user': 'root'}}
{'measurement': 'measName', 'fields': {'measV_HV2': -100.0, 'measI_HV2': -3.923514e-08, 'settV_HV2': -100.0, 'settI_HV2': 0.0}, 'tags': {'user': 'root'}}
{'measurement': 'measName', 'fields': {'measV_HV2': -100.0, 'measI_HV2': -5.121387e-08, 'settV_HV2': -100.0, 'settI_HV2': 0.0}, 'tags': {'user': 'root'}}
{'measurement': 'measName', 'fields': {'measV_HV2': -100.0, 'measI_HV2': -3.879644e-08, 'settV_HV2': -100.0, 'settI_HV2': 0.0}, 'tags': {'user': 'root'}}
{'measurement': 'measName', 'fields': {'measV_HV2': -100.0, 'measI_HV2': -4.715207e-08, 'settV_HV2': -100.0, 'settI_HV2': 0.0}, 'tags': {'user': 'root'}}
{'measurement': 'measName', 'fields': {'measV_HV2': -100.0, 'measI_HV2': -4.39495e-08, 'settV_HV2': -100.0, 'settI_HV2': 0.0}, 'tags': {'user': 'root'}}
{'measurement': 'measName', 'fields': {'measV_HV2': -100.0, 'measI_HV2': -4.346835e-08, 'settV_HV2': -100.0, 'settI_HV2': 0.0}, 'tags': {'user': 'root'}}
{'measurement': 'measName', 'fields': {'measV_HV2': -100.0, 'measI_HV2': -4.979737e-08, 'settV_HV2': -100.0, 'settI_HV2': 0.0}, 'tags': {'user': 'root'}}
{'measurement': 'measName', 'fields': {'measV_HV2': -100.0, 'measI_HV2': -3.900929e-08, 'settV_HV2': -100.0, 'settI_HV2': 0.0}, 'tags': {'user': 'root'}}
{'measurement': 'measName', 'fields': {'measV_HV2': -100.0, 'measI_HV2': -5.051369e-08, 'settV_HV2': -100.0, 'settI_HV2': 0.0}, 'tags': {'user': 'root'}}
{'measurement': 'measName', 'fields': {'measV_HV2': -100.0, 'measI_HV2': -3.732669e-08, 'settV_HV2': -100.0, 'settI_HV2': 0.0}, 'tags': {'user': 'root'}}
{'measurement': 'measName', 'fields': {'measV_HV2': -100.0, 'measI_HV2': -5.199834e-08, 'settV_HV2': -100.0, 'settI_HV2': 0.0}, 'tags': {'user': 'root'}}
{'measurement': 'measName', 'fields': {'measV_HV2': -100.0, 'measI_HV2': -3.734422e-08, 'settV_HV2': -100.0, 'settI_HV2': 0.0}, 'tags': {'user': 'root'}}
{'measurement': 'measName', 'fields': {'measV_HV2': -100.0, 'measI_HV2': -4.954188e-08, 'settV_HV2': -100.0, 'settI_HV2': 0.0}, 'tags': {'user': 'root'}}
{'measurement': 'measName', 'fields': {'measV_HV2': -100.0, 'measI_HV2': -3.846391e-08, 'settV_HV2': -100.0, 'settI_HV2': 0.0}, 'tags': {'user': 'root'}}
{'measurement': 'measName', 'fields': {'measV_HV2': -100.0, 'measI_HV2': -4.756163e-08, 'settV_HV2': -100.0, 'settI_HV2': 0.0}, 'tags': {'user': 'root'}}
{'measurement': 'measName', 'fields': {'measV_HV2': -100.0, 'measI_HV2': -4.404709e-08, 'settV_HV2': -100.0, 'settI_HV2': 0.0}, 'tags': {'user': 'root'}}
{'measurement': 'measName', 'fields': {'measV_HV2': -100.0, 'measI_HV2': -4.031153e-08, 'settV_HV2': -100.0, 'settI_HV2': 0.0}, 'tags': {'user': 'root'}}
{'measurement': 'measName', 'fields': {'measV_HV2': -100.0, 'measI_HV2': -4.577452e-08, 'settV_HV2': -100.0, 'settI_HV2': 0.0}, 'tags': {'user': 'root'}}
{'measurement': 'measName', 'fields': {'measV_HV2': -100.0, 'measI_HV2': -4.460328e-08, 'settV_HV2': -100.0, 'settI_HV2': 0.0}, 'tags': {'user': 'root'}}
{'measurement': 'measName', 'fields': {'measV_HV2': -100.0, 'measI_HV2': -4.362939e-08, 'settV_HV2': -100.0, 'settI_HV2': 0.0}, 'tags': {'user': 'root'}}
{'measurement': 'measName', 'fields': {'measV_HV2': -100.0, 'measI_HV2': -4.481155e-08, 'settV_HV2': -100.0, 'settI_HV2': 0.0}, 'tags': {'user': 'root'}}
{'measurement': 'measName', 'fields': {'measV_HV2': -100.0, 'measI_HV2': -4.371725e-08, 'settV_HV2': -100.0, 'settI_HV2': 0.0}, 'tags': {'user': 'root'}}
{'measurement': 'measName', 'fields': {'measV_HV2': -100.0, 'measI_HV2': -4.953698e-08, 'settV_HV2': -100.0, 'settI_HV2': 0.0}, 'tags': {'user': 'root'}}
{'measurement': 'measName', 'fields': {'measV_HV2': -100.0, 'measI_HV2': -4.310168e-08, 'settV_HV2': -100.0, 'settI_HV2': 0.0}, 'tags': {'user': 'root'}}
{'measurement': 'measName', 'fields': {'measV_HV2': -100.0, 'measI_HV2': -4.916382e-08, 'settV_HV2': -100.0, 'settI_HV2': 0.0}, 'tags': {'user': 'root'}}
{'measurement': 'measName', 'fields': {'measV_HV2': -100.0, 'measI_HV2': -4.092808e-08, 'settV_HV2': -100.0, 'settI_HV2': 0.0}, 'tags': {'user': 'root'}}
{'measurement': 'measName', 'fields': {'measV_HV2': -100.0, 'measI_HV2': -4.305093e-08, 'settV_HV2': -100.0, 'settI_HV2': 0.0}, 'tags': {'user': 'root'}}
{'measurement': 'measName', 'fields': {'measV_HV2': -100.0, 'measI_HV2': -4.816926e-08, 'settV_HV2': -100.0, 'settI_HV2': 0.0}, 'tags': {'user': 'root'}}
{'measurement': 'measName', 'fields': {'measV_HV2': -100.0, 'measI_HV2': -3.832176e-08, 'settV_HV2': -100.0, 'settI_HV2': 0.0}, 'tags': {'user': 'root'}}
{'measurement': 'measName', 'fields': {'measV_HV2': -100.0, 'measI_HV2': -5.077034e-08, 'settV_HV2': -100.0, 'settI_HV2': 0.0}, 'tags': {'user': 'root'}}
{'measurement': 'measName', 'fields': {'measV_HV2': -100.0, 'measI_HV2': -3.9414e-08, 'settV_HV2': -100.0, 'settI_HV2': 0.0}, 'tags': {'user': 'root'}}
{'measurement': 'measName', 'fields': {'measV_HV2': -100.0, 'measI_HV2': -4.671574e-08, 'settV_HV2': -100.0, 'settI_HV2': 0.0}, 'tags': {'user': 'root'}}
{'measurement': 'measName', 'fields': {'measV_HV2': -100.0, 'measI_HV2': -4.4415e-08, 'settV_HV2': -100.0, 'settI_HV2': 0.0}, 'tags': {'user': 'root'}}
{'measurement': 'measName', 'fields': {'measV_HV2': -100.0, 'measI_HV2': -4.581917e-08, 'settV_HV2': -100.0, 'settI_HV2': 0.0}, 'tags': {'user': 'root'}}
{'measurement': 'measName', 'fields': {'measV_HV2': -100.0, 'measI_HV2': -4.597236e-08, 'settV_HV2': -100.0, 'settI_HV2': 0.0}, 'tags': {'user': 'root'}}
{'measurement': 'measName', 'fields': {'measV_HV2': -100.0, 'measI_HV2': -4.371858e-08, 'settV_HV2': -100.0, 'settI_HV2': 0.0}, 'tags': {'user': 'root'}}
{'measurement': 'measName', 'fields': {'measV_HV2': -100.0, 'measI_HV2': -4.739831e-08, 'settV_HV2': -100.0, 'settI_HV2': 0.0}, 'tags': {'user': 'root'}}
{'measurement': 'measName', 'fields': {'measV_HV2': -100.0, 'measI_HV2': -4.014297e-08, 'settV_HV2': -100.0, 'settI_HV2': 0.0}, 'tags': {'user': 'root'}}
{'measurement': 'measName', 'fields': {'measV_HV2': -100.0, 'measI_HV2': -5.142195e-08, 'settV_HV2': -100.0, 'settI_HV2': 0.0}, 'tags': {'user': 'root'}}
{'measurement': 'measName', 'fields': {'measV_HV2': -100.0, 'measI_HV2': -3.87171e-08, 'settV_HV2': -100.0, 'settI_HV2': 0.0}, 'tags': {'user': 'root'}}
{'measurement': 'measName', 'fields': {'measV_HV2': -100.0, 'measI_HV2': -5.057566e-08, 'settV_HV2': -100.0, 'settI_HV2': 0.0}, 'tags': {'user': 'root'}}
{'measurement': 'measName', 'fields': {'measV_HV2': -100.0, 'measI_HV2': -3.937221e-08, 'settV_HV2': -100.0, 'settI_HV2': 0.0}, 'tags': {'user': 'root'}}
{'measurement': 'measName', 'fields': {'measV_HV2': -100.0, 'measI_HV2': -5.183541e-08, 'settV_HV2': -100.0, 'settI_HV2': 0.0}, 'tags': {'user': 'root'}}
{'measurement': 'measName', 'fields': {'measV_HV2': -100.0, 'measI_HV2': -3.748853e-08, 'settV_HV2': -100.0, 'settI_HV2': 0.0}, 'tags': {'user': 'root'}}
{'measurement': 'measName', 'fields': {'measV_HV2': -100.0, 'measI_HV2': -5.212984e-08, 'settV_HV2': -100.0, 'settI_HV2': 0.0}, 'tags': {'user': 'root'}}
{'measurement': 'measName', 'fields': {'measV_HV2': -100.0, 'measI_HV2': -4.012242e-08, 'settV_HV2': -100.0, 'settI_HV2': 0.0}, 'tags': {'user': 'root'}}
{'measurement': 'measName', 'fields': {'measV_HV2': -100.0, 'measI_HV2': -4.98647e-08, 'settV_HV2': -100.0, 'settI_HV2': 0.0}, 'tags': {'user': 'root'}}
{'measurement': 'measName', 'fields': {'measV_HV2': -100.0, 'measI_HV2': -4.158463e-08, 'settV_HV2': -100.0, 'settI_HV2': 0.0}, 'tags': {'user': 'root'}}
{'measurement': 'measName', 'fields': {'measV_HV2': -100.0, 'measI_HV2': -5.309439e-08, 'settV_HV2': -100.0, 'settI_HV2': 0.0}, 'tags': {'user': 'root'}}
{'measurement': 'measName', 'fields': {'measV_HV2': -100.0, 'measI_HV2': -4.045106e-08, 'settV_HV2': -100.0, 'settI_HV2': 0.0}, 'tags': {'user': 'root'}}
{'measurement': 'measName', 'fields': {'measV_HV2': -100.0, 'measI_HV2': -4.893823e-08, 'settV_HV2': -100.0, 'settI_HV2': 0.0}, 'tags': {'user': 'root'}}
{'measurement': 'measName', 'fields': {'measV_HV2': -100.0, 'measI_HV2': -4.048344e-08, 'settV_HV2': -100.0, 'settI_HV2': 0.0}, 'tags': {'user': 'root'}}

