ModuleID,Chip,ChipID,FE,Stage,Noise[e],Stdev[e]
KEKQ14,FE1,20UPGFC0009300,syn,Stage1,113.8,13.8
KEKQ14,FE1,20UPGFC0009300,syn,Stage2,114.1,12.8
KEKQ14,FE1,20UPGFC0009300,syn,Stage3,111.9,14.5
KEKQ14,FE1,20UPGFC0009300,syn,Stage4,114.1,13.0
KEKQ14,FE1,20UPGFC0009300,syn,Stage5,114.1,13.4
KEKQ14,FE1,20UPGFC0009300,lin,Stage1,71.4,13.1
KEKQ14,FE1,20UPGFC0009300,lin,Stage2,73.0,15.6
KEKQ14,FE1,20UPGFC0009300,lin,Stage3,68.0,11.4
KEKQ14,FE1,20UPGFC0009300,lin,Stage4,72.5,13.3
KEKQ14,FE1,20UPGFC0009300,lin,Stage5,71.4,13.1
KEKQ14,FE1,20UPGFC0009300,diff,Stage1,45.3,10.0
KEKQ14,FE1,20UPGFC0009300,diff,Stage2,45.5,10.0
KEKQ14,FE1,20UPGFC0009300,diff,Stage3,43.7,10.2
KEKQ14,FE1,20UPGFC0009300,diff,Stage4,45.0,9.0
KEKQ14,FE1,20UPGFC0009300,diff,Stage5,45.5,10.1
KEKQ14,FE4,20UPGFC0009348,syn,Stage1,112.1,13.3
KEKQ14,FE4,20UPGFC0009348,syn,Stage2,113.9,13.2
KEKQ14,FE4,20UPGFC0009348,syn,Stage3,108.1,13.3
KEKQ14,FE4,20UPGFC0009348,syn,Stage4,113.0,13.2
KEKQ14,FE4,20UPGFC0009348,syn,Stage5,112.4,13.4
KEKQ14,FE4,20UPGFC0009348,lin,Stage1,72.2,13.3
KEKQ14,FE4,20UPGFC0009348,lin,Stage2,74.4,14.4
KEKQ14,FE4,20UPGFC0009348,lin,Stage3,67.9,11.6
KEKQ14,FE4,20UPGFC0009348,lin,Stage4,71.1,17.0
KEKQ14,FE4,20UPGFC0009348,lin,Stage5,71.0,13.8
KEKQ14,FE4,20UPGFC0009348,diff,Stage1,43.0,10.0
KEKQ14,FE4,20UPGFC0009348,diff,Stage2,43.1,10.2
KEKQ14,FE4,20UPGFC0009348,diff,Stage3,41.3,10.5
KEKQ14,FE4,20UPGFC0009348,diff,Stage4,43.0,10.2
KEKQ14,FE4,20UPGFC0009348,diff,Stage5,43.1,10.1
KEKQ14,FE2,20UPGFC0009316,syn,Stage1,104.5,12.7
KEKQ14,FE2,20UPGFC0009316,syn,Stage2,106.4,12.9
KEKQ14,FE2,20UPGFC0009316,syn,Stage3,102.9,14.0
KEKQ14,FE2,20UPGFC0009316,syn,Stage4,105.0,13.6
KEKQ14,FE2,20UPGFC0009316,syn,Stage5,105.0,12.4
KEKQ14,FE2,20UPGFC0009316,lin,Stage1,68.4,13.1
KEKQ14,FE2,20UPGFC0009316,lin,Stage2,71.1,13.5
KEKQ14,FE2,20UPGFC0009316,lin,Stage3,65.9,10.3
KEKQ14,FE2,20UPGFC0009316,lin,Stage4,70.4,13.4
KEKQ14,FE2,20UPGFC0009316,lin,Stage5,68.6,12.2
KEKQ14,FE2,20UPGFC0009316,diff,Stage1,44.4,10.0
KEKQ14,FE2,20UPGFC0009316,diff,Stage2,44.7,9.9
KEKQ14,FE2,20UPGFC0009316,diff,Stage3,42.6,10.3
KEKQ14,FE2,20UPGFC0009316,diff,Stage4,44.6,10.2
KEKQ14,FE2,20UPGFC0009316,diff,Stage5,44.7,9.7
KEKQ14,FE3,20UPGFC0009332,syn,Stage1,115.4,25.2
KEKQ14,FE3,20UPGFC0009332,syn,Stage2,78.7,110.0
KEKQ14,FE3,20UPGFC0009332,syn,Stage3,123.9,16.7
KEKQ14,FE3,20UPGFC0009332,syn,Stage4,114.5,25.4
KEKQ14,FE3,20UPGFC0009332,syn,Stage5,97.9,114.6
KEKQ14,FE3,20UPGFC0009332,lin,Stage1,71.3,12.3
KEKQ14,FE3,20UPGFC0009332,lin,Stage2,72.5,13.0
KEKQ14,FE3,20UPGFC0009332,lin,Stage3,67.1,14.2
KEKQ14,FE3,20UPGFC0009332,lin,Stage4,71.8,13.1
KEKQ14,FE3,20UPGFC0009332,lin,Stage5,71.5,12.6
KEKQ14,FE3,20UPGFC0009332,diff,Stage1,41.2,9.2
KEKQ14,FE3,20UPGFC0009332,diff,Stage2,41.2,10.5
KEKQ14,FE3,20UPGFC0009332,diff,Stage3,40.0,9.3
KEKQ14,FE3,20UPGFC0009332,diff,Stage4,41.4,9.2
KEKQ14,FE3,20UPGFC0009332,diff,Stage5,41.0,9.3
