{
    "Module": {
	"ModuleID": "KEKQ25",
	"FolderPath": {
	    "Stage1": "/eos/atlas/atlascerngroupdisk/det-itk/general/pixels/systemtest/lls-prototype-rd53a-ob/moduledata/KEKQ25/2-AfterLoading",
	    "Stage2": "/eos/atlas/atlascerngroupdisk/det-itk/general/pixels/systemtest/lls-prototype-rd53a-ob/moduledata/KEKQ25/2-AfterLoading/PigtailBack"
	},
	"IV": {
	    "Stage1": "/eos/atlas/atlascerngroupdisk/det-itk/general/pixels/systemtest/lls-prototype-rd53a-ob/moduledata/KEKQ25/2-AfterLoading",
	    "Stage2": "/eos/atlas/atlascerngroupdisk/det-itk/general/pixels/systemtest/lls-prototype-rd53a-ob/moduledata/KEKQ25/2-AfterLoading/PigtailBack"
	},
	"FWB": {
	    "Stage1": "/eos/atlas/atlascerngroupdisk/det-itk/general/pixels/systemtest/lls-prototype-rd53a-ob/moduledata/KEKQ25/2-AfterLoading",
	    "Stage2": "/eos/atlas/atlascerngroupdisk/det-itk/general/pixels/systemtest/lls-prototype-rd53a-ob/moduledata/KEKQ25/2-AfterLoading/PigtailBack"
	},
	"Temperature": {
	    "Stage1": 291.15,
	    "Stage2": 292.75,
	    "Stage3": 292.75,
	    "Stage4": 293.15,
	    "Stage5": 303.15,
	    "Stage6": 293.65
	},
	"Type": [ "diff", "lin", "syn" ],
	"FE1": "20UPGFC0009238",
	"FE2": "20UPGFC0009270",
	"FE3": "20UPGFC0009271",
	"FE4": "20UPGFC0009382"
    },
    "PlotConfig": "./PlotConfig.json",
    "OutputFormat": [ ".png", ".pdf" ]
}
