{
    "Module": {
	"ModuleID": "Paris17",
	"FolderPath": {
	    "Stage1": "/eos/atlas/atlascerngroupdisk/det-itk/general/pixels/systemtest/lls-prototype-rd53a-ob/moduledata/Paris17/Initial-ModuleQCAtParis/AfterTCBurnIn",
	    "Stage2": "/eos/atlas/atlascerngroupdisk/det-itk/general/pixels/systemtest/lls-prototype-rd53a-ob/moduledata/Paris17/1-ReceptionTestCERN/AfterPotting",
	    "Stage3": "/eos/atlas/atlascerngroupdisk/det-itk/general/pixels/systemtest/lls-prototype-rd53a-ob/moduledata/Paris17/1-ReceptionTestCERN/AfterTabCutting",
	    "Stage4": "/eos/atlas/atlascerngroupdisk/det-itk/general/pixels/systemtest/lls-prototype-rd53a-ob/moduledata/Paris17/2-AfterLoading/AfterLoading",
	    "Stage5": "/eos/atlas/atlascerngroupdisk/det-itk/general/pixels/systemtest/lls-prototype-rd53a-ob/moduledata/Paris17/2-AfterLoading/ThermalTest/ElectricalScan",
	    "Stage6": "/eos/atlas/atlascerngroupdisk/det-itk/general/pixels/systemtest/lls-prototype-rd53a-ob/moduledata/Paris17/2-AfterLoading/XplusTop"
	},
	"IV": {
	    "Stage1": "/eos/atlas/atlascerngroupdisk/det-itk/general/pixels/systemtest/lls-prototype-rd53a-ob/moduledata/Paris17/Initial-ModuleQCAtParis/AfterTCBurnIn",
	    "Stage2": "/eos/atlas/atlascerngroupdisk/det-itk/general/pixels/systemtest/lls-prototype-rd53a-ob/moduledata/Paris17/1-ReceptionTestCERN/AfterPotting",
	    "Stage3": "/eos/atlas/atlascerngroupdisk/det-itk/general/pixels/systemtest/lls-prototype-rd53a-ob/moduledata/Paris17/1-ReceptionTestCERN/AfterTabCutting",
	    "Stage4": "/eos/atlas/atlascerngroupdisk/det-itk/general/pixels/systemtest/lls-prototype-rd53a-ob/moduledata/Paris17/2-AfterLoading/AfterLoading",
	    "Stage5": "/eos/atlas/atlascerngroupdisk/det-itk/general/pixels/systemtest/lls-prototype-rd53a-ob/moduledata/Paris17/2-AfterLoading/ThermalTest/ElectricalScan",
	    "Stage6": "/eos/atlas/atlascerngroupdisk/det-itk/general/pixels/systemtest/lls-prototype-rd53a-ob/moduledata/Paris17/2-AfterLoading/XplusTop"
	},
	"FWB": {
	    "Stage1": "/eos/atlas/atlascerngroupdisk/det-itk/general/pixels/systemtest/lls-prototype-rd53a-ob/moduledata/Paris17/Initial-ModuleQCAtParis/AfterTCBurnIn",
	    "Stage2": "/eos/atlas/atlascerngroupdisk/det-itk/general/pixels/systemtest/lls-prototype-rd53a-ob/moduledata/Paris17/1-ReceptionTestCERN/AfterPotting",
	    "Stage3": "/eos/atlas/atlascerngroupdisk/det-itk/general/pixels/systemtest/lls-prototype-rd53a-ob/moduledata/Paris17/1-ReceptionTestCERN/AfterTabCutting",
	    "Stage4": "/eos/atlas/atlascerngroupdisk/det-itk/general/pixels/systemtest/lls-prototype-rd53a-ob/moduledata/Paris17/2-AfterLoading/AfterLoading",
	    "Stage5": "/eos/atlas/atlascerngroupdisk/det-itk/general/pixels/systemtest/lls-prototype-rd53a-ob/moduledata/Paris17/2-AfterLoading/ThermalTest/ElectricalScan",
	    "Stage6": "/eos/atlas/atlascerngroupdisk/det-itk/general/pixels/systemtest/lls-prototype-rd53a-ob/moduledata/Paris17/2-AfterLoading/XplusTop"
	}, 
	"Temperature": {
	    "Stage1": 303.15,
	    "Stage2": 293.15,
	    "Stage3": 292.15,
	    "Stage4": 293.15,
	    "Stage5": 296.95,
	    "Stage6": 293.55
	},
	"Type": [ "diff", "lin", "syn" ],
	"FE1": "20UPGFC0012908",
	"FE2": "20UPGFC0012892",
	"FE3": "20UPGFC0012859",
	"FE4": "20UPGFC0012875"
    },
    "PlotConfig": "./PlotConfig.json",
    "OutputFormat": [ ".pdf" ]
}
