{
    "Module": {
	"ModuleID": "ThinQ1",
	"FolderPath": {
	    "Stage1": "/eos/atlas/atlascerngroupdisk/det-itk/general/pixels/systemtest/lls-prototype-rd53a-ob/moduledata/CERN_Thin_Q1_20UPGM20023002/2-AfterLoading/0Cycles",
	    "Stage2": "/eos/atlas/atlascerngroupdisk/det-itk/general/pixels/systemtest/lls-prototype-rd53a-ob/moduledata/CERN_Thin_Q1_20UPGM20023002/2-AfterLoading/25Cycles",
	    "Stage3": "",
	    "Stage4": "",
	    "Stage5": "",
	    "Stage6": ""
	},
	"FWB": {
	    "Stage1": "/eos/atlas/atlascerngroupdisk/det-itk/general/pixels/systemtest/lls-prototype-rd53a-ob/moduledata/CERN_Thin_Q1_20UPGM20023002/2-AfterLoading/0Cycles/20UPGM20023002_FWB_AfterTCBurnIn",
	    "Stage2": "/eos/atlas/atlascerngroupdisk/det-itk/general/pixels/systemtest/lls-prototype-rd53a-ob/moduledata/CERN_Thin_Q1_20UPGM20023002/2-AfterLoading/25Cycles/20UPGM20023002_FWB_AfterTCBurnIn",
	    "Stage3": "",
	    "Stage4": "",
	    "Stage5": "",
	    "Stage6": ""
	}, 
	"Temperature": {
	    "Stage1": 298.15,
	    "Stage2": 298.15,
	    "Stage3": 1,
	    "Stage4": 1,
	    "Stage5": 1,
	    "Stage6": 1
	},
	"Type": [ "diff", "lin", "syn" ],
	"FE1": "20UPGFC0012889",
	"FE2": "20UPGFC0012921",
	"FE3": "20UPGFC0012937",
	"FE4": "20UPGFC0012905"
    },
    "PlotConfig": "./PlotConfig.json",
    "OutputFormat": [ ".png", ".pdf" ]
}
