{
    "Module": {
	"ModuleID": "Thick14",
	"FolderPath": {
	    "Stage1": "./Data/QuadSetup/IVtest/Thick14/setup1",
	    "Stage2": "./Data/QuadSetup/20220628/GND/Thick14",
	    "Stage3": "./Data/QuadSetup/20220628/Thick14/cell",
	    "Stage4": "./Data/QuadSetup/Thick14/Reception",
	    "Stage5": "./Data/QuadSetup/20220628/Thick14/blackcover",
	    "Stage6": "."
	},
	"IV": {
	    "Stage1": "./Data/QuadSetup/IVtest/Thick14/setup1",
	    "Stage2": "./Data/QuadSetup/20220628/GND/Thick14",
	    "Stage3": "./Data/QuadSetup/20220628/Thick14/cell",
	    "Stage4": "./Data/QuadSetup/Thick14/Reception",
	    "Stage5": "./Data/QuadSetup/20220628/Thick14/blackcover",
	    "Stage6": "."
	},
	"FWB": {
	    "Stage1": "./Data/QuadSetup/IVtest/Thick14/setup1",
	    "Stage2": "./Data/QuadSetup/20220628/GND/Thick14",
	    "Stage3": "./Data/QuadSetup/20220628/Thick14/cell",
	    "Stage4": "./Data/QuadSetup/Thick14/Reception",
	    "Stage5": "./Data/QuadSetup/20220628/Thick14/blackcover",
	    "Stage6": "."
	}, 
	"Temperature": {
	    "Stage1": 296.3,
	    "Stage2": 296.7,
	    "Stage3": 296.5,
	    "Stage4": 283.2,
	    "Stage5": 296.5,
	    "Stage6": 1
	},
	"Type": [ "diff", "lin", "syn" ],
	"FE1": "20UPGFC0014887",
	"FE2": "20UPGFC0014888",
	"FE3": "20UPGFC0014726",
	"FE4": "20UPGFC0014889"
    },
    "PlotConfig": "./PlotConfig.json",
    "OutputFormat": [ ".png", ".pdf", ".csv" ]
}
