{
    "Module": {
	"ModuleID": "Thick09",
	"FolderPath": {
	    "Stage1": "./Data/QuadSetup/20220628/Thick09/setup1",
	    "Stage2": "./Data/QuadSetup/20220628/GND/Thick09",
	    "Stage3": "./Data/QuadSetup/20220628/Thick09/cell",
	    "Stage4": "./Data/QuadSetup/Thick09/Reception",
	    "Stage5": "./Data/QuadSetup/20220628/Thick09/blackcover",
	    "Stage6": "."
	},
	"IV": {
	    	    "Stagqe1": "./Data/QuadSetup/20220628/Thick09/setup1",
	    "Stage2": "./Data/QuadSetup/20220628/GND/Thick09",
	    "Stage3": "./Data/QuadSetup/20220628/Thick09/cell",
	    "Stage4": "./Data/QuadSetup/Thick09/Reception",
	    "Stage5": "./Data/QuadSetup/20220628/Thick09/blackcover",
	    "Stage6": "."
	},
	"FWB": {
	    "Stage1": "./Data/QuadSetup/20220628/Thick09/setup1",
	    "Stage2": "./Data/QuadSetup/20220628/GND/Thick09",
	    "Stage3": "./Data/QuadSetup/20220628/Thick09/cell",
	    "Stage4": "./Data/QuadSetup/Thick09/Reception",
	    "Stage5": "./Data/QuadSetup/20220628/Thick09/blackcover",
	    "Stage6": "."
	}, 
	"Temperature": {
	    "Stage1": 296.8,
	    "Stage2": 296.8,
	    "Stage3": 296.7,
	    "Stage4": 288.2,
	    "Stage5": 296.1,
	    "Stage6": 296.8
	},
	"Type": [ "diff", "lin", "syn" ],
	"FE1": "20UPGFC0014956",
	"FE2": "20UPGFC0014940",
	"FE3": "20UPGFC0014936",
	"FE4": "20UPGFC0014937"
    },
    "PlotConfig": "./PlotConfig.json",
    "OutputFormat": [ ".png", ".pdf", ".csv" ]
}
