{
	    "Stage": "/eos/atlas/atlascerngroupdisk/det-itk/general/pixels/systemtest/lls-prototype-rd53a-ob/moduledata/KEKQ20/Initial-ModuleQCAtKEK/BeforeShipping",
	    "Stage": "/eos/atlas/atlascerngroupdisk/det-itk/general/pixels/systemtest/lls-prototype-rd53a-ob/moduledata/KEKQ20/1-ReceptionTestCERN/AfterReceptionFromJP",
	    "Stage": "/eos/atlas/atlascerngroupdisk/det-itk/general/pixels/systemtest/lls-prototype-rd53a-ob/moduledata/KEKQ20/1-ReceptionTestCERN/ReceptionTestAt0V",
	    "Stage": "/eos/atlas/atlascerngroupdisk/det-itk/general/pixels/systemtest/lls-prototype-rd53a-ob/moduledata/KEKQ20/3-AfterTCLoading",
	    "Stage": "/eos/atlas/atlascerngroupdisk/det-itk/general/pixels/systemtest/lls-prototype-rd53a-ob/moduledata/KEKQ20/4-AfterTabCutLoaded",
	    "Stage": "/eos/atlas/atlascerngroupdisk/det-itk/general/pixels/systemtest/lls-prototype-rd53a-ob/moduledata/KEKQ20/2-AfterLoading/XminusBottom",

    "Module": {
	"ModuleID": "KEKQ20",
	"FolderPath": {
	    "Stage1": "/eos/atlas/atlascerngroupdisk/det-itk/general/pixels/systemtest/lls-prototype-rd53a-ob/moduledata/KEKQ20/3-AfterTCLoading",
	    "Stage2": "/eos/atlas/atlascerngroupdisk/det-itk/general/pixels/systemtest/lls-prototype-rd53a-ob/moduledata/KEKQ20/2-AfterLoading/XminusBottom",
	    "Stage3": "/eos/atlas/atlascerngroupdisk/det-itk/general/pixels/systemtest/lls-prototype-rd53a-ob/moduledata/KEKQ20/2-AfterLoading/XminusBottom_after25TC"
	},
	"IV": {
	    "Stage1": "/eos/atlas/atlascerngroupdisk/det-itk/general/pixels/systemtest/lls-prototype-rd53a-ob/moduledata/KEKQ20/3-AfterTCLoading",
	    "Stage2": "/eos/atlas/atlascerngroupdisk/det-itk/general/pixels/systemtest/lls-prototype-rd53a-ob/moduledata/KEKQ20/2-AfterLoading/XminusBottom",
	    "Stage3": "/eos/atlas/atlascerngroupdisk/det-itk/general/pixels/systemtest/lls-prototype-rd53a-ob/moduledata/KEKQ20/2-AfterLoading/XminusBottom_after25TC"
	},
	"FWB": {
	    "Stage1": "/eos/atlas/atlascerngroupdisk/det-itk/general/pixels/systemtest/lls-prototype-rd53a-ob/moduledata/KEKQ20/3-AfterTCLoading",
	    "Stage2": "/eos/atlas/atlascerngroupdisk/det-itk/general/pixels/systemtest/lls-prototype-rd53a-ob/moduledata/KEKQ20/2-AfterLoading/XminusBottom",
	    "Stage3": "/eos/atlas/atlascerngroupdisk/det-itk/general/pixels/systemtest/lls-prototype-rd53a-ob/moduledata/KEKQ20/2-AfterLoading/XminusBottom_after25TC"
	},
	"Temperature": {
	    "Stage1": 293.15,
	    "Stage2": 293.65,
	    "Stage3": 292.85,
	    "Stage4": 293.15,
	    "Stage5": 303.15,
	    "Stage6": 293.65
	},
	"Type": [ "diff", "lin", "syn" ],
	"FE1": "20UPGFC0005672",
	"FE2": "20UPGFC0005704",
	"FE3": "20UPGFC0005736",
	"FE4": "20UPGFC0005720"
    },
    "PlotConfig": "./PlotConfig.json",
    "OutputFormat": [ ".png", ".pdf" ]
}
