{
    "Module": {
	"ModuleID": "Liv8",
	"FolderPath": {
	    "Stage1": "/eos/atlas/atlascerngroupdisk/det-itk/general/pixels/systemtest/lls-prototype-rd53a-ob/moduledata/Liv8/1-ReceptionTestCERN/BeforePotting",
	    "Stage2": "/eos/atlas/atlascerngroupdisk/det-itk/general/pixels/systemtest/lls-prototype-rd53a-ob/moduledata/Liv8/2-AfterLoading",
	    "Stage3": "/eos/atlas/atlascerngroupdisk/det-itk/general/pixels/systemtest/lls-prototype-rd53a-ob/moduledata/Liv8/2-AfterLoading/Pigtail_Front",
	    "Stage4": "/eos/home-d/dharada/Documents/SR1test/VakYarr/Liv8",
	    "Stage5": ".",
	    "Stage6": "."
	},
	"IV": {
	    "Stage1": "/eos/atlas/atlascerngroupdisk/det-itk/general/pixels/systemtest/lls-prototype-rd53a-ob/moduledata/Liv8/1-ReceptionTestCERN/BeforePotting",
	    "Stage2": "/eos/atlas/atlascerngroupdisk/det-itk/general/pixels/systemtest/lls-prototype-rd53a-ob/moduledata/Liv8/2-AfterLoading",
	    "Stage3": "/eos/atlas/atlascerngroupdisk/det-itk/general/pixels/systemtest/lls-prototype-rd53a-ob/moduledata/Liv8/2-AfterLoading/Pigtail_Front",
	    "Stage4": "/eos/home-d/dharada/Documents/SR1test/VakYarr/Liv8",
	    "Stage5": ".",
	    "Stage6": "."
	},
	"FWB": {
	    "Stage1": "/eos/atlas/atlascerngroupdisk/det-itk/general/pixels/systemtest/lls-prototype-rd53a-ob/moduledata/Liv8/1-ReceptionTestCERN/BeforePotting",
	    "Stage2": "/eos/atlas/atlascerngroupdisk/det-itk/general/pixels/systemtest/lls-prototype-rd53a-ob/moduledata/Liv8/2-AfterLoading",
	    "Stage3": "/eos/atlas/atlascerngroupdisk/det-itk/general/pixels/systemtest/lls-prototype-rd53a-ob/moduledata/Liv8/2-AfterLoading/Pigtail_Front",
	    "Stage4": "/eos/home-d/dharada/Documents/SR1test/VakYarr/Liv8",
	    "Stage5": ".",
	    "Stage6": "."
	},
	"Temperature": {
	    "Stage1": 287.15,
	    "Stage2": 294.2,
	    "Stage3": 294.15,
	    "Stage4": 293.55,
	    "Stage5": 1,
	    "Stage6": 1
	},
	"Type": [ "diff", "lin", "syn" ],
	"FE1": "20UPGFC0010132",
	"FE2": "20UPGFC0010021",
	"FE3": "20UPGFC0010039",
	"FE4": "20UPGFC0010037"
    },
    "PlotConfig": "./PlotConfig.json",
    "OutputFormat": [ ".png", ".pdf" ]
}
