{
    "Module": {
	"ModuleID": "KEKQ11",
	"FolderPath": {
	    "Stage1": "/eos/atlas/atlascerngroupdisk/det-itk/general/pixels/systemtest/lls-prototype-rd53a-ob/moduledata/KEKQ11/1-ReceptionTestCERN/electricaltestInThermalCalib",
	    "Stage2": "/eos/atlas/atlascerngroupdisk/det-itk/general/pixels/systemtest/lls-prototype-rd53a-ob/moduledata/KEKQ11/1-ReceptionTestCERN/AfterTCBurnIn",
	    "Stage3": "/eos/atlas/atlascerngroupdisk/det-itk/general/pixels/systemtest/lls-prototype-rd53a-ob/moduledata/KEKQ11/1-ReceptionTestCERN/AfterTabCutting",
	    "Stage4": "/eos/atlas/atlascerngroupdisk/det-itk/general/pixels/systemtest/lls-prototype-rd53a-ob/moduledata/KEKQ11/2-AfterLoading/BeforeTC/Xraysetup",
	    "Stage5": "",
	    "Stage6": ""

	},
	"FWB": {
	    "Stage1": "",
	    "Stage2": "/eos/atlas/atlascerngroupdisk/det-itk/general/pixels/systemtest/lls-prototype-rd53a-ob/moduledata/KEKQ11/1-ReceptionTestCERN/AfterTCBurnIn/KEKQ11_FWB",
	    "Stage3": "",
	    "Stage4": "",
	    "Stage5": "",
	    "Stage6": ""
	},
	"Temperature": {
	    "Stage1": 1,
	    "Stage2": 298.15,
	    "Stage3": 293.15,
	    "Stage4": 1,
	    "Stage5": 1,
	    "Stage6": 1
	},
	"Type": [ "diff", "lin", "syn" ],
	"FE1": "20UPGFC0005751",
	"FE2": "20UPGFC0005783",
	"FE3": "20UPGFC0005656",
	"FE4": "20UPGFC0005799"
    },
    "PlotConfig": "./PlotConfig.json",
    "OutputFormat": [ ".png", ".pdf" ]
}
