{
    "Module": {
	"ModuleID": "Thick27",
	"FolderPath": {
            "Stage1": "./Data/QuadSetup/20220628/Thick27/setup1",
            "Stage2": "./Data/QuadSetup/20220628/GND/Thick27",
            "Stage3": "./Data/QuadSetup/20220628/Thick27/cell",
            "Stage4": "./Data/QuadSetup/Thick27/Reception",
            "Stage5": "./Data/QuadSetup/20220628/Thick27/blackcover",
            "Stage6": "."
	},
	"IV": {
	    "Stage1": "./Data/QuadSetup/20220628/Thick27/setup1",
            "Stage2": "./Data/QuadSetup/20220628/GND/Thick27",
            "Stage3": "./Data/QuadSetup/20220628/Thick27/cell",
            "Stage4": "./Data/QuadSetup/Thick27/Reception",
            "Stage5": "./Data/QuadSetup/20220628/Thick27/blackcover",
            "Stage6": "."
	},
	"FWB": {
	    "Stage1": "./Data/QuadSetup/20220628/Thick27/setup1",
            "Stage2": "./Data/QuadSetup/20220628/GND/Thick27",
            "Stage3": "./Data/QuadSetup/20220628/Thick27/cell",
            "Stage4": "./Data/QuadSetup/Thick27/Reception",
            "Stage5": "./Data/QuadSetup/20220628/Thick27/blackcover",
            "Stage6": "."
	}, 
	"Temperature": {
	    "Stage1": 296.3,
	    "Stage2": 296.8,
	    "Stage3": 296.5,
	    "Stage4": 291,
	    "Stage5": 296.1,
	    "Stage6": 1
	},
	"Type": [ "diff", "lin", "syn" ],
	"FE1": "20UPGFC0015191",
	"FE2": "20UPGFC0015190",
	"FE3": "20UPGFC0015173",
	"FE4": "20UPGFC0015187"
    },
    "PlotConfig": "./PlotConfig.json",
    "OutputFormat": [ ".png", ".pdf", ".csv" ]
}
