{
    "Module": {
	"ModuleID": "Paris13",
	"FolderPath": {
	    "Stage1": "/eos/atlas/atlascerngroupdisk/det-itk/general/pixels/systemtest/lls-prototype-rd53a-ob/moduledata/Paris13/Initial-ModuleQCAtParis/AfterTCBurnIn",
	    "Stage2": "/eos/atlas/atlascerngroupdisk/det-itk/general/pixels/systemtest/lls-prototype-rd53a-ob/moduledata/Paris13/1-ReceptionTestCERN/AfterPotting",
	    "Stage3": "/eos/atlas/atlascerngroupdisk/det-itk/general/pixels/systemtest/lls-prototype-rd53a-ob/moduledata/Paris13/1-ReceptionTestCERN/AfterTabCutting",
	    "Stage4": "/eos/atlas/atlascerngroupdisk/det-itk/general/pixels/systemtest/lls-prototype-rd53a-ob/moduledata/Paris13/2-AfterLoading/AfterLoading",
	    "Stage5": "/eos/atlas/atlascerngroupdisk/det-itk/general/pixels/systemtest/lls-prototype-rd53a-ob/moduledata/Paris13/2-AfterLoading/XplusTop",
	    "Stage6": "."
	},
	"IV": {
	    "Stage1": "/eos/atlas/atlascerngroupdisk/det-itk/general/pixels/systemtest/lls-prototype-rd53a-ob/moduledata/Paris13/Initial-ModuleQCAtParis/AfterTCBurnIn",
	    "Stage2": "/eos/atlas/atlascerngroupdisk/det-itk/general/pixels/systemtest/lls-prototype-rd53a-ob/moduledata/Paris13/1-ReceptionTestCERN/AfterPotting",
	    "Stage3": "/eos/atlas/atlascerngroupdisk/det-itk/general/pixels/systemtest/lls-prototype-rd53a-ob/moduledata/Paris13/1-ReceptionTestCERN/AfterTabCutting",
	    "Stage4": "/eos/atlas/atlascerngroupdisk/det-itk/general/pixels/systemtest/lls-prototype-rd53a-ob/moduledata/Paris13/2-AfterLoading/AfterLoading",
	    "Stage5": "/eos/atlas/atlascerngroupdisk/det-itk/general/pixels/systemtest/lls-prototype-rd53a-ob/moduledata/Paris13/2-AfterLoading/XplusTop",
	    "Stage6": "."
	},
	"FWB": {
	    "Stage1": "/eos/atlas/atlascerngroupdisk/det-itk/general/pixels/systemtest/lls-prototype-rd53a-ob/moduledata/Paris13/Initial-ModuleQCAtParis/AfterTCBurnIn",
	    "Stage2": "/eos/atlas/atlascerngroupdisk/det-itk/general/pixels/systemtest/lls-prototype-rd53a-ob/moduledata/Paris13/1-ReceptionTestCERN/AfterPotting",
	    "Stage3": "/eos/atlas/atlascerngroupdisk/det-itk/general/pixels/systemtest/lls-prototype-rd53a-ob/moduledata/Paris13/1-ReceptionTestCERN/AfterTabCutting",
	    "Stage4": "/eos/atlas/atlascerngroupdisk/det-itk/general/pixels/systemtest/lls-prototype-rd53a-ob/moduledata/Paris13/2-AfterLoading/AfterLoading",
	    "Stage5": "/eos/atlas/atlascerngroupdisk/det-itk/general/pixels/systemtest/lls-prototype-rd53a-ob/moduledata/Paris13/2-AfterLoading/XplusTop",
	    "Stage6": "."
	}, 
	"Temperature": {
	    "Stage1": 303.15,
	    "Stage2": 293.15,
	    "Stage3": 298.15,
	    "Stage4": 298.45,
	    "Stage5": 293.65,
	    "Stage6": 1 
	},
	"Type": [ "diff", "lin", "syn" ],
	"FE1": "20UPGFC0008853",
	"FE2": "20UPGFC0008837",
	"FE3": "20UPGFC0008805",
	"FE4": "20UPGFC0008821"
    },
    "PlotConfig": "./PlotConfig.json",
    "OutputFormat": [ ".png", ".pdf" ]
}
