{
    "Module": {
	"ModuleID": "LivThick2",
	"FolderPath": {
	    "Stage1": "/eos/atlas/atlascerngroupdisk/det-itk/general/pixels/systemtest/lls-prototype-rd53a-ob/moduledata/LivThick2/Initial-ModuleQCAtLiverpool",
	    "Stage2": "/eos/atlas/atlascerngroupdisk/det-itk/general/pixels/systemtest/lls-prototype-rd53a-ob/moduledata/LivThick2/1-ReceptionTestCERN/data_+25C_BeforePotting",
	    "Stage3": "/eos/atlas/atlascerngroupdisk/det-itk/general/pixels/systemtest/lls-prototype-rd53a-ob/moduledata/LivThick2/1-ReceptionTestCERN/data_+25C_AfterPotting",
	    "Stage4": "",
	    "Stage5": "",
	    "Stage6": ""
	},
	"FWB": {
	    "Stage1": "",
	    "Stage2": "",
	    "Stage3": "",
	    "Stage4": "",
	    "Stage5": "",
	    "Stage6": ""
	},
	"Temperature": {
	    "Stage1": 1,
	    "Stage2": 288.15,
	    "Stage3": 288.15,
	    "Stage4": 1,
	    "Stage5": 1,
	    "Stage6": 1
	},
	"Type": [ "diff", "lin", "syn" ],
	"FE1": "RD53A_quad_GA1",
	"FE2": "RD53A_quad_GA2",
	"FE3": "RD53A_quad_GA3",
	"FE4": "RD53A_quad_GA4"
    },
    "PlotConfig": "./PlotConfig.json",
    "OutputFormat": [ ".png", ".pdf" ]
}
