{
    "Module": {
	"ModuleID": "ThickQ3",
	"FolderPath": {
	    "Stage1": "/eos/atlas/atlascerngroupdisk/det-itk/general/pixels/systemtest/lls-prototype-rd53a-ob/moduledata/CERN_Thick_Q3_20UPGM20021033/Initial-ModuleQCAtCERN/BeforeParylene/data_+25C",
	    "Stage2": "/eos/atlas/atlascerngroupdisk/det-itk/general/pixels/systemtest/lls-prototype-rd53a-ob/moduledata/CERN_Thick_Q3_20UPGM20021033/Initial-ModuleQCAtCERN/BeforeParylene/data_+25C/sourcerepeat",
	    "Stage3": "",
	    "Stage4": "",
	    "Stage5": "",
	    "Stage6": ""
	},
	"FWB": {
	    "Stage1": "/eos/atlas/atlascerngroupdisk/det-itk/general/pixels/systemtest/lls-prototype-rd53a-ob/moduledata/CERN_Thick_Q3_20UPGM20021033/Initial-ModuleQCAtCERN/BeforeParylene/data_+25C/20UPGM20021033_FWB_BeforeParylene",
	    "Stage2": "",
	    "Stage3": "",
	    "Stage4": "",
	    "Stage5": "",
	    "Stage6": ""
	}, 
	"Temperature": {
	    "Stage1": 298.15,
	    "Stage2": 298.15,
	    "Stage3": 1,
	    "Stage4": 1,
	    "Stage5": 1,
	    "Stage6": 1
	},
	"Type": [ "diff", "lin", "syn" ],
	"FE1": "20UPGFC0014900",
	"FE2": "20UPGFC0014899",
	"FE3": "20UPGFC0014886",
	"FE4": "20UPGFC0014884"
    },
    "PlotConfig": "./PlotConfig.json",
    "OutputFormat": [ ".png", ".pdf" ]
}
