{
    "Module": {
	"ModuleID": "ThinQ10",
	"FolderPath": {
	    "Stage1": "/eos/atlas/atlascerngroupdisk/det-itk/general/pixels/systemtest/lls-prototype-rd53a-ob/moduledata/CERN_Thin_Q10_20UPGM20025080/1-ReceptionTestCERN/BeforePotting",
            "Stage2": "/eos/atlas/atlascerngroupdisk/det-itk/general/pixels/systemtest/lls-prototype-rd53a-ob/moduledata/CERN_Thin_Q10_20UPGM20025080/1-ReceptionTestCERN/AfterPotting",
            "Stage3": "/eos/atlas/atlascerngroupdisk/det-itk/general/pixels/systemtest/lls-prototype-rd53a-ob/moduledata/CERN_Thin_Q10_20UPGM20025080/1-ReceptionTestCERN/AfterTC",
            "Stage4": "/eos/atlas/atlascerngroupdisk/det-itk/general/pixels/systemtest/lls-prototype-rd53a-ob/moduledata/CERN_Thin_Q10_20UPGM20025080/1-ReceptionTestCERN/AfterTabCutting",
            "Stage5": "",
            "Stage6": ""
	},
	"FWB": {
	    "Stage1": "/eos/atlas/atlascerngroupdisk/det-itk/general/pixels/systemtest/lls-prototype-rd53a-ob/moduledata/CERN_Thin_Q10_20UPGM20025080/1-ReceptionTestCERN/BeforePotting/fwb",
            "Stage2": "/eos/atlas/atlascerngroupdisk/det-itk/general/pixels/systemtest/lls-prototype-rd53a-ob/moduledata/CERN_Thin_Q10_20UPGM20025080/1-ReceptionTestCERN/AfterPotting/fwb",
            "Stage3": "/eos/atlas/atlascerngroupdisk/det-itk/general/pixels/systemtest/lls-prototype-rd53a-ob/moduledata/CERN_Thin_Q10_20UPGM20025080/1-ReceptionTestCERN/AfterTC/fwb",
            "Stage4": "",
            "Stage5": "",
            "Stage6": ""
	}, 
	"Temperature": {
	    "Stage1": 298.15,
	    "Stage2": 298.15,
	    "Stage3": 298.15,
	    "Stage4": 298.15,
	    "Stage5": 1,
	    "Stage6": 1
                         
	},
	"Type": [ "diff", "lin", "syn" ],
	"FE1": "20UPGFC0013650",
	"FE2": "20UPGFC0013668",
	"FE3": "20UPGFC0013653",
	"FE4": "20UPGFC0013716"
    },
    "PlotConfig": "./PlotConfig.json",
    "OutputFormat": [ ".png", ".pdf" ]
}
