{
    "Hist2D": {
	"analogscan": {
	    "Name": "OccupancyMap",
	    "Mask": "json.after",
	    "Cut": 100,
	    "EvolutionPlot": { "Y": "Absolute" }
	}
    },
    "Graph": {
    },
    "Hist1D": {
    }
}

