{'measurement': 'measName', 'fields': {'measV_HV2': -100.0, 'measI_HV2': -5.540204e-08, 'settV_HV2': -100.0, 'settI_HV2': 0.0}, 'tags': {'user': 'root'}}
{'measurement': 'measName', 'fields': {'measV_HV2': -100.0, 'measI_HV2': -6.966171e-08, 'settV_HV2': -100.0, 'settI_HV2': 0.0}, 'tags': {'user': 'root'}}
{'measurement': 'measName', 'fields': {'measV_HV2': -100.0, 'measI_HV2': -5.824577e-08, 'settV_HV2': -100.0, 'settI_HV2': 0.0}, 'tags': {'user': 'root'}}
{'measurement': 'measName', 'fields': {'measV_HV2': -100.0, 'measI_HV2': -6.16749e-08, 'settV_HV2': -100.0, 'settI_HV2': 0.0}, 'tags': {'user': 'root'}}
{'measurement': 'measName', 'fields': {'measV_HV2': -100.0, 'measI_HV2': -6.709723e-08, 'settV_HV2': -100.0, 'settI_HV2': 0.0}, 'tags': {'user': 'root'}}
{'measurement': 'measName', 'fields': {'measV_HV2': -100.0, 'measI_HV2': -5.860006e-08, 'settV_HV2': -100.0, 'settI_HV2': 0.0}, 'tags': {'user': 'root'}}
{'measurement': 'measName', 'fields': {'measV_HV2': -100.0, 'measI_HV2': -7.007218e-08, 'settV_HV2': -100.0, 'settI_HV2': 0.0}, 'tags': {'user': 'root'}}
{'measurement': 'measName', 'fields': {'measV_HV2': -100.0, 'measI_HV2': -5.532903e-08, 'settV_HV2': -100.0, 'settI_HV2': 0.0}, 'tags': {'user': 'root'}}
{'measurement': 'measName', 'fields': {'measV_HV2': -100.0, 'measI_HV2': -6.882324e-08, 'settV_HV2': -100.0, 'settI_HV2': 0.0}, 'tags': {'user': 'root'}}
{'measurement': 'measName', 'fields': {'measV_HV2': -100.0, 'measI_HV2': -6.086312e-08, 'settV_HV2': -100.0, 'settI_HV2': 0.0}, 'tags': {'user': 'root'}}
{'measurement': 'measName', 'fields': {'measV_HV2': -100.0, 'measI_HV2': -6.238772e-08, 'settV_HV2': -100.0, 'settI_HV2': 0.0}, 'tags': {'user': 'root'}}
{'measurement': 'measName', 'fields': {'measV_HV2': -100.0, 'measI_HV2': -6.687343e-08, 'settV_HV2': -100.0, 'settI_HV2': 0.0}, 'tags': {'user': 'root'}}
{'measurement': 'measName', 'fields': {'measV_HV2': -100.0, 'measI_HV2': -5.789531e-08, 'settV_HV2': -100.0, 'settI_HV2': 0.0}, 'tags': {'user': 'root'}}
{'measurement': 'measName', 'fields': {'measV_HV2': -100.0, 'measI_HV2': -7.088228e-08, 'settV_HV2': -100.0, 'settI_HV2': 0.0}, 'tags': {'user': 'root'}}
{'measurement': 'measName', 'fields': {'measV_HV2': -100.0, 'measI_HV2': -5.944925e-08, 'settV_HV2': -100.0, 'settI_HV2': 0.0}, 'tags': {'user': 'root'}}
{'measurement': 'measName', 'fields': {'measV_HV2': -100.0, 'measI_HV2': -6.361132e-08, 'settV_HV2': -100.0, 'settI_HV2': 0.0}, 'tags': {'user': 'root'}}
{'measurement': 'measName', 'fields': {'measV_HV2': -100.0, 'measI_HV2': -6.731335e-08, 'settV_HV2': -100.0, 'settI_HV2': 0.0}, 'tags': {'user': 'root'}}
{'measurement': 'measName', 'fields': {'measV_HV2': -100.0, 'measI_HV2': -5.596169e-08, 'settV_HV2': -100.0, 'settI_HV2': 0.0}, 'tags': {'user': 'root'}}
{'measurement': 'measName', 'fields': {'measV_HV2': -100.0, 'measI_HV2': -6.188953e-08, 'settV_HV2': -100.0, 'settI_HV2': 0.0}, 'tags': {'user': 'root'}}
{'measurement': 'measName', 'fields': {'measV_HV2': -100.0, 'measI_HV2': -6.971155e-08, 'settV_HV2': -100.0, 'settI_HV2': 0.0}, 'tags': {'user': 'root'}}
{'measurement': 'measName', 'fields': {'measV_HV2': -100.0, 'measI_HV2': -5.579435e-08, 'settV_HV2': -100.0, 'settI_HV2': 0.0}, 'tags': {'user': 'root'}}
{'measurement': 'measName', 'fields': {'measV_HV2': -100.0, 'measI_HV2': -6.6197e-08, 'settV_HV2': -100.0, 'settI_HV2': 0.0}, 'tags': {'user': 'root'}}
{'measurement': 'measName', 'fields': {'measV_HV2': -100.0, 'measI_HV2': -6.323901e-08, 'settV_HV2': -100.0, 'settI_HV2': 0.0}, 'tags': {'user': 'root'}}
{'measurement': 'measName', 'fields': {'measV_HV2': -100.0, 'measI_HV2': -6.039834e-08, 'settV_HV2': -100.0, 'settI_HV2': 0.0}, 'tags': {'user': 'root'}}
{'measurement': 'measName', 'fields': {'measV_HV2': -100.0, 'measI_HV2': -7.027673e-08, 'settV_HV2': -100.0, 'settI_HV2': 0.0}, 'tags': {'user': 'root'}}
{'measurement': 'measName', 'fields': {'measV_HV2': -100.0, 'measI_HV2': -5.908928e-08, 'settV_HV2': -100.0, 'settI_HV2': 0.0}, 'tags': {'user': 'root'}}
{'measurement': 'measName', 'fields': {'measV_HV2': -100.0, 'measI_HV2': -6.362981e-08, 'settV_HV2': -100.0, 'settI_HV2': 0.0}, 'tags': {'user': 'root'}}
{'measurement': 'measName', 'fields': {'measV_HV2': -100.0, 'measI_HV2': -6.763037e-08, 'settV_HV2': -100.0, 'settI_HV2': 0.0}, 'tags': {'user': 'root'}}
{'measurement': 'measName', 'fields': {'measV_HV2': -100.0, 'measI_HV2': -5.755689e-08, 'settV_HV2': -100.0, 'settI_HV2': 0.0}, 'tags': {'user': 'root'}}
{'measurement': 'measName', 'fields': {'measV_HV2': -100.0, 'measI_HV2': -6.818156e-08, 'settV_HV2': -100.0, 'settI_HV2': 0.0}, 'tags': {'user': 'root'}}
{'measurement': 'measName', 'fields': {'measV_HV2': -100.0, 'measI_HV2': -6.677099e-08, 'settV_HV2': -100.0, 'settI_HV2': 0.0}, 'tags': {'user': 'root'}}
{'measurement': 'measName', 'fields': {'measV_HV2': -100.0, 'measI_HV2': -6.217547e-08, 'settV_HV2': -100.0, 'settI_HV2': 0.0}, 'tags': {'user': 'root'}}
{'measurement': 'measName', 'fields': {'measV_HV2': -100.0, 'measI_HV2': -7.105879e-08, 'settV_HV2': -100.0, 'settI_HV2': 0.0}, 'tags': {'user': 'root'}}
{'measurement': 'measName', 'fields': {'measV_HV2': -100.0, 'measI_HV2': -5.640617e-08, 'settV_HV2': -100.0, 'settI_HV2': 0.0}, 'tags': {'user': 'root'}}
{'measurement': 'measName', 'fields': {'measV_HV2': -100.0, 'measI_HV2': -6.925276e-08, 'settV_HV2': -100.0, 'settI_HV2': 0.0}, 'tags': {'user': 'root'}}
{'measurement': 'measName', 'fields': {'measV_HV2': -100.0, 'measI_HV2': -6.440698e-08, 'settV_HV2': -100.0, 'settI_HV2': 0.0}, 'tags': {'user': 'root'}}
{'measurement': 'measName', 'fields': {'measV_HV2': -100.0, 'measI_HV2': -5.753105e-08, 'settV_HV2': -100.0, 'settI_HV2': 0.0}, 'tags': {'user': 'root'}}
{'measurement': 'measName', 'fields': {'measV_HV2': -100.0, 'measI_HV2': -6.90697e-08, 'settV_HV2': -100.0, 'settI_HV2': 0.0}, 'tags': {'user': 'root'}}
{'measurement': 'measName', 'fields': {'measV_HV2': -100.0, 'measI_HV2': -5.84153e-08, 'settV_HV2': -100.0, 'settI_HV2': 0.0}, 'tags': {'user': 'root'}}
{'measurement': 'measName', 'fields': {'measV_HV2': -100.0, 'measI_HV2': -7.157342e-08, 'settV_HV2': -100.0, 'settI_HV2': 0.0}, 'tags': {'user': 'root'}}
{'measurement': 'measName', 'fields': {'measV_HV2': -100.0, 'measI_HV2': -5.930424e-08, 'settV_HV2': -100.0, 'settI_HV2': 0.0}, 'tags': {'user': 'root'}}
{'measurement': 'measName', 'fields': {'measV_HV2': -100.0, 'measI_HV2': -6.718464e-08, 'settV_HV2': -100.0, 'settI_HV2': 0.0}, 'tags': {'user': 'root'}}
{'measurement': 'measName', 'fields': {'measV_HV2': -100.0, 'measI_HV2': -6.357187e-08, 'settV_HV2': -100.0, 'settI_HV2': 0.0}, 'tags': {'user': 'root'}}
{'measurement': 'measName', 'fields': {'measV_HV2': -100.0, 'measI_HV2': -6.091916e-08, 'settV_HV2': -100.0, 'settI_HV2': 0.0}, 'tags': {'user': 'root'}}
{'measurement': 'measName', 'fields': {'measV_HV2': -100.0, 'measI_HV2': -6.878046e-08, 'settV_HV2': -100.0, 'settI_HV2': 0.0}, 'tags': {'user': 'root'}}
{'measurement': 'measName', 'fields': {'measV_HV2': -100.0, 'measI_HV2': -5.882979e-08, 'settV_HV2': -100.0, 'settI_HV2': 0.0}, 'tags': {'user': 'root'}}
{'measurement': 'measName', 'fields': {'measV_HV2': -100.0, 'measI_HV2': -7.156004e-08, 'settV_HV2': -100.0, 'settI_HV2': 0.0}, 'tags': {'user': 'root'}}
{'measurement': 'measName', 'fields': {'measV_HV2': -100.0, 'measI_HV2': -5.905058e-08, 'settV_HV2': -100.0, 'settI_HV2': 0.0}, 'tags': {'user': 'root'}}
{'measurement': 'measName', 'fields': {'measV_HV2': -100.0, 'measI_HV2': -6.694298e-08, 'settV_HV2': -100.0, 'settI_HV2': 0.0}, 'tags': {'user': 'root'}}
{'measurement': 'measName', 'fields': {'measV_HV2': -100.0, 'measI_HV2': -6.181837e-08, 'settV_HV2': -100.0, 'settI_HV2': 0.0}, 'tags': {'user': 'root'}}
{'measurement': 'measName', 'fields': {'measV_HV2': -100.0, 'measI_HV2': -6.183175e-08, 'settV_HV2': -100.0, 'settI_HV2': 0.0}, 'tags': {'user': 'root'}}
{'measurement': 'measName', 'fields': {'measV_HV2': -100.0, 'measI_HV2': -6.920563e-08, 'settV_HV2': -100.0, 'settI_HV2': 0.0}, 'tags': {'user': 'root'}}
{'measurement': 'measName', 'fields': {'measV_HV2': -100.0, 'measI_HV2': -6.02251e-08, 'settV_HV2': -100.0, 'settI_HV2': 0.0}, 'tags': {'user': 'root'}}
{'measurement': 'measName', 'fields': {'measV_HV2': -100.0, 'measI_HV2': -7.138426e-08, 'settV_HV2': -100.0, 'settI_HV2': 0.0}, 'tags': {'user': 'root'}}
{'measurement': 'measName', 'fields': {'measV_HV2': -100.0, 'measI_HV2': -5.757321e-08, 'settV_HV2': -100.0, 'settI_HV2': 0.0}, 'tags': {'user': 'root'}}
{'measurement': 'measName', 'fields': {'measV_HV2': -100.0, 'measI_HV2': -6.825437e-08, 'settV_HV2': -100.0, 'settI_HV2': 0.0}, 'tags': {'user': 'root'}}
{'measurement': 'measName', 'fields': {'measV_HV2': -100.0, 'measI_HV2': -6.797816e-08, 'settV_HV2': -100.0, 'settI_HV2': 0.0}, 'tags': {'user': 'root'}}
{'measurement': 'measName', 'fields': {'measV_HV2': -100.0, 'measI_HV2': -6.110507e-08, 'settV_HV2': -100.0, 'settI_HV2': 0.0}, 'tags': {'user': 'root'}}
{'measurement': 'measName', 'fields': {'measV_HV2': -100.0, 'measI_HV2': -6.974626e-08, 'settV_HV2': -100.0, 'settI_HV2': 0.0}, 'tags': {'user': 'root'}}
{'measurement': 'measName', 'fields': {'measV_HV2': -100.0, 'measI_HV2': -5.907938e-08, 'settV_HV2': -100.0, 'settI_HV2': 0.0}, 'tags': {'user': 'root'}}
{'measurement': 'measName', 'fields': {'measV_HV2': -100.0, 'measI_HV2': -7.150722e-08, 'settV_HV2': -100.0, 'settI_HV2': 0.0}, 'tags': {'user': 'root'}}
{'measurement': 'measName', 'fields': {'measV_HV2': -100.0, 'measI_HV2': -5.734704e-08, 'settV_HV2': -100.0, 'settI_HV2': 0.0}, 'tags': {'user': 'root'}}
{'measurement': 'measName', 'fields': {'measV_HV2': -100.0, 'measI_HV2': -6.729501e-08, 'settV_HV2': -100.0, 'settI_HV2': 0.0}, 'tags': {'user': 'root'}}
{'measurement': 'measName', 'fields': {'measV_HV2': -100.0, 'measI_HV2': -6.483991e-08, 'settV_HV2': -100.0, 'settI_HV2': 0.0}, 'tags': {'user': 'root'}}
{'measurement': 'measName', 'fields': {'measV_HV2': -100.0, 'measI_HV2': -5.791901e-08, 'settV_HV2': -100.0, 'settI_HV2': 0.0}, 'tags': {'user': 'root'}}
{'measurement': 'measName', 'fields': {'measV_HV2': -100.0, 'measI_HV2': -7.040975e-08, 'settV_HV2': -100.0, 'settI_HV2': 0.0}, 'tags': {'user': 'root'}}
{'measurement': 'measName', 'fields': {'measV_HV2': -100.0, 'measI_HV2': -5.833429e-08, 'settV_HV2': -100.0, 'settI_HV2': 0.0}, 'tags': {'user': 'root'}}
{'measurement': 'measName', 'fields': {'measV_HV2': -100.0, 'measI_HV2': -6.949094e-08, 'settV_HV2': -100.0, 'settI_HV2': 0.0}, 'tags': {'user': 'root'}}
{'measurement': 'measName', 'fields': {'measV_HV2': -100.0, 'measI_HV2': -5.918047e-08, 'settV_HV2': -100.0, 'settI_HV2': 0.0}, 'tags': {'user': 'root'}}
{'measurement': 'measName', 'fields': {'measV_HV2': -100.0, 'measI_HV2': -6.859189e-08, 'settV_HV2': -100.0, 'settI_HV2': 0.0}, 'tags': {'user': 'root'}}
{'measurement': 'measName', 'fields': {'measV_HV2': -100.0, 'measI_HV2': -5.986999e-08, 'settV_HV2': -100.0, 'settI_HV2': 0.0}, 'tags': {'user': 'root'}}
{'measurement': 'measName', 'fields': {'measV_HV2': -100.0, 'measI_HV2': -6.748247e-08, 'settV_HV2': -100.0, 'settI_HV2': 0.0}, 'tags': {'user': 'root'}}
{'measurement': 'measName', 'fields': {'measV_HV2': -100.0, 'measI_HV2': -6.258998e-08, 'settV_HV2': -100.0, 'settI_HV2': 0.0}, 'tags': {'user': 'root'}}
{'measurement': 'measName', 'fields': {'measV_HV2': -100.0, 'measI_HV2': -6.662572e-08, 'settV_HV2': -100.0, 'settI_HV2': 0.0}, 'tags': {'user': 'root'}}
{'measurement': 'measName', 'fields': {'measV_HV2': -100.0, 'measI_HV2': -6.465542e-08, 'settV_HV2': -100.0, 'settI_HV2': 0.0}, 'tags': {'user': 'root'}}
{'measurement': 'measName', 'fields': {'measV_HV2': -100.0, 'measI_HV2': -5.895037e-08, 'settV_HV2': -100.0, 'settI_HV2': 0.0}, 'tags': {'user': 'root'}}
{'measurement': 'measName', 'fields': {'measV_HV2': -100.0, 'measI_HV2': -7.071262e-08, 'settV_HV2': -100.0, 'settI_HV2': 0.0}, 'tags': {'user': 'root'}}
{'measurement': 'measName', 'fields': {'measV_HV2': -100.0, 'measI_HV2': -5.902349e-08, 'settV_HV2': -100.0, 'settI_HV2': 0.0}, 'tags': {'user': 'root'}}
{'measurement': 'measName', 'fields': {'measV_HV2': -100.0, 'measI_HV2': -6.668022e-08, 'settV_HV2': -100.0, 'settI_HV2': 0.0}, 'tags': {'user': 'root'}}
{'measurement': 'measName', 'fields': {'measV_HV2': -100.0, 'measI_HV2': -6.405762e-08, 'settV_HV2': -100.0, 'settI_HV2': 0.0}, 'tags': {'user': 'root'}}
{'measurement': 'measName', 'fields': {'measV_HV2': -100.0, 'measI_HV2': -6.443106e-08, 'settV_HV2': -100.0, 'settI_HV2': 0.0}, 'tags': {'user': 'root'}}
{'measurement': 'measName', 'fields': {'measV_HV2': -100.0, 'measI_HV2': -7.143788e-08, 'settV_HV2': -100.0, 'settI_HV2': 0.0}, 'tags': {'user': 'root'}}
{'measurement': 'measName', 'fields': {'measV_HV2': -100.0, 'measI_HV2': -5.755373e-08, 'settV_HV2': -100.0, 'settI_HV2': 0.0}, 'tags': {'user': 'root'}}
{'measurement': 'measName', 'fields': {'measV_HV2': -100.0, 'measI_HV2': -7.18771e-08, 'settV_HV2': -100.0, 'settI_HV2': 0.0}, 'tags': {'user': 'root'}}
{'measurement': 'measName', 'fields': {'measV_HV2': -100.0, 'measI_HV2': -5.942415e-08, 'settV_HV2': -100.0, 'settI_HV2': 0.0}, 'tags': {'user': 'root'}}
{'measurement': 'measName', 'fields': {'measV_HV2': -100.0, 'measI_HV2': -6.886425e-08, 'settV_HV2': -100.0, 'settI_HV2': 0.0}, 'tags': {'user': 'root'}}
{'measurement': 'measName', 'fields': {'measV_HV2': -100.0, 'measI_HV2': -6.248764e-08, 'settV_HV2': -100.0, 'settI_HV2': 0.0}, 'tags': {'user': 'root'}}
{'measurement': 'measName', 'fields': {'measV_HV2': -100.0, 'measI_HV2': -6.196272e-08, 'settV_HV2': -100.0, 'settI_HV2': 0.0}, 'tags': {'user': 'root'}}
{'measurement': 'measName', 'fields': {'measV_HV2': -100.0, 'measI_HV2': -7.075205e-08, 'settV_HV2': -100.0, 'settI_HV2': 0.0}, 'tags': {'user': 'root'}}
{'measurement': 'measName', 'fields': {'measV_HV2': -100.0, 'measI_HV2': -5.868599e-08, 'settV_HV2': -100.0, 'settI_HV2': 0.0}, 'tags': {'user': 'root'}}
{'measurement': 'measName', 'fields': {'measV_HV2': -100.0, 'measI_HV2': -7.185374e-08, 'settV_HV2': -100.0, 'settI_HV2': 0.0}, 'tags': {'user': 'root'}}
{'measurement': 'measName', 'fields': {'measV_HV2': -100.0, 'measI_HV2': -6.083186e-08, 'settV_HV2': -100.0, 'settI_HV2': 0.0}, 'tags': {'user': 'root'}}
{'measurement': 'measName', 'fields': {'measV_HV2': -100.0, 'measI_HV2': -6.774955e-08, 'settV_HV2': -100.0, 'settI_HV2': 0.0}, 'tags': {'user': 'root'}}
{'measurement': 'measName', 'fields': {'measV_HV2': -100.0, 'measI_HV2': -6.229045e-08, 'settV_HV2': -100.0, 'settI_HV2': 0.0}, 'tags': {'user': 'root'}}
{'measurement': 'measName', 'fields': {'measV_HV2': -100.0, 'measI_HV2': -6.606232e-08, 'settV_HV2': -100.0, 'settI_HV2': 0.0}, 'tags': {'user': 'root'}}
{'measurement': 'measName', 'fields': {'measV_HV2': -100.0, 'measI_HV2': -6.56714e-08, 'settV_HV2': -100.0, 'settI_HV2': 0.0}, 'tags': {'user': 'root'}}
{'measurement': 'measName', 'fields': {'measV_HV2': -100.0, 'measI_HV2': -6.031397e-08, 'settV_HV2': -100.0, 'settI_HV2': 0.0}, 'tags': {'user': 'root'}}
{'measurement': 'measName', 'fields': {'measV_HV2': -100.0, 'measI_HV2': -7.103073e-08, 'settV_HV2': -100.0, 'settI_HV2': 0.0}, 'tags': {'user': 'root'}}
{'measurement': 'measName', 'fields': {'measV_HV2': -100.0, 'measI_HV2': -5.765822e-08, 'settV_HV2': -100.0, 'settI_HV2': 0.0}, 'tags': {'user': 'root'}}
{'measurement': 'measName', 'fields': {'measV_HV2': -100.0, 'measI_HV2': -7.180073e-08, 'settV_HV2': -100.0, 'settI_HV2': 0.0}, 'tags': {'user': 'root'}}
{'measurement': 'measName', 'fields': {'measV_HV2': -100.0, 'measI_HV2': -6.269493e-08, 'settV_HV2': -100.0, 'settI_HV2': 0.0}, 'tags': {'user': 'root'}}
{'measurement': 'measName', 'fields': {'measV_HV2': -100.0, 'measI_HV2': -6.549921e-08, 'settV_HV2': -100.0, 'settI_HV2': 0.0}, 'tags': {'user': 'root'}}
{'measurement': 'measName', 'fields': {'measV_HV2': -100.0, 'measI_HV2': -7.087895e-08, 'settV_HV2': -100.0, 'settI_HV2': 0.0}, 'tags': {'user': 'root'}}
{'measurement': 'measName', 'fields': {'measV_HV2': -100.0, 'measI_HV2': -5.792023e-08, 'settV_HV2': -100.0, 'settI_HV2': 0.0}, 'tags': {'user': 'root'}}
{'measurement': 'measName', 'fields': {'measV_HV2': -100.0, 'measI_HV2': -7.109265e-08, 'settV_HV2': -100.0, 'settI_HV2': 0.0}, 'tags': {'user': 'root'}}
{'measurement': 'measName', 'fields': {'measV_HV2': -100.0, 'measI_HV2': -6.029856e-08, 'settV_HV2': -100.0, 'settI_HV2': 0.0}, 'tags': {'user': 'root'}}
{'measurement': 'measName', 'fields': {'measV_HV2': -100.0, 'measI_HV2': -6.684741e-08, 'settV_HV2': -100.0, 'settI_HV2': 0.0}, 'tags': {'user': 'root'}}
{'measurement': 'measName', 'fields': {'measV_HV2': -100.0, 'measI_HV2': -6.60001e-08, 'settV_HV2': -100.0, 'settI_HV2': 0.0}, 'tags': {'user': 'root'}}
{'measurement': 'measName', 'fields': {'measV_HV2': -100.0, 'measI_HV2': -6.333264e-08, 'settV_HV2': -100.0, 'settI_HV2': 0.0}, 'tags': {'user': 'root'}}
{'measurement': 'measName', 'fields': {'measV_HV2': -100.0, 'measI_HV2': -6.51191e-08, 'settV_HV2': -100.0, 'settI_HV2': 0.0}, 'tags': {'user': 'root'}}
{'measurement': 'measName', 'fields': {'measV_HV2': -100.0, 'measI_HV2': -6.29145e-08, 'settV_HV2': -100.0, 'settI_HV2': 0.0}, 'tags': {'user': 'root'}}
{'measurement': 'measName', 'fields': {'measV_HV2': -100.0, 'measI_HV2': -6.519446e-08, 'settV_HV2': -100.0, 'settI_HV2': 0.0}, 'tags': {'user': 'root'}}
{'measurement': 'measName', 'fields': {'measV_HV2': -100.0, 'measI_HV2': -6.27989e-08, 'settV_HV2': -100.0, 'settI_HV2': 0.0}, 'tags': {'user': 'root'}}
{'measurement': 'measName', 'fields': {'measV_HV2': -100.0, 'measI_HV2': -6.995075e-08, 'settV_HV2': -100.0, 'settI_HV2': 0.0}, 'tags': {'user': 'root'}}
{'measurement': 'measName', 'fields': {'measV_HV2': -100.0, 'measI_HV2': -5.921426e-08, 'settV_HV2': -100.0, 'settI_HV2': 0.0}, 'tags': {'user': 'root'}}
{'measurement': 'measName', 'fields': {'measV_HV2': -100.0, 'measI_HV2': -7.131245e-08, 'settV_HV2': -100.0, 'settI_HV2': 0.0}, 'tags': {'user': 'root'}}
{'measurement': 'measName', 'fields': {'measV_HV2': -100.0, 'measI_HV2': -5.812346e-08, 'settV_HV2': -100.0, 'settI_HV2': 0.0}, 'tags': {'user': 'root'}}
{'measurement': 'measName', 'fields': {'measV_HV2': -100.0, 'measI_HV2': -7.219808e-08, 'settV_HV2': -100.0, 'settI_HV2': 0.0}, 'tags': {'user': 'root'}}
{'measurement': 'measName', 'fields': {'measV_HV2': -100.0, 'measI_HV2': -5.665697e-08, 'settV_HV2': -100.0, 'settI_HV2': 0.0}, 'tags': {'user': 'root'}}
{'measurement': 'measName', 'fields': {'measV_HV2': -100.0, 'measI_HV2': -7.094291e-08, 'settV_HV2': -100.0, 'settI_HV2': 0.0}, 'tags': {'user': 'root'}}
{'measurement': 'measName', 'fields': {'measV_HV2': -100.0, 'measI_HV2': -5.932956e-08, 'settV_HV2': -100.0, 'settI_HV2': 0.0}, 'tags': {'user': 'root'}}
{'measurement': 'measName', 'fields': {'measV_HV2': -100.0, 'measI_HV2': -6.737578e-08, 'settV_HV2': -100.0, 'settI_HV2': 0.0}, 'tags': {'user': 'root'}}
{'measurement': 'measName', 'fields': {'measV_HV2': -100.0, 'measI_HV2': -6.66163e-08, 'settV_HV2': -100.0, 'settI_HV2': 0.0}, 'tags': {'user': 'root'}}
{'measurement': 'measName', 'fields': {'measV_HV2': -100.0, 'measI_HV2': -5.968458e-08, 'settV_HV2': -100.0, 'settI_HV2': 0.0}, 'tags': {'user': 'root'}}
{'measurement': 'measName', 'fields': {'measV_HV2': -100.0, 'measI_HV2': -7.193998e-08, 'settV_HV2': -100.0, 'settI_HV2': 0.0}, 'tags': {'user': 'root'}}
{'measurement': 'measName', 'fields': {'measV_HV2': -100.0, 'measI_HV2': -6.088177e-08, 'settV_HV2': -100.0, 'settI_HV2': 0.0}, 'tags': {'user': 'root'}}
{'measurement': 'measName', 'fields': {'measV_HV2': -100.0, 'measI_HV2': -6.507343e-08, 'settV_HV2': -100.0, 'settI_HV2': 0.0}, 'tags': {'user': 'root'}}
{'measurement': 'measName', 'fields': {'measV_HV2': -100.0, 'measI_HV2': -6.872475e-08, 'settV_HV2': -100.0, 'settI_HV2': 0.0}, 'tags': {'user': 'root'}}
{'measurement': 'measName', 'fields': {'measV_HV2': -100.0, 'measI_HV2': -5.920548e-08, 'settV_HV2': -100.0, 'settI_HV2': 0.0}, 'tags': {'user': 'root'}}
{'measurement': 'measName', 'fields': {'measV_HV2': -100.0, 'measI_HV2': -7.098546e-08, 'settV_HV2': -100.0, 'settI_HV2': 0.0}, 'tags': {'user': 'root'}}
{'measurement': 'measName', 'fields': {'measV_HV2': -100.0, 'measI_HV2': -5.777262e-08, 'settV_HV2': -100.0, 'settI_HV2': 0.0}, 'tags': {'user': 'root'}}
{'measurement': 'measName', 'fields': {'measV_HV2': -100.0, 'measI_HV2': -7.119492e-08, 'settV_HV2': -100.0, 'settI_HV2': 0.0}, 'tags': {'user': 'root'}}
{'measurement': 'measName', 'fields': {'measV_HV2': -100.0, 'measI_HV2': -6.170688e-08, 'settV_HV2': -100.0, 'settI_HV2': 0.0}, 'tags': {'user': 'root'}}
{'measurement': 'measName', 'fields': {'measV_HV2': -100.0, 'measI_HV2': -6.878599e-08, 'settV_HV2': -100.0, 'settI_HV2': 0.0}, 'tags': {'user': 'root'}}
{'measurement': 'measName', 'fields': {'measV_HV2': -100.0, 'measI_HV2': -6.735808e-08, 'settV_HV2': -100.0, 'settI_HV2': 0.0}, 'tags': {'user': 'root'}}
{'measurement': 'measName', 'fields': {'measV_HV2': -100.0, 'measI_HV2': -6.286295e-08, 'settV_HV2': -100.0, 'settI_HV2': 0.0}, 'tags': {'user': 'root'}}
{'measurement': 'measName', 'fields': {'measV_HV2': -100.0, 'measI_HV2': -6.805407e-08, 'settV_HV2': -100.0, 'settI_HV2': 0.0}, 'tags': {'user': 'root'}}
{'measurement': 'measName', 'fields': {'measV_HV2': -100.0, 'measI_HV2': -5.941231e-08, 'settV_HV2': -100.0, 'settI_HV2': 0.0}, 'tags': {'user': 'root'}}
{'measurement': 'measName', 'fields': {'measV_HV2': -100.0, 'measI_HV2': -7.237025e-08, 'settV_HV2': -100.0, 'settI_HV2': 0.0}, 'tags': {'user': 'root'}}
{'measurement': 'measName', 'fields': {'measV_HV2': -100.0, 'measI_HV2': -5.760942e-08, 'settV_HV2': -100.0, 'settI_HV2': 0.0}, 'tags': {'user': 'root'}}
{'measurement': 'measName', 'fields': {'measV_HV2': -100.0, 'measI_HV2': -7.151806e-08, 'settV_HV2': -100.0, 'settI_HV2': 0.0}, 'tags': {'user': 'root'}}
{'measurement': 'measName', 'fields': {'measV_HV2': -100.0, 'measI_HV2': -6.004887e-08, 'settV_HV2': -100.0, 'settI_HV2': 0.0}, 'tags': {'user': 'root'}}
{'measurement': 'measName', 'fields': {'measV_HV2': -100.0, 'measI_HV2': -6.508311e-08, 'settV_HV2': -100.0, 'settI_HV2': 0.0}, 'tags': {'user': 'root'}}
{'measurement': 'measName', 'fields': {'measV_HV2': -100.0, 'measI_HV2': -6.965782e-08, 'settV_HV2': -100.0, 'settI_HV2': 0.0}, 'tags': {'user': 'root'}}
{'measurement': 'measName', 'fields': {'measV_HV2': -100.0, 'measI_HV2': -5.846558e-08, 'settV_HV2': -100.0, 'settI_HV2': 0.0}, 'tags': {'user': 'root'}}
{'measurement': 'measName', 'fields': {'measV_HV2': -100.0, 'measI_HV2': -6.974497e-08, 'settV_HV2': -100.0, 'settI_HV2': 0.0}, 'tags': {'user': 'root'}}
{'measurement': 'measName', 'fields': {'measV_HV2': -100.0, 'measI_HV2': -6.587583e-08, 'settV_HV2': -100.0, 'settI_HV2': 0.0}, 'tags': {'user': 'root'}}
{'measurement': 'measName', 'fields': {'measV_HV2': -100.0, 'measI_HV2': -5.891536e-08, 'settV_HV2': -100.0, 'settI_HV2': 0.0}, 'tags': {'user': 'root'}}
{'measurement': 'measName', 'fields': {'measV_HV2': -100.0, 'measI_HV2': -7.113027e-08, 'settV_HV2': -100.0, 'settI_HV2': 0.0}, 'tags': {'user': 'root'}}
{'measurement': 'measName', 'fields': {'measV_HV2': -100.0, 'measI_HV2': -6.255155e-08, 'settV_HV2': -100.0, 'settI_HV2': 0.0}, 'tags': {'user': 'root'}}
{'measurement': 'measName', 'fields': {'measV_HV2': -100.0, 'measI_HV2': -6.384803e-08, 'settV_HV2': -100.0, 'settI_HV2': 0.0}, 'tags': {'user': 'root'}}
{'measurement': 'measName', 'fields': {'measV_HV2': -100.0, 'measI_HV2': -6.843644e-08, 'settV_HV2': -100.0, 'settI_HV2': 0.0}, 'tags': {'user': 'root'}}
{'measurement': 'measName', 'fields': {'measV_HV2': -100.0, 'measI_HV2': -5.756753e-08, 'settV_HV2': -100.0, 'settI_HV2': 0.0}, 'tags': {'user': 'root'}}
{'measurement': 'measName', 'fields': {'measV_HV2': -100.0, 'measI_HV2': -7.171726e-08, 'settV_HV2': -100.0, 'settI_HV2': 0.0}, 'tags': {'user': 'root'}}
{'measurement': 'measName', 'fields': {'measV_HV2': -100.0, 'measI_HV2': -6.419809e-08, 'settV_HV2': -100.0, 'settI_HV2': 0.0}, 'tags': {'user': 'root'}}
{'measurement': 'measName', 'fields': {'measV_HV2': -100.0, 'measI_HV2': -5.948107e-08, 'settV_HV2': -100.0, 'settI_HV2': 0.0}, 'tags': {'user': 'root'}}
{'measurement': 'measName', 'fields': {'measV_HV2': -100.0, 'measI_HV2': -7.111957e-08, 'settV_HV2': -100.0, 'settI_HV2': 0.0}, 'tags': {'user': 'root'}}
{'measurement': 'measName', 'fields': {'measV_HV2': -100.0, 'measI_HV2': -5.884829e-08, 'settV_HV2': -100.0, 'settI_HV2': 0.0}, 'tags': {'user': 'root'}}
{'measurement': 'measName', 'fields': {'measV_HV2': -100.0, 'measI_HV2': -6.568224e-08, 'settV_HV2': -100.0, 'settI_HV2': 0.0}, 'tags': {'user': 'root'}}
{'measurement': 'measName', 'fields': {'measV_HV2': -100.0, 'measI_HV2': -6.913058e-08, 'settV_HV2': -100.0, 'settI_HV2': 0.0}, 'tags': {'user': 'root'}}
{'measurement': 'measName', 'fields': {'measV_HV2': -100.0, 'measI_HV2': -5.868516e-08, 'settV_HV2': -100.0, 'settI_HV2': 0.0}, 'tags': {'user': 'root'}}
{'measurement': 'measName', 'fields': {'measV_HV2': -100.0, 'measI_HV2': -7.229373e-08, 'settV_HV2': -100.0, 'settI_HV2': 0.0}, 'tags': {'user': 'root'}}
{'measurement': 'measName', 'fields': {'measV_HV2': -100.0, 'measI_HV2': -6.034935e-08, 'settV_HV2': -100.0, 'settI_HV2': 0.0}, 'tags': {'user': 'root'}}
{'measurement': 'measName', 'fields': {'measV_HV2': -100.0, 'measI_HV2': -6.255988e-08, 'settV_HV2': -100.0, 'settI_HV2': 0.0}, 'tags': {'user': 'root'}}
{'measurement': 'measName', 'fields': {'measV_HV2': -100.0, 'measI_HV2': -6.832784e-08, 'settV_HV2': -100.0, 'settI_HV2': 0.0}, 'tags': {'user': 'root'}}
{'measurement': 'measName', 'fields': {'measV_HV2': -100.0, 'measI_HV2': -5.706077e-08, 'settV_HV2': -100.0, 'settI_HV2': 0.0}, 'tags': {'user': 'root'}}
{'measurement': 'measName', 'fields': {'measV_HV2': -100.0, 'measI_HV2': -7.149562e-08, 'settV_HV2': -100.0, 'settI_HV2': 0.0}, 'tags': {'user': 'root'}}
{'measurement': 'measName', 'fields': {'measV_HV2': -100.0, 'measI_HV2': -5.772834e-08, 'settV_HV2': -100.0, 'settI_HV2': 0.0}, 'tags': {'user': 'root'}}
{'measurement': 'measName', 'fields': {'measV_HV2': -100.0, 'measI_HV2': -6.470091e-08, 'settV_HV2': -100.0, 'settI_HV2': 0.0}, 'tags': {'user': 'root'}}
{'measurement': 'measName', 'fields': {'measV_HV2': -100.0, 'measI_HV2': -6.8784e-08, 'settV_HV2': -100.0, 'settI_HV2': 0.0}, 'tags': {'user': 'root'}}
{'measurement': 'measName', 'fields': {'measV_HV2': -100.0, 'measI_HV2': -5.895225e-08, 'settV_HV2': -100.0, 'settI_HV2': 0.0}, 'tags': {'user': 'root'}}
{'measurement': 'measName', 'fields': {'measV_HV2': -100.0, 'measI_HV2': -6.302098e-08, 'settV_HV2': -100.0, 'settI_HV2': 0.0}, 'tags': {'user': 'root'}}
{'measurement': 'measName', 'fields': {'measV_HV2': -100.0, 'measI_HV2': -6.995965e-08, 'settV_HV2': -100.0, 'settI_HV2': 0.0}, 'tags': {'user': 'root'}}
{'measurement': 'measName', 'fields': {'measV_HV2': -100.0, 'measI_HV2': -6.054352e-08, 'settV_HV2': -100.0, 'settI_HV2': 0.0}, 'tags': {'user': 'root'}}
{'measurement': 'measName', 'fields': {'measV_HV2': -100.0, 'measI_HV2': -6.041672e-08, 'settV_HV2': -100.0, 'settI_HV2': 0.0}, 'tags': {'user': 'root'}}
{'measurement': 'measName', 'fields': {'measV_HV2': -100.0, 'measI_HV2': -7.139132e-08, 'settV_HV2': -100.0, 'settI_HV2': 0.0}, 'tags': {'user': 'root'}}
{'measurement': 'measName', 'fields': {'measV_HV2': -100.0, 'measI_HV2': -5.824371e-08, 'settV_HV2': -100.0, 'settI_HV2': 0.0}, 'tags': {'user': 'root'}}
{'measurement': 'measName', 'fields': {'measV_HV2': -100.0, 'measI_HV2': -6.73448e-08, 'settV_HV2': -100.0, 'settI_HV2': 0.0}, 'tags': {'user': 'root'}}
{'measurement': 'measName', 'fields': {'measV_HV2': -100.0, 'measI_HV2': -6.277194e-08, 'settV_HV2': -100.0, 'settI_HV2': 0.0}, 'tags': {'user': 'root'}}
{'measurement': 'measName', 'fields': {'measV_HV2': -100.0, 'measI_HV2': -6.126289e-08, 'settV_HV2': -100.0, 'settI_HV2': 0.0}, 'tags': {'user': 'root'}}
{'measurement': 'measName', 'fields': {'measV_HV2': -100.0, 'measI_HV2': -7.012629e-08, 'settV_HV2': -100.0, 'settI_HV2': 0.0}, 'tags': {'user': 'root'}}
{'measurement': 'measName', 'fields': {'measV_HV2': -100.0, 'measI_HV2': -5.812571e-08, 'settV_HV2': -100.0, 'settI_HV2': 0.0}, 'tags': {'user': 'root'}}
{'measurement': 'measName', 'fields': {'measV_HV2': -100.0, 'measI_HV2': -7.131496e-08, 'settV_HV2': -100.0, 'settI_HV2': 0.0}, 'tags': {'user': 'root'}}
{'measurement': 'measName', 'fields': {'measV_HV2': -100.0, 'measI_HV2': -5.778803e-08, 'settV_HV2': -100.0, 'settI_HV2': 0.0}, 'tags': {'user': 'root'}}
{'measurement': 'measName', 'fields': {'measV_HV2': -100.0, 'measI_HV2': -6.869384e-08, 'settV_HV2': -100.0, 'settI_HV2': 0.0}, 'tags': {'user': 'root'}}
{'measurement': 'measName', 'fields': {'measV_HV2': -100.0, 'measI_HV2': -6.040405e-08, 'settV_HV2': -100.0, 'settI_HV2': 0.0}, 'tags': {'user': 'root'}}
{'measurement': 'measName', 'fields': {'measV_HV2': -100.0, 'measI_HV2': -6.304504e-08, 'settV_HV2': -100.0, 'settI_HV2': 0.0}, 'tags': {'user': 'root'}}
{'measurement': 'measName', 'fields': {'measV_HV2': -100.0, 'measI_HV2': -6.786754e-08, 'settV_HV2': -100.0, 'settI_HV2': 0.0}, 'tags': {'user': 'root'}}
{'measurement': 'measName', 'fields': {'measV_HV2': -100.0, 'measI_HV2': -5.650875e-08, 'settV_HV2': -100.0, 'settI_HV2': 0.0}, 'tags': {'user': 'root'}}
{'measurement': 'measName', 'fields': {'measV_HV2': -100.0, 'measI_HV2': -6.875666e-08, 'settV_HV2': -100.0, 'settI_HV2': 0.0}, 'tags': {'user': 'root'}}
{'measurement': 'measName', 'fields': {'measV_HV2': -100.0, 'measI_HV2': -5.908183e-08, 'settV_HV2': -100.0, 'settI_HV2': 0.0}, 'tags': {'user': 'root'}}

