{
    "unit": {
        "Time": "s",
        "Voltage": "V",
        "Current": "A"
    },
    "V_step": -5,
    "Step_duration": 2,
    "N_measurements_per_step": 10,
    "A_Compliance": 1e-05,
    "Sensor_IV": [
        {
            "Time": 20.29822850227356,
            "Voltage": 0.0,
            "Current_mean": -6.80023677e-09,
            "Current_sigma": 1.3247106916775005e-08
        },
        {
            "Time": 26.292144536972046,
            "Voltage": -5.0,
            "Current_mean": -2.508987585e-08,
            "Current_sigma": 1.4975108303111268e-08
        },
        {
            "Time": 32.2858407497406,
            "Voltage": -10.0,
            "Current_mean": -2.4059928700000004e-08,
            "Current_sigma": 1.0132178963118212e-08
        },
        {
            "Time": 38.27971124649048,
            "Voltage": -15.0,
            "Current_mean": -2.5105832000000003e-08,
            "Current_sigma": 7.202064998166567e-09
        },
        {
            "Time": 44.273292779922485,
            "Voltage": -20.0,
            "Current_mean": -2.4186739e-08,
            "Current_sigma": 7.645190551852124e-09
        },
        {
            "Time": 50.26721525192261,
            "Voltage": -25.0,
            "Current_mean": -2.5433583e-08,
            "Current_sigma": 7.074596081733642e-09
        },
        {
            "Time": 56.260961294174194,
            "Voltage": -30.0,
            "Current_mean": -2.5677181999999997e-08,
            "Current_sigma": 6.628155559633163e-09
        },
        {
            "Time": 62.25450611114502,
            "Voltage": -35.0,
            "Current_mean": -2.8290136999999998e-08,
            "Current_sigma": 5.73285826499147e-09
        },
        {
            "Time": 68.24835133552551,
            "Voltage": -40.0,
            "Current_mean": -2.7341573e-08,
            "Current_sigma": 5.620664582572153e-09
        },
        {
            "Time": 74.24248027801514,
            "Voltage": -45.0,
            "Current_mean": -2.7685375000000003e-08,
            "Current_sigma": 5.816196916819873e-09
        },
        {
            "Time": 80.23630285263062,
            "Voltage": -50.0,
            "Current_mean": -3.060863699999999e-08,
            "Current_sigma": 4.5814965374908885e-09
        },
        {
            "Time": 86.23005676269531,
            "Voltage": -55.0,
            "Current_mean": -2.7702334000000003e-08,
            "Current_sigma": 3.1177904853764613e-09
        },
        {
            "Time": 92.2238404750824,
            "Voltage": -60.0,
            "Current_mean": -2.2496752e-08,
            "Current_sigma": 1.6305590018137952e-09
        },
        {
            "Time": 98.21758842468262,
            "Voltage": -65.0,
            "Current_mean": -2.1437216e-08,
            "Current_sigma": 7.492490619573702e-10
        },
        {
            "Time": 104.21128821372986,
            "Voltage": -70.0,
            "Current_mean": -2.2048196e-08,
            "Current_sigma": 1.342307991216621e-09
        },
        {
            "Time": 110.20504117012024,
            "Voltage": -75.0,
            "Current_mean": -2.3914474999999997e-08,
            "Current_sigma": 1.2938765308888634e-09
        },
        {
            "Time": 116.19871044158936,
            "Voltage": -80.0,
            "Current_mean": -2.224881e-08,
            "Current_sigma": 3.6909755837718624e-10
        },
        {
            "Time": 122.19255757331848,
            "Voltage": -85.0,
            "Current_mean": -3.0547688e-08,
            "Current_sigma": 2.9742967644261723e-09
        },
        {
            "Time": 128.1862711906433,
            "Voltage": -90.0,
            "Current_mean": -3.5627521e-08,
            "Current_sigma": 2.1551659975670088e-09
        },
        {
            "Time": 134.18019556999207,
            "Voltage": -95.0,
            "Current_mean": -3.6222443e-08,
            "Current_sigma": 9.778967940437267e-10
        },
        {
            "Time": 140.1741099357605,
            "Voltage": -100.0,
            "Current_mean": -2.6696244999999998e-08,
            "Current_sigma": 2.125837876411322e-09
        },
        {
            "Time": 146.16774082183838,
            "Voltage": -105.0,
            "Current_mean": -2.7828707e-08,
            "Current_sigma": 2.9036703030063522e-09
        },
        {
            "Time": 152.1616494655609,
            "Voltage": -110.0,
            "Current_mean": -3.7542204e-08,
            "Current_sigma": 9.740340589034862e-10
        },
        {
            "Time": 158.15555834770203,
            "Voltage": -115.0,
            "Current_mean": -3.4700947e-08,
            "Current_sigma": 1.4205297167328112e-09
        },
        {
            "Time": 164.14928674697876,
            "Voltage": -120.0,
            "Current_mean": -3.7577146e-08,
            "Current_sigma": 9.613461909551634e-10
        },
        {
            "Time": 170.14319014549255,
            "Voltage": -125.0,
            "Current_mean": -3.089785000000001e-08,
            "Current_sigma": 2.2196926969740652e-09
        },
        {
            "Time": 176.13688921928406,
            "Voltage": -130.0,
            "Current_mean": -2.885895e-08,
            "Current_sigma": 2.63186303066098e-09
        },
        {
            "Time": 182.13065576553345,
            "Voltage": -135.0,
            "Current_mean": -3.7231362e-08,
            "Current_sigma": 1.6273751499810978e-09
        },
        {
            "Time": 188.12420105934143,
            "Voltage": -140.0,
            "Current_mean": -3.7987183e-08,
            "Current_sigma": 6.207071273644275e-10
        },
        {
            "Time": 194.11826515197754,
            "Voltage": -145.0,
            "Current_mean": -3.6250211e-08,
            "Current_sigma": 1.0053180141074764e-09
        },
        {
            "Time": 200.1121108531952,
            "Voltage": -150.0,
            "Current_mean": -3.7070162e-08,
            "Current_sigma": 1.0532886749300972e-09
        },
        {
            "Time": 206.10604906082153,
            "Voltage": -155.0,
            "Current_mean": -3.6373657999999996e-08,
            "Current_sigma": 1.1535374131063107e-09
        },
        {
            "Time": 212.09957718849182,
            "Voltage": -160.0,
            "Current_mean": -3.0123387e-08,
            "Current_sigma": 1.7458560935028402e-09
        },
        {
            "Time": 218.09343647956848,
            "Voltage": -165.0,
            "Current_mean": -2.9260796999999998e-08,
            "Current_sigma": 8.196354045311857e-10
        },
        {
            "Time": 224.0872871875763,
            "Voltage": -170.0,
            "Current_mean": -2.8482948e-08,
            "Current_sigma": 5.03219959953896e-10
        },
        {
            "Time": 230.08107328414917,
            "Voltage": -175.0,
            "Current_mean": -3.411168e-08,
            "Current_sigma": 2.5889006238865175e-09
        },
        {
            "Time": 236.07479190826416,
            "Voltage": -180.0,
            "Current_mean": -3.8863183000000004e-08,
            "Current_sigma": 1.4786872434024039e-09
        },
        {
            "Time": 242.06848239898682,
            "Voltage": -185.0,
            "Current_mean": -3.8203701e-08,
            "Current_sigma": 1.4161499706206963e-09
        },
        {
            "Time": 248.0621337890625,
            "Voltage": -190.0,
            "Current_mean": -3.9796944e-08,
            "Current_sigma": 4.543680527986098e-10
        },
        {
            "Time": 254.07201957702637,
            "Voltage": -195.0,
            "Current_mean": -3.9277657e-08,
            "Current_sigma": 1.1486825147276336e-09
        },
        {
            "Time": 260.06593465805054,
            "Voltage": -200.0,
            "Current_mean": -3.7804089e-08,
            "Current_sigma": 2.5881409551430923e-09
        }
    ]
}