{'measurement': 'measName', 'fields': {'measV_HV2': -50.0, 'measI_HV2': -4.586702e-08, 'settV_HV2': -50.0, 'settI_HV2': 0.0}, 'tags': {'user': 'root'}}
{'measurement': 'measName', 'fields': {'measV_HV2': -50.0, 'measI_HV2': -3.367468e-08, 'settV_HV2': -50.0, 'settI_HV2': 0.0}, 'tags': {'user': 'root'}}
{'measurement': 'measName', 'fields': {'measV_HV2': -50.0, 'measI_HV2': -4.325771e-08, 'settV_HV2': -50.0, 'settI_HV2': 0.0}, 'tags': {'user': 'root'}}
{'measurement': 'measName', 'fields': {'measV_HV2': -50.0, 'measI_HV2': -3.654623e-08, 'settV_HV2': -50.0, 'settI_HV2': 0.0}, 'tags': {'user': 'root'}}
{'measurement': 'measName', 'fields': {'measV_HV2': -50.0, 'measI_HV2': -3.533853e-08, 'settV_HV2': -50.0, 'settI_HV2': 0.0}, 'tags': {'user': 'root'}}
{'measurement': 'measName', 'fields': {'measV_HV2': -50.0, 'measI_HV2': -4.297035e-08, 'settV_HV2': -50.0, 'settI_HV2': 0.0}, 'tags': {'user': 'root'}}
{'measurement': 'measName', 'fields': {'measV_HV2': -50.0, 'measI_HV2': -3.17431e-08, 'settV_HV2': -50.0, 'settI_HV2': 0.0}, 'tags': {'user': 'root'}}
{'measurement': 'measName', 'fields': {'measV_HV2': -50.0, 'measI_HV2': -4.530925e-08, 'settV_HV2': -50.0, 'settI_HV2': 0.0}, 'tags': {'user': 'root'}}
{'measurement': 'measName', 'fields': {'measV_HV2': -50.0, 'measI_HV2': -3.00255e-08, 'settV_HV2': -50.0, 'settI_HV2': 0.0}, 'tags': {'user': 'root'}}
{'measurement': 'measName', 'fields': {'measV_HV2': -50.0, 'measI_HV2': -4.652581e-08, 'settV_HV2': -50.0, 'settI_HV2': 0.0}, 'tags': {'user': 'root'}}
{'measurement': 'measName', 'fields': {'measV_HV2': -50.0, 'measI_HV2': -3.144778e-08, 'settV_HV2': -50.0, 'settI_HV2': 0.0}, 'tags': {'user': 'root'}}
{'measurement': 'measName', 'fields': {'measV_HV2': -50.0, 'measI_HV2': -4.112228e-08, 'settV_HV2': -50.0, 'settI_HV2': 0.0}, 'tags': {'user': 'root'}}
{'measurement': 'measName', 'fields': {'measV_HV2': -50.0, 'measI_HV2': -4.583e-08, 'settV_HV2': -50.0, 'settI_HV2': 0.0}, 'tags': {'user': 'root'}}
{'measurement': 'measName', 'fields': {'measV_HV2': -50.0, 'measI_HV2': -3.195384e-08, 'settV_HV2': -50.0, 'settI_HV2': 0.0}, 'tags': {'user': 'root'}}
{'measurement': 'measName', 'fields': {'measV_HV2': -50.0, 'measI_HV2': -4.684362e-08, 'settV_HV2': -50.0, 'settI_HV2': 0.0}, 'tags': {'user': 'root'}}
{'measurement': 'measName', 'fields': {'measV_HV2': -50.0, 'measI_HV2': -3.09015e-08, 'settV_HV2': -50.0, 'settI_HV2': 0.0}, 'tags': {'user': 'root'}}
{'measurement': 'measName', 'fields': {'measV_HV2': -50.0, 'measI_HV2': -4.131268e-08, 'settV_HV2': -50.0, 'settI_HV2': 0.0}, 'tags': {'user': 'root'}}
{'measurement': 'measName', 'fields': {'measV_HV2': -50.0, 'measI_HV2': -4.013356e-08, 'settV_HV2': -50.0, 'settI_HV2': 0.0}, 'tags': {'user': 'root'}}
{'measurement': 'measName', 'fields': {'measV_HV2': -50.0, 'measI_HV2': -3.216836e-08, 'settV_HV2': -50.0, 'settI_HV2': 0.0}, 'tags': {'user': 'root'}}
{'measurement': 'measName', 'fields': {'measV_HV2': -50.0, 'measI_HV2': -4.578639e-08, 'settV_HV2': -50.0, 'settI_HV2': 0.0}, 'tags': {'user': 'root'}}
{'measurement': 'measName', 'fields': {'measV_HV2': -50.0, 'measI_HV2': -3.20997e-08, 'settV_HV2': -50.0, 'settI_HV2': 0.0}, 'tags': {'user': 'root'}}
{'measurement': 'measName', 'fields': {'measV_HV2': -50.0, 'measI_HV2': -4.483609e-08, 'settV_HV2': -50.0, 'settI_HV2': 0.0}, 'tags': {'user': 'root'}}
{'measurement': 'measName', 'fields': {'measV_HV2': -50.0, 'measI_HV2': -3.784566e-08, 'settV_HV2': -50.0, 'settI_HV2': 0.0}, 'tags': {'user': 'root'}}
{'measurement': 'measName', 'fields': {'measV_HV2': -50.0, 'measI_HV2': -3.892814e-08, 'settV_HV2': -50.0, 'settI_HV2': 0.0}, 'tags': {'user': 'root'}}
{'measurement': 'measName', 'fields': {'measV_HV2': -50.0, 'measI_HV2': -4.513021e-08, 'settV_HV2': -50.0, 'settI_HV2': 0.0}, 'tags': {'user': 'root'}}
{'measurement': 'measName', 'fields': {'measV_HV2': -50.0, 'measI_HV2': -2.96586e-08, 'settV_HV2': -50.0, 'settI_HV2': 0.0}, 'tags': {'user': 'root'}}
{'measurement': 'measName', 'fields': {'measV_HV2': -50.0, 'measI_HV2': -4.533381e-08, 'settV_HV2': -50.0, 'settI_HV2': 0.0}, 'tags': {'user': 'root'}}
{'measurement': 'measName', 'fields': {'measV_HV2': -50.0, 'measI_HV2': -3.425793e-08, 'settV_HV2': -50.0, 'settI_HV2': 0.0}, 'tags': {'user': 'root'}}
{'measurement': 'measName', 'fields': {'measV_HV2': -50.0, 'measI_HV2': -4.242153e-08, 'settV_HV2': -50.0, 'settI_HV2': 0.0}, 'tags': {'user': 'root'}}
{'measurement': 'measName', 'fields': {'measV_HV2': -50.0, 'measI_HV2': -4.069536e-08, 'settV_HV2': -50.0, 'settI_HV2': 0.0}, 'tags': {'user': 'root'}}
{'measurement': 'measName', 'fields': {'measV_HV2': -50.0, 'measI_HV2': -3.14688e-08, 'settV_HV2': -50.0, 'settI_HV2': 0.0}, 'tags': {'user': 'root'}}
{'measurement': 'measName', 'fields': {'measV_HV2': -50.0, 'measI_HV2': -4.660014e-08, 'settV_HV2': -50.0, 'settI_HV2': 0.0}, 'tags': {'user': 'root'}}
{'measurement': 'measName', 'fields': {'measV_HV2': -50.0, 'measI_HV2': -3.285703e-08, 'settV_HV2': -50.0, 'settI_HV2': 0.0}, 'tags': {'user': 'root'}}
{'measurement': 'measName', 'fields': {'measV_HV2': -50.0, 'measI_HV2': -4.157714e-08, 'settV_HV2': -50.0, 'settI_HV2': 0.0}, 'tags': {'user': 'root'}}
{'measurement': 'measName', 'fields': {'measV_HV2': -50.0, 'measI_HV2': -4.065063e-08, 'settV_HV2': -50.0, 'settI_HV2': 0.0}, 'tags': {'user': 'root'}}
{'measurement': 'measName', 'fields': {'measV_HV2': -50.0, 'measI_HV2': -3.827777e-08, 'settV_HV2': -50.0, 'settI_HV2': 0.0}, 'tags': {'user': 'root'}}
{'measurement': 'measName', 'fields': {'measV_HV2': -50.0, 'measI_HV2': -4.230705e-08, 'settV_HV2': -50.0, 'settI_HV2': 0.0}, 'tags': {'user': 'root'}}
{'measurement': 'measName', 'fields': {'measV_HV2': -50.0, 'measI_HV2': -3.342593e-08, 'settV_HV2': -50.0, 'settI_HV2': 0.0}, 'tags': {'user': 'root'}}
{'measurement': 'measName', 'fields': {'measV_HV2': -50.0, 'measI_HV2': -4.691152e-08, 'settV_HV2': -50.0, 'settI_HV2': 0.0}, 'tags': {'user': 'root'}}
{'measurement': 'measName', 'fields': {'measV_HV2': -50.0, 'measI_HV2': -2.990125e-08, 'settV_HV2': -50.0, 'settI_HV2': 0.0}, 'tags': {'user': 'root'}}
{'measurement': 'measName', 'fields': {'measV_HV2': -50.0, 'measI_HV2': -4.49558e-08, 'settV_HV2': -50.0, 'settI_HV2': 0.0}, 'tags': {'user': 'root'}}
{'measurement': 'measName', 'fields': {'measV_HV2': -50.0, 'measI_HV2': -3.522538e-08, 'settV_HV2': -50.0, 'settI_HV2': 0.0}, 'tags': {'user': 'root'}}
{'measurement': 'measName', 'fields': {'measV_HV2': -50.0, 'measI_HV2': -3.768436e-08, 'settV_HV2': -50.0, 'settI_HV2': 0.0}, 'tags': {'user': 'root'}}
{'measurement': 'measName', 'fields': {'measV_HV2': -50.0, 'measI_HV2': -4.563753e-08, 'settV_HV2': -50.0, 'settI_HV2': 0.0}, 'tags': {'user': 'root'}}
{'measurement': 'measName', 'fields': {'measV_HV2': -50.0, 'measI_HV2': -3.159687e-08, 'settV_HV2': -50.0, 'settI_HV2': 0.0}, 'tags': {'user': 'root'}}
{'measurement': 'measName', 'fields': {'measV_HV2': -50.0, 'measI_HV2': -4.36087e-08, 'settV_HV2': -50.0, 'settI_HV2': 0.0}, 'tags': {'user': 'root'}}
{'measurement': 'measName', 'fields': {'measV_HV2': -50.0, 'measI_HV2': -4.173882e-08, 'settV_HV2': -50.0, 'settI_HV2': 0.0}, 'tags': {'user': 'root'}}
{'measurement': 'measName', 'fields': {'measV_HV2': -50.0, 'measI_HV2': -3.278003e-08, 'settV_HV2': -50.0, 'settI_HV2': 0.0}, 'tags': {'user': 'root'}}
{'measurement': 'measName', 'fields': {'measV_HV2': -50.0, 'measI_HV2': -4.512409e-08, 'settV_HV2': -50.0, 'settI_HV2': 0.0}, 'tags': {'user': 'root'}}
{'measurement': 'measName', 'fields': {'measV_HV2': -50.0, 'measI_HV2': -3.089533e-08, 'settV_HV2': -50.0, 'settI_HV2': 0.0}, 'tags': {'user': 'root'}}
{'measurement': 'measName', 'fields': {'measV_HV2': -50.0, 'measI_HV2': -4.570506e-08, 'settV_HV2': -50.0, 'settI_HV2': 0.0}, 'tags': {'user': 'root'}}
{'measurement': 'measName', 'fields': {'measV_HV2': -50.0, 'measI_HV2': -3.361021e-08, 'settV_HV2': -50.0, 'settI_HV2': 0.0}, 'tags': {'user': 'root'}}
{'measurement': 'measName', 'fields': {'measV_HV2': -50.0, 'measI_HV2': -3.573038e-08, 'settV_HV2': -50.0, 'settI_HV2': 0.0}, 'tags': {'user': 'root'}}
{'measurement': 'measName', 'fields': {'measV_HV2': -50.0, 'measI_HV2': -4.121501e-08, 'settV_HV2': -50.0, 'settI_HV2': 0.0}, 'tags': {'user': 'root'}}
{'measurement': 'measName', 'fields': {'measV_HV2': -50.0, 'measI_HV2': -3.36081e-08, 'settV_HV2': -50.0, 'settI_HV2': 0.0}, 'tags': {'user': 'root'}}
{'measurement': 'measName', 'fields': {'measV_HV2': -50.0, 'measI_HV2': -4.352499e-08, 'settV_HV2': -50.0, 'settI_HV2': 0.0}, 'tags': {'user': 'root'}}
{'measurement': 'measName', 'fields': {'measV_HV2': -50.0, 'measI_HV2': -3.190245e-08, 'settV_HV2': -50.0, 'settI_HV2': 0.0}, 'tags': {'user': 'root'}}
{'measurement': 'measName', 'fields': {'measV_HV2': -50.0, 'measI_HV2': -4.723666e-08, 'settV_HV2': -50.0, 'settI_HV2': 0.0}, 'tags': {'user': 'root'}}
{'measurement': 'measName', 'fields': {'measV_HV2': -50.0, 'measI_HV2': -3.385576e-08, 'settV_HV2': -50.0, 'settI_HV2': 0.0}, 'tags': {'user': 'root'}}
{'measurement': 'measName', 'fields': {'measV_HV2': -50.0, 'measI_HV2': -3.441902e-08, 'settV_HV2': -50.0, 'settI_HV2': 0.0}, 'tags': {'user': 'root'}}
{'measurement': 'measName', 'fields': {'measV_HV2': -50.0, 'measI_HV2': -4.698469e-08, 'settV_HV2': -50.0, 'settI_HV2': 0.0}, 'tags': {'user': 'root'}}
{'measurement': 'measName', 'fields': {'measV_HV2': -50.0, 'measI_HV2': -3.381259e-08, 'settV_HV2': -50.0, 'settI_HV2': 0.0}, 'tags': {'user': 'root'}}
{'measurement': 'measName', 'fields': {'measV_HV2': -50.0, 'measI_HV2': -4.241906e-08, 'settV_HV2': -50.0, 'settI_HV2': 0.0}, 'tags': {'user': 'root'}}
{'measurement': 'measName', 'fields': {'measV_HV2': -50.0, 'measI_HV2': -4.113232e-08, 'settV_HV2': -50.0, 'settI_HV2': 0.0}, 'tags': {'user': 'root'}}
{'measurement': 'measName', 'fields': {'measV_HV2': -50.0, 'measI_HV2': -3.42691e-08, 'settV_HV2': -50.0, 'settI_HV2': 0.0}, 'tags': {'user': 'root'}}
{'measurement': 'measName', 'fields': {'measV_HV2': -50.0, 'measI_HV2': -4.72459e-08, 'settV_HV2': -50.0, 'settI_HV2': 0.0}, 'tags': {'user': 'root'}}
{'measurement': 'measName', 'fields': {'measV_HV2': -50.0, 'measI_HV2': -3.33314e-08, 'settV_HV2': -50.0, 'settI_HV2': 0.0}, 'tags': {'user': 'root'}}
{'measurement': 'measName', 'fields': {'measV_HV2': -50.0, 'measI_HV2': -4.260978e-08, 'settV_HV2': -50.0, 'settI_HV2': 0.0}, 'tags': {'user': 'root'}}
{'measurement': 'measName', 'fields': {'measV_HV2': -50.0, 'measI_HV2': -4.320944e-08, 'settV_HV2': -50.0, 'settI_HV2': 0.0}, 'tags': {'user': 'root'}}
{'measurement': 'measName', 'fields': {'measV_HV2': -50.0, 'measI_HV2': -3.065168e-08, 'settV_HV2': -50.0, 'settI_HV2': 0.0}, 'tags': {'user': 'root'}}
{'measurement': 'measName', 'fields': {'measV_HV2': -50.0, 'measI_HV2': -4.434785e-08, 'settV_HV2': -50.0, 'settI_HV2': 0.0}, 'tags': {'user': 'root'}}
{'measurement': 'measName', 'fields': {'measV_HV2': -50.0, 'measI_HV2': -4.022015e-08, 'settV_HV2': -50.0, 'settI_HV2': 0.0}, 'tags': {'user': 'root'}}
{'measurement': 'measName', 'fields': {'measV_HV2': -50.0, 'measI_HV2': -3.157866e-08, 'settV_HV2': -50.0, 'settI_HV2': 0.0}, 'tags': {'user': 'root'}}
{'measurement': 'measName', 'fields': {'measV_HV2': -50.0, 'measI_HV2': -4.610262e-08, 'settV_HV2': -50.0, 'settI_HV2': 0.0}, 'tags': {'user': 'root'}}
{'measurement': 'measName', 'fields': {'measV_HV2': -50.0, 'measI_HV2': -3.210043e-08, 'settV_HV2': -50.0, 'settI_HV2': 0.0}, 'tags': {'user': 'root'}}
{'measurement': 'measName', 'fields': {'measV_HV2': -50.0, 'measI_HV2': -4.43423e-08, 'settV_HV2': -50.0, 'settI_HV2': 0.0}, 'tags': {'user': 'root'}}
{'measurement': 'measName', 'fields': {'measV_HV2': -50.0, 'measI_HV2': -3.159409e-08, 'settV_HV2': -50.0, 'settI_HV2': 0.0}, 'tags': {'user': 'root'}}
{'measurement': 'measName', 'fields': {'measV_HV2': -50.0, 'measI_HV2': -4.231464e-08, 'settV_HV2': -50.0, 'settI_HV2': 0.0}, 'tags': {'user': 'root'}}
{'measurement': 'measName', 'fields': {'measV_HV2': -50.0, 'measI_HV2': -4.103596e-08, 'settV_HV2': -50.0, 'settI_HV2': 0.0}, 'tags': {'user': 'root'}}
{'measurement': 'measName', 'fields': {'measV_HV2': -50.0, 'measI_HV2': -3.190967e-08, 'settV_HV2': -50.0, 'settI_HV2': 0.0}, 'tags': {'user': 'root'}}
{'measurement': 'measName', 'fields': {'measV_HV2': -50.0, 'measI_HV2': -4.572163e-08, 'settV_HV2': -50.0, 'settI_HV2': 0.0}, 'tags': {'user': 'root'}}
{'measurement': 'measName', 'fields': {'measV_HV2': -50.0, 'measI_HV2': -3.175019e-08, 'settV_HV2': -50.0, 'settI_HV2': 0.0}, 'tags': {'user': 'root'}}
{'measurement': 'measName', 'fields': {'measV_HV2': -50.0, 'measI_HV2': -4.646675e-08, 'settV_HV2': -50.0, 'settI_HV2': 0.0}, 'tags': {'user': 'root'}}
{'measurement': 'measName', 'fields': {'measV_HV2': -50.0, 'measI_HV2': -3.451831e-08, 'settV_HV2': -50.0, 'settI_HV2': 0.0}, 'tags': {'user': 'root'}}
{'measurement': 'measName', 'fields': {'measV_HV2': -50.0, 'measI_HV2': -4.041816e-08, 'settV_HV2': -50.0, 'settI_HV2': 0.0}, 'tags': {'user': 'root'}}
{'measurement': 'measName', 'fields': {'measV_HV2': -50.0, 'measI_HV2': -4.018051e-08, 'settV_HV2': -50.0, 'settI_HV2': 0.0}, 'tags': {'user': 'root'}}
{'measurement': 'measName', 'fields': {'measV_HV2': -50.0, 'measI_HV2': -3.755506e-08, 'settV_HV2': -50.0, 'settI_HV2': 0.0}, 'tags': {'user': 'root'}}
{'measurement': 'measName', 'fields': {'measV_HV2': -50.0, 'measI_HV2': -3.946233e-08, 'settV_HV2': -50.0, 'settI_HV2': 0.0}, 'tags': {'user': 'root'}}
{'measurement': 'measName', 'fields': {'measV_HV2': -50.0, 'measI_HV2': -3.399365e-08, 'settV_HV2': -50.0, 'settI_HV2': 0.0}, 'tags': {'user': 'root'}}
{'measurement': 'measName', 'fields': {'measV_HV2': -50.0, 'measI_HV2': -4.605912e-08, 'settV_HV2': -50.0, 'settI_HV2': 0.0}, 'tags': {'user': 'root'}}
{'measurement': 'measName', 'fields': {'measV_HV2': -50.0, 'measI_HV2': -3.194808e-08, 'settV_HV2': -50.0, 'settI_HV2': 0.0}, 'tags': {'user': 'root'}}
{'measurement': 'measName', 'fields': {'measV_HV2': -50.0, 'measI_HV2': -4.709126e-08, 'settV_HV2': -50.0, 'settI_HV2': 0.0}, 'tags': {'user': 'root'}}
{'measurement': 'measName', 'fields': {'measV_HV2': -50.0, 'measI_HV2': -3.117264e-08, 'settV_HV2': -50.0, 'settI_HV2': 0.0}, 'tags': {'user': 'root'}}
{'measurement': 'measName', 'fields': {'measV_HV2': -50.0, 'measI_HV2': -4.408608e-08, 'settV_HV2': -50.0, 'settI_HV2': 0.0}, 'tags': {'user': 'root'}}
{'measurement': 'measName', 'fields': {'measV_HV2': -50.0, 'measI_HV2': -3.571696e-08, 'settV_HV2': -50.0, 'settI_HV2': 0.0}, 'tags': {'user': 'root'}}
{'measurement': 'measName', 'fields': {'measV_HV2': -50.0, 'measI_HV2': -3.424831e-08, 'settV_HV2': -50.0, 'settI_HV2': 0.0}, 'tags': {'user': 'root'}}
{'measurement': 'measName', 'fields': {'measV_HV2': -50.0, 'measI_HV2': -4.581918e-08, 'settV_HV2': -50.0, 'settI_HV2': 0.0}, 'tags': {'user': 'root'}}
{'measurement': 'measName', 'fields': {'measV_HV2': -50.0, 'measI_HV2': -3.115741e-08, 'settV_HV2': -50.0, 'settI_HV2': 0.0}, 'tags': {'user': 'root'}}
{'measurement': 'measName', 'fields': {'measV_HV2': -50.0, 'measI_HV2': -4.633324e-08, 'settV_HV2': -50.0, 'settI_HV2': 0.0}, 'tags': {'user': 'root'}}
{'measurement': 'measName', 'fields': {'measV_HV2': -50.0, 'measI_HV2': -3.156585e-08, 'settV_HV2': -50.0, 'settI_HV2': 0.0}, 'tags': {'user': 'root'}}
{'measurement': 'measName', 'fields': {'measV_HV2': -50.0, 'measI_HV2': -4.140732e-08, 'settV_HV2': -50.0, 'settI_HV2': 0.0}, 'tags': {'user': 'root'}}
{'measurement': 'measName', 'fields': {'measV_HV2': -50.0, 'measI_HV2': -3.660167e-08, 'settV_HV2': -50.0, 'settI_HV2': 0.0}, 'tags': {'user': 'root'}}
{'measurement': 'measName', 'fields': {'measV_HV2': -50.0, 'measI_HV2': -3.756968e-08, 'settV_HV2': -50.0, 'settI_HV2': 0.0}, 'tags': {'user': 'root'}}
{'measurement': 'measName', 'fields': {'measV_HV2': -50.0, 'measI_HV2': -4.493976e-08, 'settV_HV2': -50.0, 'settI_HV2': 0.0}, 'tags': {'user': 'root'}}
{'measurement': 'measName', 'fields': {'measV_HV2': -50.0, 'measI_HV2': -3.132396e-08, 'settV_HV2': -50.0, 'settI_HV2': 0.0}, 'tags': {'user': 'root'}}
{'measurement': 'measName', 'fields': {'measV_HV2': -50.0, 'measI_HV2': -4.103721e-08, 'settV_HV2': -50.0, 'settI_HV2': 0.0}, 'tags': {'user': 'root'}}
{'measurement': 'measName', 'fields': {'measV_HV2': -50.0, 'measI_HV2': -4.275205e-08, 'settV_HV2': -50.0, 'settI_HV2': 0.0}, 'tags': {'user': 'root'}}
{'measurement': 'measName', 'fields': {'measV_HV2': -50.0, 'measI_HV2': -3.55655e-08, 'settV_HV2': -50.0, 'settI_HV2': 0.0}, 'tags': {'user': 'root'}}
{'measurement': 'measName', 'fields': {'measV_HV2': -50.0, 'measI_HV2': -4.433157e-08, 'settV_HV2': -50.0, 'settI_HV2': 0.0}, 'tags': {'user': 'root'}}
{'measurement': 'measName', 'fields': {'measV_HV2': -50.0, 'measI_HV2': -3.203878e-08, 'settV_HV2': -50.0, 'settI_HV2': 0.0}, 'tags': {'user': 'root'}}
{'measurement': 'measName', 'fields': {'measV_HV2': -50.0, 'measI_HV2': -4.724658e-08, 'settV_HV2': -50.0, 'settI_HV2': 0.0}, 'tags': {'user': 'root'}}
{'measurement': 'measName', 'fields': {'measV_HV2': -50.0, 'measI_HV2': -3.132685e-08, 'settV_HV2': -50.0, 'settI_HV2': 0.0}, 'tags': {'user': 'root'}}
{'measurement': 'measName', 'fields': {'measV_HV2': -50.0, 'measI_HV2': -4.405507e-08, 'settV_HV2': -50.0, 'settI_HV2': 0.0}, 'tags': {'user': 'root'}}
{'measurement': 'measName', 'fields': {'measV_HV2': -50.0, 'measI_HV2': -3.693388e-08, 'settV_HV2': -50.0, 'settI_HV2': 0.0}, 'tags': {'user': 'root'}}
{'measurement': 'measName', 'fields': {'measV_HV2': -50.0, 'measI_HV2': -3.692186e-08, 'settV_HV2': -50.0, 'settI_HV2': 0.0}, 'tags': {'user': 'root'}}
{'measurement': 'measName', 'fields': {'measV_HV2': -50.0, 'measI_HV2': -4.529273e-08, 'settV_HV2': -50.0, 'settI_HV2': 0.0}, 'tags': {'user': 'root'}}
{'measurement': 'measName', 'fields': {'measV_HV2': -50.0, 'measI_HV2': -3.192244e-08, 'settV_HV2': -50.0, 'settI_HV2': 0.0}, 'tags': {'user': 'root'}}
{'measurement': 'measName', 'fields': {'measV_HV2': -50.0, 'measI_HV2': -4.602266e-08, 'settV_HV2': -50.0, 'settI_HV2': 0.0}, 'tags': {'user': 'root'}}
{'measurement': 'measName', 'fields': {'measV_HV2': -50.0, 'measI_HV2': -3.446617e-08, 'settV_HV2': -50.0, 'settI_HV2': 0.0}, 'tags': {'user': 'root'}}
{'measurement': 'measName', 'fields': {'measV_HV2': -50.0, 'measI_HV2': -3.428347e-08, 'settV_HV2': -50.0, 'settI_HV2': 0.0}, 'tags': {'user': 'root'}}
{'measurement': 'measName', 'fields': {'measV_HV2': -50.0, 'measI_HV2': -4.665296e-08, 'settV_HV2': -50.0, 'settI_HV2': 0.0}, 'tags': {'user': 'root'}}
{'measurement': 'measName', 'fields': {'measV_HV2': -50.0, 'measI_HV2': -3.579456e-08, 'settV_HV2': -50.0, 'settI_HV2': 0.0}, 'tags': {'user': 'root'}}
{'measurement': 'measName', 'fields': {'measV_HV2': -50.0, 'measI_HV2': -3.424424e-08, 'settV_HV2': -50.0, 'settI_HV2': 0.0}, 'tags': {'user': 'root'}}
{'measurement': 'measName', 'fields': {'measV_HV2': -50.0, 'measI_HV2': -4.737868e-08, 'settV_HV2': -50.0, 'settI_HV2': 0.0}, 'tags': {'user': 'root'}}
{'measurement': 'measName', 'fields': {'measV_HV2': -50.0, 'measI_HV2': -3.124274e-08, 'settV_HV2': -50.0, 'settI_HV2': 0.0}, 'tags': {'user': 'root'}}
{'measurement': 'measName', 'fields': {'measV_HV2': -50.0, 'measI_HV2': -4.471526e-08, 'settV_HV2': -50.0, 'settI_HV2': 0.0}, 'tags': {'user': 'root'}}
{'measurement': 'measName', 'fields': {'measV_HV2': -50.0, 'measI_HV2': -4.097531e-08, 'settV_HV2': -50.0, 'settI_HV2': 0.0}, 'tags': {'user': 'root'}}
{'measurement': 'measName', 'fields': {'measV_HV2': -50.0, 'measI_HV2': -3.295706e-08, 'settV_HV2': -50.0, 'settI_HV2': 0.0}, 'tags': {'user': 'root'}}
{'measurement': 'measName', 'fields': {'measV_HV2': -50.0, 'measI_HV2': -4.730573e-08, 'settV_HV2': -50.0, 'settI_HV2': 0.0}, 'tags': {'user': 'root'}}
{'measurement': 'measName', 'fields': {'measV_HV2': -50.0, 'measI_HV2': -3.436232e-08, 'settV_HV2': -50.0, 'settI_HV2': 0.0}, 'tags': {'user': 'root'}}
{'measurement': 'measName', 'fields': {'measV_HV2': -50.0, 'measI_HV2': -3.768166e-08, 'settV_HV2': -50.0, 'settI_HV2': 0.0}, 'tags': {'user': 'root'}}
{'measurement': 'measName', 'fields': {'measV_HV2': -50.0, 'measI_HV2': -4.58149e-08, 'settV_HV2': -50.0, 'settI_HV2': 0.0}, 'tags': {'user': 'root'}}
{'measurement': 'measName', 'fields': {'measV_HV2': -50.0, 'measI_HV2': -3.652546e-08, 'settV_HV2': -50.0, 'settI_HV2': 0.0}, 'tags': {'user': 'root'}}
{'measurement': 'measName', 'fields': {'measV_HV2': -50.0, 'measI_HV2': -3.04877e-08, 'settV_HV2': -50.0, 'settI_HV2': 0.0}, 'tags': {'user': 'root'}}
{'measurement': 'measName', 'fields': {'measV_HV2': -50.0, 'measI_HV2': -4.639744e-08, 'settV_HV2': -50.0, 'settI_HV2': 0.0}, 'tags': {'user': 'root'}}
{'measurement': 'measName', 'fields': {'measV_HV2': -50.0, 'measI_HV2': -4.247862e-08, 'settV_HV2': -50.0, 'settI_HV2': 0.0}, 'tags': {'user': 'root'}}
{'measurement': 'measName', 'fields': {'measV_HV2': -50.0, 'measI_HV2': -3.082278e-08, 'settV_HV2': -50.0, 'settI_HV2': 0.0}, 'tags': {'user': 'root'}}
{'measurement': 'measName', 'fields': {'measV_HV2': -50.0, 'measI_HV2': -4.444184e-08, 'settV_HV2': -50.0, 'settI_HV2': 0.0}, 'tags': {'user': 'root'}}
{'measurement': 'measName', 'fields': {'measV_HV2': -50.0, 'measI_HV2': -4.030555e-08, 'settV_HV2': -50.0, 'settI_HV2': 0.0}, 'tags': {'user': 'root'}}
{'measurement': 'measName', 'fields': {'measV_HV2': -50.0, 'measI_HV2': -3.098648e-08, 'settV_HV2': -50.0, 'settI_HV2': 0.0}, 'tags': {'user': 'root'}}
{'measurement': 'measName', 'fields': {'measV_HV2': -50.0, 'measI_HV2': -4.630315e-08, 'settV_HV2': -50.0, 'settI_HV2': 0.0}, 'tags': {'user': 'root'}}
{'measurement': 'measName', 'fields': {'measV_HV2': -50.0, 'measI_HV2': -3.397172e-08, 'settV_HV2': -50.0, 'settI_HV2': 0.0}, 'tags': {'user': 'root'}}
{'measurement': 'measName', 'fields': {'measV_HV2': -50.0, 'measI_HV2': -3.663098e-08, 'settV_HV2': -50.0, 'settI_HV2': 0.0}, 'tags': {'user': 'root'}}
{'measurement': 'measName', 'fields': {'measV_HV2': -50.0, 'measI_HV2': -4.356594e-08, 'settV_HV2': -50.0, 'settI_HV2': 0.0}, 'tags': {'user': 'root'}}
{'measurement': 'measName', 'fields': {'measV_HV2': -50.0, 'measI_HV2': -3.177813e-08, 'settV_HV2': -50.0, 'settI_HV2': 0.0}, 'tags': {'user': 'root'}}
{'measurement': 'measName', 'fields': {'measV_HV2': -50.0, 'measI_HV2': -4.387835e-08, 'settV_HV2': -50.0, 'settI_HV2': 0.0}, 'tags': {'user': 'root'}}
{'measurement': 'measName', 'fields': {'measV_HV2': -50.0, 'measI_HV2': -3.652887e-08, 'settV_HV2': -50.0, 'settI_HV2': 0.0}, 'tags': {'user': 'root'}}
{'measurement': 'measName', 'fields': {'measV_HV2': -50.0, 'measI_HV2': -3.32572e-08, 'settV_HV2': -50.0, 'settI_HV2': 0.0}, 'tags': {'user': 'root'}}
{'measurement': 'measName', 'fields': {'measV_HV2': -50.0, 'measI_HV2': -4.467539e-08, 'settV_HV2': -50.0, 'settI_HV2': 0.0}, 'tags': {'user': 'root'}}
{'measurement': 'measName', 'fields': {'measV_HV2': -50.0, 'measI_HV2': -3.919897e-08, 'settV_HV2': -50.0, 'settI_HV2': 0.0}, 'tags': {'user': 'root'}}
{'measurement': 'measName', 'fields': {'measV_HV2': -50.0, 'measI_HV2': -3.185787e-08, 'settV_HV2': -50.0, 'settI_HV2': 0.0}, 'tags': {'user': 'root'}}
{'measurement': 'measName', 'fields': {'measV_HV2': -50.0, 'measI_HV2': -4.677987e-08, 'settV_HV2': -50.0, 'settI_HV2': 0.0}, 'tags': {'user': 'root'}}
{'measurement': 'measName', 'fields': {'measV_HV2': -50.0, 'measI_HV2': -3.072548e-08, 'settV_HV2': -50.0, 'settI_HV2': 0.0}, 'tags': {'user': 'root'}}
{'measurement': 'measName', 'fields': {'measV_HV2': -50.0, 'measI_HV2': -4.577376e-08, 'settV_HV2': -50.0, 'settI_HV2': 0.0}, 'tags': {'user': 'root'}}
{'measurement': 'measName', 'fields': {'measV_HV2': -50.0, 'measI_HV2': -3.405029e-08, 'settV_HV2': -50.0, 'settI_HV2': 0.0}, 'tags': {'user': 'root'}}
{'measurement': 'measName', 'fields': {'measV_HV2': -50.0, 'measI_HV2': -4.12262e-08, 'settV_HV2': -50.0, 'settI_HV2': 0.0}, 'tags': {'user': 'root'}}
{'measurement': 'measName', 'fields': {'measV_HV2': -50.0, 'measI_HV2': -4.435149e-08, 'settV_HV2': -50.0, 'settI_HV2': 0.0}, 'tags': {'user': 'root'}}
{'measurement': 'measName', 'fields': {'measV_HV2': -50.0, 'measI_HV2': -3.126626e-08, 'settV_HV2': -50.0, 'settI_HV2': 0.0}, 'tags': {'user': 'root'}}
{'measurement': 'measName', 'fields': {'measV_HV2': -50.0, 'measI_HV2': -4.397256e-08, 'settV_HV2': -50.0, 'settI_HV2': 0.0}, 'tags': {'user': 'root'}}
{'measurement': 'measName', 'fields': {'measV_HV2': -50.0, 'measI_HV2': -4.058131e-08, 'settV_HV2': -50.0, 'settI_HV2': 0.0}, 'tags': {'user': 'root'}}
{'measurement': 'measName', 'fields': {'measV_HV2': -50.0, 'measI_HV2': -4.652719e-08, 'settV_HV2': -50.0, 'settI_HV2': 0.0}, 'tags': {'user': 'root'}}
{'measurement': 'measName', 'fields': {'measV_HV2': -50.0, 'measI_HV2': -4.686225e-08, 'settV_HV2': -50.0, 'settI_HV2': 0.0}, 'tags': {'user': 'root'}}
{'measurement': 'measName', 'fields': {'measV_HV2': -50.0, 'measI_HV2': -3.549473e-08, 'settV_HV2': -50.0, 'settI_HV2': 0.0}, 'tags': {'user': 'root'}}
{'measurement': 'measName', 'fields': {'measV_HV2': -50.0, 'measI_HV2': -3.614207e-08, 'settV_HV2': -50.0, 'settI_HV2': 0.0}, 'tags': {'user': 'root'}}
{'measurement': 'measName', 'fields': {'measV_HV2': -50.0, 'measI_HV2': -4.551578e-08, 'settV_HV2': -50.0, 'settI_HV2': 0.0}, 'tags': {'user': 'root'}}
{'measurement': 'measName', 'fields': {'measV_HV2': -50.0, 'measI_HV2': -3.148416e-08, 'settV_HV2': -50.0, 'settI_HV2': 0.0}, 'tags': {'user': 'root'}}

