{
    "unit": {
        "Time": "s",
        "Voltage": "V",
        "Current": "A"
    },
    "V_step": -5,
    "Step_duration": 2,
    "N_measurements_per_step": 10,
    "A_Compliance": 1e-05,
    "Sensor_IV": [
        {
            "Time": 22.887202978134155,
            "Voltage": 0.0,
            "Current_mean": 1.72110843e-08,
            "Current_sigma": 9.484014782940208e-09
        },
        {
            "Time": 28.880573987960815,
            "Voltage": -5.0,
            "Current_mean": -4.5424933999999997e-07,
            "Current_sigma": 1.4225435685011538e-08
        },
        {
            "Time": 34.87443137168884,
            "Voltage": -10.0,
            "Current_mean": -5.251212500000001e-07,
            "Current_sigma": 8.513703943202389e-09
        },
        {
            "Time": 40.868077754974365,
            "Voltage": -15.0,
            "Current_mean": -5.3948197e-07,
            "Current_sigma": 4.773102204866352e-09
        },
        {
            "Time": 46.8618221282959,
            "Voltage": -20.0,
            "Current_mean": -5.4617094e-07,
            "Current_sigma": 6.730749600779977e-09
        },
        {
            "Time": 52.855520486831665,
            "Voltage": -25.0,
            "Current_mean": -5.4383572e-07,
            "Current_sigma": 5.745643612477204e-09
        },
        {
            "Time": 58.84917640686035,
            "Voltage": -30.0,
            "Current_mean": -5.464780399999999e-07,
            "Current_sigma": 5.166849500072561e-09
        },
        {
            "Time": 64.84270095825195,
            "Voltage": -35.0,
            "Current_mean": -5.484439200000001e-07,
            "Current_sigma": 6.311913185524645e-09
        },
        {
            "Time": 70.83647060394287,
            "Voltage": -40.0,
            "Current_mean": -5.4569013e-07,
            "Current_sigma": 6.406163985888903e-09
        },
        {
            "Time": 76.83005595207214,
            "Voltage": -45.0,
            "Current_mean": -5.507670800000001e-07,
            "Current_sigma": 5.4652821943244486e-09
        },
        {
            "Time": 82.82388973236084,
            "Voltage": -50.0,
            "Current_mean": -5.4844027e-07,
            "Current_sigma": 5.394038931830192e-09
        },
        {
            "Time": 88.81758761405945,
            "Voltage": -55.0,
            "Current_mean": -5.5798975e-07,
            "Current_sigma": 4.494731012252025e-09
        },
        {
            "Time": 94.81105637550354,
            "Voltage": -60.0,
            "Current_mean": -5.8985485e-07,
            "Current_sigma": 2.841666792306939e-09
        },
        {
            "Time": 100.80477857589722,
            "Voltage": -65.0,
            "Current_mean": -6.682756100000001e-07,
            "Current_sigma": 5.257811306133004e-09
        },
        {
            "Time": 106.7984790802002,
            "Voltage": -70.0,
            "Current_mean": -7.677794300000001e-07,
            "Current_sigma": 5.1511667903592616e-09
        },
        {
            "Time": 112.79207301139832,
            "Voltage": -75.0,
            "Current_mean": -8.8320195e-07,
            "Current_sigma": 5.706250759693272e-09
        },
        {
            "Time": 118.78568840026855,
            "Voltage": -80.0,
            "Current_mean": -1.0025077499999999e-06,
            "Current_sigma": 6.443333115437987e-09
        },
        {
            "Time": 124.7794201374054,
            "Voltage": -85.0,
            "Current_mean": -1.1272379e-06,
            "Current_sigma": 5.0581117909749795e-09
        },
        {
            "Time": 130.77319264411926,
            "Voltage": -90.0,
            "Current_mean": -1.2530275000000001e-06,
            "Current_sigma": 5.156144339523438e-09
        },
        {
            "Time": 136.7668480873108,
            "Voltage": -95.0,
            "Current_mean": -1.3794062000000001e-06,
            "Current_sigma": 6.684769058090225e-09
        },
        {
            "Time": 142.7606554031372,
            "Voltage": -100.0,
            "Current_mean": -1.5049319e-06,
            "Current_sigma": 4.159556429476581e-09
        },
        {
            "Time": 148.75445461273193,
            "Voltage": -105.0,
            "Current_mean": -1.6308855999999998e-06,
            "Current_sigma": 5.262140613856699e-09
        },
        {
            "Time": 154.7480969429016,
            "Voltage": -110.0,
            "Current_mean": -1.7536144999999997e-06,
            "Current_sigma": 4.640220280331526e-09
        },
        {
            "Time": 160.7416548728943,
            "Voltage": -115.0,
            "Current_mean": -1.8748764e-06,
            "Current_sigma": 5.264455911108021e-09
        },
        {
            "Time": 166.73544669151306,
            "Voltage": -120.0,
            "Current_mean": -1.997087e-06,
            "Current_sigma": 5.084969262443946e-09
        },
        {
            "Time": 172.72926664352417,
            "Voltage": -125.0,
            "Current_mean": -2.1173288e-06,
            "Current_sigma": 4.923559501011369e-09
        },
        {
            "Time": 178.72288179397583,
            "Voltage": -130.0,
            "Current_mean": -2.2340631e-06,
            "Current_sigma": 4.4660748415135975e-09
        },
        {
            "Time": 184.71657872200012,
            "Voltage": -135.0,
            "Current_mean": -2.3504783e-06,
            "Current_sigma": 4.21060233339595e-09
        },
        {
            "Time": 190.71047377586365,
            "Voltage": -140.0,
            "Current_mean": -2.4676516e-06,
            "Current_sigma": 4.639541166968988e-09
        },
        {
            "Time": 196.7043707370758,
            "Voltage": -145.0,
            "Current_mean": -2.5813511000000005e-06,
            "Current_sigma": 5.429885752941814e-09
        },
        {
            "Time": 202.69804310798645,
            "Voltage": -150.0,
            "Current_mean": -2.6992351999999997e-06,
            "Current_sigma": 4.109010703320219e-09
        }
    ]
}