{
    "Data": [180.0, 298.0, 46.0, 9.0, 3.0, 6400.0, 1047116.0, 676061.0, 707773.0, 124304.0, 59.0, 0.0, 0.0, 1.0, 2.0, 1.0],
    "Name": "L1Dist",
    "Overflow": 0.0,
    "Type": "Histo1d",
    "Underflow": 0.0,
    "x": {
        "AxisTitle": "L1Id",
        "Bins": 16,
        "High": 15.5,
        "Low": -0.5
    },
    "y": {
        "AxisTitle": "Hits"
    },
    "z": {
        "AxisTitle": "z"
    }
}