{
    "Data": [171.0, 364.0, 137.0, 77.0, 87.0, 6400.0, 992436.0, 520671.0, 764488.0, 203248.0, 529.0, 13.0, 107.0, 141.0, 142.0, 59.0],
    "Name": "L1Dist",
    "Overflow": 0.0,
    "Type": "Histo1d",
    "Underflow": 0.0,
    "x": {
        "AxisTitle": "L1Id",
        "Bins": 16,
        "High": 15.5,
        "Low": -0.5
    },
    "y": {
        "AxisTitle": "Hits"
    },
    "z": {
        "AxisTitle": "z"
    }
}