{
    "Data": [683.0, 396.0, 371.0, 638.0, 25778.0, 2609174.0, 1013035.0, 497534.0, 779824.0, 276481.0, 601.0, 54.0, 40.0, 30.0, 31.0, 105.0],
    "Name": "L1Dist",
    "Overflow": 97.0,
    "Type": "Histo1d",
    "Underflow": 0.0,
    "x": {
        "AxisTitle": "L1Id",
        "Bins": 16,
        "High": 15.5,
        "Low": -0.5
    },
    "y": {
        "AxisTitle": "Hits"
    },
    "z": {
        "AxisTitle": "z"
    }
}