{
    "Data": [0.0, 0.0, 0.0, 0.0, 0.0, 0.0, 0.0, 0.0, 0.0, 0.0, 0.0, 0.0, 0.0, 0.0, 0.0, 0.0, 0.0, 0.0, 0.0, 0.0, 0.0, 0.0, 0.0, 0.0, 0.0, 0.0, 0.0, 0.0, 0.0, 0.0, 0.0, 0.0, 0.0, 0.0, 0.0, 0.0, 0.0, 0.0, 0.0, 1.0, 0.0, 1.0, 1.0, 7.0, 18.0, 13.0, 41.0, 94.0, 130.0, 143.0, 199.0, 285.0, 360.0, 473.0, 532.0, 538.0, 486.0, 617.0, 796.0, 708.0, 653.0, 621.0, 677.0, 691.0, 676.0, 640.0, 590.0, 498.0, 437.0, 345.0, 365.0, 337.0, 303.0, 237.0, 223.0, 187.0, 158.0, 129.0, 97.0, 115.0, 82.0, 76.0, 75.0, 55.0, 54.0, 48.0, 45.0, 28.0, 26.0, 26.0, 47.0, 19.0, 19.0, 22.0, 13.0, 17.0, 21.0, 13.0, 5.0, 8.0, 6.0, 11.0, 5.0, 8.0, 10.0, 7.0, 5.0, 6.0, 6.0, 2.0, 3.0, 11.0, 3.0, 3.0, 4.0, 1.0, 5.0, 3.0, 2.0, 3.0, 4.0, 3.0, 3.0, 0.0, 0.0, 1.0, 1.0, 1.0, 0.0, 1.0, 0.0, 1.0, 0.0, 0.0, 0.0, 0.0, 0.0, 0.0, 0.0, 0.0, 0.0, 0.0, 1.0, 0.0, 1.0, 0.0, 1.0, 0.0, 1.0, 0.0, 0.0, 0.0, 0.0, 0.0, 0.0, 1.0, 0.0, 0.0, 0.0, 0.0, 0.0, 0.0, 0.0, 0.0, 0.0, 0.0, 0.0, 0.0, 0.0, 0.0, 0.0, 0.0, 2.0, 0.0, 0.0, 0.0, 0.0, 0.0, 0.0, 0.0, 0.0, 0.0, 0.0, 0.0, 0.0, 0.0, 0.0, 1.0, 0.0, 0.0, 0.0, 0.0, 0.0, 0.0, 0.0, 0.0, 0.0, 0.0, 0.0, 0.0, 0.0],
    "Name": "TimePerFitDist-0",
    "Overflow": 4.0,
    "Type": "Histo1d",
    "Underflow": 0.0,
    "x": {
        "AxisTitle": "Fit Time [us]",
        "Bins": 201,
        "High": 401.0,
        "Low": -1.0
    },
    "y": {
        "AxisTitle": "Number of Pixels"
    },
    "z": {
        "AxisTitle": "z"
    }
}