{
    "Data": [0.0, 0.0, 0.0, 0.0, 0.0, 0.0, 0.0, 0.0, 0.0, 0.0, 0.0, 0.0, 0.0, 0.0, 0.0, 0.0, 0.0, 0.0, 0.0, 0.0, 0.0, 0.0, 0.0, 0.0, 0.0, 0.0, 0.0, 0.0, 0.0, 0.0, 0.0, 0.0, 0.0, 0.0, 0.0, 0.0, 0.0, 0.0, 0.0, 0.0, 0.0, 0.0, 0.0, 0.0, 0.0, 0.0, 0.0, 0.0, 0.0, 0.0, 0.0, 0.0, 0.0, 0.0, 0.0, 0.0, 0.0, 0.0, 0.0, 0.0, 0.0, 0.0, 0.0, 0.0, 0.0, 0.0, 0.0, 0.0, 0.0, 0.0, 0.0, 0.0, 0.0, 0.0, 0.0, 0.0, 0.0, 0.0, 0.0, 0.0, 0.0, 0.0, 0.0, 0.0, 0.0, 0.0, 0.0, 1.0, 0.0, 0.0, 0.0, 1.0, 0.0, 0.0, 0.0, 0.0, 1.0, 0.0, 0.0, 1.0, 2.0, 0.0, 0.0, 1.0, 1.0, 2.0, 0.0, 0.0, 2.0, 2.0, 0.0, 1.0, 2.0, 2.0, 1.0, 1.0, 1.0, 1.0, 1.0, 0.0, 0.0, 0.0, 5.0, 1.0, 2.0, 0.0, 0.0, 3.0, 2.0, 2.0, 1.0, 0.0, 4.0, 0.0, 4.0, 5.0, 3.0, 3.0, 1.0, 5.0, 4.0, 3.0, 3.0, 6.0, 2.0, 7.0, 4.0, 8.0, 4.0, 4.0, 2.0, 4.0, 4.0, 8.0, 5.0, 9.0, 8.0, 9.0, 8.0, 5.0, 8.0, 10.0, 15.0, 8.0, 6.0, 10.0, 15.0, 8.0, 15.0, 14.0, 11.0, 19.0, 15.0, 13.0, 5.0, 19.0, 14.0, 23.0, 22.0, 15.0, 21.0, 24.0, 19.0, 24.0, 20.0, 23.0, 31.0, 25.0, 19.0, 33.0, 33.0, 25.0, 17.0, 28.0, 31.0, 34.0, 41.0, 47.0, 54.0, 33.0, 53.0, 34.0, 41.0, 47.0, 53.0, 53.0, 54.0, 49.0, 65.0, 65.0, 51.0, 70.0, 73.0, 72.0, 63.0, 72.0, 80.0, 77.0, 86.0, 76.0, 85.0, 96.0, 85.0, 84.0, 87.0, 96.0, 109.0, 81.0, 118.0, 93.0, 94.0, 90.0, 117.0, 116.0, 119.0, 131.0, 136.0, 134.0, 116.0, 132.0, 150.0, 142.0, 142.0, 152.0, 150.0, 163.0, 161.0, 143.0, 143.0, 148.0, 175.0, 172.0, 188.0, 149.0, 175.0, 169.0, 171.0, 183.0, 179.0, 201.0, 211.0, 176.0, 172.0, 192.0, 189.0, 173.0, 181.0, 192.0, 205.0, 199.0, 182.0, 185.0, 192.0, 198.0, 210.0, 191.0, 194.0, 190.0, 186.0, 185.0, 186.0, 195.0, 185.0, 209.0, 182.0, 213.0, 191.0, 196.0, 182.0, 195.0, 181.0, 167.0, 176.0, 199.0, 200.0, 188.0, 167.0, 157.0, 193.0, 179.0, 159.0, 184.0, 170.0, 162.0, 171.0, 161.0, 173.0, 176.0, 180.0, 145.0, 167.0, 143.0, 144.0, 160.0, 159.0, 145.0, 133.0, 130.0, 141.0, 125.0, 130.0, 92.0, 114.0, 124.0, 124.0, 126.0, 127.0, 112.0, 111.0, 93.0, 130.0, 100.0, 126.0, 99.0, 85.0, 107.0, 101.0, 73.0, 84.0, 86.0, 78.0, 76.0, 74.0, 89.0, 65.0, 70.0, 84.0, 75.0, 78.0, 76.0, 63.0, 63.0, 56.0, 58.0, 66.0, 68.0, 53.0, 52.0, 60.0, 56.0, 48.0, 50.0, 64.0, 48.0, 57.0, 46.0, 41.0, 51.0, 31.0, 45.0, 43.0, 31.0, 25.0, 36.0, 34.0, 36.0, 41.0, 32.0, 32.0, 27.0, 30.0, 25.0, 31.0, 35.0, 29.0, 28.0, 23.0, 24.0, 18.0, 28.0, 23.0, 21.0, 17.0, 25.0, 21.0, 20.0, 19.0, 20.0, 22.0, 10.0, 13.0, 15.0, 15.0, 17.0, 11.0, 10.0, 14.0, 10.0, 11.0, 12.0, 4.0, 16.0, 16.0, 18.0, 8.0, 13.0, 12.0, 14.0, 17.0, 8.0, 9.0, 8.0, 6.0, 8.0, 8.0, 17.0, 4.0, 8.0, 5.0, 6.0, 5.0, 10.0, 7.0, 2.0, 7.0, 4.0, 8.0, 5.0, 6.0, 4.0, 8.0, 7.0, 5.0, 5.0, 2.0, 3.0, 1.0, 5.0, 3.0, 5.0, 3.0, 4.0, 6.0, 2.0, 3.0, 4.0, 2.0, 5.0, 3.0, 3.0, 6.0, 4.0, 2.0, 5.0, 4.0, 3.0, 1.0, 0.0, 3.0, 2.0, 3.0, 2.0, 0.0, 5.0, 2.0, 1.0, 1.0, 2.0, 1.0, 0.0, 2.0, 0.0, 0.0, 1.0, 4.0, 0.0, 5.0, 2.0, 1.0, 3.0, 1.0, 2.0, 2.0, 2.0, 0.0, 0.0, 0.0, 1.0, 0.0, 2.0, 1.0, 1.0, 2.0, 3.0, 0.0, 0.0, 2.0, 2.0, 1.0, 1.0, 0.0, 0.0, 1.0, 2.0, 1.0, 1.0, 1.0, 0.0, 1.0, 3.0, 0.0, 1.0, 1.0, 0.0, 3.0, 0.0, 0.0, 0.0, 0.0, 0.0, 1.0, 1.0, 2.0, 0.0, 0.0, 0.0, 0.0, 0.0, 0.0, 0.0, 0.0, 0.0, 1.0, 0.0, 0.0, 0.0, 0.0, 0.0, 0.0, 1.0, 3.0, 1.0, 0.0, 2.0, 1.0, 1.0, 0.0, 0.0, 1.0, 1.0, 0.0, 1.0, 0.0, 0.0, 0.0, 0.0, 0.0, 0.0, 0.0, 0.0, 0.0],
    "Name": "NoiseDist-0",
    "Overflow": 41.0,
    "Type": "Histo1d",
    "Underflow": 0.0,
    "x": {
        "AxisTitle": "Noise [e]",
        "Bins": 571,
        "High": 4007.0,
        "Low": 1152.0
    },
    "y": {
        "AxisTitle": "Number of Pixels"
    },
    "z": {
        "AxisTitle": "z"
    }
}