{
    "Data": [0.0, 0.0, 0.0, 0.0, 0.0, 0.0, 0.0, 0.0, 0.0, 0.0, 0.0, 0.0, 0.0, 0.0, 0.0, 0.0, 0.0, 0.0, 0.0, 0.0, 0.0, 0.0, 0.0, 0.0, 0.0, 0.0, 0.0, 0.0, 0.0, 0.0, 0.0, 0.0, 0.0, 0.0, 0.0, 0.0, 5.0, 9.0, 7.0, 15.0, 255.0, 322.0, 254.0, 142.0, 341.0, 1544.0, 2263.0, 1568.0, 853.0, 801.0, 1319.0, 1591.0, 1244.0, 762.0, 640.0, 890.0, 1218.0, 1183.0, 860.0, 559.0, 494.0, 508.0, 500.0, 379.0, 301.0, 292.0, 266.0, 280.0, 210.0, 164.0, 169.0, 153.0, 138.0, 120.0, 72.0, 69.0, 72.0, 67.0, 46.0, 52.0, 37.0, 35.0, 34.0, 28.0, 27.0, 22.0, 27.0, 12.0, 20.0, 22.0, 12.0, 13.0, 9.0, 11.0, 11.0, 14.0, 7.0, 7.0, 2.0, 8.0, 4.0, 1.0, 6.0, 5.0, 7.0, 2.0, 5.0, 3.0, 8.0, 1.0, 0.0, 1.0, 3.0, 4.0, 2.0, 1.0, 7.0, 1.0, 0.0, 1.0, 0.0, 2.0, 1.0, 1.0, 0.0, 1.0, 2.0, 1.0, 0.0, 0.0, 0.0, 1.0, 0.0, 0.0, 0.0, 0.0, 1.0, 0.0, 0.0, 1.0, 0.0, 0.0, 1.0, 0.0, 1.0, 0.0, 1.0, 0.0, 0.0, 0.0, 0.0, 0.0, 0.0, 0.0, 0.0, 0.0, 1.0, 0.0, 0.0, 0.0, 0.0, 0.0, 0.0, 0.0, 0.0, 0.0, 0.0, 0.0, 0.0, 0.0, 0.0, 0.0, 0.0, 0.0, 0.0, 0.0, 0.0, 0.0, 0.0, 0.0, 1.0, 0.0, 0.0, 0.0, 0.0, 0.0, 0.0, 0.0, 0.0, 0.0, 0.0, 0.0, 0.0, 0.0, 0.0, 0.0, 0.0, 0.0, 0.0, 0.0, 0.0],
    "Name": "TimePerFitDist-0",
    "Overflow": 1.0,
    "Type": "Histo1d",
    "Underflow": 0.0,
    "x": {
        "AxisTitle": "Fit Time [us]",
        "Bins": 201,
        "High": 401.0,
        "Low": -1.0
    },
    "y": {
        "AxisTitle": "Number of Pixels"
    },
    "z": {
        "AxisTitle": "z"
    }
}