{
    "Data": [0.0, 0.0, 0.0, 0.0, 0.0, 0.0, 0.0, 0.0, 0.0, 0.0, 0.0, 0.0, 0.0, 0.0, 0.0, 0.0, 0.0, 0.0, 0.0, 0.0, 0.0, 0.0, 0.0, 0.0, 0.0, 0.0, 0.0, 0.0, 0.0, 0.0, 0.0, 0.0, 0.0, 0.0, 0.0, 0.0, 0.0, 0.0, 0.0, 0.0, 0.0, 0.0, 0.0, 0.0, 0.0, 0.0, 0.0, 0.0, 0.0, 0.0, 0.0, 0.0, 0.0, 0.0, 0.0, 0.0, 0.0, 0.0, 0.0, 0.0, 0.0, 0.0, 0.0, 0.0, 0.0, 0.0, 0.0, 0.0, 0.0, 0.0, 0.0, 0.0, 0.0, 0.0, 0.0, 0.0, 0.0, 0.0, 0.0, 0.0, 0.0, 0.0, 0.0, 0.0, 0.0, 0.0, 0.0, 0.0, 0.0, 0.0, 0.0, 0.0, 0.0, 0.0, 0.0, 0.0, 0.0, 0.0, 0.0, 0.0, 0.0, 0.0, 0.0, 0.0, 0.0, 0.0, 0.0, 0.0, 0.0, 0.0, 0.0, 0.0, 0.0, 0.0, 0.0, 0.0, 0.0, 0.0, 0.0, 1.0, 0.0, 0.0, 0.0, 0.0, 0.0, 0.0, 0.0, 0.0, 0.0, 0.0, 0.0, 0.0, 0.0, 0.0, 0.0, 0.0, 0.0, 0.0, 0.0, 0.0, 0.0, 0.0, 0.0, 0.0, 0.0, 0.0, 0.0, 0.0, 0.0, 0.0, 0.0, 0.0, 0.0, 0.0, 0.0, 0.0, 0.0, 0.0, 0.0, 0.0, 0.0, 0.0, 0.0, 0.0, 0.0, 0.0, 0.0, 0.0, 0.0, 0.0, 0.0, 0.0, 0.0, 0.0, 0.0, 0.0, 0.0, 0.0, 0.0, 1.0, 0.0, 0.0, 1.0, 0.0, 0.0, 0.0, 0.0, 0.0, 0.0, 0.0, 0.0, 0.0, 0.0, 0.0, 0.0, 0.0, 0.0, 1.0, 0.0, 0.0, 1.0, 0.0, 0.0, 1.0, 0.0, 0.0, 1.0, 0.0, 0.0, 0.0, 0.0, 0.0, 0.0, 0.0, 1.0, 0.0, 0.0, 0.0, 0.0, 0.0, 0.0, 0.0, 2.0, 0.0, 0.0, 0.0, 0.0, 0.0, 0.0, 0.0, 0.0, 0.0, 0.0, 0.0, 0.0, 0.0, 1.0, 0.0, 0.0, 1.0, 0.0, 0.0, 0.0, 1.0, 1.0, 0.0, 0.0, 0.0, 0.0, 0.0, 0.0, 0.0, 0.0, 0.0, 0.0, 0.0, 0.0, 0.0, 0.0, 0.0, 0.0, 0.0, 1.0, 0.0, 0.0, 0.0, 0.0, 0.0, 0.0, 1.0, 0.0, 0.0, 1.0, 0.0, 0.0, 0.0, 0.0, 0.0, 1.0, 0.0, 0.0, 1.0, 0.0, 0.0, 0.0, 0.0, 0.0, 0.0, 0.0, 0.0, 1.0, 2.0, 0.0, 0.0, 1.0, 0.0, 1.0, 0.0, 0.0, 1.0, 1.0, 0.0, 2.0, 0.0, 1.0, 0.0, 0.0, 0.0, 0.0, 1.0, 0.0, 1.0, 0.0, 0.0, 0.0, 0.0, 0.0, 0.0, 0.0, 0.0, 2.0, 1.0, 0.0, 0.0, 1.0, 0.0, 0.0, 2.0, 0.0, 0.0, 1.0, 1.0, 0.0, 2.0, 0.0, 2.0, 2.0, 0.0, 0.0, 1.0, 2.0, 1.0, 0.0, 1.0, 0.0, 1.0, 0.0, 0.0, 2.0, 1.0, 1.0, 1.0, 2.0, 2.0, 2.0, 0.0, 2.0, 0.0, 1.0, 0.0, 1.0, 0.0, 0.0, 4.0, 0.0, 0.0, 1.0, 0.0, 0.0, 1.0, 3.0, 4.0, 0.0, 4.0, 1.0, 1.0, 2.0, 0.0, 3.0, 0.0, 1.0, 2.0, 1.0, 1.0, 1.0, 3.0, 0.0, 1.0, 0.0, 2.0, 0.0, 1.0, 4.0, 4.0, 1.0, 2.0, 3.0, 1.0, 0.0, 3.0, 0.0, 2.0, 3.0, 2.0, 3.0, 0.0, 3.0, 0.0, 0.0, 1.0, 3.0, 1.0, 4.0, 1.0, 3.0, 2.0, 0.0, 4.0, 2.0, 5.0, 2.0, 1.0, 3.0, 4.0, 3.0, 1.0, 3.0, 3.0, 5.0, 1.0, 6.0, 4.0, 1.0, 3.0, 6.0, 3.0, 5.0, 5.0, 3.0, 2.0, 3.0, 3.0, 5.0, 8.0, 3.0, 0.0, 3.0, 7.0, 5.0, 3.0, 2.0, 5.0, 4.0, 2.0, 2.0, 2.0, 1.0, 4.0, 3.0, 4.0, 2.0, 5.0, 2.0, 5.0, 6.0, 6.0, 6.0, 5.0, 3.0, 3.0, 5.0, 6.0, 5.0, 3.0, 7.0, 4.0, 6.0, 4.0, 3.0, 9.0, 3.0, 6.0, 4.0, 5.0, 7.0, 4.0, 8.0, 5.0, 5.0, 11.0, 6.0, 3.0, 6.0, 10.0, 7.0, 6.0, 5.0, 7.0, 7.0, 6.0, 3.0, 3.0, 5.0, 8.0, 8.0, 6.0, 10.0, 2.0, 4.0, 4.0, 5.0, 5.0, 12.0, 4.0, 7.0, 9.0, 4.0, 12.0, 8.0, 7.0, 12.0, 9.0, 7.0, 3.0, 8.0, 7.0, 8.0, 2.0, 6.0, 4.0, 9.0, 6.0, 4.0, 7.0, 5.0, 9.0, 11.0, 7.0, 11.0, 7.0, 13.0, 8.0, 8.0, 11.0, 6.0, 7.0, 10.0, 14.0, 9.0, 5.0, 6.0, 14.0, 10.0, 5.0, 11.0, 13.0, 22.0, 9.0, 17.0, 12.0, 9.0, 11.0, 12.0, 7.0, 17.0, 13.0, 4.0, 11.0, 14.0, 6.0, 13.0, 11.0, 12.0, 11.0, 20.0, 13.0, 9.0, 11.0, 9.0, 12.0, 13.0, 10.0, 4.0, 13.0, 14.0, 8.0, 13.0, 12.0, 17.0, 5.0, 12.0, 20.0, 8.0, 12.0, 12.0, 18.0, 9.0, 14.0, 14.0, 21.0, 16.0, 23.0, 16.0, 18.0, 16.0, 19.0, 17.0, 17.0, 17.0, 18.0, 14.0, 16.0, 17.0, 12.0, 21.0, 21.0, 15.0, 21.0, 11.0, 14.0, 20.0, 21.0, 14.0, 14.0, 28.0, 17.0, 26.0, 18.0, 15.0, 23.0, 15.0, 15.0, 16.0, 16.0, 19.0, 25.0, 22.0, 17.0, 14.0, 28.0, 21.0, 33.0, 20.0, 20.0, 22.0, 15.0, 26.0, 35.0, 27.0, 19.0, 19.0, 28.0, 29.0, 26.0, 32.0, 29.0, 20.0, 27.0, 19.0, 26.0, 24.0, 35.0, 26.0, 16.0, 37.0, 32.0, 22.0, 21.0, 24.0, 25.0, 21.0, 31.0, 22.0, 23.0, 24.0, 35.0, 24.0, 19.0, 27.0, 32.0, 24.0, 32.0, 29.0, 30.0, 25.0, 29.0, 31.0, 26.0, 30.0, 31.0, 21.0, 25.0, 34.0, 29.0, 31.0, 26.0, 27.0, 27.0, 39.0, 24.0, 20.0, 28.0, 32.0, 22.0, 29.0, 35.0, 32.0, 37.0, 29.0, 26.0, 33.0, 32.0, 25.0, 40.0, 26.0, 33.0, 30.0, 37.0, 29.0, 37.0, 29.0, 36.0, 35.0, 35.0, 26.0, 33.0, 28.0, 37.0, 38.0, 35.0, 32.0, 33.0, 36.0, 45.0, 18.0, 23.0, 33.0, 32.0, 49.0, 39.0, 36.0, 40.0, 37.0, 29.0, 35.0, 42.0, 34.0, 31.0, 32.0, 34.0, 32.0, 37.0, 40.0, 45.0, 23.0, 35.0, 36.0, 39.0, 41.0, 31.0, 35.0, 34.0, 37.0, 42.0, 27.0, 36.0, 33.0, 33.0, 38.0, 40.0, 26.0, 35.0, 36.0, 38.0, 34.0, 36.0, 25.0, 30.0, 47.0, 30.0, 41.0, 31.0, 43.0, 38.0, 36.0, 30.0, 48.0, 43.0, 41.0, 33.0, 42.0, 33.0, 47.0, 34.0, 36.0, 45.0, 24.0, 46.0, 37.0, 27.0, 31.0, 36.0, 39.0, 38.0, 39.0, 36.0, 41.0, 36.0, 44.0, 45.0, 41.0, 38.0, 34.0, 54.0, 42.0, 33.0, 43.0, 33.0, 46.0, 45.0, 34.0, 37.0, 36.0, 38.0, 30.0, 42.0, 36.0, 43.0, 24.0, 42.0, 38.0, 40.0, 27.0, 28.0, 31.0, 29.0, 46.0, 42.0, 48.0, 42.0, 29.0, 54.0, 38.0, 41.0, 34.0, 34.0, 38.0, 43.0, 39.0, 35.0, 35.0, 37.0, 36.0, 30.0, 35.0, 29.0, 43.0, 33.0, 31.0, 28.0, 27.0, 26.0, 24.0, 34.0, 36.0, 32.0, 30.0, 36.0, 49.0, 35.0, 32.0, 33.0, 29.0, 39.0, 36.0, 33.0, 31.0, 37.0, 28.0, 28.0, 25.0, 22.0, 28.0, 33.0, 28.0, 27.0, 35.0, 32.0, 40.0, 34.0, 33.0, 28.0, 33.0, 34.0, 26.0, 29.0, 33.0, 33.0, 40.0, 23.0, 21.0, 22.0, 29.0, 20.0, 38.0, 31.0, 28.0, 22.0, 27.0, 37.0, 24.0, 26.0, 35.0, 25.0, 22.0, 19.0, 26.0, 29.0, 22.0, 25.0, 21.0, 32.0, 28.0, 23.0, 23.0, 29.0, 28.0, 16.0, 26.0, 27.0, 24.0, 26.0, 26.0, 19.0, 22.0, 24.0, 23.0, 27.0, 20.0, 25.0, 28.0, 21.0, 18.0, 26.0, 18.0, 28.0, 26.0, 18.0, 19.0, 22.0, 24.0, 20.0, 33.0, 22.0, 16.0, 16.0, 24.0, 12.0, 24.0, 21.0, 18.0, 17.0, 17.0, 25.0, 18.0, 23.0, 11.0, 15.0, 20.0, 14.0, 16.0, 21.0, 18.0, 20.0, 29.0, 17.0, 16.0, 14.0, 13.0, 15.0, 16.0, 15.0, 14.0, 19.0, 21.0, 12.0, 17.0, 14.0, 15.0, 20.0, 13.0, 23.0, 16.0, 10.0, 17.0, 16.0, 17.0, 18.0, 16.0, 21.0, 16.0, 16.0, 18.0, 14.0, 16.0, 11.0, 10.0, 14.0, 12.0, 12.0, 10.0, 6.0, 13.0, 15.0, 11.0, 10.0, 15.0, 14.0, 5.0, 9.0, 9.0, 12.0, 12.0, 15.0, 9.0, 9.0, 20.0, 15.0, 5.0, 10.0, 14.0, 14.0, 9.0, 16.0, 15.0, 18.0, 14.0, 11.0, 11.0, 10.0, 17.0, 7.0, 15.0, 6.0, 14.0, 9.0, 9.0, 4.0, 10.0, 9.0, 5.0, 10.0, 11.0, 16.0, 8.0, 14.0, 6.0, 9.0, 7.0, 5.0, 3.0, 3.0, 9.0, 12.0, 4.0, 8.0, 8.0, 10.0, 7.0, 9.0, 4.0, 9.0, 7.0, 8.0, 5.0, 7.0, 5.0, 10.0, 6.0, 8.0, 9.0, 5.0, 2.0, 6.0, 10.0, 7.0, 10.0, 6.0, 8.0, 9.0, 4.0, 3.0, 5.0, 6.0, 6.0, 7.0, 5.0, 9.0, 5.0, 2.0, 6.0, 2.0, 4.0, 3.0, 4.0, 6.0, 6.0, 7.0, 3.0, 4.0, 7.0, 5.0, 3.0, 4.0, 9.0, 8.0, 5.0, 5.0, 2.0, 5.0, 4.0, 3.0, 4.0, 4.0, 4.0, 9.0, 9.0, 3.0, 4.0, 2.0, 6.0, 6.0, 5.0, 8.0, 0.0, 5.0, 3.0, 3.0, 5.0, 3.0, 3.0, 2.0, 2.0, 6.0, 5.0, 5.0, 8.0, 1.0, 3.0, 4.0, 5.0, 3.0, 2.0, 2.0, 2.0, 1.0, 2.0, 2.0, 2.0, 0.0, 2.0, 1.0, 3.0, 3.0, 4.0, 1.0, 4.0, 1.0, 3.0, 1.0, 2.0, 4.0, 6.0, 1.0, 4.0, 0.0, 0.0, 1.0, 3.0, 3.0, 0.0, 3.0, 3.0, 1.0, 4.0, 0.0, 2.0, 1.0, 2.0, 2.0, 0.0, 0.0, 1.0, 3.0, 1.0, 0.0, 0.0, 3.0, 2.0, 3.0, 0.0, 3.0, 1.0, 2.0, 0.0, 2.0, 3.0, 0.0, 0.0, 5.0, 1.0, 1.0, 1.0, 4.0, 2.0, 2.0, 1.0, 3.0, 3.0, 0.0, 1.0, 0.0, 2.0, 2.0, 2.0, 2.0, 0.0, 2.0, 0.0, 4.0, 1.0, 4.0, 2.0, 1.0, 1.0, 1.0, 4.0, 4.0, 2.0, 0.0, 2.0, 1.0, 1.0, 0.0, 1.0, 1.0, 4.0, 2.0, 1.0, 0.0, 0.0, 0.0, 0.0, 1.0, 1.0, 2.0, 0.0, 1.0, 1.0, 1.0, 2.0, 3.0, 2.0, 2.0, 1.0, 0.0, 0.0, 0.0, 1.0, 2.0, 1.0, 0.0, 0.0, 0.0, 0.0, 0.0, 2.0, 0.0, 0.0, 0.0, 0.0, 0.0, 0.0, 0.0, 0.0, 0.0, 0.0, 0.0, 0.0, 0.0, 0.0, 0.0, 0.0, 0.0, 0.0, 0.0, 0.0, 0.0, 0.0, 0.0, 0.0, 0.0, 0.0, 0.0, 0.0, 0.0, 0.0, 0.0, 0.0, 0.0, 0.0, 0.0, 0.0, 0.0, 0.0, 0.0, 0.0, 0.0, 0.0, 0.0, 0.0, 0.0, 0.0, 0.0, 0.0, 0.0, 0.0, 0.0, 0.0, 0.0, 0.0, 0.0, 0.0, 0.0, 0.0, 0.0, 0.0, 0.0, 0.0, 0.0, 0.0, 0.0, 0.0, 0.0, 0.0, 0.0, 0.0, 0.0, 0.0, 0.0, 0.0, 0.0, 0.0, 0.0, 0.0, 0.0, 0.0, 0.0, 0.0, 0.0, 0.0, 0.0, 0.0, 0.0, 0.0, 0.0, 0.0, 0.0, 0.0, 0.0, 0.0, 0.0, 0.0, 0.0, 0.0, 0.0, 0.0, 0.0, 0.0, 0.0, 0.0, 0.0, 0.0, 0.0, 0.0, 0.0, 0.0, 0.0, 0.0, 0.0, 0.0, 0.0, 0.0, 0.0, 0.0, 0.0, 0.0, 0.0, 0.0, 0.0, 0.0, 0.0, 0.0, 0.0, 0.0, 0.0, 0.0, 0.0, 0.0, 0.0, 0.0, 0.0, 0.0, 0.0, 0.0, 0.0, 0.0, 0.0, 0.0, 0.0, 0.0, 0.0, 0.0, 0.0, 0.0, 0.0, 0.0, 0.0, 0.0, 0.0, 0.0, 0.0, 0.0, 0.0, 0.0, 0.0, 0.0, 0.0, 0.0, 0.0, 0.0, 0.0, 0.0, 0.0, 0.0, 0.0, 0.0, 0.0, 0.0, 0.0, 0.0, 0.0, 0.0, 0.0, 0.0, 0.0, 0.0, 0.0, 0.0, 0.0, 0.0, 0.0, 0.0, 0.0, 0.0, 0.0, 0.0, 0.0, 0.0, 0.0, 0.0, 0.0, 0.0, 0.0, 0.0, 0.0, 0.0, 0.0, 0.0, 0.0, 0.0, 0.0, 0.0, 0.0, 0.0, 0.0, 0.0, 0.0, 0.0, 0.0, 0.0, 0.0, 0.0, 0.0, 0.0, 0.0, 0.0, 0.0, 0.0, 0.0, 0.0, 0.0, 0.0, 0.0, 0.0, 0.0, 0.0, 0.0, 0.0, 0.0, 0.0, 0.0, 0.0, 0.0, 0.0, 0.0, 0.0, 0.0, 0.0, 0.0, 0.0, 0.0, 0.0, 0.0, 0.0, 0.0, 0.0, 0.0, 0.0, 0.0, 0.0, 0.0, 0.0, 0.0, 0.0, 0.0, 0.0, 0.0, 0.0, 0.0, 0.0, 0.0, 0.0, 0.0, 0.0, 0.0, 0.0, 0.0, 0.0, 0.0, 0.0, 0.0, 0.0, 0.0, 0.0, 0.0, 0.0, 0.0, 0.0, 0.0, 0.0, 0.0, 0.0, 0.0, 0.0, 0.0, 0.0, 0.0, 0.0, 0.0, 0.0, 0.0, 0.0, 0.0, 0.0, 0.0, 0.0, 0.0, 0.0, 0.0, 0.0, 0.0, 0.0, 0.0, 0.0, 0.0, 0.0, 0.0, 0.0, 0.0, 0.0],
    "Name": "ThresholdDist-0",
    "Overflow": 0.0,
    "Type": "Histo1d",
    "Underflow": 3.0,
    "x": {
        "AxisTitle": "Threshold [e]",
        "Bins": 1591,
        "High": 47105.0,
        "Low": 31195.0
    },
    "y": {
        "AxisTitle": "Number of Pixels"
    },
    "z": {
        "AxisTitle": "z"
    }
}