{
    "Data": [0.0, 0.0, 0.0, 0.0, 0.0, 0.0, 0.0, 0.0, 0.0, 0.0, 0.0, 0.0, 0.0, 0.0, 0.0, 0.0, 0.0, 0.0, 0.0, 0.0, 0.0, 0.0, 0.0, 0.0, 0.0, 0.0, 0.0, 0.0, 0.0, 0.0, 0.0, 1.0, 0.0, 0.0, 0.0, 0.0, 12.0, 15.0, 14.0, 22.0, 235.0, 433.0, 376.0, 267.0, 352.0, 1326.0, 2541.0, 1999.0, 1196.0, 955.0, 1284.0, 1536.0, 1362.0, 935.0, 623.0, 837.0, 1019.0, 1021.0, 794.0, 571.0, 447.0, 453.0, 432.0, 332.0, 260.0, 234.0, 232.0, 223.0, 184.0, 158.0, 118.0, 99.0, 105.0, 68.0, 59.0, 55.0, 62.0, 54.0, 55.0, 38.0, 30.0, 24.0, 27.0, 31.0, 17.0, 23.0, 30.0, 15.0, 21.0, 22.0, 13.0, 10.0, 3.0, 10.0, 10.0, 10.0, 10.0, 10.0, 10.0, 6.0, 7.0, 5.0, 6.0, 6.0, 3.0, 3.0, 4.0, 1.0, 4.0, 4.0, 5.0, 4.0, 4.0, 5.0, 2.0, 6.0, 3.0, 1.0, 2.0, 2.0, 1.0, 2.0, 3.0, 0.0, 1.0, 1.0, 1.0, 1.0, 1.0, 1.0, 1.0, 0.0, 1.0, 1.0, 0.0, 0.0, 0.0, 0.0, 0.0, 0.0, 0.0, 0.0, 0.0, 0.0, 1.0, 0.0, 0.0, 1.0, 0.0, 0.0, 0.0, 0.0, 0.0, 1.0, 0.0, 0.0, 0.0, 0.0, 0.0, 0.0, 0.0, 0.0, 0.0, 0.0, 0.0, 0.0, 0.0, 0.0, 0.0, 0.0, 0.0, 0.0, 0.0, 0.0, 0.0, 0.0, 0.0, 0.0, 0.0, 0.0, 0.0, 0.0, 0.0, 0.0, 0.0, 0.0, 0.0, 0.0, 0.0, 0.0, 0.0, 0.0, 0.0, 0.0, 0.0, 0.0, 0.0, 0.0, 0.0, 0.0, 0.0],
    "Name": "TimePerFitDist-0",
    "Overflow": 6.0,
    "Type": "Histo1d",
    "Underflow": 0.0,
    "x": {
        "AxisTitle": "Fit Time [us]",
        "Bins": 201,
        "High": 401.0,
        "Low": -1.0
    },
    "y": {
        "AxisTitle": "Number of Pixels"
    },
    "z": {
        "AxisTitle": "z"
    }
}