{
    "scan": {
        "analysis": {
            "0": {
                "algorithm": "ScurveFitter"
            }, 
            "1": {
                "algorithm": "OccupancyAnalysis",
				"config": {
				  "createMask": false
				}
            }, 
            "n_count": 2
        }, 
        "histogrammer": {
            "0": {
                "algorithm": "OccupancyMap", 
                "config": {}
            }, 
            "1": {
                "algorithm": "L1Dist", 
                "config": {}
            }, 
            "2": {
                "algorithm": "HitsPerEvent", 
                "config": {}
            }, 
            "n_count": 3
        }, 
        "loops": [
            {
                "config": {
                    "max": 256,
                    "min": 0, 
                    "step": 1,
                    "maskType": 1, 
                    "maskSize": 1,
                    "includedPixels": 0, 
                    "sensorType": 0
                }, 
                "loopAction": "Rd53aMaskLoop"
            }, 
            {
                "config": {
                    "max": 4000, 
                    "min": 500, 
                    "step": 50, 
                    "parameter": "InjVcalDiff"
                }, 
                "loopAction": "Rd53aParameterLoop"
            }, 
            {
                "config": {
                    "max": 16, 
                    "min": 0, 
                    "step": 1, 
                    "nSteps": 1
                }, 
                "loopAction": "Rd53aCoreColLoop"
            }, 
            {
                "config": {
                    "count": 100, 
                    "delay": 48, 
                    "extTrigger": false, 
                    "frequency": 10000, 
                    "noInject": false, 
                    "time": 0,
                    "sendEcr": true
                }, 
                "loopAction": "Rd53aTriggerLoop"
            }, 
            {
                "loopAction": "StdDataLoop"
            }
        ], 
        "name": "CrosstalkScan", 
        "prescan": {
            "InjEnDig": 0, 
            "LatencyConfig": 50, 
            "GlobalPulseRt": 16384, 
            "DiffVth1": 500, 
            "LinVth": 500, 
            "InjVcalMed": 0,
            "EnCoreColDiff1": 0, 
            "EnCoreColDiff2": 0, 
            "EnCoreColLin1": 0, 
            "EnCoreColLin2": 0
        }
    }
}
