{'measurement': 'measName', 'fields': {'measV_HV2': -150.0, 'measI_HV2': -9.253729e-06, 'settV_HV2': -150.0, 'settI_HV2': 0.0}, 'tags': {'user': 'root'}}
{'measurement': 'measName', 'fields': {'measV_HV2': -150.0, 'measI_HV2': -9.27114e-06, 'settV_HV2': -150.0, 'settI_HV2': 0.0}, 'tags': {'user': 'root'}}
{'measurement': 'measName', 'fields': {'measV_HV2': -150.0, 'measI_HV2': -9.253145e-06, 'settV_HV2': -150.0, 'settI_HV2': 0.0}, 'tags': {'user': 'root'}}
{'measurement': 'measName', 'fields': {'measV_HV2': -150.0, 'measI_HV2': -9.267728e-06, 'settV_HV2': -150.0, 'settI_HV2': 0.0}, 'tags': {'user': 'root'}}
{'measurement': 'measName', 'fields': {'measV_HV2': -150.0, 'measI_HV2': -9.269056e-06, 'settV_HV2': -150.0, 'settI_HV2': 0.0}, 'tags': {'user': 'root'}}
{'measurement': 'measName', 'fields': {'measV_HV2': -150.0, 'measI_HV2': -9.263082e-06, 'settV_HV2': -150.0, 'settI_HV2': 0.0}, 'tags': {'user': 'root'}}
{'measurement': 'measName', 'fields': {'measV_HV2': -150.0, 'measI_HV2': -9.258903e-06, 'settV_HV2': -150.0, 'settI_HV2': 0.0}, 'tags': {'user': 'root'}}
{'measurement': 'measName', 'fields': {'measV_HV2': -150.0, 'measI_HV2': -9.244265e-06, 'settV_HV2': -150.0, 'settI_HV2': 0.0}, 'tags': {'user': 'root'}}
{'measurement': 'measName', 'fields': {'measV_HV2': -150.0, 'measI_HV2': -9.211779e-06, 'settV_HV2': -150.0, 'settI_HV2': 0.0}, 'tags': {'user': 'root'}}
{'measurement': 'measName', 'fields': {'measV_HV2': -150.0, 'measI_HV2': -9.210796e-06, 'settV_HV2': -150.0, 'settI_HV2': 0.0}, 'tags': {'user': 'root'}}
{'measurement': 'measName', 'fields': {'measV_HV2': -150.0, 'measI_HV2': -9.220405e-06, 'settV_HV2': -150.0, 'settI_HV2': 0.0}, 'tags': {'user': 'root'}}
{'measurement': 'measName', 'fields': {'measV_HV2': -150.0, 'measI_HV2': -9.226029e-06, 'settV_HV2': -150.0, 'settI_HV2': 0.0}, 'tags': {'user': 'root'}}
{'measurement': 'measName', 'fields': {'measV_HV2': -150.0, 'measI_HV2': -9.244319e-06, 'settV_HV2': -150.0, 'settI_HV2': 0.0}, 'tags': {'user': 'root'}}
{'measurement': 'measName', 'fields': {'measV_HV2': -150.0, 'measI_HV2': -9.266163e-06, 'settV_HV2': -150.0, 'settI_HV2': 0.0}, 'tags': {'user': 'root'}}
{'measurement': 'measName', 'fields': {'measV_HV2': -150.0, 'measI_HV2': -9.273146e-06, 'settV_HV2': -150.0, 'settI_HV2': 0.0}, 'tags': {'user': 'root'}}
{'measurement': 'measName', 'fields': {'measV_HV2': -150.0, 'measI_HV2': -9.271255e-06, 'settV_HV2': -150.0, 'settI_HV2': 0.0}, 'tags': {'user': 'root'}}
{'measurement': 'measName', 'fields': {'measV_HV2': -150.0, 'measI_HV2': -9.243801e-06, 'settV_HV2': -150.0, 'settI_HV2': 0.0}, 'tags': {'user': 'root'}}
{'measurement': 'measName', 'fields': {'measV_HV2': -150.0, 'measI_HV2': -9.251354e-06, 'settV_HV2': -150.0, 'settI_HV2': 0.0}, 'tags': {'user': 'root'}}
{'measurement': 'measName', 'fields': {'measV_HV2': -150.0, 'measI_HV2': -9.258615e-06, 'settV_HV2': -150.0, 'settI_HV2': 0.0}, 'tags': {'user': 'root'}}
{'measurement': 'measName', 'fields': {'measV_HV2': -150.0, 'measI_HV2': -9.285401e-06, 'settV_HV2': -150.0, 'settI_HV2': 0.0}, 'tags': {'user': 'root'}}
{'measurement': 'measName', 'fields': {'measV_HV2': -150.0, 'measI_HV2': -9.229796e-06, 'settV_HV2': -150.0, 'settI_HV2': 0.0}, 'tags': {'user': 'root'}}
{'measurement': 'measName', 'fields': {'measV_HV2': -150.0, 'measI_HV2': -9.219778e-06, 'settV_HV2': -150.0, 'settI_HV2': 0.0}, 'tags': {'user': 'root'}}
{'measurement': 'measName', 'fields': {'measV_HV2': -150.0, 'measI_HV2': -9.231312e-06, 'settV_HV2': -150.0, 'settI_HV2': 0.0}, 'tags': {'user': 'root'}}
{'measurement': 'measName', 'fields': {'measV_HV2': -150.0, 'measI_HV2': -9.268874e-06, 'settV_HV2': -150.0, 'settI_HV2': 0.0}, 'tags': {'user': 'root'}}
{'measurement': 'measName', 'fields': {'measV_HV2': -150.0, 'measI_HV2': -9.259956e-06, 'settV_HV2': -150.0, 'settI_HV2': 0.0}, 'tags': {'user': 'root'}}
{'measurement': 'measName', 'fields': {'measV_HV2': -150.0, 'measI_HV2': -9.279398e-06, 'settV_HV2': -150.0, 'settI_HV2': 0.0}, 'tags': {'user': 'root'}}
{'measurement': 'measName', 'fields': {'measV_HV2': -150.0, 'measI_HV2': -9.283934e-06, 'settV_HV2': -150.0, 'settI_HV2': 0.0}, 'tags': {'user': 'root'}}
{'measurement': 'measName', 'fields': {'measV_HV2': -150.0, 'measI_HV2': -9.276591e-06, 'settV_HV2': -150.0, 'settI_HV2': 0.0}, 'tags': {'user': 'root'}}
{'measurement': 'measName', 'fields': {'measV_HV2': -150.0, 'measI_HV2': -9.260627e-06, 'settV_HV2': -150.0, 'settI_HV2': 0.0}, 'tags': {'user': 'root'}}
{'measurement': 'measName', 'fields': {'measV_HV2': -150.0, 'measI_HV2': -9.272188e-06, 'settV_HV2': -150.0, 'settI_HV2': 0.0}, 'tags': {'user': 'root'}}
{'measurement': 'measName', 'fields': {'measV_HV2': -150.0, 'measI_HV2': -9.269464e-06, 'settV_HV2': -150.0, 'settI_HV2': 0.0}, 'tags': {'user': 'root'}}
{'measurement': 'measName', 'fields': {'measV_HV2': -150.0, 'measI_HV2': -9.246568e-06, 'settV_HV2': -150.0, 'settI_HV2': 0.0}, 'tags': {'user': 'root'}}
{'measurement': 'measName', 'fields': {'measV_HV2': -150.0, 'measI_HV2': -9.271202e-06, 'settV_HV2': -150.0, 'settI_HV2': 0.0}, 'tags': {'user': 'root'}}
{'measurement': 'measName', 'fields': {'measV_HV2': -150.0, 'measI_HV2': -9.252165e-06, 'settV_HV2': -150.0, 'settI_HV2': 0.0}, 'tags': {'user': 'root'}}
{'measurement': 'measName', 'fields': {'measV_HV2': -150.0, 'measI_HV2': -9.272924e-06, 'settV_HV2': -150.0, 'settI_HV2': 0.0}, 'tags': {'user': 'root'}}
{'measurement': 'measName', 'fields': {'measV_HV2': -150.0, 'measI_HV2': -9.265081e-06, 'settV_HV2': -150.0, 'settI_HV2': 0.0}, 'tags': {'user': 'root'}}
{'measurement': 'measName', 'fields': {'measV_HV2': -150.0, 'measI_HV2': -9.254209e-06, 'settV_HV2': -150.0, 'settI_HV2': 0.0}, 'tags': {'user': 'root'}}
{'measurement': 'measName', 'fields': {'measV_HV2': -150.0, 'measI_HV2': -9.240604e-06, 'settV_HV2': -150.0, 'settI_HV2': 0.0}, 'tags': {'user': 'root'}}
{'measurement': 'measName', 'fields': {'measV_HV2': -150.0, 'measI_HV2': -9.259716e-06, 'settV_HV2': -150.0, 'settI_HV2': 0.0}, 'tags': {'user': 'root'}}
{'measurement': 'measName', 'fields': {'measV_HV2': -150.0, 'measI_HV2': -9.241836e-06, 'settV_HV2': -150.0, 'settI_HV2': 0.0}, 'tags': {'user': 'root'}}
{'measurement': 'measName', 'fields': {'measV_HV2': -150.0, 'measI_HV2': -9.25078e-06, 'settV_HV2': -150.0, 'settI_HV2': 0.0}, 'tags': {'user': 'root'}}
{'measurement': 'measName', 'fields': {'measV_HV2': -150.0, 'measI_HV2': -9.248017e-06, 'settV_HV2': -150.0, 'settI_HV2': 0.0}, 'tags': {'user': 'root'}}
{'measurement': 'measName', 'fields': {'measV_HV2': -150.0, 'measI_HV2': -9.249636e-06, 'settV_HV2': -150.0, 'settI_HV2': 0.0}, 'tags': {'user': 'root'}}
{'measurement': 'measName', 'fields': {'measV_HV2': -150.0, 'measI_HV2': -9.240157e-06, 'settV_HV2': -150.0, 'settI_HV2': 0.0}, 'tags': {'user': 'root'}}
{'measurement': 'measName', 'fields': {'measV_HV2': -150.0, 'measI_HV2': -9.250904e-06, 'settV_HV2': -150.0, 'settI_HV2': 0.0}, 'tags': {'user': 'root'}}
{'measurement': 'measName', 'fields': {'measV_HV2': -150.0, 'measI_HV2': -9.23948e-06, 'settV_HV2': -150.0, 'settI_HV2': 0.0}, 'tags': {'user': 'root'}}
{'measurement': 'measName', 'fields': {'measV_HV2': -150.0, 'measI_HV2': -9.23011e-06, 'settV_HV2': -150.0, 'settI_HV2': 0.0}, 'tags': {'user': 'root'}}
{'measurement': 'measName', 'fields': {'measV_HV2': -150.0, 'measI_HV2': -9.244206e-06, 'settV_HV2': -150.0, 'settI_HV2': 0.0}, 'tags': {'user': 'root'}}
{'measurement': 'measName', 'fields': {'measV_HV2': -150.0, 'measI_HV2': -9.23086e-06, 'settV_HV2': -150.0, 'settI_HV2': 0.0}, 'tags': {'user': 'root'}}
{'measurement': 'measName', 'fields': {'measV_HV2': -150.0, 'measI_HV2': -9.216723e-06, 'settV_HV2': -150.0, 'settI_HV2': 0.0}, 'tags': {'user': 'root'}}
{'measurement': 'measName', 'fields': {'measV_HV2': -150.0, 'measI_HV2': -9.239917e-06, 'settV_HV2': -150.0, 'settI_HV2': 0.0}, 'tags': {'user': 'root'}}
{'measurement': 'measName', 'fields': {'measV_HV2': -150.0, 'measI_HV2': -9.220393e-06, 'settV_HV2': -150.0, 'settI_HV2': 0.0}, 'tags': {'user': 'root'}}
{'measurement': 'measName', 'fields': {'measV_HV2': -150.0, 'measI_HV2': -9.241317e-06, 'settV_HV2': -150.0, 'settI_HV2': 0.0}, 'tags': {'user': 'root'}}
{'measurement': 'measName', 'fields': {'measV_HV2': -150.0, 'measI_HV2': -9.308288e-06, 'settV_HV2': -150.0, 'settI_HV2': 0.0}, 'tags': {'user': 'root'}}
{'measurement': 'measName', 'fields': {'measV_HV2': -150.0, 'measI_HV2': -9.290649e-06, 'settV_HV2': -150.0, 'settI_HV2': 0.0}, 'tags': {'user': 'root'}}
{'measurement': 'measName', 'fields': {'measV_HV2': -150.0, 'measI_HV2': -9.311208e-06, 'settV_HV2': -150.0, 'settI_HV2': 0.0}, 'tags': {'user': 'root'}}
{'measurement': 'measName', 'fields': {'measV_HV2': -150.0, 'measI_HV2': -9.277914e-06, 'settV_HV2': -150.0, 'settI_HV2': 0.0}, 'tags': {'user': 'root'}}
{'measurement': 'measName', 'fields': {'measV_HV2': -150.0, 'measI_HV2': -9.258326e-06, 'settV_HV2': -150.0, 'settI_HV2': 0.0}, 'tags': {'user': 'root'}}
{'measurement': 'measName', 'fields': {'measV_HV2': -150.0, 'measI_HV2': -9.275845e-06, 'settV_HV2': -150.0, 'settI_HV2': 0.0}, 'tags': {'user': 'root'}}
{'measurement': 'measName', 'fields': {'measV_HV2': -150.0, 'measI_HV2': -9.249711e-06, 'settV_HV2': -150.0, 'settI_HV2': 0.0}, 'tags': {'user': 'root'}}
{'measurement': 'measName', 'fields': {'measV_HV2': -150.0, 'measI_HV2': -9.248692e-06, 'settV_HV2': -150.0, 'settI_HV2': 0.0}, 'tags': {'user': 'root'}}
{'measurement': 'measName', 'fields': {'measV_HV2': -150.0, 'measI_HV2': -9.245562e-06, 'settV_HV2': -150.0, 'settI_HV2': 0.0}, 'tags': {'user': 'root'}}
{'measurement': 'measName', 'fields': {'measV_HV2': -150.0, 'measI_HV2': -9.250496e-06, 'settV_HV2': -150.0, 'settI_HV2': 0.0}, 'tags': {'user': 'root'}}
{'measurement': 'measName', 'fields': {'measV_HV2': -150.0, 'measI_HV2': -9.262792e-06, 'settV_HV2': -150.0, 'settI_HV2': 0.0}, 'tags': {'user': 'root'}}
{'measurement': 'measName', 'fields': {'measV_HV2': -150.0, 'measI_HV2': -9.253709e-06, 'settV_HV2': -150.0, 'settI_HV2': 0.0}, 'tags': {'user': 'root'}}
{'measurement': 'measName', 'fields': {'measV_HV2': -150.0, 'measI_HV2': -9.238455e-06, 'settV_HV2': -150.0, 'settI_HV2': 0.0}, 'tags': {'user': 'root'}}
{'measurement': 'measName', 'fields': {'measV_HV2': -150.0, 'measI_HV2': -9.268922e-06, 'settV_HV2': -150.0, 'settI_HV2': 0.0}, 'tags': {'user': 'root'}}
{'measurement': 'measName', 'fields': {'measV_HV2': -150.0, 'measI_HV2': -9.278144e-06, 'settV_HV2': -150.0, 'settI_HV2': 0.0}, 'tags': {'user': 'root'}}
{'measurement': 'measName', 'fields': {'measV_HV2': -150.0, 'measI_HV2': -9.256839e-06, 'settV_HV2': -150.0, 'settI_HV2': 0.0}, 'tags': {'user': 'root'}}
{'measurement': 'measName', 'fields': {'measV_HV2': -150.0, 'measI_HV2': -9.250119e-06, 'settV_HV2': -150.0, 'settI_HV2': 0.0}, 'tags': {'user': 'root'}}
{'measurement': 'measName', 'fields': {'measV_HV2': -150.0, 'measI_HV2': -9.254898e-06, 'settV_HV2': -150.0, 'settI_HV2': 0.0}, 'tags': {'user': 'root'}}
{'measurement': 'measName', 'fields': {'measV_HV2': -150.0, 'measI_HV2': -9.265636e-06, 'settV_HV2': -150.0, 'settI_HV2': 0.0}, 'tags': {'user': 'root'}}
{'measurement': 'measName', 'fields': {'measV_HV2': -150.0, 'measI_HV2': -9.228212e-06, 'settV_HV2': -150.0, 'settI_HV2': 0.0}, 'tags': {'user': 'root'}}
{'measurement': 'measName', 'fields': {'measV_HV2': -150.0, 'measI_HV2': -9.230082e-06, 'settV_HV2': -150.0, 'settI_HV2': 0.0}, 'tags': {'user': 'root'}}
{'measurement': 'measName', 'fields': {'measV_HV2': -150.0, 'measI_HV2': -9.220873e-06, 'settV_HV2': -150.0, 'settI_HV2': 0.0}, 'tags': {'user': 'root'}}
{'measurement': 'measName', 'fields': {'measV_HV2': -150.0, 'measI_HV2': -9.237689e-06, 'settV_HV2': -150.0, 'settI_HV2': 0.0}, 'tags': {'user': 'root'}}
{'measurement': 'measName', 'fields': {'measV_HV2': -150.0, 'measI_HV2': -9.223114e-06, 'settV_HV2': -150.0, 'settI_HV2': 0.0}, 'tags': {'user': 'root'}}
{'measurement': 'measName', 'fields': {'measV_HV2': -150.0, 'measI_HV2': -9.253006e-06, 'settV_HV2': -150.0, 'settI_HV2': 0.0}, 'tags': {'user': 'root'}}
{'measurement': 'measName', 'fields': {'measV_HV2': -150.0, 'measI_HV2': -9.2159e-06, 'settV_HV2': -150.0, 'settI_HV2': 0.0}, 'tags': {'user': 'root'}}
{'measurement': 'measName', 'fields': {'measV_HV2': -150.0, 'measI_HV2': -9.222594e-06, 'settV_HV2': -150.0, 'settI_HV2': 0.0}, 'tags': {'user': 'root'}}
{'measurement': 'measName', 'fields': {'measV_HV2': -150.0, 'measI_HV2': -9.25172e-06, 'settV_HV2': -150.0, 'settI_HV2': 0.0}, 'tags': {'user': 'root'}}
{'measurement': 'measName', 'fields': {'measV_HV2': -150.0, 'measI_HV2': -9.264569e-06, 'settV_HV2': -150.0, 'settI_HV2': 0.0}, 'tags': {'user': 'root'}}
{'measurement': 'measName', 'fields': {'measV_HV2': -150.0, 'measI_HV2': -9.249926e-06, 'settV_HV2': -150.0, 'settI_HV2': 0.0}, 'tags': {'user': 'root'}}
{'measurement': 'measName', 'fields': {'measV_HV2': -150.0, 'measI_HV2': -9.217912e-06, 'settV_HV2': -150.0, 'settI_HV2': 0.0}, 'tags': {'user': 'root'}}
{'measurement': 'measName', 'fields': {'measV_HV2': -150.0, 'measI_HV2': -9.263287e-06, 'settV_HV2': -150.0, 'settI_HV2': 0.0}, 'tags': {'user': 'root'}}
{'measurement': 'measName', 'fields': {'measV_HV2': -150.0, 'measI_HV2': -9.286622e-06, 'settV_HV2': -150.0, 'settI_HV2': 0.0}, 'tags': {'user': 'root'}}
{'measurement': 'measName', 'fields': {'measV_HV2': -150.0, 'measI_HV2': -9.268224e-06, 'settV_HV2': -150.0, 'settI_HV2': 0.0}, 'tags': {'user': 'root'}}
{'measurement': 'measName', 'fields': {'measV_HV2': -150.0, 'measI_HV2': -9.281918e-06, 'settV_HV2': -150.0, 'settI_HV2': 0.0}, 'tags': {'user': 'root'}}
{'measurement': 'measName', 'fields': {'measV_HV2': -150.0, 'measI_HV2': -9.259992e-06, 'settV_HV2': -150.0, 'settI_HV2': 0.0}, 'tags': {'user': 'root'}}
{'measurement': 'measName', 'fields': {'measV_HV2': -150.0, 'measI_HV2': -9.257068e-06, 'settV_HV2': -150.0, 'settI_HV2': 0.0}, 'tags': {'user': 'root'}}
{'measurement': 'measName', 'fields': {'measV_HV2': -150.0, 'measI_HV2': -9.278964e-06, 'settV_HV2': -150.0, 'settI_HV2': 0.0}, 'tags': {'user': 'root'}}
{'measurement': 'measName', 'fields': {'measV_HV2': -150.0, 'measI_HV2': -9.249432e-06, 'settV_HV2': -150.0, 'settI_HV2': 0.0}, 'tags': {'user': 'root'}}
{'measurement': 'measName', 'fields': {'measV_HV2': -150.0, 'measI_HV2': -9.236717e-06, 'settV_HV2': -150.0, 'settI_HV2': 0.0}, 'tags': {'user': 'root'}}
{'measurement': 'measName', 'fields': {'measV_HV2': -150.0, 'measI_HV2': -9.226504e-06, 'settV_HV2': -150.0, 'settI_HV2': 0.0}, 'tags': {'user': 'root'}}
{'measurement': 'measName', 'fields': {'measV_HV2': -150.0, 'measI_HV2': -9.228686e-06, 'settV_HV2': -150.0, 'settI_HV2': 0.0}, 'tags': {'user': 'root'}}
{'measurement': 'measName', 'fields': {'measV_HV2': -150.0, 'measI_HV2': -9.227693e-06, 'settV_HV2': -150.0, 'settI_HV2': 0.0}, 'tags': {'user': 'root'}}
{'measurement': 'measName', 'fields': {'measV_HV2': -150.0, 'measI_HV2': -9.204417e-06, 'settV_HV2': -150.0, 'settI_HV2': 0.0}, 'tags': {'user': 'root'}}
{'measurement': 'measName', 'fields': {'measV_HV2': -150.0, 'measI_HV2': -9.218338e-06, 'settV_HV2': -150.0, 'settI_HV2': 0.0}, 'tags': {'user': 'root'}}
{'measurement': 'measName', 'fields': {'measV_HV2': -150.0, 'measI_HV2': -9.205536e-06, 'settV_HV2': -150.0, 'settI_HV2': 0.0}, 'tags': {'user': 'root'}}
{'measurement': 'measName', 'fields': {'measV_HV2': -150.0, 'measI_HV2': -9.222948e-06, 'settV_HV2': -150.0, 'settI_HV2': 0.0}, 'tags': {'user': 'root'}}
{'measurement': 'measName', 'fields': {'measV_HV2': -150.0, 'measI_HV2': -9.236746e-06, 'settV_HV2': -150.0, 'settI_HV2': 0.0}, 'tags': {'user': 'root'}}
{'measurement': 'measName', 'fields': {'measV_HV2': -150.0, 'measI_HV2': -9.216858e-06, 'settV_HV2': -150.0, 'settI_HV2': 0.0}, 'tags': {'user': 'root'}}
{'measurement': 'measName', 'fields': {'measV_HV2': -150.0, 'measI_HV2': -9.227041e-06, 'settV_HV2': -150.0, 'settI_HV2': 0.0}, 'tags': {'user': 'root'}}
{'measurement': 'measName', 'fields': {'measV_HV2': -150.0, 'measI_HV2': -9.211687e-06, 'settV_HV2': -150.0, 'settI_HV2': 0.0}, 'tags': {'user': 'root'}}
{'measurement': 'measName', 'fields': {'measV_HV2': -150.0, 'measI_HV2': -9.232449e-06, 'settV_HV2': -150.0, 'settI_HV2': 0.0}, 'tags': {'user': 'root'}}
{'measurement': 'measName', 'fields': {'measV_HV2': -150.0, 'measI_HV2': -9.239878e-06, 'settV_HV2': -150.0, 'settI_HV2': 0.0}, 'tags': {'user': 'root'}}
{'measurement': 'measName', 'fields': {'measV_HV2': -150.0, 'measI_HV2': -9.247507e-06, 'settV_HV2': -150.0, 'settI_HV2': 0.0}, 'tags': {'user': 'root'}}
{'measurement': 'measName', 'fields': {'measV_HV2': -150.0, 'measI_HV2': -9.237553e-06, 'settV_HV2': -150.0, 'settI_HV2': 0.0}, 'tags': {'user': 'root'}}
{'measurement': 'measName', 'fields': {'measV_HV2': -150.0, 'measI_HV2': -9.231796e-06, 'settV_HV2': -150.0, 'settI_HV2': 0.0}, 'tags': {'user': 'root'}}
{'measurement': 'measName', 'fields': {'measV_HV2': -150.0, 'measI_HV2': -9.240106e-06, 'settV_HV2': -150.0, 'settI_HV2': 0.0}, 'tags': {'user': 'root'}}
{'measurement': 'measName', 'fields': {'measV_HV2': -150.0, 'measI_HV2': -9.24733e-06, 'settV_HV2': -150.0, 'settI_HV2': 0.0}, 'tags': {'user': 'root'}}
{'measurement': 'measName', 'fields': {'measV_HV2': -150.0, 'measI_HV2': -9.21598e-06, 'settV_HV2': -150.0, 'settI_HV2': 0.0}, 'tags': {'user': 'root'}}
{'measurement': 'measName', 'fields': {'measV_HV2': -150.0, 'measI_HV2': -9.242287e-06, 'settV_HV2': -150.0, 'settI_HV2': 0.0}, 'tags': {'user': 'root'}}
{'measurement': 'measName', 'fields': {'measV_HV2': -150.0, 'measI_HV2': -9.244904e-06, 'settV_HV2': -150.0, 'settI_HV2': 0.0}, 'tags': {'user': 'root'}}
{'measurement': 'measName', 'fields': {'measV_HV2': -150.0, 'measI_HV2': -9.236969e-06, 'settV_HV2': -150.0, 'settI_HV2': 0.0}, 'tags': {'user': 'root'}}
{'measurement': 'measName', 'fields': {'measV_HV2': -150.0, 'measI_HV2': -9.203927e-06, 'settV_HV2': -150.0, 'settI_HV2': 0.0}, 'tags': {'user': 'root'}}
{'measurement': 'measName', 'fields': {'measV_HV2': -150.0, 'measI_HV2': -9.209988e-06, 'settV_HV2': -150.0, 'settI_HV2': 0.0}, 'tags': {'user': 'root'}}
{'measurement': 'measName', 'fields': {'measV_HV2': -150.0, 'measI_HV2': -9.213996e-06, 'settV_HV2': -150.0, 'settI_HV2': 0.0}, 'tags': {'user': 'root'}}
{'measurement': 'measName', 'fields': {'measV_HV2': -150.0, 'measI_HV2': -9.205063e-06, 'settV_HV2': -150.0, 'settI_HV2': 0.0}, 'tags': {'user': 'root'}}
{'measurement': 'measName', 'fields': {'measV_HV2': -150.0, 'measI_HV2': -9.203754e-06, 'settV_HV2': -150.0, 'settI_HV2': 0.0}, 'tags': {'user': 'root'}}
{'measurement': 'measName', 'fields': {'measV_HV2': -150.0, 'measI_HV2': -9.193171e-06, 'settV_HV2': -150.0, 'settI_HV2': 0.0}, 'tags': {'user': 'root'}}
{'measurement': 'measName', 'fields': {'measV_HV2': -150.0, 'measI_HV2': -9.18191e-06, 'settV_HV2': -150.0, 'settI_HV2': 0.0}, 'tags': {'user': 'root'}}
{'measurement': 'measName', 'fields': {'measV_HV2': -150.0, 'measI_HV2': -9.209177e-06, 'settV_HV2': -150.0, 'settI_HV2': 0.0}, 'tags': {'user': 'root'}}
{'measurement': 'measName', 'fields': {'measV_HV2': -150.0, 'measI_HV2': -9.193675e-06, 'settV_HV2': -150.0, 'settI_HV2': 0.0}, 'tags': {'user': 'root'}}
{'measurement': 'measName', 'fields': {'measV_HV2': -150.0, 'measI_HV2': -9.17851e-06, 'settV_HV2': -150.0, 'settI_HV2': 0.0}, 'tags': {'user': 'root'}}
{'measurement': 'measName', 'fields': {'measV_HV2': -150.0, 'measI_HV2': -9.200518e-06, 'settV_HV2': -150.0, 'settI_HV2': 0.0}, 'tags': {'user': 'root'}}
{'measurement': 'measName', 'fields': {'measV_HV2': -150.0, 'measI_HV2': -9.208085e-06, 'settV_HV2': -150.0, 'settI_HV2': 0.0}, 'tags': {'user': 'root'}}
{'measurement': 'measName', 'fields': {'measV_HV2': -150.0, 'measI_HV2': -9.228767e-06, 'settV_HV2': -150.0, 'settI_HV2': 0.0}, 'tags': {'user': 'root'}}
{'measurement': 'measName', 'fields': {'measV_HV2': -150.0, 'measI_HV2': -9.195665e-06, 'settV_HV2': -150.0, 'settI_HV2': 0.0}, 'tags': {'user': 'root'}}
{'measurement': 'measName', 'fields': {'measV_HV2': -150.0, 'measI_HV2': -9.209409e-06, 'settV_HV2': -150.0, 'settI_HV2': 0.0}, 'tags': {'user': 'root'}}
{'measurement': 'measName', 'fields': {'measV_HV2': -150.0, 'measI_HV2': -9.226227e-06, 'settV_HV2': -150.0, 'settI_HV2': 0.0}, 'tags': {'user': 'root'}}
{'measurement': 'measName', 'fields': {'measV_HV2': -150.0, 'measI_HV2': -9.257409e-06, 'settV_HV2': -150.0, 'settI_HV2': 0.0}, 'tags': {'user': 'root'}}
{'measurement': 'measName', 'fields': {'measV_HV2': -150.0, 'measI_HV2': -9.250155e-06, 'settV_HV2': -150.0, 'settI_HV2': 0.0}, 'tags': {'user': 'root'}}
{'measurement': 'measName', 'fields': {'measV_HV2': -150.0, 'measI_HV2': -9.224938e-06, 'settV_HV2': -150.0, 'settI_HV2': 0.0}, 'tags': {'user': 'root'}}
{'measurement': 'measName', 'fields': {'measV_HV2': -150.0, 'measI_HV2': -9.212565e-06, 'settV_HV2': -150.0, 'settI_HV2': 0.0}, 'tags': {'user': 'root'}}
{'measurement': 'measName', 'fields': {'measV_HV2': -150.0, 'measI_HV2': -9.207545e-06, 'settV_HV2': -150.0, 'settI_HV2': 0.0}, 'tags': {'user': 'root'}}
{'measurement': 'measName', 'fields': {'measV_HV2': -150.0, 'measI_HV2': -9.191994e-06, 'settV_HV2': -150.0, 'settI_HV2': 0.0}, 'tags': {'user': 'root'}}
{'measurement': 'measName', 'fields': {'measV_HV2': -150.0, 'measI_HV2': -9.204027e-06, 'settV_HV2': -150.0, 'settI_HV2': 0.0}, 'tags': {'user': 'root'}}
{'measurement': 'measName', 'fields': {'measV_HV2': -150.0, 'measI_HV2': -9.217574e-06, 'settV_HV2': -150.0, 'settI_HV2': 0.0}, 'tags': {'user': 'root'}}
{'measurement': 'measName', 'fields': {'measV_HV2': -150.0, 'measI_HV2': -9.2309e-06, 'settV_HV2': -150.0, 'settI_HV2': 0.0}, 'tags': {'user': 'root'}}
{'measurement': 'measName', 'fields': {'measV_HV2': -150.0, 'measI_HV2': -9.209356e-06, 'settV_HV2': -150.0, 'settI_HV2': 0.0}, 'tags': {'user': 'root'}}
{'measurement': 'measName', 'fields': {'measV_HV2': -150.0, 'measI_HV2': -9.206147e-06, 'settV_HV2': -150.0, 'settI_HV2': 0.0}, 'tags': {'user': 'root'}}
{'measurement': 'measName', 'fields': {'measV_HV2': -150.0, 'measI_HV2': -9.224248e-06, 'settV_HV2': -150.0, 'settI_HV2': 0.0}, 'tags': {'user': 'root'}}
{'measurement': 'measName', 'fields': {'measV_HV2': -150.0, 'measI_HV2': -9.23267e-06, 'settV_HV2': -150.0, 'settI_HV2': 0.0}, 'tags': {'user': 'root'}}
{'measurement': 'measName', 'fields': {'measV_HV2': -150.0, 'measI_HV2': -9.217944e-06, 'settV_HV2': -150.0, 'settI_HV2': 0.0}, 'tags': {'user': 'root'}}
{'measurement': 'measName', 'fields': {'measV_HV2': -150.0, 'measI_HV2': -9.224534e-06, 'settV_HV2': -150.0, 'settI_HV2': 0.0}, 'tags': {'user': 'root'}}
{'measurement': 'measName', 'fields': {'measV_HV2': -150.0, 'measI_HV2': -9.201721e-06, 'settV_HV2': -150.0, 'settI_HV2': 0.0}, 'tags': {'user': 'root'}}
{'measurement': 'measName', 'fields': {'measV_HV2': -150.0, 'measI_HV2': -9.196785e-06, 'settV_HV2': -150.0, 'settI_HV2': 0.0}, 'tags': {'user': 'root'}}
{'measurement': 'measName', 'fields': {'measV_HV2': -150.0, 'measI_HV2': -9.223025e-06, 'settV_HV2': -150.0, 'settI_HV2': 0.0}, 'tags': {'user': 'root'}}
{'measurement': 'measName', 'fields': {'measV_HV2': -150.0, 'measI_HV2': -9.229263e-06, 'settV_HV2': -150.0, 'settI_HV2': 0.0}, 'tags': {'user': 'root'}}
{'measurement': 'measName', 'fields': {'measV_HV2': -150.0, 'measI_HV2': -9.193506e-06, 'settV_HV2': -150.0, 'settI_HV2': 0.0}, 'tags': {'user': 'root'}}

