2022-08-20 16:55:59 {'measurement': 'measName', 'fields': {'measV_HV2': -50.0, 'measI_HV2': -9.44561e-08, 'settV_HV2': -50.0, 'settI_HV2': 0.0}, 'tags': {'user': 'root'}}
2022-08-20 16:56:00 {'measurement': 'measName', 'fields': {'measV_HV2': -50.0, 'measI_HV2': -9.458531e-08, 'settV_HV2': -50.0, 'settI_HV2': 0.0}, 'tags': {'user': 'root'}}
2022-08-20 16:56:00 {'measurement': 'measName', 'fields': {'measV_HV2': -50.0, 'measI_HV2': -9.474401e-08, 'settV_HV2': -50.0, 'settI_HV2': 0.0}, 'tags': {'user': 'root'}}
2022-08-20 16:56:01 {'measurement': 'measName', 'fields': {'measV_HV2': -50.0, 'measI_HV2': -9.856699e-08, 'settV_HV2': -50.0, 'settI_HV2': 0.0}, 'tags': {'user': 'root'}}
2022-08-20 16:56:02 {'measurement': 'measName', 'fields': {'measV_HV2': -50.0, 'measI_HV2': -9.878386e-08, 'settV_HV2': -50.0, 'settI_HV2': 0.0}, 'tags': {'user': 'root'}}
2022-08-20 16:56:02 {'measurement': 'measName', 'fields': {'measV_HV2': -50.0, 'measI_HV2': -9.889731e-08, 'settV_HV2': -50.0, 'settI_HV2': 0.0}, 'tags': {'user': 'root'}}
2022-08-20 16:56:03 {'measurement': 'measName', 'fields': {'measV_HV2': -50.0, 'measI_HV2': -9.251428e-08, 'settV_HV2': -50.0, 'settI_HV2': 0.0}, 'tags': {'user': 'root'}}
2022-08-20 16:56:04 {'measurement': 'measName', 'fields': {'measV_HV2': -50.0, 'measI_HV2': -8.548793e-08, 'settV_HV2': -50.0, 'settI_HV2': 0.0}, 'tags': {'user': 'root'}}
2022-08-20 16:56:04 {'measurement': 'measName', 'fields': {'measV_HV2': -50.0, 'measI_HV2': -8.941377e-08, 'settV_HV2': -50.0, 'settI_HV2': 0.0}, 'tags': {'user': 'root'}}
2022-08-20 16:56:06 {'measurement': 'measName', 'fields': {'measV_HV2': -50.0, 'measI_HV2': -9.359942e-08, 'settV_HV2': -50.0, 'settI_HV2': 0.0}, 'tags': {'user': 'root'}}
2022-08-20 16:56:06 {'measurement': 'measName', 'fields': {'measV_HV2': -50.0, 'measI_HV2': -9.697114e-08, 'settV_HV2': -50.0, 'settI_HV2': 0.0}, 'tags': {'user': 'root'}}
2022-08-20 16:56:07 {'measurement': 'measName', 'fields': {'measV_HV2': -50.0, 'measI_HV2': -8.922314e-08, 'settV_HV2': -50.0, 'settI_HV2': 0.0}, 'tags': {'user': 'root'}}
2022-08-20 16:56:08 {'measurement': 'measName', 'fields': {'measV_HV2': -50.0, 'measI_HV2': -8.467124e-08, 'settV_HV2': -50.0, 'settI_HV2': 0.0}, 'tags': {'user': 'root'}}
2022-08-20 16:56:08 {'measurement': 'measName', 'fields': {'measV_HV2': -50.0, 'measI_HV2': -8.21974e-08, 'settV_HV2': -50.0, 'settI_HV2': 0.0}, 'tags': {'user': 'root'}}
2022-08-20 16:56:09 {'measurement': 'measName', 'fields': {'measV_HV2': -50.0, 'measI_HV2': -8.71594e-08, 'settV_HV2': -50.0, 'settI_HV2': 0.0}, 'tags': {'user': 'root'}}
2022-08-20 16:56:10 {'measurement': 'measName', 'fields': {'measV_HV2': -50.0, 'measI_HV2': -9.453627e-08, 'settV_HV2': -50.0, 'settI_HV2': 0.0}, 'tags': {'user': 'root'}}
2022-08-20 16:56:10 {'measurement': 'measName', 'fields': {'measV_HV2': -50.0, 'measI_HV2': -1.00608e-07, 'settV_HV2': -50.0, 'settI_HV2': 0.0}, 'tags': {'user': 'root'}}
2022-08-20 16:56:11 {'measurement': 'measName', 'fields': {'measV_HV2': -50.0, 'measI_HV2': -1.003732e-07, 'settV_HV2': -50.0, 'settI_HV2': 0.0}, 'tags': {'user': 'root'}}
2022-08-20 16:56:12 {'measurement': 'measName', 'fields': {'measV_HV2': -50.0, 'measI_HV2': -9.286886e-08, 'settV_HV2': -50.0, 'settI_HV2': 0.0}, 'tags': {'user': 'root'}}
2022-08-20 16:56:13 {'measurement': 'measName', 'fields': {'measV_HV2': -50.0, 'measI_HV2': -8.754463e-08, 'settV_HV2': -50.0, 'settI_HV2': 0.0}, 'tags': {'user': 'root'}}
2022-08-20 16:56:13 {'measurement': 'measName', 'fields': {'measV_HV2': -50.0, 'measI_HV2': -8.746132e-08, 'settV_HV2': -50.0, 'settI_HV2': 0.0}, 'tags': {'user': 'root'}}
2022-08-20 16:56:14 {'measurement': 'measName', 'fields': {'measV_HV2': -50.0, 'measI_HV2': -8.563713e-08, 'settV_HV2': -50.0, 'settI_HV2': 0.0}, 'tags': {'user': 'root'}}
2022-08-20 16:56:15 {'measurement': 'measName', 'fields': {'measV_HV2': -50.0, 'measI_HV2': -8.817541e-08, 'settV_HV2': -50.0, 'settI_HV2': 0.0}, 'tags': {'user': 'root'}}
2022-08-20 16:56:15 {'measurement': 'measName', 'fields': {'measV_HV2': -50.0, 'measI_HV2': -9.420562e-08, 'settV_HV2': -50.0, 'settI_HV2': 0.0}, 'tags': {'user': 'root'}}
2022-08-20 16:56:16 {'measurement': 'measName', 'fields': {'measV_HV2': -50.0, 'measI_HV2': -9.507227e-08, 'settV_HV2': -50.0, 'settI_HV2': 0.0}, 'tags': {'user': 'root'}}
2022-08-20 16:56:17 {'measurement': 'measName', 'fields': {'measV_HV2': -50.0, 'measI_HV2': -8.870306e-08, 'settV_HV2': -50.0, 'settI_HV2': 0.0}, 'tags': {'user': 'root'}}
2022-08-20 16:56:18 {'measurement': 'measName', 'fields': {'measV_HV2': -50.0, 'measI_HV2': -8.520895e-08, 'settV_HV2': -50.0, 'settI_HV2': 0.0}, 'tags': {'user': 'root'}}
2022-08-20 16:56:19 {'measurement': 'measName', 'fields': {'measV_HV2': -50.0, 'measI_HV2': -8.419449e-08, 'settV_HV2': -50.0, 'settI_HV2': 0.0}, 'tags': {'user': 'root'}}
2022-08-20 16:56:19 {'measurement': 'measName', 'fields': {'measV_HV2': -50.0, 'measI_HV2': -8.469164e-08, 'settV_HV2': -50.0, 'settI_HV2': 0.0}, 'tags': {'user': 'root'}}
2022-08-20 16:56:20 {'measurement': 'measName', 'fields': {'measV_HV2': -50.0, 'measI_HV2': -8.757007e-08, 'settV_HV2': -50.0, 'settI_HV2': 0.0}, 'tags': {'user': 'root'}}
2022-08-20 16:56:21 {'measurement': 'measName', 'fields': {'measV_HV2': -50.0, 'measI_HV2': -9.226203e-08, 'settV_HV2': -50.0, 'settI_HV2': 0.0}, 'tags': {'user': 'root'}}
2022-08-20 16:56:21 {'measurement': 'measName', 'fields': {'measV_HV2': -50.0, 'measI_HV2': -9.771779e-08, 'settV_HV2': -50.0, 'settI_HV2': 0.0}, 'tags': {'user': 'root'}}
2022-08-20 16:56:22 {'measurement': 'measName', 'fields': {'measV_HV2': -50.0, 'measI_HV2': -1.000075e-07, 'settV_HV2': -50.0, 'settI_HV2': 0.0}, 'tags': {'user': 'root'}}
2022-08-20 16:56:23 {'measurement': 'measName', 'fields': {'measV_HV2': -50.0, 'measI_HV2': -9.854354e-08, 'settV_HV2': -50.0, 'settI_HV2': 0.0}, 'tags': {'user': 'root'}}
2022-08-20 16:56:24 {'measurement': 'measName', 'fields': {'measV_HV2': -50.0, 'measI_HV2': -9.670674e-08, 'settV_HV2': -50.0, 'settI_HV2': 0.0}, 'tags': {'user': 'root'}}
2022-08-20 16:56:24 {'measurement': 'measName', 'fields': {'measV_HV2': -50.0, 'measI_HV2': -8.995794e-08, 'settV_HV2': -50.0, 'settI_HV2': 0.0}, 'tags': {'user': 'root'}}
2022-08-20 16:56:25 {'measurement': 'measName', 'fields': {'measV_HV2': -50.0, 'measI_HV2': -8.91935e-08, 'settV_HV2': -50.0, 'settI_HV2': 0.0}, 'tags': {'user': 'root'}}
2022-08-20 16:56:26 {'measurement': 'measName', 'fields': {'measV_HV2': -50.0, 'measI_HV2': -8.747001e-08, 'settV_HV2': -50.0, 'settI_HV2': 0.0}, 'tags': {'user': 'root'}}
2022-08-20 16:56:26 {'measurement': 'measName', 'fields': {'measV_HV2': -50.0, 'measI_HV2': -8.843232e-08, 'settV_HV2': -50.0, 'settI_HV2': 0.0}, 'tags': {'user': 'root'}}
2022-08-20 16:56:27 {'measurement': 'measName', 'fields': {'measV_HV2': -50.0, 'measI_HV2': -8.531965e-08, 'settV_HV2': -50.0, 'settI_HV2': 0.0}, 'tags': {'user': 'root'}}
2022-08-20 16:56:28 {'measurement': 'measName', 'fields': {'measV_HV2': -50.0, 'measI_HV2': -9.395885e-08, 'settV_HV2': -50.0, 'settI_HV2': 0.0}, 'tags': {'user': 'root'}}
2022-08-20 16:56:29 {'measurement': 'measName', 'fields': {'measV_HV2': -50.0, 'measI_HV2': -9.88892e-08, 'settV_HV2': -50.0, 'settI_HV2': 0.0}, 'tags': {'user': 'root'}}
2022-08-20 16:56:30 {'measurement': 'measName', 'fields': {'measV_HV2': -50.0, 'measI_HV2': -9.055287e-08, 'settV_HV2': -50.0, 'settI_HV2': 0.0}, 'tags': {'user': 'root'}}
2022-08-20 16:56:30 {'measurement': 'measName', 'fields': {'measV_HV2': -50.0, 'measI_HV2': -9.87014e-08, 'settV_HV2': -50.0, 'settI_HV2': 0.0}, 'tags': {'user': 'root'}}
2022-08-20 16:56:31 {'measurement': 'measName', 'fields': {'measV_HV2': -50.0, 'measI_HV2': -9.760575e-08, 'settV_HV2': -50.0, 'settI_HV2': 0.0}, 'tags': {'user': 'root'}}
2022-08-20 16:56:32 {'measurement': 'measName', 'fields': {'measV_HV2': -50.0, 'measI_HV2': -1.011376e-07, 'settV_HV2': -50.0, 'settI_HV2': 0.0}, 'tags': {'user': 'root'}}
2022-08-20 16:56:32 {'measurement': 'measName', 'fields': {'measV_HV2': -50.0, 'measI_HV2': -9.852228e-08, 'settV_HV2': -50.0, 'settI_HV2': 0.0}, 'tags': {'user': 'root'}}
2022-08-20 16:56:33 {'measurement': 'measName', 'fields': {'measV_HV2': -50.0, 'measI_HV2': -9.915024e-08, 'settV_HV2': -50.0, 'settI_HV2': 0.0}, 'tags': {'user': 'root'}}
2022-08-20 16:56:34 {'measurement': 'measName', 'fields': {'measV_HV2': -50.0, 'measI_HV2': -1.000787e-07, 'settV_HV2': -50.0, 'settI_HV2': 0.0}, 'tags': {'user': 'root'}}
2022-08-20 16:56:35 {'measurement': 'measName', 'fields': {'measV_HV2': -50.0, 'measI_HV2': -9.954476e-08, 'settV_HV2': -50.0, 'settI_HV2': 0.0}, 'tags': {'user': 'root'}}
2022-08-20 16:56:35 {'measurement': 'measName', 'fields': {'measV_HV2': -50.0, 'measI_HV2': -9.857092e-08, 'settV_HV2': -50.0, 'settI_HV2': 0.0}, 'tags': {'user': 'root'}}
2022-08-20 16:56:36 {'measurement': 'measName', 'fields': {'measV_HV2': -50.0, 'measI_HV2': -9.945381e-08, 'settV_HV2': -50.0, 'settI_HV2': 0.0}, 'tags': {'user': 'root'}}
2022-08-20 16:56:37 {'measurement': 'measName', 'fields': {'measV_HV2': -50.0, 'measI_HV2': -9.694899e-08, 'settV_HV2': -50.0, 'settI_HV2': 0.0}, 'tags': {'user': 'root'}}
2022-08-20 16:56:37 {'measurement': 'measName', 'fields': {'measV_HV2': -50.0, 'measI_HV2': -9.223893e-08, 'settV_HV2': -50.0, 'settI_HV2': 0.0}, 'tags': {'user': 'root'}}
2022-08-20 16:56:38 {'measurement': 'measName', 'fields': {'measV_HV2': -50.0, 'measI_HV2': -9.11894e-08, 'settV_HV2': -50.0, 'settI_HV2': 0.0}, 'tags': {'user': 'root'}}
2022-08-20 16:56:39 {'measurement': 'measName', 'fields': {'measV_HV2': -50.0, 'measI_HV2': -8.932167e-08, 'settV_HV2': -50.0, 'settI_HV2': 0.0}, 'tags': {'user': 'root'}}
2022-08-20 16:56:39 {'measurement': 'measName', 'fields': {'measV_HV2': -50.0, 'measI_HV2': -9.95614e-08, 'settV_HV2': -50.0, 'settI_HV2': 0.0}, 'tags': {'user': 'root'}}
2022-08-20 16:56:40 {'measurement': 'measName', 'fields': {'measV_HV2': -50.0, 'measI_HV2': -8.482701e-08, 'settV_HV2': -50.0, 'settI_HV2': 0.0}, 'tags': {'user': 'root'}}
2022-08-20 16:56:41 {'measurement': 'measName', 'fields': {'measV_HV2': -50.0, 'measI_HV2': -8.387191e-08, 'settV_HV2': -50.0, 'settI_HV2': 0.0}, 'tags': {'user': 'root'}}
2022-08-20 16:56:42 {'measurement': 'measName', 'fields': {'measV_HV2': -50.0, 'measI_HV2': -8.28753e-08, 'settV_HV2': -50.0, 'settI_HV2': 0.0}, 'tags': {'user': 'root'}}
2022-08-20 16:56:43 {'measurement': 'measName', 'fields': {'measV_HV2': -50.0, 'measI_HV2': -8.527785e-08, 'settV_HV2': -50.0, 'settI_HV2': 0.0}, 'tags': {'user': 'root'}}
2022-08-20 16:56:43 {'measurement': 'measName', 'fields': {'measV_HV2': -50.0, 'measI_HV2': -8.414371e-08, 'settV_HV2': -50.0, 'settI_HV2': 0.0}, 'tags': {'user': 'root'}}
2022-08-20 16:56:44 {'measurement': 'measName', 'fields': {'measV_HV2': -50.0, 'measI_HV2': -8.36442e-08, 'settV_HV2': -50.0, 'settI_HV2': 0.0}, 'tags': {'user': 'root'}}
2022-08-20 16:56:45 {'measurement': 'measName', 'fields': {'measV_HV2': -50.0, 'measI_HV2': -8.638962e-08, 'settV_HV2': -50.0, 'settI_HV2': 0.0}, 'tags': {'user': 'root'}}
2022-08-20 16:56:46 {'measurement': 'measName', 'fields': {'measV_HV2': -50.0, 'measI_HV2': -8.522338e-08, 'settV_HV2': -50.0, 'settI_HV2': 0.0}, 'tags': {'user': 'root'}}
2022-08-20 16:56:46 {'measurement': 'measName', 'fields': {'measV_HV2': -50.0, 'measI_HV2': -8.435025e-08, 'settV_HV2': -50.0, 'settI_HV2': 0.0}, 'tags': {'user': 'root'}}
2022-08-20 16:56:47 {'measurement': 'measName', 'fields': {'measV_HV2': -50.0, 'measI_HV2': -8.691717e-08, 'settV_HV2': -50.0, 'settI_HV2': 0.0}, 'tags': {'user': 'root'}}
2022-08-20 16:56:48 {'measurement': 'measName', 'fields': {'measV_HV2': -50.0, 'measI_HV2': -8.54429e-08, 'settV_HV2': -50.0, 'settI_HV2': 0.0}, 'tags': {'user': 'root'}}
2022-08-20 16:56:48 {'measurement': 'measName', 'fields': {'measV_HV2': -50.0, 'measI_HV2': -8.520196e-08, 'settV_HV2': -50.0, 'settI_HV2': 0.0}, 'tags': {'user': 'root'}}
2022-08-20 16:56:49 {'measurement': 'measName', 'fields': {'measV_HV2': -50.0, 'measI_HV2': -8.466657e-08, 'settV_HV2': -50.0, 'settI_HV2': 0.0}, 'tags': {'user': 'root'}}
2022-08-20 16:56:50 {'measurement': 'measName', 'fields': {'measV_HV2': -50.0, 'measI_HV2': -8.619331e-08, 'settV_HV2': -50.0, 'settI_HV2': 0.0}, 'tags': {'user': 'root'}}
2022-08-20 16:56:50 {'measurement': 'measName', 'fields': {'measV_HV2': -50.0, 'measI_HV2': -8.864568e-08, 'settV_HV2': -50.0, 'settI_HV2': 0.0}, 'tags': {'user': 'root'}}
2022-08-20 16:56:51 {'measurement': 'measName', 'fields': {'measV_HV2': -50.0, 'measI_HV2': -9.463001e-08, 'settV_HV2': -50.0, 'settI_HV2': 0.0}, 'tags': {'user': 'root'}}
2022-08-20 16:56:52 {'measurement': 'measName', 'fields': {'measV_HV2': -50.0, 'measI_HV2': -1.000961e-07, 'settV_HV2': -50.0, 'settI_HV2': 0.0}, 'tags': {'user': 'root'}}
2022-08-20 16:56:53 {'measurement': 'measName', 'fields': {'measV_HV2': -50.0, 'measI_HV2': -8.841876e-08, 'settV_HV2': -50.0, 'settI_HV2': 0.0}, 'tags': {'user': 'root'}}
2022-08-20 16:56:54 {'measurement': 'measName', 'fields': {'measV_HV2': -50.0, 'measI_HV2': -9.129304e-08, 'settV_HV2': -50.0, 'settI_HV2': 0.0}, 'tags': {'user': 'root'}}
2022-08-20 16:56:54 {'measurement': 'measName', 'fields': {'measV_HV2': -50.0, 'measI_HV2': -9.397615e-08, 'settV_HV2': -50.0, 'settI_HV2': 0.0}, 'tags': {'user': 'root'}}
2022-08-20 16:56:55 {'measurement': 'measName', 'fields': {'measV_HV2': -50.0, 'measI_HV2': -9.920947e-08, 'settV_HV2': -50.0, 'settI_HV2': 0.0}, 'tags': {'user': 'root'}}
2022-08-20 16:56:56 {'measurement': 'measName', 'fields': {'measV_HV2': -50.0, 'measI_HV2': -1.000592e-07, 'settV_HV2': -50.0, 'settI_HV2': 0.0}, 'tags': {'user': 'root'}}
2022-08-20 16:56:57 {'measurement': 'measName', 'fields': {'measV_HV2': -50.0, 'measI_HV2': -9.923016e-08, 'settV_HV2': -50.0, 'settI_HV2': 0.0}, 'tags': {'user': 'root'}}
2022-08-20 16:56:57 {'measurement': 'measName', 'fields': {'measV_HV2': -50.0, 'measI_HV2': -1.001184e-07, 'settV_HV2': -50.0, 'settI_HV2': 0.0}, 'tags': {'user': 'root'}}
2022-08-20 16:56:58 {'measurement': 'measName', 'fields': {'measV_HV2': -50.0, 'measI_HV2': -9.973379e-08, 'settV_HV2': -50.0, 'settI_HV2': 0.0}, 'tags': {'user': 'root'}}
2022-08-20 16:56:59 {'measurement': 'measName', 'fields': {'measV_HV2': -50.0, 'measI_HV2': -9.385364e-08, 'settV_HV2': -50.0, 'settI_HV2': 0.0}, 'tags': {'user': 'root'}}
2022-08-20 16:56:59 {'measurement': 'measName', 'fields': {'measV_HV2': -50.0, 'measI_HV2': -9.312542e-08, 'settV_HV2': -50.0, 'settI_HV2': 0.0}, 'tags': {'user': 'root'}}
2022-08-20 16:57:00 {'measurement': 'measName', 'fields': {'measV_HV2': -50.0, 'measI_HV2': -8.698636e-08, 'settV_HV2': -50.0, 'settI_HV2': 0.0}, 'tags': {'user': 'root'}}
2022-08-20 16:57:01 {'measurement': 'measName', 'fields': {'measV_HV2': -50.0, 'measI_HV2': -8.839147e-08, 'settV_HV2': -50.0, 'settI_HV2': 0.0}, 'tags': {'user': 'root'}}
2022-08-20 16:57:01 {'measurement': 'measName', 'fields': {'measV_HV2': -50.0, 'measI_HV2': -8.488986e-08, 'settV_HV2': -50.0, 'settI_HV2': 0.0}, 'tags': {'user': 'root'}}
2022-08-20 16:57:02 {'measurement': 'measName', 'fields': {'measV_HV2': -50.0, 'measI_HV2': -8.767262e-08, 'settV_HV2': -50.0, 'settI_HV2': 0.0}, 'tags': {'user': 'root'}}
2022-08-20 16:57:03 {'measurement': 'measName', 'fields': {'measV_HV2': -50.0, 'measI_HV2': -9.9694e-08, 'settV_HV2': -50.0, 'settI_HV2': 0.0}, 'tags': {'user': 'root'}}
2022-08-20 16:57:04 {'measurement': 'measName', 'fields': {'measV_HV2': -50.0, 'measI_HV2': -8.391127e-08, 'settV_HV2': -50.0, 'settI_HV2': 0.0}, 'tags': {'user': 'root'}}
2022-08-20 16:57:05 {'measurement': 'measName', 'fields': {'measV_HV2': -50.0, 'measI_HV2': -9.277231e-08, 'settV_HV2': -50.0, 'settI_HV2': 0.0}, 'tags': {'user': 'root'}}
2022-08-20 16:57:06 {'measurement': 'measName', 'fields': {'measV_HV2': -50.0, 'measI_HV2': -9.774629e-08, 'settV_HV2': -50.0, 'settI_HV2': 0.0}, 'tags': {'user': 'root'}}
2022-08-20 16:57:06 {'measurement': 'measName', 'fields': {'measV_HV2': -50.0, 'measI_HV2': -1.002744e-07, 'settV_HV2': -50.0, 'settI_HV2': 0.0}, 'tags': {'user': 'root'}}
2022-08-20 16:57:07 {'measurement': 'measName', 'fields': {'measV_HV2': -50.0, 'measI_HV2': -9.835981e-08, 'settV_HV2': -50.0, 'settI_HV2': 0.0}, 'tags': {'user': 'root'}}
2022-08-20 16:57:08 {'measurement': 'measName', 'fields': {'measV_HV2': -50.0, 'measI_HV2': -9.049455e-08, 'settV_HV2': -50.0, 'settI_HV2': 0.0}, 'tags': {'user': 'root'}}
2022-08-20 16:57:08 {'measurement': 'measName', 'fields': {'measV_HV2': -50.0, 'measI_HV2': -8.589203e-08, 'settV_HV2': -50.0, 'settI_HV2': 0.0}, 'tags': {'user': 'root'}}
2022-08-20 16:57:09 {'measurement': 'measName', 'fields': {'measV_HV2': -50.0, 'measI_HV2': -8.508197e-08, 'settV_HV2': -50.0, 'settI_HV2': 0.0}, 'tags': {'user': 'root'}}
2022-08-20 16:57:10 {'measurement': 'measName', 'fields': {'measV_HV2': -50.0, 'measI_HV2': -9.290456e-08, 'settV_HV2': -50.0, 'settI_HV2': 0.0}, 'tags': {'user': 'root'}}
2022-08-20 16:57:10 {'measurement': 'measName', 'fields': {'measV_HV2': -50.0, 'measI_HV2': -9.281498e-08, 'settV_HV2': -50.0, 'settI_HV2': 0.0}, 'tags': {'user': 'root'}}
2022-08-20 16:57:11 {'measurement': 'measName', 'fields': {'measV_HV2': -50.0, 'measI_HV2': -9.729894e-08, 'settV_HV2': -50.0, 'settI_HV2': 0.0}, 'tags': {'user': 'root'}}
2022-08-20 16:57:12 {'measurement': 'measName', 'fields': {'measV_HV2': -50.0, 'measI_HV2': -1.007507e-07, 'settV_HV2': -50.0, 'settI_HV2': 0.0}, 'tags': {'user': 'root'}}
2022-08-20 16:57:12 {'measurement': 'measName', 'fields': {'measV_HV2': -50.0, 'measI_HV2': -9.668056e-08, 'settV_HV2': -50.0, 'settI_HV2': 0.0}, 'tags': {'user': 'root'}}
2022-08-20 16:57:13 {'measurement': 'measName', 'fields': {'measV_HV2': -50.0, 'measI_HV2': -8.65821e-08, 'settV_HV2': -50.0, 'settI_HV2': 0.0}, 'tags': {'user': 'root'}}
2022-08-20 16:57:14 {'measurement': 'measName', 'fields': {'measV_HV2': -50.0, 'measI_HV2': -8.770618e-08, 'settV_HV2': -50.0, 'settI_HV2': 0.0}, 'tags': {'user': 'root'}}
2022-08-20 16:57:15 {'measurement': 'measName', 'fields': {'measV_HV2': -50.0, 'measI_HV2': -1.014489e-07, 'settV_HV2': -50.0, 'settI_HV2': 0.0}, 'tags': {'user': 'root'}}
2022-08-20 16:57:16 {'measurement': 'measName', 'fields': {'measV_HV2': -50.0, 'measI_HV2': -1.017958e-07, 'settV_HV2': -50.0, 'settI_HV2': 0.0}, 'tags': {'user': 'root'}}
2022-08-20 16:57:17 {'measurement': 'measName', 'fields': {'measV_HV2': -50.0, 'measI_HV2': -8.820383e-08, 'settV_HV2': -50.0, 'settI_HV2': 0.0}, 'tags': {'user': 'root'}}
2022-08-20 16:57:17 {'measurement': 'measName', 'fields': {'measV_HV2': -50.0, 'measI_HV2': -8.573604e-08, 'settV_HV2': -50.0, 'settI_HV2': 0.0}, 'tags': {'user': 'root'}}
2022-08-20 16:57:18 {'measurement': 'measName', 'fields': {'measV_HV2': -50.0, 'measI_HV2': -8.853407e-08, 'settV_HV2': -50.0, 'settI_HV2': 0.0}, 'tags': {'user': 'root'}}
2022-08-20 16:57:19 {'measurement': 'measName', 'fields': {'measV_HV2': -50.0, 'measI_HV2': -9.945266e-08, 'settV_HV2': -50.0, 'settI_HV2': 0.0}, 'tags': {'user': 'root'}}
2022-08-20 16:57:19 {'measurement': 'measName', 'fields': {'measV_HV2': -50.0, 'measI_HV2': -9.932413e-08, 'settV_HV2': -50.0, 'settI_HV2': 0.0}, 'tags': {'user': 'root'}}
2022-08-20 16:57:20 {'measurement': 'measName', 'fields': {'measV_HV2': -50.0, 'measI_HV2': -8.69931e-08, 'settV_HV2': -50.0, 'settI_HV2': 0.0}, 'tags': {'user': 'root'}}
2022-08-20 16:57:21 {'measurement': 'measName', 'fields': {'measV_HV2': -50.0, 'measI_HV2': -8.79953e-08, 'settV_HV2': -50.0, 'settI_HV2': 0.0}, 'tags': {'user': 'root'}}
2022-08-20 16:57:21 {'measurement': 'measName', 'fields': {'measV_HV2': -50.0, 'measI_HV2': -8.997354e-08, 'settV_HV2': -50.0, 'settI_HV2': 0.0}, 'tags': {'user': 'root'}}
2022-08-20 16:57:22 {'measurement': 'measName', 'fields': {'measV_HV2': -50.0, 'measI_HV2': -9.982303e-08, 'settV_HV2': -50.0, 'settI_HV2': 0.0}, 'tags': {'user': 'root'}}
2022-08-20 16:57:23 {'measurement': 'measName', 'fields': {'measV_HV2': -50.0, 'measI_HV2': -1.005855e-07, 'settV_HV2': -50.0, 'settI_HV2': 0.0}, 'tags': {'user': 'root'}}
2022-08-20 16:57:23 {'measurement': 'measName', 'fields': {'measV_HV2': -50.0, 'measI_HV2': -8.792533e-08, 'settV_HV2': -50.0, 'settI_HV2': 0.0}, 'tags': {'user': 'root'}}
2022-08-20 16:57:24 {'measurement': 'measName', 'fields': {'measV_HV2': -50.0, 'measI_HV2': -8.43368e-08, 'settV_HV2': -50.0, 'settI_HV2': 0.0}, 'tags': {'user': 'root'}}
2022-08-20 16:57:25 {'measurement': 'measName', 'fields': {'measV_HV2': -50.0, 'measI_HV2': -8.976488e-08, 'settV_HV2': -50.0, 'settI_HV2': 0.0}, 'tags': {'user': 'root'}}
2022-08-20 16:57:25 {'measurement': 'measName', 'fields': {'measV_HV2': -50.0, 'measI_HV2': -9.48739e-08, 'settV_HV2': -50.0, 'settI_HV2': 0.0}, 'tags': {'user': 'root'}}
2022-08-20 16:57:26 {'measurement': 'measName', 'fields': {'measV_HV2': -50.0, 'measI_HV2': -9.843286e-08, 'settV_HV2': -50.0, 'settI_HV2': 0.0}, 'tags': {'user': 'root'}}
2022-08-20 16:57:28 {'measurement': 'measName', 'fields': {'measV_HV2': -50.0, 'measI_HV2': -8.568658e-08, 'settV_HV2': -50.0, 'settI_HV2': 0.0}, 'tags': {'user': 'root'}}
2022-08-20 16:57:28 {'measurement': 'measName', 'fields': {'measV_HV2': -50.0, 'measI_HV2': -9.598187e-08, 'settV_HV2': -50.0, 'settI_HV2': 0.0}, 'tags': {'user': 'root'}}
2022-08-20 16:57:29 {'measurement': 'measName', 'fields': {'measV_HV2': -50.0, 'measI_HV2': -9.960669e-08, 'settV_HV2': -50.0, 'settI_HV2': 0.0}, 'tags': {'user': 'root'}}
2022-08-20 16:57:30 {'measurement': 'measName', 'fields': {'measV_HV2': -50.0, 'measI_HV2': -9.806296e-08, 'settV_HV2': -50.0, 'settI_HV2': 0.0}, 'tags': {'user': 'root'}}
2022-08-20 16:57:30 {'measurement': 'measName', 'fields': {'measV_HV2': -50.0, 'measI_HV2': -9.202627e-08, 'settV_HV2': -50.0, 'settI_HV2': 0.0}, 'tags': {'user': 'root'}}
2022-08-20 16:57:31 {'measurement': 'measName', 'fields': {'measV_HV2': -50.0, 'measI_HV2': -8.71688e-08, 'settV_HV2': -50.0, 'settI_HV2': 0.0}, 'tags': {'user': 'root'}}
2022-08-20 16:57:32 {'measurement': 'measName', 'fields': {'measV_HV2': -50.0, 'measI_HV2': -8.516673e-08, 'settV_HV2': -50.0, 'settI_HV2': 0.0}, 'tags': {'user': 'root'}}
2022-08-20 16:57:32 {'measurement': 'measName', 'fields': {'measV_HV2': -50.0, 'measI_HV2': -8.483811e-08, 'settV_HV2': -50.0, 'settI_HV2': 0.0}, 'tags': {'user': 'root'}}
2022-08-20 16:57:33 {'measurement': 'measName', 'fields': {'measV_HV2': -50.0, 'measI_HV2': -9.058469e-08, 'settV_HV2': -50.0, 'settI_HV2': 0.0}, 'tags': {'user': 'root'}}
2022-08-20 16:57:34 {'measurement': 'measName', 'fields': {'measV_HV2': -50.0, 'measI_HV2': -9.588275e-08, 'settV_HV2': -50.0, 'settI_HV2': 0.0}, 'tags': {'user': 'root'}}
2022-08-20 16:57:34 {'measurement': 'measName', 'fields': {'measV_HV2': -50.0, 'measI_HV2': -9.393211e-08, 'settV_HV2': -50.0, 'settI_HV2': 0.0}, 'tags': {'user': 'root'}}
2022-08-20 16:57:35 {'measurement': 'measName', 'fields': {'measV_HV2': -50.0, 'measI_HV2': -1.011268e-07, 'settV_HV2': -50.0, 'settI_HV2': 0.0}, 'tags': {'user': 'root'}}
2022-08-20 16:57:36 {'measurement': 'measName', 'fields': {'measV_HV2': -50.0, 'measI_HV2': -9.8916e-08, 'settV_HV2': -50.0, 'settI_HV2': 0.0}, 'tags': {'user': 'root'}}
2022-08-20 16:57:37 {'measurement': 'measName', 'fields': {'measV_HV2': -50.0, 'measI_HV2': -9.573561e-08, 'settV_HV2': -50.0, 'settI_HV2': 0.0}, 'tags': {'user': 'root'}}
2022-08-20 16:57:37 {'measurement': 'measName', 'fields': {'measV_HV2': -50.0, 'measI_HV2': -8.636434e-08, 'settV_HV2': -50.0, 'settI_HV2': 0.0}, 'tags': {'user': 'root'}}
2022-08-20 16:57:38 {'measurement': 'measName', 'fields': {'measV_HV2': -50.0, 'measI_HV2': -9.753217e-08, 'settV_HV2': -50.0, 'settI_HV2': 0.0}, 'tags': {'user': 'root'}}
2022-08-20 16:57:39 {'measurement': 'measName', 'fields': {'measV_HV2': -50.0, 'measI_HV2': -8.674983e-08, 'settV_HV2': -50.0, 'settI_HV2': 0.0}, 'tags': {'user': 'root'}}
2022-08-20 16:57:40 {'measurement': 'measName', 'fields': {'measV_HV2': -50.0, 'measI_HV2': -8.531997e-08, 'settV_HV2': -50.0, 'settI_HV2': 0.0}, 'tags': {'user': 'root'}}
2022-08-20 16:57:41 {'measurement': 'measName', 'fields': {'measV_HV2': -50.0, 'measI_HV2': -8.789519e-08, 'settV_HV2': -50.0, 'settI_HV2': 0.0}, 'tags': {'user': 'root'}}
2022-08-20 16:57:41 {'measurement': 'measName', 'fields': {'measV_HV2': -50.0, 'measI_HV2': -9.300611e-08, 'settV_HV2': -50.0, 'settI_HV2': 0.0}, 'tags': {'user': 'root'}}
2022-08-20 16:57:42 {'measurement': 'measName', 'fields': {'measV_HV2': -50.0, 'measI_HV2': -9.955977e-08, 'settV_HV2': -50.0, 'settI_HV2': 0.0}, 'tags': {'user': 'root'}}
2022-08-20 16:57:43 {'measurement': 'measName', 'fields': {'measV_HV2': -50.0, 'measI_HV2': -1.007802e-07, 'settV_HV2': -50.0, 'settI_HV2': 0.0}, 'tags': {'user': 'root'}}
2022-08-20 16:57:43 {'measurement': 'measName', 'fields': {'measV_HV2': -50.0, 'measI_HV2': -9.103722e-08, 'settV_HV2': -50.0, 'settI_HV2': 0.0}, 'tags': {'user': 'root'}}
2022-08-20 16:57:44 {'measurement': 'measName', 'fields': {'measV_HV2': -50.0, 'measI_HV2': -8.444428e-08, 'settV_HV2': -50.0, 'settI_HV2': 0.0}, 'tags': {'user': 'root'}}
2022-08-20 16:57:45 {'measurement': 'measName', 'fields': {'measV_HV2': -50.0, 'measI_HV2': -8.616176e-08, 'settV_HV2': -50.0, 'settI_HV2': 0.0}, 'tags': {'user': 'root'}}
2022-08-20 16:57:45 {'measurement': 'measName', 'fields': {'measV_HV2': -50.0, 'measI_HV2': -9.112271e-08, 'settV_HV2': -50.0, 'settI_HV2': 0.0}, 'tags': {'user': 'root'}}
2022-08-20 16:57:46 {'measurement': 'measName', 'fields': {'measV_HV2': -50.0, 'measI_HV2': -9.80308e-08, 'settV_HV2': -50.0, 'settI_HV2': 0.0}, 'tags': {'user': 'root'}}
2022-08-20 16:57:47 {'measurement': 'measName', 'fields': {'measV_HV2': -50.0, 'measI_HV2': -9.960031e-08, 'settV_HV2': -50.0, 'settI_HV2': 0.0}, 'tags': {'user': 'root'}}
2022-08-20 16:57:48 {'measurement': 'measName', 'fields': {'measV_HV2': -50.0, 'measI_HV2': -9.725283e-08, 'settV_HV2': -50.0, 'settI_HV2': 0.0}, 'tags': {'user': 'root'}}
2022-08-20 16:57:48 {'measurement': 'measName', 'fields': {'measV_HV2': -50.0, 'measI_HV2': -8.931191e-08, 'settV_HV2': -50.0, 'settI_HV2': 0.0}, 'tags': {'user': 'root'}}
2022-08-20 16:57:49 {'measurement': 'measName', 'fields': {'measV_HV2': -50.0, 'measI_HV2': -8.541579e-08, 'settV_HV2': -50.0, 'settI_HV2': 0.0}, 'tags': {'user': 'root'}}
2022-08-20 16:57:50 {'measurement': 'measName', 'fields': {'measV_HV2': -50.0, 'measI_HV2': -9.265182e-08, 'settV_HV2': -50.0, 'settI_HV2': 0.0}, 'tags': {'user': 'root'}}
2022-08-20 16:57:51 {'measurement': 'measName', 'fields': {'measV_HV2': -50.0, 'measI_HV2': -9.44664e-08, 'settV_HV2': -50.0, 'settI_HV2': 0.0}, 'tags': {'user': 'root'}}
2022-08-20 16:57:52 {'measurement': 'measName', 'fields': {'measV_HV2': -50.0, 'measI_HV2': -8.564442e-08, 'settV_HV2': -50.0, 'settI_HV2': 0.0}, 'tags': {'user': 'root'}}
2022-08-20 16:57:52 {'measurement': 'measName', 'fields': {'measV_HV2': -50.0, 'measI_HV2': -9.419499e-08, 'settV_HV2': -50.0, 'settI_HV2': 0.0}, 'tags': {'user': 'root'}}
2022-08-20 16:57:53 {'measurement': 'measName', 'fields': {'measV_HV2': -50.0, 'measI_HV2': -8.813809e-08, 'settV_HV2': -50.0, 'settI_HV2': 0.0}, 'tags': {'user': 'root'}}
2022-08-20 16:57:54 {'measurement': 'measName', 'fields': {'measV_HV2': -50.0, 'measI_HV2': -8.611737e-08, 'settV_HV2': -50.0, 'settI_HV2': 0.0}, 'tags': {'user': 'root'}}
2022-08-20 16:57:54 {'measurement': 'measName', 'fields': {'measV_HV2': -50.0, 'measI_HV2': -9.087552e-08, 'settV_HV2': -50.0, 'settI_HV2': 0.0}, 'tags': {'user': 'root'}}
2022-08-20 16:57:55 {'measurement': 'measName', 'fields': {'measV_HV2': -50.0, 'measI_HV2': -9.989152e-08, 'settV_HV2': -50.0, 'settI_HV2': 0.0}, 'tags': {'user': 'root'}}
2022-08-20 16:57:56 {'measurement': 'measName', 'fields': {'measV_HV2': -50.0, 'measI_HV2': -9.722435e-08, 'settV_HV2': -50.0, 'settI_HV2': 0.0}, 'tags': {'user': 'root'}}
2022-08-20 16:57:56 {'measurement': 'measName', 'fields': {'measV_HV2': -50.0, 'measI_HV2': -9.454309e-08, 'settV_HV2': -50.0, 'settI_HV2': 0.0}, 'tags': {'user': 'root'}}
2022-08-20 16:57:57 {'measurement': 'measName', 'fields': {'measV_HV2': -50.0, 'measI_HV2': -9.310794e-08, 'settV_HV2': -50.0, 'settI_HV2': 0.0}, 'tags': {'user': 'root'}}
2022-08-20 16:57:58 {'measurement': 'measName', 'fields': {'measV_HV2': -50.0, 'measI_HV2': -8.871342e-08, 'settV_HV2': -50.0, 'settI_HV2': 0.0}, 'tags': {'user': 'root'}}
2022-08-20 16:57:58 {'measurement': 'measName', 'fields': {'measV_HV2': -50.0, 'measI_HV2': -8.43221e-08, 'settV_HV2': -50.0, 'settI_HV2': 0.0}, 'tags': {'user': 'root'}}
2022-08-20 16:57:59 {'measurement': 'measName', 'fields': {'measV_HV2': -50.0, 'measI_HV2': -8.65265e-08, 'settV_HV2': -50.0, 'settI_HV2': 0.0}, 'tags': {'user': 'root'}}
2022-08-20 16:58:00 {'measurement': 'measName', 'fields': {'measV_HV2': -50.0, 'measI_HV2': -8.76961e-08, 'settV_HV2': -50.0, 'settI_HV2': 0.0}, 'tags': {'user': 'root'}}
2022-08-20 16:58:01 {'measurement': 'measName', 'fields': {'measV_HV2': -50.0, 'measI_HV2': -8.978583e-08, 'settV_HV2': -50.0, 'settI_HV2': 0.0}, 'tags': {'user': 'root'}}
2022-08-20 16:58:01 {'measurement': 'measName', 'fields': {'measV_HV2': -50.0, 'measI_HV2': -9.482015e-08, 'settV_HV2': -50.0, 'settI_HV2': 0.0}, 'tags': {'user': 'root'}}
2022-08-20 16:58:02 {'measurement': 'measName', 'fields': {'measV_HV2': -50.0, 'measI_HV2': -8.94695e-08, 'settV_HV2': -50.0, 'settI_HV2': 0.0}, 'tags': {'user': 'root'}}
2022-08-20 16:58:03 {'measurement': 'measName', 'fields': {'measV_HV2': -50.0, 'measI_HV2': -8.560627e-08, 'settV_HV2': -50.0, 'settI_HV2': 0.0}, 'tags': {'user': 'root'}}
2022-08-20 16:58:04 {'measurement': 'measName', 'fields': {'measV_HV2': -50.0, 'measI_HV2': -8.62163e-08, 'settV_HV2': -50.0, 'settI_HV2': 0.0}, 'tags': {'user': 'root'}}
2022-08-20 16:58:05 {'measurement': 'measName', 'fields': {'measV_HV2': -50.0, 'measI_HV2': -9.709674e-08, 'settV_HV2': -50.0, 'settI_HV2': 0.0}, 'tags': {'user': 'root'}}
2022-08-20 16:58:05 {'measurement': 'measName', 'fields': {'measV_HV2': -50.0, 'measI_HV2': -1.010607e-07, 'settV_HV2': -50.0, 'settI_HV2': 0.0}, 'tags': {'user': 'root'}}
2022-08-20 16:58:06 {'measurement': 'measName', 'fields': {'measV_HV2': -50.0, 'measI_HV2': -9.764738e-08, 'settV_HV2': -50.0, 'settI_HV2': 0.0}, 'tags': {'user': 'root'}}
2022-08-20 16:58:07 {'measurement': 'measName', 'fields': {'measV_HV2': -50.0, 'measI_HV2': -9.159083e-08, 'settV_HV2': -50.0, 'settI_HV2': 0.0}, 'tags': {'user': 'root'}}
2022-08-20 16:58:07 {'measurement': 'measName', 'fields': {'measV_HV2': -50.0, 'measI_HV2': -8.69264e-08, 'settV_HV2': -50.0, 'settI_HV2': 0.0}, 'tags': {'user': 'root'}}
2022-08-20 16:58:08 {'measurement': 'measName', 'fields': {'measV_HV2': -50.0, 'measI_HV2': -8.707433e-08, 'settV_HV2': -50.0, 'settI_HV2': 0.0}, 'tags': {'user': 'root'}}
2022-08-20 16:58:09 {'measurement': 'measName', 'fields': {'measV_HV2': -50.0, 'measI_HV2': -9.1784e-08, 'settV_HV2': -50.0, 'settI_HV2': 0.0}, 'tags': {'user': 'root'}}
2022-08-20 16:58:09 {'measurement': 'measName', 'fields': {'measV_HV2': -50.0, 'measI_HV2': -9.817526e-08, 'settV_HV2': -50.0, 'settI_HV2': 0.0}, 'tags': {'user': 'root'}}
2022-08-20 16:58:10 {'measurement': 'measName', 'fields': {'measV_HV2': -50.0, 'measI_HV2': -1.005039e-07, 'settV_HV2': -50.0, 'settI_HV2': 0.0}, 'tags': {'user': 'root'}}
2022-08-20 16:58:11 {'measurement': 'measName', 'fields': {'measV_HV2': -50.0, 'measI_HV2': -1.002065e-07, 'settV_HV2': -50.0, 'settI_HV2': 0.0}, 'tags': {'user': 'root'}}
2022-08-20 16:58:12 {'measurement': 'measName', 'fields': {'measV_HV2': -50.0, 'measI_HV2': -9.626263e-08, 'settV_HV2': -50.0, 'settI_HV2': 0.0}, 'tags': {'user': 'root'}}
2022-08-20 16:58:12 {'measurement': 'measName', 'fields': {'measV_HV2': -50.0, 'measI_HV2': -8.666223e-08, 'settV_HV2': -50.0, 'settI_HV2': 0.0}, 'tags': {'user': 'root'}}
2022-08-20 16:58:13 {'measurement': 'measName', 'fields': {'measV_HV2': -50.0, 'measI_HV2': -8.436675e-08, 'settV_HV2': -50.0, 'settI_HV2': 0.0}, 'tags': {'user': 'root'}}
2022-08-20 16:58:14 {'measurement': 'measName', 'fields': {'measV_HV2': -50.0, 'measI_HV2': -8.763534e-08, 'settV_HV2': -50.0, 'settI_HV2': 0.0}, 'tags': {'user': 'root'}}
2022-08-20 16:58:15 {'measurement': 'measName', 'fields': {'measV_HV2': -50.0, 'measI_HV2': -1.010241e-07, 'settV_HV2': -50.0, 'settI_HV2': 0.0}, 'tags': {'user': 'root'}}
2022-08-20 16:58:16 {'measurement': 'measName', 'fields': {'measV_HV2': -50.0, 'measI_HV2': -9.804068e-08, 'settV_HV2': -50.0, 'settI_HV2': 0.0}, 'tags': {'user': 'root'}}
2022-08-20 16:58:16 {'measurement': 'measName', 'fields': {'measV_HV2': -50.0, 'measI_HV2': -9.491881e-08, 'settV_HV2': -50.0, 'settI_HV2': 0.0}, 'tags': {'user': 'root'}}
2022-08-20 16:58:17 {'measurement': 'measName', 'fields': {'measV_HV2': -50.0, 'measI_HV2': -8.486209e-08, 'settV_HV2': -50.0, 'settI_HV2': 0.0}, 'tags': {'user': 'root'}}
2022-08-20 16:58:18 {'measurement': 'measName', 'fields': {'measV_HV2': -50.0, 'measI_HV2': -8.921117e-08, 'settV_HV2': -50.0, 'settI_HV2': 0.0}, 'tags': {'user': 'root'}}
2022-08-20 16:58:18 {'measurement': 'measName', 'fields': {'measV_HV2': -50.0, 'measI_HV2': -9.705155e-08, 'settV_HV2': -50.0, 'settI_HV2': 0.0}, 'tags': {'user': 'root'}}
2022-08-20 16:58:19 {'measurement': 'measName', 'fields': {'measV_HV2': -50.0, 'measI_HV2': -9.987988e-08, 'settV_HV2': -50.0, 'settI_HV2': 0.0}, 'tags': {'user': 'root'}}
2022-08-20 16:58:20 {'measurement': 'measName', 'fields': {'measV_HV2': -50.0, 'measI_HV2': -1.015747e-07, 'settV_HV2': -50.0, 'settI_HV2': 0.0}, 'tags': {'user': 'root'}}
2022-08-20 16:58:20 {'measurement': 'measName', 'fields': {'measV_HV2': -50.0, 'measI_HV2': -9.388727e-08, 'settV_HV2': -50.0, 'settI_HV2': 0.0}, 'tags': {'user': 'root'}}
2022-08-20 16:58:21 {'measurement': 'measName', 'fields': {'measV_HV2': -50.0, 'measI_HV2': -8.53647e-08, 'settV_HV2': -50.0, 'settI_HV2': 0.0}, 'tags': {'user': 'root'}}
2022-08-20 16:58:22 {'measurement': 'measName', 'fields': {'measV_HV2': -50.0, 'measI_HV2': -9.013701e-08, 'settV_HV2': -50.0, 'settI_HV2': 0.0}, 'tags': {'user': 'root'}}
2022-08-20 16:58:22 {'measurement': 'measName', 'fields': {'measV_HV2': -50.0, 'measI_HV2': -9.884157e-08, 'settV_HV2': -50.0, 'settI_HV2': 0.0}, 'tags': {'user': 'root'}}
2022-08-20 16:58:23 {'measurement': 'measName', 'fields': {'measV_HV2': -50.0, 'measI_HV2': -9.754589e-08, 'settV_HV2': -50.0, 'settI_HV2': 0.0}, 'tags': {'user': 'root'}}
2022-08-20 16:58:24 {'measurement': 'measName', 'fields': {'measV_HV2': -50.0, 'measI_HV2': -8.602676e-08, 'settV_HV2': -50.0, 'settI_HV2': 0.0}, 'tags': {'user': 'root'}}
2022-08-20 16:58:25 {'measurement': 'measName', 'fields': {'measV_HV2': -50.0, 'measI_HV2': -9.042257e-08, 'settV_HV2': -50.0, 'settI_HV2': 0.0}, 'tags': {'user': 'root'}}
2022-08-20 16:58:25 {'measurement': 'measName', 'fields': {'measV_HV2': -50.0, 'measI_HV2': -9.957642e-08, 'settV_HV2': -50.0, 'settI_HV2': 0.0}, 'tags': {'user': 'root'}}
2022-08-20 16:58:26 {'measurement': 'measName', 'fields': {'measV_HV2': -50.0, 'measI_HV2': -9.166343e-08, 'settV_HV2': -50.0, 'settI_HV2': 0.0}, 'tags': {'user': 'root'}}
2022-08-20 16:58:27 {'measurement': 'measName', 'fields': {'measV_HV2': -50.0, 'measI_HV2': -8.822614e-08, 'settV_HV2': -50.0, 'settI_HV2': 0.0}, 'tags': {'user': 'root'}}
2022-08-20 16:58:28 {'measurement': 'measName', 'fields': {'measV_HV2': -50.0, 'measI_HV2': -9.142389e-08, 'settV_HV2': -50.0, 'settI_HV2': 0.0}, 'tags': {'user': 'root'}}
2022-08-20 16:58:29 {'measurement': 'measName', 'fields': {'measV_HV2': -50.0, 'measI_HV2': -8.496319e-08, 'settV_HV2': -50.0, 'settI_HV2': 0.0}, 'tags': {'user': 'root'}}
2022-08-20 16:58:29 {'measurement': 'measName', 'fields': {'measV_HV2': -50.0, 'measI_HV2': -8.699008e-08, 'settV_HV2': -50.0, 'settI_HV2': 0.0}, 'tags': {'user': 'root'}}
2022-08-20 16:58:30 {'measurement': 'measName', 'fields': {'measV_HV2': -50.0, 'measI_HV2': -9.394249e-08, 'settV_HV2': -50.0, 'settI_HV2': 0.0}, 'tags': {'user': 'root'}}
2022-08-20 16:58:31 {'measurement': 'measName', 'fields': {'measV_HV2': -50.0, 'measI_HV2': -9.877211e-08, 'settV_HV2': -50.0, 'settI_HV2': 0.0}, 'tags': {'user': 'root'}}
2022-08-20 16:58:31 {'measurement': 'measName', 'fields': {'measV_HV2': -50.0, 'measI_HV2': -1.010555e-07, 'settV_HV2': -50.0, 'settI_HV2': 0.0}, 'tags': {'user': 'root'}}
2022-08-20 16:58:32 {'measurement': 'measName', 'fields': {'measV_HV2': -50.0, 'measI_HV2': -9.381171e-08, 'settV_HV2': -50.0, 'settI_HV2': 0.0}, 'tags': {'user': 'root'}}
2022-08-20 16:58:33 {'measurement': 'measName', 'fields': {'measV_HV2': -50.0, 'measI_HV2': -8.694385e-08, 'settV_HV2': -50.0, 'settI_HV2': 0.0}, 'tags': {'user': 'root'}}
2022-08-20 16:58:33 {'measurement': 'measName', 'fields': {'measV_HV2': -50.0, 'measI_HV2': -8.599299e-08, 'settV_HV2': -50.0, 'settI_HV2': 0.0}, 'tags': {'user': 'root'}}
2022-08-20 16:58:34 {'measurement': 'measName', 'fields': {'measV_HV2': -50.0, 'measI_HV2': -8.847899e-08, 'settV_HV2': -50.0, 'settI_HV2': 0.0}, 'tags': {'user': 'root'}}
2022-08-20 16:58:35 {'measurement': 'measName', 'fields': {'measV_HV2': -50.0, 'measI_HV2': -9.617249e-08, 'settV_HV2': -50.0, 'settI_HV2': 0.0}, 'tags': {'user': 'root'}}
2022-08-20 16:58:35 {'measurement': 'measName', 'fields': {'measV_HV2': -50.0, 'measI_HV2': -1.001243e-07, 'settV_HV2': -50.0, 'settI_HV2': 0.0}, 'tags': {'user': 'root'}}
2022-08-20 16:58:36 {'measurement': 'measName', 'fields': {'measV_HV2': -50.0, 'measI_HV2': -9.33504e-08, 'settV_HV2': -50.0, 'settI_HV2': 0.0}, 'tags': {'user': 'root'}}
2022-08-20 16:58:37 {'measurement': 'measName', 'fields': {'measV_HV2': -50.0, 'measI_HV2': -8.792755e-08, 'settV_HV2': -50.0, 'settI_HV2': 0.0}, 'tags': {'user': 'root'}}
2022-08-20 16:58:38 {'measurement': 'measName', 'fields': {'measV_HV2': -50.0, 'measI_HV2': -9.839797e-08, 'settV_HV2': -50.0, 'settI_HV2': 0.0}, 'tags': {'user': 'root'}}
2022-08-20 16:58:39 {'measurement': 'measName', 'fields': {'measV_HV2': -50.0, 'measI_HV2': -9.343078e-08, 'settV_HV2': -50.0, 'settI_HV2': 0.0}, 'tags': {'user': 'root'}}
2022-08-20 16:58:40 {'measurement': 'measName', 'fields': {'measV_HV2': -50.0, 'measI_HV2': -8.728168e-08, 'settV_HV2': -50.0, 'settI_HV2': 0.0}, 'tags': {'user': 'root'}}
2022-08-20 16:58:40 {'measurement': 'measName', 'fields': {'measV_HV2': -50.0, 'measI_HV2': -8.515524e-08, 'settV_HV2': -50.0, 'settI_HV2': 0.0}, 'tags': {'user': 'root'}}
2022-08-20 16:58:41 {'measurement': 'measName', 'fields': {'measV_HV2': -50.0, 'measI_HV2': -8.959972e-08, 'settV_HV2': -50.0, 'settI_HV2': 0.0}, 'tags': {'user': 'root'}}
2022-08-20 16:58:42 {'measurement': 'measName', 'fields': {'measV_HV2': -50.0, 'measI_HV2': -9.661171e-08, 'settV_HV2': -50.0, 'settI_HV2': 0.0}, 'tags': {'user': 'root'}}
2022-08-20 16:58:42 {'measurement': 'measName', 'fields': {'measV_HV2': -50.0, 'measI_HV2': -1.023839e-07, 'settV_HV2': -50.0, 'settI_HV2': 0.0}, 'tags': {'user': 'root'}}
2022-08-20 16:58:43 {'measurement': 'measName', 'fields': {'measV_HV2': -50.0, 'measI_HV2': -9.849643e-08, 'settV_HV2': -50.0, 'settI_HV2': 0.0}, 'tags': {'user': 'root'}}
2022-08-20 16:58:44 {'measurement': 'measName', 'fields': {'measV_HV2': -50.0, 'measI_HV2': -9.517004e-08, 'settV_HV2': -50.0, 'settI_HV2': 0.0}, 'tags': {'user': 'root'}}
2022-08-20 16:58:44 {'measurement': 'measName', 'fields': {'measV_HV2': -50.0, 'measI_HV2': -9.109715e-08, 'settV_HV2': -50.0, 'settI_HV2': 0.0}, 'tags': {'user': 'root'}}
2022-08-20 16:58:45 {'measurement': 'measName', 'fields': {'measV_HV2': -50.0, 'measI_HV2': -8.524007e-08, 'settV_HV2': -50.0, 'settI_HV2': 0.0}, 'tags': {'user': 'root'}}
2022-08-20 16:58:46 {'measurement': 'measName', 'fields': {'measV_HV2': -50.0, 'measI_HV2': -8.670289e-08, 'settV_HV2': -50.0, 'settI_HV2': 0.0}, 'tags': {'user': 'root'}}
2022-08-20 16:58:47 {'measurement': 'measName', 'fields': {'measV_HV2': -50.0, 'measI_HV2': -8.628268e-08, 'settV_HV2': -50.0, 'settI_HV2': 0.0}, 'tags': {'user': 'root'}}
2022-08-20 16:58:47 {'measurement': 'measName', 'fields': {'measV_HV2': -50.0, 'measI_HV2': -8.545944e-08, 'settV_HV2': -50.0, 'settI_HV2': 0.0}, 'tags': {'user': 'root'}}
2022-08-20 16:58:48 {'measurement': 'measName', 'fields': {'measV_HV2': -50.0, 'measI_HV2': -9.370659e-08, 'settV_HV2': -50.0, 'settI_HV2': 0.0}, 'tags': {'user': 'root'}}
2022-08-20 16:58:49 {'measurement': 'measName', 'fields': {'measV_HV2': -50.0, 'measI_HV2': -1.026201e-07, 'settV_HV2': -50.0, 'settI_HV2': 0.0}, 'tags': {'user': 'root'}}
2022-08-20 16:58:50 {'measurement': 'measName', 'fields': {'measV_HV2': -50.0, 'measI_HV2': -9.786712e-08, 'settV_HV2': -50.0, 'settI_HV2': 0.0}, 'tags': {'user': 'root'}}
2022-08-20 16:58:51 {'measurement': 'measName', 'fields': {'measV_HV2': -50.0, 'measI_HV2': -1.026693e-07, 'settV_HV2': -50.0, 'settI_HV2': 0.0}, 'tags': {'user': 'root'}}
2022-08-20 16:58:51 {'measurement': 'measName', 'fields': {'measV_HV2': -50.0, 'measI_HV2': -1.000786e-07, 'settV_HV2': -50.0, 'settI_HV2': 0.0}, 'tags': {'user': 'root'}}
2022-08-20 16:58:52 {'measurement': 'measName', 'fields': {'measV_HV2': -50.0, 'measI_HV2': -1.004503e-07, 'settV_HV2': -50.0, 'settI_HV2': 0.0}, 'tags': {'user': 'root'}}
2022-08-20 16:58:53 {'measurement': 'measName', 'fields': {'measV_HV2': -50.0, 'measI_HV2': -8.787204e-08, 'settV_HV2': -50.0, 'settI_HV2': 0.0}, 'tags': {'user': 'root'}}
2022-08-20 16:58:53 {'measurement': 'measName', 'fields': {'measV_HV2': -50.0, 'measI_HV2': -8.448529e-08, 'settV_HV2': -50.0, 'settI_HV2': 0.0}, 'tags': {'user': 'root'}}
2022-08-20 16:58:54 {'measurement': 'measName', 'fields': {'measV_HV2': -50.0, 'measI_HV2': -8.757155e-08, 'settV_HV2': -50.0, 'settI_HV2': 0.0}, 'tags': {'user': 'root'}}
2022-08-20 16:58:55 {'measurement': 'measName', 'fields': {'measV_HV2': -50.0, 'measI_HV2': -9.429802e-08, 'settV_HV2': -50.0, 'settI_HV2': 0.0}, 'tags': {'user': 'root'}}
2022-08-20 16:58:55 {'measurement': 'measName', 'fields': {'measV_HV2': -50.0, 'measI_HV2': -9.504953e-08, 'settV_HV2': -50.0, 'settI_HV2': 0.0}, 'tags': {'user': 'root'}}
2022-08-20 16:58:56 {'measurement': 'measName', 'fields': {'measV_HV2': -50.0, 'measI_HV2': -9.725064e-08, 'settV_HV2': -50.0, 'settI_HV2': 0.0}, 'tags': {'user': 'root'}}
2022-08-20 16:58:57 {'measurement': 'measName', 'fields': {'measV_HV2': -50.0, 'measI_HV2': -9.677544e-08, 'settV_HV2': -50.0, 'settI_HV2': 0.0}, 'tags': {'user': 'root'}}
2022-08-20 16:58:58 {'measurement': 'measName', 'fields': {'measV_HV2': -50.0, 'measI_HV2': -9.448243e-08, 'settV_HV2': -50.0, 'settI_HV2': 0.0}, 'tags': {'user': 'root'}}
2022-08-20 16:58:58 {'measurement': 'measName', 'fields': {'measV_HV2': -50.0, 'measI_HV2': -9.707146e-08, 'settV_HV2': -50.0, 'settI_HV2': 0.0}, 'tags': {'user': 'root'}}
2022-08-20 16:58:59 {'measurement': 'measName', 'fields': {'measV_HV2': -50.0, 'measI_HV2': -9.783394e-08, 'settV_HV2': -50.0, 'settI_HV2': 0.0}, 'tags': {'user': 'root'}}
2022-08-20 16:59:00 {'measurement': 'measName', 'fields': {'measV_HV2': -50.0, 'measI_HV2': -9.576254e-08, 'settV_HV2': -50.0, 'settI_HV2': 0.0}, 'tags': {'user': 'root'}}
2022-08-20 16:59:00 {'measurement': 'measName', 'fields': {'measV_HV2': -50.0, 'measI_HV2': -9.969205e-08, 'settV_HV2': -50.0, 'settI_HV2': 0.0}, 'tags': {'user': 'root'}}
2022-08-20 16:59:01 {'measurement': 'measName', 'fields': {'measV_HV2': -50.0, 'measI_HV2': -9.381593e-08, 'settV_HV2': -50.0, 'settI_HV2': 0.0}, 'tags': {'user': 'root'}}
2022-08-20 16:59:02 {'measurement': 'measName', 'fields': {'measV_HV2': -50.0, 'measI_HV2': -8.78058e-08, 'settV_HV2': -50.0, 'settI_HV2': 0.0}, 'tags': {'user': 'root'}}
2022-08-20 16:59:03 {'measurement': 'measName', 'fields': {'measV_HV2': -50.0, 'measI_HV2': -1.015423e-07, 'settV_HV2': -50.0, 'settI_HV2': 0.0}, 'tags': {'user': 'root'}}
