{
    "unit": {
        "Time": "s",
        "Voltage": "V",
        "Current": "A"
    },
    "V_step": -5,
    "Step_duration": 2,
    "N_measurements_per_step": 10,
    "A_Compliance": 1e-05,
    "Sensor_IV": [
        {
            "Time": 47.92502522468567,
            "Voltage": 0.0,
            "Current_mean": -1.32150131e-08,
            "Current_sigma": 1.3348563645439396e-08
        },
        {
            "Time": 54.08157277107239,
            "Voltage": -5.0,
            "Current_mean": -8.193173599999999e-08,
            "Current_sigma": 1.6283322012652824e-08
        },
        {
            "Time": 60.222103118896484,
            "Voltage": -10.0,
            "Current_mean": -8.865421500000001e-08,
            "Current_sigma": 9.939644596786398e-09
        },
        {
            "Time": 66.5224199295044,
            "Voltage": -15.0,
            "Current_mean": -9.736844999999999e-08,
            "Current_sigma": 8.134564292304785e-09
        },
        {
            "Time": 72.5191080570221,
            "Voltage": -20.0,
            "Current_mean": -9.702764399999999e-08,
            "Current_sigma": 6.973705026050642e-09
        },
        {
            "Time": 79.01127028465271,
            "Voltage": -25.0,
            "Current_mean": -9.471863499999999e-08,
            "Current_sigma": 7.258113664009748e-09
        },
        {
            "Time": 85.00801992416382,
            "Voltage": -30.0,
            "Current_mean": -9.645054299999998e-08,
            "Current_sigma": 5.716256693492777e-09
        },
        {
            "Time": 91.19649338722229,
            "Voltage": -35.0,
            "Current_mean": -9.7125958e-08,
            "Current_sigma": 6.171559866731909e-09
        },
        {
            "Time": 97.19306874275208,
            "Voltage": -40.0,
            "Current_mean": -9.8526349e-08,
            "Current_sigma": 5.933996517724714e-09
        },
        {
            "Time": 103.49358916282654,
            "Voltage": -45.0,
            "Current_mean": -9.8864309e-08,
            "Current_sigma": 5.24913886096272e-09
        },
        {
            "Time": 109.49025654792786,
            "Voltage": -50.0,
            "Current_mean": -9.8434176e-08,
            "Current_sigma": 5.788547223141915e-09
        },
        {
            "Time": 116.01458477973938,
            "Voltage": -55.0,
            "Current_mean": -9.8228079e-08,
            "Current_sigma": 6.44907377797533e-09
        },
        {
            "Time": 122.01120066642761,
            "Voltage": -60.0,
            "Current_mean": -9.962342299999999e-08,
            "Current_sigma": 5.862599365351601e-09
        },
        {
            "Time": 128.007732629776,
            "Voltage": -65.0,
            "Current_mean": -9.9499154e-08,
            "Current_sigma": 5.879038700565252e-09
        },
        {
            "Time": 134.00444674491882,
            "Voltage": -70.0,
            "Current_mean": -9.898340900000001e-08,
            "Current_sigma": 5.483845389717783e-09
        },
        {
            "Time": 140.2890167236328,
            "Voltage": -75.0,
            "Current_mean": -1.0089023199999999e-07,
            "Current_sigma": 5.337542773508802e-09
        },
        {
            "Time": 146.47732138633728,
            "Voltage": -80.0,
            "Current_mean": -1.0006126500000002e-07,
            "Current_sigma": 6.359851778609703e-09
        },
        {
            "Time": 152.74597358703613,
            "Voltage": -85.0,
            "Current_mean": -9.986172699999999e-08,
            "Current_sigma": 5.144088381367585e-09
        },
        {
            "Time": 159.04637908935547,
            "Voltage": -90.0,
            "Current_mean": -9.9699938e-08,
            "Current_sigma": 5.592527541759272e-09
        },
        {
            "Time": 165.04309797286987,
            "Voltage": -95.0,
            "Current_mean": -1.01356709e-07,
            "Current_sigma": 4.487390689506432e-09
        },
        {
            "Time": 171.23155975341797,
            "Voltage": -100.0,
            "Current_mean": -1.02928293e-07,
            "Current_sigma": 5.620728965018773e-09
        },
        {
            "Time": 177.2282271385193,
            "Voltage": -105.0,
            "Current_mean": -1.0312915699999998e-07,
            "Current_sigma": 5.213152529794328e-09
        },
        {
            "Time": 183.528715133667,
            "Voltage": -110.0,
            "Current_mean": -1.0267481799999999e-07,
            "Current_sigma": 4.567994744101179e-09
        },
        {
            "Time": 189.52542686462402,
            "Voltage": -115.0,
            "Current_mean": -1.05229419e-07,
            "Current_sigma": 4.414342644105575e-09
        },
        {
            "Time": 195.8098270893097,
            "Voltage": -120.0,
            "Current_mean": -1.0473843499999998e-07,
            "Current_sigma": 3.4481982319792756e-09
        },
        {
            "Time": 201.8064570426941,
            "Voltage": -125.0,
            "Current_mean": -1.06042198e-07,
            "Current_sigma": 5.276875594366046e-09
        },
        {
            "Time": 208.21883845329285,
            "Voltage": -130.0,
            "Current_mean": -1.0652632e-07,
            "Current_sigma": 4.325269507163687e-09
        },
        {
            "Time": 214.21555018424988,
            "Voltage": -135.0,
            "Current_mean": -1.0820739999999999e-07,
            "Current_sigma": 4.223758738138342e-09
        },
        {
            "Time": 220.4041929244995,
            "Voltage": -140.0,
            "Current_mean": -1.0944009999999998e-07,
            "Current_sigma": 3.256897138074825e-09
        },
        {
            "Time": 226.40096807479858,
            "Voltage": -145.0,
            "Current_mean": -1.0972618999999999e-07,
            "Current_sigma": 5.2008031719052785e-09
        },
        {
            "Time": 232.58969831466675,
            "Voltage": -150.0,
            "Current_mean": -1.1092277999999999e-07,
            "Current_sigma": 4.057095151164193e-09
        },
        {
            "Time": 238.58635449409485,
            "Voltage": -155.0,
            "Current_mean": -1.1282405000000003e-07,
            "Current_sigma": 3.92190192719043e-09
        },
        {
            "Time": 244.9988350868225,
            "Voltage": -160.0,
            "Current_mean": -1.1275068e-07,
            "Current_sigma": 3.945366756285151e-09
        },
        {
            "Time": 250.9954035282135,
            "Voltage": -165.0,
            "Current_mean": -1.1460164000000001e-07,
            "Current_sigma": 4.077602953991473e-09
        },
        {
            "Time": 257.05608677864075,
            "Voltage": -170.0,
            "Current_mean": -1.1545968999999999e-07,
            "Current_sigma": 4.237680203944134e-09
        },
        {
            "Time": 263.053005695343,
            "Voltage": -175.0,
            "Current_mean": -1.1687965e-07,
            "Current_sigma": 4.21939814434476e-09
        },
        {
            "Time": 269.0496253967285,
            "Voltage": -180.0,
            "Current_mean": -1.1927449000000002e-07,
            "Current_sigma": 4.087868369321595e-09
        },
        {
            "Time": 275.1102890968323,
            "Voltage": -185.0,
            "Current_mean": -1.2164975e-07,
            "Current_sigma": 4.1347607863696295e-09
        },
        {
            "Time": 281.42684173583984,
            "Voltage": -190.0,
            "Current_mean": -1.2506705999999997e-07,
            "Current_sigma": 4.383210275175037e-09
        },
        {
            "Time": 287.69536089897156,
            "Voltage": -195.0,
            "Current_mean": -1.3080724e-07,
            "Current_sigma": 3.2459765464956764e-09
        },
        {
            "Time": 293.83595514297485,
            "Voltage": -200.0,
            "Current_mean": -1.4472378e-07,
            "Current_sigma": 4.197237358739672e-09
        }
    ]
}