{
    "Hist2D": {
	"thresholdscan": {
	    "Name": "ThresholdMap-0",
	    "EvolutionPlot": { "Y": "Absolute" }
	},
	"thresholdnoisescan": {
	    "Name": "NoiseMap-0",
	    "EvolutionPlot": { "Y": "Absolute" }
	},
	"FWB": {
	    "Name": "ThresholdMap-0",
	    "EvolutionPlot": { "Y": "Absolute" }
	}
    },
    "Graph": {
	"IV": {
	    "Name": "SensorIV",
	    "FitPoint": {
		"Stage1": 70,
		"Stage2": 70,
		"Stage3": 70,
		"Stage4": 70,
		"Stage5": 70,
		"Stage6": 70
	    },
	    "FitStep": {
		"Stage1": 25,
		"Stage2": 25,
		"Stage3": 25,
		"Stage4": 25,
		"Stage5": 25,
		"Stage6": 25
	    },
	    "Tref": 293.15
	},
	"VI": {
	    "Name": "SLDO_VI"
	}
    },
    "Hist1D": {
	"NoiseDist": {
	    "Name": "NoiseDist",
	    "CompareType": "Ratio",
	    "FitRange": {
		"diff": {
		    "Stage1": "Auto",
		    "Stage2": "Auto",
		    "Stage3": "Auto",
		    "Stage4": "Auto",
		    "Stage5": "Auto",
		    "Stage6": "Auto"
		},
		"lin": {
		    "Stage1": "Auto",
		    "Stage2": "Auto",
		    "Stage3": "Auto",
		    "Stage4": "Auto",
		    "Stage5": "Auto",
		    "Stage6": "Auto"
		},
		"syn": {
		    "Stage1": "Auto",
		    "Stage2": "Auto",
		    "Stage3": "Auto",
		    "Stage4": "Auto",
		    "Stage5": "Auto",
		    "Stage6": "Auto"
		},
		"std": {
		    "Stage1": "Auto",
		    "Stage2": "Auto",
		    "Stage3": "Auto",
		    "Stage4": "Auto",
		    "Stage5": "Auto",
		    "Stage6": "Auto"
		}
	    },
	    "EvolutionPlot": true
	},
	"NoiseMap": {
	    "Name": "NoiseMap",
	    "CompareType": "Ratio"
	},
	"ThresholdDist": {
	    "Name": "ThresholdDist",
	    "CompareType": "Ratio",
	    "FitRange": {
		"diff":{
		    "Stage1": "Auto",
		    "Stage2": "Auto",
		    "Stage3": "Auto",
		    "Stage4": "Auto",
		    "Stage5": "Auto",
		    "Stage6": "Auto"
		},
		"lin": {
		    "Stage1": "Auto",
		    "Stage2": "Auto",
		    "Stage3": "Auto",
		    "Stage4": "Auto",
		    "Stage5": "Auto",
		    "Stage6": "Auto"
		},
		"syn": {
		    "Stage1": "Auto",
		    "Stage2": "Auto",
		    "Stage3": "Auto",
		    "Stage4": "Auto",
		    "Stage5": "Auto",
		    "Stage6": "Auto"
		},
		"std": {
		    "Stage1": "Auto",
		    "Stage2": "Auto",
		    "Stage3": "Auto",
		    "Stage4": "Auto",
		    "Stage5": "Auto",
		    "Stage6": "Auto"
		}
	    },
	    "EvolutionPlot":  { "Y": "Errors" }
	},
	"ThresholdMap": {
	    "Name": "ThresholdMap",
	    "CompareType": "Ratio"
	},
	"MeanTotDist": {
	    "Name": "MeanTotDist",
	    "CompareType": "Percentage",
	    "FitRange": {
		"diff":{
		    "Stage1": "Auto",
		    "Stage2": "Auto",
		    "Stage3": "Auto",
		    "Stage4": "Auto",
		    "Stage5": "Auto",
		    "Stage6": "Auto"
		},
		"lin": {
		    "Stage1": "Auto",
		    "Stage2": "Auto",
		    "Stage3": "Auto",
		    "Stage4": "Auto",
		    "Stage5": "Auto",
		    "Stage6": "Auto"
		},
		"syn": {
		    "Stage1": "Auto",
		    "Stage2": "Auto",
		    "Stage3": "Auto",
		    "Stage4": "Auto",
		    "Stage5": "Auto",
		    "Stage6": "Auto"
		},
		"std": {
		    "Stage1": "Auto",
		    "Stage2": "Auto",
		    "Stage3": "Auto",
		    "Stage4": "Auto",
		    "Stage5": "Auto",
		    "Stage6": "Auto"
		}
	    },
	    "EvolutionPlot":  { "Y": "Errors" }
	}
    }
}

