2021-10-09 16:35:19 [0][20UPGFC0009283] 1133 1566 28.8058 1061 1502 26.7139 1042 1496 33.3295 1043 1497 27.775
2021-10-09 16:35:20 [1][20UPGFC0009299] 1182 1623 32.5367 1134 1583 35.3016 1098 1557 36.2171 1098 1553 35.7429
2021-10-09 16:35:21 [2][20UPGFC0009331] 1068 1496 22.364 1015 1448 17.322 1028 1459 19.583 1028 1471 20.825
2021-10-09 16:35:22 [3][20UPGFC0009315] 1108 1538 25.8797 1042 1482 24.6829 1018 1469 26.9803 1016 1468 25.1962
2021-10-09 16:35:23 [0][20UPGFC0009283] 1133 1565 28.1085 1061 1502 26.7139 1042 1495 32.6545 1042 1496 27.7749
2021-10-09 16:35:24 [1][20UPGFC0009299] 1182 1621 31.1504 1134 1583 35.3016 1097 1557 36.8911 1098 1554 36.4219
2021-10-09 16:35:25 [2][20UPGFC0009331] 1067 1496 23.0544 1015 1449 17.9929 1028 1459 19.583 1028 1472 21.4886
2021-10-09 16:35:26 [3][20UPGFC0009315] 1107 1537 25.8796 1042 1482 24.6829 1019 1469 26.3149 1016 1468 25.1962
2021-10-09 16:35:27 [0][20UPGFC0009283] 1133 1565 28.1085 1061 1503 27.394 1042 1495 32.6545 1042 1496 27.7749
2021-10-09 16:35:28 [1][20UPGFC0009299] 1182 1622 31.8435 1134 1583 35.3016 1098 1557 36.2171 1099 1553 35.0641
2021-10-09 16:35:29 [2][20UPGFC0009331] 1068 1496 22.364 1015 1449 17.9929 1028 1460 20.2621 1028 1472 21.4886
2021-10-09 16:35:30 [3][20UPGFC0009315] 1108 1537 25.1843 1042 1483 25.3598 1019 1469 26.3149 1017 1468 24.5362
2021-10-09 16:35:31 [0][20UPGFC0009283] 1133 1565 28.1085 1061 1502 26.7139 1042 1495 32.6545 1042 1497 28.4378
2021-10-09 16:35:32 [1][20UPGFC0009299] 1181 1622 32.5367 1134 1583 35.3016 1098 1557 36.2171 1098 1553 35.7429
2021-10-09 16:35:33 [2][20UPGFC0009331] 1068 1496 22.364 1016 1449 17.3221 1027 1459 20.2622 1028 1471 20.825
2021-10-09 16:35:34 [3][20UPGFC0009315] 1108 1536 24.4888 1042 1482 24.6829 1018 1469 26.9803 1017 1468 24.5362
2021-10-09 16:35:35 [0][20UPGFC0009283] 1133 1565 28.1085 1061 1502 26.7139 1043 1496 32.6544 1043 1497 27.775
2021-10-09 16:35:36 [1][20UPGFC0009299] 1182 1622 31.8435 1133 1582 35.3017 1097 1557 36.8911 1099 1553 35.0641
2021-10-09 16:35:37 [2][20UPGFC0009331] 1067 1496 23.0544 1015 1449 17.9929 1027 1460 20.9413 1028 1472 21.4886
2021-10-09 16:35:38 [3][20UPGFC0009315] 1107 1537 25.8796 1041 1481 24.683 1017 1468 26.9805 1015 1468 25.8562
2021-10-09 16:35:39 [0][20UPGFC0009283] 1133 1565 28.1085 1060 1502 27.3939 1042 1496 33.3295 1042 1496 27.7749
2021-10-09 16:35:40 [1][20UPGFC0009299] 1182 1622 31.8435 1134 1583 35.3016 1098 1558 36.8912 1099 1554 35.743
2021-10-09 16:35:41 [2][20UPGFC0009331] 1068 1496 22.364 1015 1449 17.9929 1029 1459 18.9038 1028 1472 21.4886
2021-10-09 16:35:42 [3][20UPGFC0009315] 1108 1537 25.1843 1042 1482 24.6829 1018 1469 26.9803 1016 1468 25.1962
2021-10-09 16:35:43 [0][20UPGFC0009283] 1133 1565 28.1085 1060 1501 26.7141 1043 1496 32.6544 1042 1495 27.1122
2021-10-09 16:35:44 [1][20UPGFC0009299] 1182 1622 31.8435 1134 1583 35.3016 1098 1557 36.2171 1099 1553 35.0641
2021-10-09 16:35:45 [2][20UPGFC0009331] 1067 1495 22.364 1015 1448 17.322 1028 1459 19.583 1028 1472 21.4886
2021-10-09 16:35:46 [3][20UPGFC0009315] 1107 1537 25.8796 1042 1483 25.3598 1018 1469 26.9803 1016 1468 25.1962
2021-10-09 16:35:47 [0][20UPGFC0009283] 1132 1564 28.1084 1061 1502 26.7139 1042 1496 33.3295 1041 1496 28.4377
2021-10-09 16:35:48 [1][20UPGFC0009299] 1181 1621 31.8436 1134 1583 35.3016 1098 1557 36.2171 1098 1553 35.7429
2021-10-09 16:35:49 [2][20UPGFC0009331] 1067 1496 23.0544 1015 1449 17.9929 1028 1460 20.2621 1027 1472 22.1522
2021-10-09 16:35:50 [3][20UPGFC0009315] 1108 1537 25.1843 1042 1482 24.6829 1018 1469 26.9803 1016 1468 25.1962
2021-10-09 16:35:51 [0][20UPGFC0009283] 1133 1564 27.4111 1060 1502 27.3939 1042 1495 32.6545 1042 1497 28.4378
2021-10-09 16:35:52 [1][20UPGFC0009299] 1182 1622 31.8435 1134 1583 35.3016 1098 1556 35.5432 1098 1553 35.7429
2021-10-09 16:35:53 [2][20UPGFC0009331] 1067 1496 23.0544 1015 1450 18.6637 1028 1459 19.583 1028 1472 21.4886
2021-10-09 16:35:54 [3][20UPGFC0009315] 1108 1537 25.1843 1042 1482 24.6829 1019 1469 26.3149 1017 1469 25.1962
2021-10-09 16:35:55 [0][20UPGFC0009283] 1132 1564 28.1084 1061 1503 27.394 1042 1496 33.3295 1042 1497 28.4378
2021-10-09 16:35:56 [1][20UPGFC0009299] 1181 1622 32.5367 1135 1582 33.9277 1098 1558 36.8912 1099 1554 35.743
2021-10-09 16:35:57 [2][20UPGFC0009331] 1067 1496 23.0544 1016 1450 17.9929 1029 1460 19.5829 1029 1471 20.1614
2021-10-09 16:35:58 [3][20UPGFC0009315] 1108 1537 25.1843 1043 1483 24.683 1018 1469 26.9803 1016 1468 25.1962
2021-10-09 16:35:59 [0][20UPGFC0009283] 1133 1565 28.1085 1060 1503 28.074 1042 1495 32.6545 1042 1495 27.1122
2021-10-09 16:36:00 [1][20UPGFC0009299] 1182 1622 31.8435 1134 1583 35.3016 1098 1557 36.2171 1098 1552 35.0641
2021-10-09 16:36:01 [2][20UPGFC0009331] 1068 1496 22.364 1016 1448 16.6512 1028 1461 20.9413 1028 1472 21.4886
2021-10-09 16:36:02 [3][20UPGFC0009315] 1108 1537 25.1843 1042 1483 25.3598 1018 1469 26.9803 1016 1468 25.1962
2021-10-09 16:36:03 [0][20UPGFC0009283] 1133 1565 28.1085 1061 1502 26.7139 1043 1495 31.9795 1042 1496 27.7749
2021-10-09 16:36:04 [1][20UPGFC0009299] 1182 1621 31.1504 1134 1583 35.3016 1098 1557 36.2171 1099 1552 34.3852
2021-10-09 16:36:05 [2][20UPGFC0009331] 1067 1496 23.0544 1016 1449 17.3221 1028 1460 20.2621 1028 1472 21.4886
2021-10-09 16:36:06 [3][20UPGFC0009315] 1108 1537 25.1843 1042 1482 24.6829 1018 1468 26.3149 1017 1469 25.1962
2021-10-09 16:36:07 [0][20UPGFC0009283] 1133 1565 28.1085 1062 1502 26.034 1042 1495 32.6545 1042 1496 27.7749
2021-10-09 16:36:08 [1][20UPGFC0009299] 1182 1623 32.5367 1134 1583 35.3016 1098 1557 36.2171 1098 1554 36.4219
2021-10-09 16:36:09 [2][20UPGFC0009331] 1068 1496 22.364 1016 1450 17.9929 1028 1459 19.583 1028 1472 21.4886
2021-10-09 16:36:10 [3][20UPGFC0009315] 1108 1537 25.1843 1042 1483 25.3598 1018 1469 26.9803 1017 1469 25.1962
2021-10-09 16:36:11 [0][20UPGFC0009283] 1133 1564 27.4111 1060 1502 27.3939 1042 1496 33.3295 1042 1496 27.7749
2021-10-09 16:36:12 [1][20UPGFC0009299] 1182 1622 31.8435 1134 1582 34.6147 1098 1557 36.2171 1098 1553 35.7429
2021-10-09 16:36:13 [2][20UPGFC0009331] 1068 1496 22.364 1016 1450 17.9929 1028 1460 20.2621 1028 1471 20.825
2021-10-09 16:36:14 [3][20UPGFC0009315] 1108 1536 24.4888 1042 1482 24.6829 1018 1468 26.3149 1016 1468 25.1962
2021-10-09 16:36:15 [0][20UPGFC0009283] 1133 1565 28.1085 1061 1503 27.394 1042 1495 32.6545 1042 1496 27.7749
2021-10-09 16:36:16 [1][20UPGFC0009299] 1183 1622 31.1504 1135 1583 34.6147 1098 1557 36.2171 1099 1553 35.0641
2021-10-09 16:36:17 [2][20UPGFC0009331] 1068 1496 22.364 1016 1448 16.6512 1028 1459 19.583 1028 1472 21.4886
2021-10-09 16:36:18 [3][20UPGFC0009315] 1108 1537 25.1843 1042 1482 24.6829 1018 1468 26.3149 1016 1468 25.1962
2021-10-09 16:36:19 [0][20UPGFC0009283] 1132 1565 28.8058 1060 1502 27.3939 1042 1496 33.3295 1042 1496 27.7749
2021-10-09 16:36:20 [1][20UPGFC0009299] 1182 1622 31.8435 1134 1583 35.3016 1097 1557 36.8911 1099 1554 35.743
2021-10-09 16:36:21 [2][20UPGFC0009331] 1067 1496 23.0544 1016 1449 17.3221 1029 1460 19.5829 1028 1472 21.4886
2021-10-09 16:36:22 [3][20UPGFC0009315] 1108 1537 25.1843 1042 1482 24.6829 1019 1468 25.6494 1016 1468 25.1962
2021-10-09 16:36:23 [0][20UPGFC0009283] 1133 1565 28.1085 1060 1502 27.3939 1042 1495 32.6545 1042 1496 27.7749
2021-10-09 16:36:24 [1][20UPGFC0009299] 1182 1622 31.8435 1134 1583 35.3016 1098 1557 36.2171 1099 1553 35.0641
2021-10-09 16:36:25 [2][20UPGFC0009331] 1068 1497 23.0545 1016 1450 17.9929 1028 1460 20.2621 1028 1472 21.4886
2021-10-09 16:36:26 [3][20UPGFC0009315] 1108 1537 25.1843 1042 1482 24.6829 1019 1468 25.6494 1016 1468 25.1962
2021-10-09 16:36:27 [0][20UPGFC0009283] 1132 1565 28.8058 1060 1502 27.3939 1042 1496 33.3295 1042 1496 27.7749
2021-10-09 16:36:28 [1][20UPGFC0009299] 1181 1622 32.5367 1134 1582 34.6147 1098 1557 36.2171 1098 1554 36.4219
2021-10-09 16:36:29 [2][20UPGFC0009331] 1068 1496 22.364 1016 1449 17.3221 1028 1460 20.2621 1027 1472 22.1522
2021-10-09 16:36:30 [3][20UPGFC0009315] 1107 1536 25.1842 1041 1483 26.0367 1018 1468 26.3149 1015 1468 25.8562
2021-10-09 16:36:31 [0][20UPGFC0009283] 1133 1564 27.4111 1060 1502 27.3939 1042 1494 31.9793 1041 1496 28.4377
2021-10-09 16:36:32 [1][20UPGFC0009299] 1182 1622 31.8435 1134 1583 35.3016 1098 1558 36.8912 1099 1554 35.743
2021-10-09 16:36:33 [2][20UPGFC0009331] 1068 1495 21.6735 1016 1449 17.3221 1028 1459 19.583 1028 1472 21.4886
2021-10-09 16:36:34 [3][20UPGFC0009315] 1108 1537 25.1843 1041 1482 25.3598 1018 1468 26.3149 1016 1467 24.5361
2021-10-09 16:36:35 [0][20UPGFC0009283] 1133 1565 28.1085 1060 1502 27.3939 1042 1495 32.6545 1042 1496 27.7749
2021-10-09 16:36:36 [1][20UPGFC0009299] 1183 1622 31.1504 1135 1583 34.6147 1098 1558 36.8912 1098 1554 36.4219
2021-10-09 16:36:37 [2][20UPGFC0009331] 1067 1496 23.0544 1015 1450 18.6637 1028 1459 19.583 1028 1472 21.4886
2021-10-09 16:36:38 [3][20UPGFC0009315] 1107 1535 24.4889 1041 1482 25.3598 1018 1468 26.3149 1016 1468 25.1962
2021-10-09 16:36:39 [0][20UPGFC0009283] 1133 1565 28.1085 1060 1502 27.3939 1042 1495 32.6545 1042 1496 27.7749
2021-10-09 16:36:40 [1][20UPGFC0009299] 1183 1622 31.1504 1134 1583 35.3016 1098 1557 36.2171 1099 1553 35.0641
2021-10-09 16:36:41 [2][20UPGFC0009331] 1068 1497 23.0545 1016 1449 17.3221 1028 1459 19.583 1028 1471 20.825
2021-10-09 16:36:42 [3][20UPGFC0009315] 1108 1538 25.8797 1042 1482 24.6829 1018 1469 26.9803 1016 1469 25.8562
2021-10-09 16:36:43 [0][20UPGFC0009283] 1133 1565 28.1085 1061 1502 26.7139 1043 1496 32.6544 1042 1496 27.7749
2021-10-09 16:36:44 [1][20UPGFC0009299] 1182 1622 31.8435 1134 1582 34.6147 1097 1558 37.5652 1099 1554 35.743
2021-10-09 16:36:45 [2][20UPGFC0009331] 1068 1496 22.364 1015 1449 17.9929 1028 1460 20.2621 1028 1471 20.825
2021-10-09 16:36:46 [3][20UPGFC0009315] 1108 1537 25.1843 1042 1482 24.6829 1018 1468 26.3149 1016 1468 25.1962
2021-10-09 16:36:47 [0][20UPGFC0009283] 1134 1565 27.4112 1061 1502 26.7139 1043 1495 31.9795 1042 1497 28.4378
2021-10-09 16:36:48 [1][20UPGFC0009299] 1182 1622 31.8435 1134 1583 35.3016 1098 1557 36.2171 1099 1554 35.743
2021-10-09 16:36:49 [2][20UPGFC0009331] 1068 1496 22.364 1015 1449 17.9929 1029 1459 18.9038 1028 1471 20.825
2021-10-09 16:36:50 [3][20UPGFC0009315] 1108 1538 25.8797 1043 1483 24.683 1018 1469 26.9803 1016 1468 25.1962
2021-10-09 16:36:51 [0][20UPGFC0009283] 1133 1565 28.1085 1061 1503 27.394 1043 1495 31.9795 1043 1496 27.112
2021-10-09 16:36:52 [1][20UPGFC0009299] 1183 1622 31.1504 1134 1583 35.3016 1098 1558 36.8912 1099 1554 35.743
2021-10-09 16:36:53 [2][20UPGFC0009331] 1067 1497 23.745 1016 1449 17.3221 1029 1460 19.5829 1029 1473 21.4886
2021-10-09 16:36:54 [3][20UPGFC0009315] 1108 1537 25.1843 1042 1482 24.6829 1019 1470 26.9804 1016 1468 25.1962
2021-10-09 16:36:55 [0][20UPGFC0009283] 1134 1565 27.4112 1061 1502 26.7139 1042 1495 32.6545 1042 1497 28.4378
2021-10-09 16:36:56 [1][20UPGFC0009299] 1182 1622 31.8435 1134 1582 34.6147 1097 1557 36.8911 1098 1553 35.7429
2021-10-09 16:36:57 [2][20UPGFC0009331] 1068 1496 22.364 1015 1449 17.9929 1028 1459 19.583 1029 1471 20.1614
2021-10-09 16:36:58 [3][20UPGFC0009315] 1108 1537 25.1843 1042 1482 24.6829 1018 1468 26.3149 1017 1468 24.5362
2021-10-09 16:36:59 [0][20UPGFC0009283] 1133 1564 27.4111 1061 1502 26.7139 1043 1495 31.9795 1042 1496 27.7749
2021-10-09 16:37:00 [1][20UPGFC0009299] 1181 1621 31.8436 1133 1582 35.3017 1097 1557 36.8911 1099 1553 35.0641
2021-10-09 16:37:01 [2][20UPGFC0009331] 1068 1496 22.364 1015 1449 17.9929 1028 1459 19.583 1028 1472 21.4886
2021-10-09 16:37:02 [3][20UPGFC0009315] 1108 1537 25.1843 1042 1482 24.6829 1018 1469 26.9803 1016 1468 25.1962
2021-10-09 16:37:03 [0][20UPGFC0009283] 1133 1565 28.1085 1060 1502 27.3939 1042 1495 32.6545 1042 1496 27.7749
2021-10-09 16:37:04 [1][20UPGFC0009299] 1182 1622 31.8435 1134 1583 35.3016 1098 1557 36.2171 1098 1554 36.4219
2021-10-09 16:37:05 [2][20UPGFC0009331] 1068 1496 22.364 1015 1449 17.9929 1028 1459 19.583 1029 1471 20.1614
2021-10-09 16:37:06 [3][20UPGFC0009315] 1109 1537 24.4889 1042 1482 24.6829 1018 1468 26.3149 1016 1468 25.1962
2021-10-09 16:37:07 [0][20UPGFC0009283] 1133 1564 27.4111 1061 1502 26.7139 1042 1495 32.6545 1042 1496 27.7749
2021-10-09 16:37:08 [1][20UPGFC0009299] 1182 1622 31.8435 1134 1582 34.6147 1098 1557 36.2171 1099 1553 35.0641
2021-10-09 16:37:09 [2][20UPGFC0009331] 1068 1496 22.364 1015 1449 17.9929 1028 1459 19.583 1028 1472 21.4886
2021-10-09 16:37:10 [3][20UPGFC0009315] 1109 1538 25.1843 1043 1482 24.006 1019 1469 26.3149 1017 1469 25.1962
2021-10-09 16:37:11 [0][20UPGFC0009283] 1132 1564 28.1084 1061 1503 27.394 1043 1496 32.6544 1042 1496 27.7749
2021-10-09 16:37:12 [1][20UPGFC0009299] 1183 1623 31.8436 1134 1583 35.3016 1098 1557 36.2171 1099 1554 35.743
2021-10-09 16:37:13 [2][20UPGFC0009331] 1068 1496 22.364 1017 1450 17.322 1028 1460 20.2621 1029 1472 20.825
2021-10-09 16:37:14 [3][20UPGFC0009315] 1108 1537 25.1843 1042 1482 24.6829 1019 1469 26.3149 1016 1468 25.1962
2021-10-09 16:37:15 [0][20UPGFC0009283] 1133 1565 28.1085 1061 1502 26.7139 1042 1495 32.6545 1041 1496 28.4377
2021-10-09 16:37:16 [1][20UPGFC0009299] 1182 1621 31.1504 1134 1583 35.3016 1098 1557 36.2171 1099 1553 35.0641
2021-10-09 16:37:17 [2][20UPGFC0009331] 1068 1497 23.0545 1016 1449 17.3221 1028 1460 20.2621 1029 1472 20.825
2021-10-09 16:37:18 [3][20UPGFC0009315] 1108 1537 25.1843 1043 1482 24.006 1019 1469 26.3149 1016 1468 25.1962
2021-10-09 16:37:19 [0][20UPGFC0009283] 1134 1565 27.4112 1061 1502 26.7139 1043 1495 31.9795 1042 1496 27.7749
2021-10-09 16:37:20 [1][20UPGFC0009299] 1182 1622 31.8435 1134 1583 35.3016 1097 1557 36.8911 1098 1553 35.7429
2021-10-09 16:37:21 [2][20UPGFC0009331] 1068 1496 22.364 1016 1449 17.3221 1028 1460 20.2621 1029 1472 20.825
2021-10-09 16:37:22 [3][20UPGFC0009315] 1108 1537 25.1843 1042 1482 24.6829 1018 1469 26.9803 1016 1468 25.1962
2021-10-09 16:37:23 [0][20UPGFC0009283] 1133 1565 28.1085 1061 1503 27.394 1042 1495 32.6545 1042 1496 27.7749
2021-10-09 16:37:24 [1][20UPGFC0009299] 1182 1621 31.1504 1134 1583 35.3016 1098 1557 36.2171 1099 1553 35.0641
2021-10-09 16:37:25 [2][20UPGFC0009331] 1068 1496 22.364 1015 1449 17.9929 1028 1459 19.583 1028 1471 20.825
2021-10-09 16:37:26 [3][20UPGFC0009315] 1108 1538 25.8797 1042 1482 24.6829 1019 1469 26.3149 1016 1468 25.1962
2021-10-09 16:37:27 [0][20UPGFC0009283] 1133 1565 28.1085 1061 1502 26.7139 1043 1496 32.6544 1042 1496 27.7749
2021-10-09 16:37:28 [1][20UPGFC0009299] 1182 1622 31.8435 1134 1583 35.3016 1098 1557 36.2171 1099 1554 35.743
2021-10-09 16:37:29 [2][20UPGFC0009331] 1069 1496 21.6735 1016 1449 17.3221 1028 1459 19.583 1028 1472 21.4886
2021-10-09 16:37:30 [3][20UPGFC0009315] 1108 1537 25.1843 1042 1482 24.6829 1019 1470 26.9804 1016 1468 25.1962
2021-10-09 16:37:31 [0][20UPGFC0009283] 1133 1566 28.8058 1061 1502 26.7139 1043 1495 31.9795 1042 1496 27.7749
2021-10-09 16:37:32 [1][20UPGFC0009299] 1183 1622 31.1504 1134 1583 35.3016 1098 1557 36.2171 1098 1554 36.4219
2021-10-09 16:37:33 [2][20UPGFC0009331] 1068 1498 23.7449 1016 1449 17.3221 1028 1461 20.9413 1029 1472 20.825
2021-10-09 16:37:34 [3][20UPGFC0009315] 1108 1538 25.8797 1042 1482 24.6829 1018 1469 26.9803 1016 1468 25.1962
2021-10-09 16:37:35 [0][20UPGFC0009283] 1133 1565 28.1085 1061 1503 27.394 1042 1495 32.6545 1043 1496 27.112
2021-10-09 16:37:36 [1][20UPGFC0009299] 1182 1622 31.8435 1135 1582 33.9277 1098 1557 36.2171 1098 1552 35.0641
2021-10-09 16:37:37 [2][20UPGFC0009331] 1068 1496 22.364 1015 1448 17.322 1029 1459 18.9038 1028 1472 21.4886
2021-10-09 16:37:38 [3][20UPGFC0009315] 1108 1537 25.1843 1042 1482 24.6829 1018 1469 26.9803 1016 1468 25.1962
2021-10-09 16:37:39 [0][20UPGFC0009283] 1133 1565 28.1085 1061 1502 26.7139 1043 1495 31.9795 1042 1496 27.7749
2021-10-09 16:37:40 [1][20UPGFC0009299] 1182 1622 31.8435 1134 1583 35.3016 1098 1557 36.2171 1099 1553 35.0641
2021-10-09 16:37:41 [2][20UPGFC0009331] 1067 1496 23.0544 1016 1450 17.9929 1029 1460 19.5829 1028 1472 21.4886
2021-10-09 16:37:42 [3][20UPGFC0009315] 1108 1537 25.1843 1042 1482 24.6829 1019 1469 26.3149 1017 1468 24.5362
2021-10-09 16:37:43 [0][20UPGFC0009283] 1132 1565 28.8058 1062 1503 26.714 1043 1496 32.6544 1042 1496 27.7749
2021-10-09 16:37:44 [1][20UPGFC0009299] 1182 1622 31.8435 1134 1582 34.6147 1098 1558 36.8912 1099 1553 35.0641
2021-10-09 16:37:45 [2][20UPGFC0009331] 1068 1496 22.364 1015 1449 17.9929 1028 1460 20.2621 1028 1472 21.4886
2021-10-09 16:37:46 [3][20UPGFC0009315] 1108 1537 25.1843 1042 1482 24.6829 1019 1468 25.6494 1016 1468 25.1962
2021-10-09 16:37:47 [0][20UPGFC0009283] 1134 1565 27.4112 1061 1503 27.394 1042 1495 32.6545 1042 1495 27.1122
2021-10-09 16:37:48 [1][20UPGFC0009299] 1182 1622 31.8435 1134 1582 34.6147 1098 1557 36.2171 1099 1554 35.743
2021-10-09 16:37:49 [2][20UPGFC0009331] 1067 1496 23.0544 1016 1449 17.3221 1029 1459 18.9038 1028 1472 21.4886
2021-10-09 16:37:50 [3][20UPGFC0009315] 1108 1538 25.8797 1042 1482 24.6829 1019 1468 25.6494 1016 1468 25.1962
2021-10-09 16:37:51 [0][20UPGFC0009283] 1133 1565 28.1085 1060 1502 27.3939 1042 1495 32.6545 1041 1496 28.4377
2021-10-09 16:37:52 [1][20UPGFC0009299] 1182 1622 31.8435 1134 1583 35.3016 1098 1558 36.8912 1099 1553 35.0641
2021-10-09 16:37:53 [2][20UPGFC0009331] 1068 1496 22.364 1015 1448 17.322 1028 1460 20.2621 1028 1471 20.825
2021-10-09 16:37:54 [3][20UPGFC0009315] 1109 1537 24.4889 1042 1481 24.006 1018 1469 26.9803 1016 1468 25.1962
2021-10-09 16:37:55 [0][20UPGFC0009283] 1133 1565 28.1085 1061 1502 26.7139 1043 1496 32.6544 1042 1496 27.7749
2021-10-09 16:37:56 [1][20UPGFC0009299] 1182 1623 32.5367 1134 1583 35.3016 1098 1557 36.2171 1098 1554 36.4219
2021-10-09 16:37:57 [2][20UPGFC0009331] 1068 1497 23.0545 1015 1449 17.9929 1028 1460 20.2621 1028 1472 21.4886
2021-10-09 16:37:58 [3][20UPGFC0009315] 1108 1537 25.1843 1042 1482 24.6829 1018 1469 26.9803 1016 1468 25.1962
2021-10-09 16:37:59 [0][20UPGFC0009283] 1133 1564 27.4111 1060 1502 27.3939 1043 1495 31.9795 1042 1496 27.7749
2021-10-09 16:38:00 [1][20UPGFC0009299] 1183 1622 31.1504 1134 1582 34.6147 1098 1557 36.2171 1099 1553 35.0641
2021-10-09 16:38:01 [2][20UPGFC0009331] 1068 1496 22.364 1015 1449 17.9929 1028 1460 20.2621 1028 1472 21.4886
2021-10-09 16:38:02 [3][20UPGFC0009315] 1108 1537 25.1843 1042 1482 24.6829 1019 1468 25.6494 1017 1468 24.5362
2021-10-09 16:38:03 [0][20UPGFC0009283] 1133 1566 28.8058 1061 1502 26.7139 1043 1495 31.9795 1042 1496 27.7749
2021-10-09 16:38:04 [1][20UPGFC0009299] 1182 1622 31.8435 1134 1582 34.6147 1098 1557 36.2171 1098 1554 36.4219
2021-10-09 16:38:05 [2][20UPGFC0009331] 1068 1497 23.0545 1016 1449 17.3221 1028 1459 19.583 1028 1472 21.4886
2021-10-09 16:38:06 [3][20UPGFC0009315] 1108 1537 25.1843 1042 1482 24.6829 1019 1469 26.3149 1016 1468 25.1962
2021-10-09 16:38:07 [0][20UPGFC0009283] 1133 1565 28.1085 1061 1502 26.7139 1043 1496 32.6544 1042 1496 27.7749
2021-10-09 16:38:08 [1][20UPGFC0009299] 1183 1623 31.8436 1134 1583 35.3016 1099 1557 35.5432 1099 1554 35.743
2021-10-09 16:38:09 [2][20UPGFC0009331] 1067 1496 23.0544 1016 1450 17.9929 1029 1460 19.5829 1029 1472 20.825
2021-10-09 16:38:10 [3][20UPGFC0009315] 1108 1537 25.1843 1042 1483 25.3598 1019 1469 26.3149 1016 1468 25.1962
2021-10-09 16:38:11 [0][20UPGFC0009283] 1134 1565 27.4112 1060 1502 27.3939 1043 1495 31.9795 1042 1496 27.7749
2021-10-09 16:38:12 [1][20UPGFC0009299] 1182 1621 31.1504 1134 1582 34.6147 1098 1556 35.5432 1098 1553 35.7429
2021-10-09 16:38:13 [2][20UPGFC0009331] 1068 1496 22.364 1016 1449 17.3221 1029 1460 19.5829 1028 1472 21.4886
2021-10-09 16:38:14 [3][20UPGFC0009315] 1108 1537 25.1843 1042 1483 25.3598 1018 1468 26.3149 1016 1468 25.1962
2021-10-09 16:38:15 [0][20UPGFC0009283] 1133 1565 28.1085 1061 1502 26.7139 1042 1495 32.6545 1042 1496 27.7749
2021-10-09 16:38:16 [1][20UPGFC0009299] 1183 1622 31.1504 1135 1583 34.6147 1098 1557 36.2171 1099 1554 35.743
2021-10-09 16:38:17 [2][20UPGFC0009331] 1069 1496 21.6735 1016 1450 17.9929 1029 1459 18.9038 1028 1472 21.4886
2021-10-09 16:38:18 [3][20UPGFC0009315] 1108 1537 25.1843 1042 1483 25.3598 1019 1469 26.3149 1016 1468 25.1962
2021-10-09 16:38:19 [0][20UPGFC0009283] 1134 1564 26.7137 1061 1502 26.7139 1043 1495 31.9795 1041 1495 27.775
2021-10-09 16:38:20 [1][20UPGFC0009299] 1182 1622 31.8435 1134 1583 35.3016 1098 1557 36.2171 1098 1553 35.7429
2021-10-09 16:38:21 [2][20UPGFC0009331] 1068 1497 23.0545 1017 1450 17.322 1029 1460 19.5829 1029 1472 20.825
2021-10-09 16:38:22 [3][20UPGFC0009315] 1108 1538 25.8797 1043 1483 24.683 1019 1470 26.9804 1017 1469 25.1962
2021-10-09 16:38:23 [0][20UPGFC0009283] 1133 1565 28.1085 1061 1503 27.394 1042 1496 33.3295 1042 1496 27.7749
2021-10-09 16:38:24 [1][20UPGFC0009299] 1183 1622 31.1504 1134 1583 35.3016 1098 1557 36.2171 1099 1554 35.743
2021-10-09 16:38:25 [2][20UPGFC0009331] 1069 1495 20.9831 1016 1450 17.9929 1028 1460 20.2621 1029 1472 20.825
2021-10-09 16:38:26 [3][20UPGFC0009315] 1108 1537 25.1843 1042 1482 24.6829 1018 1469 26.9803 1016 1468 25.1962
2021-10-09 16:38:27 [0][20UPGFC0009283] 1133 1565 28.1085 1061 1502 26.7139 1043 1495 31.9795 1042 1496 27.7749
2021-10-09 16:38:28 [1][20UPGFC0009299] 1183 1623 31.8436 1135 1583 34.6147 1099 1558 36.2172 1099 1554 35.743
2021-10-09 16:38:29 [2][20UPGFC0009331] 1069 1496 21.6735 1016 1450 17.9929 1029 1460 19.5829 1029 1472 20.825
2021-10-09 16:38:30 [3][20UPGFC0009315] 1108 1536 24.4888 1042 1482 24.6829 1018 1469 26.9803 1016 1469 25.8562
2021-10-09 16:38:31 [0][20UPGFC0009283] 1133 1565 28.1085 1061 1503 27.394 1043 1496 32.6544 1042 1496 27.7749
2021-10-09 16:38:32 [1][20UPGFC0009299] 1183 1623 31.8436 1134 1583 35.3016 1099 1558 36.2172 1099 1554 35.743
2021-10-09 16:38:33 [2][20UPGFC0009331] 1068 1497 23.0545 1016 1450 17.9929 1029 1460 19.5829 1029 1472 20.825
2021-10-09 16:38:34 [3][20UPGFC0009315] 1109 1537 24.4889 1042 1483 25.3598 1019 1469 26.3149 1016 1468 25.1962
2021-10-09 16:38:35 [0][20UPGFC0009283] 1133 1564 27.4111 1060 1503 28.074 1042 1495 32.6545 1042 1497 28.4378
2021-10-09 16:38:36 [1][20UPGFC0009299] 1183 1623 31.8436 1134 1583 35.3016 1098 1557 36.2171 1100 1553 34.3851
2021-10-09 16:38:37 [2][20UPGFC0009331] 1068 1496 22.364 1016 1449 17.3221 1029 1461 20.2622 1028 1473 22.1521
2021-10-09 16:38:38 [3][20UPGFC0009315] 1108 1538 25.8797 1042 1482 24.6829 1019 1468 25.6494 1016 1468 25.1962
2021-10-09 16:38:39 [0][20UPGFC0009283] 1134 1565 27.4112 1061 1503 27.394 1043 1496 32.6544 1043 1497 27.775
2021-10-09 16:38:40 [1][20UPGFC0009299] 1183 1623 31.8436 1135 1583 34.6147 1099 1558 36.2172 1100 1554 35.0641
2021-10-09 16:38:41 [2][20UPGFC0009331] 1068 1497 23.0545 1016 1450 17.9929 1028 1460 20.2621 1029 1472 20.825
2021-10-09 16:38:42 [3][20UPGFC0009315] 1108 1536 24.4888 1042 1481 24.006 1018 1468 26.3149 1016 1468 25.1962
2021-10-09 16:38:43 [0][20UPGFC0009283] 1134 1565 27.4112 1061 1503 27.394 1043 1496 32.6544 1042 1497 28.4378
2021-10-09 16:38:44 [1][20UPGFC0009299] 1184 1622 30.4572 1135 1582 33.9277 1098 1558 36.8912 1099 1554 35.743
2021-10-09 16:38:45 [2][20UPGFC0009331] 1068 1496 22.364 1016 1451 18.6637 1028 1460 20.2621 1029 1473 21.4886
2021-10-09 16:38:46 [3][20UPGFC0009315] 1108 1537 25.1843 1042 1483 25.3598 1018 1469 26.9803 1016 1468 25.1962
2021-10-09 16:38:47 [0][20UPGFC0009283] 1134 1565 27.4112 1061 1503 27.394 1042 1495 32.6545 1042 1496 27.7749
2021-10-09 16:38:48 [1][20UPGFC0009299] 1183 1623 31.8436 1134 1584 35.9886 1098 1558 36.8912 1099 1555 36.4218
2021-10-09 16:38:49 [2][20UPGFC0009331] 1068 1496 22.364 1017 1451 17.9928 1028 1460 20.2621 1029 1472 20.825
2021-10-09 16:38:50 [3][20UPGFC0009315] 1108 1537 25.1843 1043 1483 24.683 1019 1469 26.3149 1017 1469 25.1962
2021-10-09 16:38:51 [0][20UPGFC0009283] 1134 1565 27.4112 1061 1502 26.7139 1043 1495 31.9795 1042 1496 27.7749
2021-10-09 16:38:52 [1][20UPGFC0009299] 1183 1623 31.8436 1135 1583 34.6147 1099 1557 35.5432 1099 1554 35.743
2021-10-09 16:38:53 [2][20UPGFC0009331] 1069 1496 21.6735 1015 1450 18.6637 1029 1460 19.5829 1029 1472 20.825
2021-10-09 16:38:54 [3][20UPGFC0009315] 1108 1537 25.1843 1042 1483 25.3598 1019 1468 25.6494 1016 1467 24.5361
2021-10-09 16:38:55 [0][20UPGFC0009283] 1133 1565 28.1085 1061 1502 26.7139 1043 1495 31.9795 1043 1496 27.112
2021-10-09 16:38:56 [1][20UPGFC0009299] 1182 1623 32.5367 1135 1583 34.6147 1098 1558 36.8912 1099 1554 35.743
2021-10-09 16:38:57 [2][20UPGFC0009331] 1069 1497 22.364 1017 1451 17.9928 1029 1460 19.5829 1030 1472 20.1614
2021-10-09 16:38:58 [3][20UPGFC0009315] 1108 1537 25.1843 1042 1482 24.6829 1019 1469 26.3149 1016 1467 24.5361
2021-10-09 16:38:59 [0][20UPGFC0009283] 1133 1565 28.1085 1061 1503 27.394 1043 1495 31.9795 1043 1497 27.775
2021-10-09 16:39:00 [1][20UPGFC0009299] 1182 1623 32.5367 1135 1582 33.9277 1098 1557 36.2171 1099 1553 35.0641
2021-10-09 16:39:01 [2][20UPGFC0009331] 1069 1497 22.364 1016 1450 17.9929 1029 1460 19.5829 1028 1471 20.825
2021-10-09 16:39:02 [3][20UPGFC0009315] 1109 1537 24.4889 1043 1483 24.683 1019 1469 26.3149 1017 1469 25.1962
2021-10-09 16:39:03 [0][20UPGFC0009283] 1134 1565 27.4112 1061 1503 27.394 1043 1496 32.6544 1043 1496 27.112
2021-10-09 16:39:04 [1][20UPGFC0009299] 1183 1622 31.1504 1135 1583 34.6147 1098 1557 36.2171 1099 1554 35.743
2021-10-09 16:39:05 [2][20UPGFC0009331] 1068 1497 23.0545 1016 1450 17.9929 1029 1460 19.5829 1029 1473 21.4886
2021-10-09 16:39:06 [3][20UPGFC0009315] 1108 1537 25.1843 1042 1483 25.3598 1019 1469 26.3149 1017 1468 24.5362
2021-10-09 16:39:07 [0][20UPGFC0009283] 1134 1565 27.4112 1061 1502 26.7139 1043 1495 31.9795 1043 1496 27.112
2021-10-09 16:39:08 [1][20UPGFC0009299] 1183 1622 31.1504 1134 1583 35.3016 1098 1557 36.2171 1099 1554 35.743
2021-10-09 16:39:09 [2][20UPGFC0009331] 1068 1497 23.0545 1016 1449 17.3221 1028 1459 19.583 1029 1472 20.825
2021-10-09 16:39:10 [3][20UPGFC0009315] 1108 1538 25.8797 1042 1483 25.3598 1019 1469 26.3149 1016 1468 25.1962
2021-10-09 16:39:11 [0][20UPGFC0009283] 1132 1565 28.8058 1061 1503 27.394 1042 1495 32.6545 1043 1497 27.775
2021-10-09 16:39:12 [1][20UPGFC0009299] 1182 1623 32.5367 1134 1582 34.6147 1099 1557 35.5432 1099 1554 35.743
2021-10-09 16:39:13 [2][20UPGFC0009331] 1069 1496 21.6735 1016 1450 17.9929 1028 1460 20.2621 1028 1472 21.4886
2021-10-09 16:39:14 [3][20UPGFC0009315] 1108 1537 25.1843 1042 1483 25.3598 1019 1468 25.6494 1016 1469 25.8562
2021-10-09 16:39:15 [0][20UPGFC0009283] 1134 1566 28.1085 1061 1503 27.394 1043 1496 32.6544 1042 1496 27.7749
2021-10-09 16:39:16 [1][20UPGFC0009299] 1183 1623 31.8436 1135 1583 34.6147 1098 1557 36.2171 1099 1555 36.4218
2021-10-09 16:39:17 [2][20UPGFC0009331] 1068 1497 23.0545 1016 1450 17.9929 1028 1460 20.2621 1029 1472 20.825
2021-10-09 16:39:18 [3][20UPGFC0009315] 1108 1537 25.1843 1042 1482 24.6829 1018 1469 26.9803 1017 1468 24.5362
2021-10-09 16:39:19 [0][20UPGFC0009283] 1133 1565 28.1085 1060 1503 28.074 1043 1497 33.3296 1043 1497 27.775
2021-10-09 16:39:20 [1][20UPGFC0009299] 1183 1622 31.1504 1134 1582 34.6147 1098 1558 36.8912 1099 1554 35.743
2021-10-09 16:39:21 [2][20UPGFC0009331] 1068 1497 23.0545 1016 1450 17.9929 1028 1460 20.2621 1029 1472 20.825
2021-10-09 16:39:22 [3][20UPGFC0009315] 1109 1537 24.4889 1042 1483 25.3598 1019 1468 25.6494 1017 1469 25.1962
2021-10-09 16:39:23 [0][20UPGFC0009283] 1134 1565 27.4112 1061 1503 27.394 1043 1496 32.6544 1042 1496 27.7749
2021-10-09 16:39:24 [1][20UPGFC0009299] 1183 1623 31.8436 1135 1584 35.3017 1099 1558 36.2172 1099 1554 35.743
2021-10-09 16:39:25 [2][20UPGFC0009331] 1069 1497 22.364 1016 1450 17.9929 1029 1460 19.5829 1029 1472 20.825
2021-10-09 16:39:26 [3][20UPGFC0009315] 1108 1537 25.1843 1042 1482 24.6829 1019 1469 26.3149 1016 1468 25.1962
2021-10-09 16:39:27 [0][20UPGFC0009283] 1133 1565 28.1085 1061 1503 27.394 1043 1496 32.6544 1043 1496 27.112
2021-10-09 16:39:28 [1][20UPGFC0009299] 1182 1622 31.8435 1134 1582 34.6147 1098 1558 36.8912 1099 1554 35.743
2021-10-09 16:39:29 [2][20UPGFC0009331] 1068 1496 22.364 1015 1449 17.9929 1028 1460 20.2621 1029 1472 20.825
2021-10-09 16:39:30 [3][20UPGFC0009315] 1109 1538 25.1843 1042 1482 24.6829 1019 1469 26.3149 1017 1469 25.1962
2021-10-09 16:39:31 [0][20UPGFC0009283] 1134 1566 28.1085 1061 1503 27.394 1043 1496 32.6544 1043 1497 27.775
2021-10-09 16:39:32 [1][20UPGFC0009299] 1183 1622 31.1504 1135 1583 34.6147 1099 1558 36.2172 1100 1554 35.0641
2021-10-09 16:39:33 [2][20UPGFC0009331] 1069 1496 21.6735 1016 1450 17.9929 1028 1461 20.9413 1028 1472 21.4886
2021-10-09 16:39:34 [3][20UPGFC0009315] 1108 1537 25.1843 1043 1483 24.683 1019 1469 26.3149 1016 1468 25.1962
2021-10-09 16:39:35 [0][20UPGFC0009283] 1133 1565 28.1085 1061 1503 27.394 1044 1495 31.3044 1043 1496 27.112
2021-10-09 16:39:36 [1][20UPGFC0009299] 1183 1623 31.8436 1135 1583 34.6147 1098 1557 36.2171 1099 1554 35.743
2021-10-09 16:39:37 [2][20UPGFC0009331] 1070 1496 20.9831 1016 1449 17.3221 1029 1459 18.9038 1028 1472 21.4886
2021-10-09 16:39:38 [3][20UPGFC0009315] 1109 1537 24.4889 1042 1482 24.6829 1019 1470 26.9804 1016 1468 25.1962
2021-10-09 16:39:39 [0][20UPGFC0009283] 1134 1566 28.1085 1061 1503 27.394 1043 1496 32.6544 1041 1496 28.4377
2021-10-09 16:39:40 [1][20UPGFC0009299] 1183 1622 31.1504 1135 1583 34.6147 1099 1558 36.2172 1099 1554 35.743
2021-10-09 16:39:41 [2][20UPGFC0009331] 1068 1497 23.0545 1016 1450 17.9929 1029 1461 20.2622 1029 1473 21.4886
2021-10-09 16:39:42 [3][20UPGFC0009315] 1108 1538 25.8797 1043 1483 24.683 1019 1469 26.3149 1016 1468 25.1962
2021-10-09 16:39:43 [0][20UPGFC0009283] 1134 1565 27.4112 1061 1503 27.394 1043 1496 32.6544 1043 1497 27.775
2021-10-09 16:39:44 [1][20UPGFC0009299] 1183 1622 31.1504 1134 1583 35.3016 1098 1557 36.2171 1098 1552 35.0641
2021-10-09 16:39:45 [2][20UPGFC0009331] 1068 1497 23.0545 1016 1449 17.3221 1029 1460 19.5829 1030 1473 20.825
2021-10-09 16:39:46 [3][20UPGFC0009315] 1109 1537 24.4889 1043 1483 24.683 1019 1469 26.3149 1017 1468 24.5362
2021-10-09 16:39:47 [0][20UPGFC0009283] 1134 1565 27.4112 1061 1503 27.394 1043 1496 32.6544 1043 1497 27.775
2021-10-09 16:39:48 [1][20UPGFC0009299] 1182 1623 32.5367 1134 1582 34.6147 1098 1557 36.2171 1099 1553 35.0641
2021-10-09 16:39:49 [2][20UPGFC0009331] 1068 1497 23.0545 1016 1450 17.9929 1029 1460 19.5829 1029 1472 20.825
2021-10-09 16:39:50 [3][20UPGFC0009315] 1109 1537 24.4889 1043 1482 24.006 1019 1469 26.3149 1017 1468 24.5362
2021-10-09 16:39:51 [0][20UPGFC0009283] 1133 1566 28.8058 1062 1503 26.714 1043 1496 32.6544 1043 1497 27.775
2021-10-09 16:39:52 [1][20UPGFC0009299] 1182 1622 31.8435 1134 1583 35.3016 1098 1558 36.8912 1100 1554 35.0641
2021-10-09 16:39:53 [2][20UPGFC0009331] 1068 1497 23.0545 1016 1450 17.9929 1028 1460 20.2621 1029 1472 20.825
2021-10-09 16:39:54 [3][20UPGFC0009315] 1108 1537 25.1843 1043 1482 24.006 1019 1469 26.3149 1017 1468 24.5362
2021-10-09 16:39:55 [0][20UPGFC0009283] 1134 1566 28.1085 1061 1503 27.394 1043 1496 32.6544 1042 1496 27.7749
2021-10-09 16:39:56 [1][20UPGFC0009299] 1182 1622 31.8435 1134 1583 35.3016 1098 1558 36.8912 1099 1554 35.743
2021-10-09 16:39:57 [2][20UPGFC0009331] 1068 1497 23.0545 1016 1450 17.9929 1028 1460 20.2621 1029 1472 20.825
2021-10-09 16:39:58 [3][20UPGFC0009315] 1109 1537 24.4889 1042 1483 25.3598 1019 1469 26.3149 1016 1468 25.1962
2021-10-09 16:39:59 [0][20UPGFC0009283] 1132 1565 28.8058 1060 1502 27.3939 1043 1496 32.6544 1043 1496 27.112
2021-10-09 16:40:00 [1][20UPGFC0009299] 1182 1622 31.8435 1134 1582 34.6147 1098 1557 36.2171 1099 1554 35.743
2021-10-09 16:40:01 [2][20UPGFC0009331] 1068 1497 23.0545 1017 1450 17.322 1029 1460 19.5829 1029 1473 21.4886
2021-10-09 16:40:02 [3][20UPGFC0009315] 1108 1538 25.8797 1042 1483 25.3598 1019 1469 26.3149 1017 1468 24.5362
2021-10-09 16:40:03 [0][20UPGFC0009283] 1134 1566 28.1085 1061 1503 27.394 1043 1495 31.9795 1042 1496 27.7749
2021-10-09 16:40:04 [1][20UPGFC0009299] 1183 1623 31.8436 1135 1583 34.6147 1098 1558 36.8912 1100 1554 35.0641
2021-10-09 16:40:05 [2][20UPGFC0009331] 1069 1496 21.6735 1015 1450 18.6637 1029 1460 19.5829 1029 1472 20.825
2021-10-09 16:40:06 [3][20UPGFC0009315] 1108 1537 25.1843 1043 1483 24.683 1018 1469 26.9803 1016 1468 25.1962
2021-10-09 16:40:07 [0][20UPGFC0009283] 1133 1565 28.1085 1061 1503 27.394 1043 1495 31.9795 1043 1497 27.775
2021-10-09 16:40:08 [1][20UPGFC0009299] 1183 1623 31.8436 1135 1583 34.6147 1098 1557 36.2171 1100 1554 35.0641
2021-10-09 16:40:09 [2][20UPGFC0009331] 1068 1497 23.0545 1016 1449 17.3221 1028 1460 20.2621 1029 1473 21.4886
2021-10-09 16:40:10 [3][20UPGFC0009315] 1108 1537 25.1843 1042 1483 25.3598 1018 1469 26.9803 1016 1468 25.1962
2021-10-09 16:40:11 [0][20UPGFC0009283] 1133 1565 28.1085 1062 1503 26.714 1043 1497 33.3296 1043 1497 27.775
2021-10-09 16:40:12 [1][20UPGFC0009299] 1184 1621 29.7641 1134 1582 34.6147 1098 1558 36.8912 1099 1554 35.743
2021-10-09 16:40:13 [2][20UPGFC0009331] 1068 1497 23.0545 1016 1449 17.3221 1028 1460 20.2621 1029 1472 20.825
2021-10-09 16:40:14 [3][20UPGFC0009315] 1108 1537 25.1843 1042 1483 25.3598 1018 1469 26.9803 1016 1469 25.8562
2021-10-09 16:40:15 [0][20UPGFC0009283] 1133 1565 28.1085 1061 1503 27.394 1043 1495 31.9795 1042 1496 27.7749
2021-10-09 16:40:16 [1][20UPGFC0009299] 1183 1622 31.1504 1135 1583 34.6147 1099 1558 36.2172 1100 1555 35.7429
2021-10-09 16:40:17 [2][20UPGFC0009331] 1068 1496 22.364 1016 1449 17.3221 1028 1460 20.2621 1028 1472 21.4886
2021-10-09 16:40:18 [3][20UPGFC0009315] 1108 1537 25.1843 1042 1482 24.6829 1019 1468 25.6494 1016 1468 25.1962
2021-10-09 16:40:19 [0][20UPGFC0009283] 1134 1566 28.1085 1062 1502 26.034 1043 1496 32.6544 1043 1498 28.4378
2021-10-09 16:40:20 [1][20UPGFC0009299] 1183 1623 31.8436 1135 1584 35.3017 1099 1558 36.2172 1099 1554 35.743
2021-10-09 16:40:21 [2][20UPGFC0009331] 1069 1497 22.364 1016 1450 17.9929 1028 1460 20.2621 1029 1473 21.4886
2021-10-09 16:40:22 [3][20UPGFC0009315] 1109 1537 24.4889 1042 1482 24.6829 1019 1469 26.3149 1016 1468 25.1962
2021-10-09 16:40:23 [0][20UPGFC0009283] 1134 1565 27.4112 1061 1502 26.7139 1043 1495 31.9795 1042 1497 28.4378
2021-10-09 16:40:24 [1][20UPGFC0009299] 1183 1624 32.5368 1135 1583 34.6147 1098 1558 36.8912 1100 1553 34.3851
2021-10-09 16:40:25 [2][20UPGFC0009331] 1069 1497 22.364 1016 1450 17.9929 1028 1460 20.2621 1028 1472 21.4886
2021-10-09 16:40:26 [3][20UPGFC0009315] 1108 1537 25.1843 1042 1482 24.6829 1018 1468 26.3149 1016 1468 25.1962
2021-10-09 16:40:27 [0][20UPGFC0009283] 1134 1566 28.1085 1061 1504 28.0739 1044 1497 32.6545 1043 1497 27.775
2021-10-09 16:40:28 [1][20UPGFC0009299] 1184 1623 31.1504 1134 1584 35.9886 1098 1558 36.8912 1099 1555 36.4218
2021-10-09 16:40:29 [2][20UPGFC0009331] 1067 1496 23.0544 1016 1449 17.3221 1028 1459 19.583 1028 1472 21.4886
2021-10-09 16:40:30 [3][20UPGFC0009315] 1108 1537 25.1843 1043 1482 24.006 1018 1469 26.9803 1016 1468 25.1962
2021-10-09 16:40:31 [0][20UPGFC0009283] 1133 1565 28.1085 1061 1503 27.394 1043 1496 32.6544 1043 1496 27.112
2021-10-09 16:40:32 [1][20UPGFC0009299] 1183 1623 31.8436 1135 1583 34.6147 1098 1557 36.2171 1099 1553 35.0641
2021-10-09 16:40:33 [2][20UPGFC0009331] 1069 1496 21.6735 1016 1449 17.3221 1028 1460 20.2621 1028 1472 21.4886
2021-10-09 16:40:34 [3][20UPGFC0009315] 1108 1536 24.4888 1042 1482 24.6829 1018 1469 26.9803 1016 1467 24.5361
2021-10-09 16:40:35 [0][20UPGFC0009283] 1133 1565 28.1085 1061 1502 26.7139 1044 1495 31.3044 1043 1496 27.112
2021-10-09 16:40:36 [1][20UPGFC0009299] 1182 1623 32.5367 1135 1583 34.6147 1098 1558 36.8912 1099 1555 36.4218
2021-10-09 16:40:37 [2][20UPGFC0009331] 1068 1496 22.364 1016 1449 17.3221 1029 1460 19.5829 1028 1472 21.4886
2021-10-09 16:40:38 [3][20UPGFC0009315] 1108 1537 25.1843 1042 1483 25.3598 1018 1468 26.3149 1017 1468 24.5362
2021-10-09 16:40:39 [0][20UPGFC0009283] 1134 1565 27.4112 1062 1503 26.714 1043 1495 31.9795 1042 1496 27.7749
2021-10-09 16:40:40 [1][20UPGFC0009299] 1184 1623 31.1504 1135 1583 34.6147 1099 1558 36.2172 1098 1555 37.1007
2021-10-09 16:40:41 [2][20UPGFC0009331] 1068 1496 22.364 1016 1450 17.9929 1028 1460 20.2621 1029 1471 20.1614
2021-10-09 16:40:42 [3][20UPGFC0009315] 1108 1538 25.8797 1043 1483 24.683 1019 1469 26.3149 1017 1468 24.5362
2021-10-09 16:40:43 [0][20UPGFC0009283] 1134 1564 26.7137 1061 1502 26.7139 1043 1496 32.6544 1043 1497 27.775
2021-10-09 16:40:44 [1][20UPGFC0009299] 1183 1623 31.8436 1135 1583 34.6147 1098 1558 36.8912 1099 1553 35.0641
2021-10-09 16:40:45 [2][20UPGFC0009331] 1068 1496 22.364 1015 1450 18.6637 1028 1459 19.583 1029 1471 20.1614
2021-10-09 16:40:46 [3][20UPGFC0009315] 1108 1538 25.8797 1042 1483 25.3598 1019 1469 26.3149 1016 1468 25.1962
2021-10-09 16:40:47 [0][20UPGFC0009283] 1133 1565 28.1085 1061 1502 26.7139 1043 1495 31.9795 1042 1496 27.7749
2021-10-09 16:40:48 [1][20UPGFC0009299] 1184 1623 31.1504 1135 1583 34.6147 1098 1557 36.2171 1099 1553 35.0641
2021-10-09 16:40:49 [2][20UPGFC0009331] 1068 1497 23.0545 1016 1449 17.3221 1028 1460 20.2621 1029 1472 20.825
2021-10-09 16:40:50 [3][20UPGFC0009315] 1108 1537 25.1843 1043 1483 24.683 1019 1469 26.3149 1017 1468 24.5362
2021-10-09 16:40:51 [0][20UPGFC0009283] 1133 1566 28.8058 1061 1503 27.394 1043 1496 32.6544 1042 1496 27.7749
2021-10-09 16:40:52 [1][20UPGFC0009299] 1184 1623 31.1504 1134 1583 35.3016 1099 1558 36.2172 1100 1554 35.0641
2021-10-09 16:40:53 [2][20UPGFC0009331] 1067 1496 23.0544 1015 1449 17.9929 1028 1460 20.2621 1029 1471 20.1614
2021-10-09 16:40:54 [3][20UPGFC0009315] 1108 1537 25.1843 1042 1483 25.3598 1019 1469 26.3149 1016 1468 25.1962
2021-10-09 16:40:55 [0][20UPGFC0009283] 1134 1566 28.1085 1062 1503 26.714 1043 1496 32.6544 1043 1497 27.775
2021-10-09 16:40:56 [1][20UPGFC0009299] 1183 1624 32.5368 1136 1584 34.6147 1099 1557 35.5432 1100 1554 35.0641
2021-10-09 16:40:57 [2][20UPGFC0009331] 1068 1497 23.0545 1016 1450 17.9929 1028 1460 20.2621 1029 1472 20.825
2021-10-09 16:40:58 [3][20UPGFC0009315] 1109 1537 24.4889 1042 1482 24.6829 1018 1469 26.9803 1016 1468 25.1962
2021-10-09 16:40:59 [0][20UPGFC0009283] 1134 1566 28.1085 1061 1503 27.394 1043 1496 32.6544 1043 1496 27.112
2021-10-09 16:41:00 [1][20UPGFC0009299] 1183 1623 31.8436 1135 1583 34.6147 1098 1558 36.8912 1099 1554 35.743
2021-10-09 16:41:01 [2][20UPGFC0009331] 1068 1496 22.364 1016 1449 17.3221 1029 1460 19.5829 1028 1472 21.4886
2021-10-09 16:41:02 [3][20UPGFC0009315] 1108 1537 25.1843 1042 1483 25.3598 1019 1469 26.3149 1017 1468 24.5362
2021-10-09 16:41:03 [0][20UPGFC0009283] 1133 1565 28.1085 1061 1503 27.394 1043 1496 32.6544 1043 1496 27.112
2021-10-09 16:41:04 [1][20UPGFC0009299] 1184 1623 31.1504 1135 1583 34.6147 1099 1557 35.5432 1100 1554 35.0641
2021-10-09 16:41:05 [2][20UPGFC0009331] 1068 1497 23.0545 1016 1450 17.9929 1029 1460 19.5829 1029 1472 20.825
2021-10-09 16:41:06 [3][20UPGFC0009315] 1108 1537 25.1843 1042 1483 25.3598 1019 1469 26.3149 1017 1468 24.5362
2021-10-09 16:41:07 [0][20UPGFC0009283] 1133 1565 28.1085 1061 1502 26.7139 1043 1496 32.6544 1043 1497 27.775
2021-10-09 16:41:08 [1][20UPGFC0009299] 1184 1624 31.8436 1135 1584 35.3017 1099 1559 36.8912 1099 1555 36.4218
2021-10-09 16:41:09 [2][20UPGFC0009331] 1068 1497 23.0545 1016 1450 17.9929 1029 1460 19.5829 1029 1473 21.4886
2021-10-09 16:41:10 [3][20UPGFC0009315] 1109 1538 25.1843 1043 1483 24.683 1019 1469 26.3149 1017 1469 25.1962
2021-10-09 16:41:11 [0][20UPGFC0009283] 1133 1566 28.8058 1061 1503 27.394 1043 1496 32.6544 1043 1497 27.775
2021-10-09 16:41:12 [1][20UPGFC0009299] 1183 1623 31.8436 1136 1583 33.9276 1099 1558 36.2172 1100 1554 35.0641
2021-10-09 16:41:13 [2][20UPGFC0009331] 1068 1497 23.0545 1017 1449 16.6512 1029 1460 19.5829 1029 1472 20.825
2021-10-09 16:41:14 [3][20UPGFC0009315] 1108 1537 25.1843 1042 1482 24.6829 1018 1469 26.9803 1016 1468 25.1962
2021-10-09 16:41:15 [0][20UPGFC0009283] 1134 1565 27.4112 1062 1503 26.714 1043 1496 32.6544 1044 1497 27.1122
2021-10-09 16:41:16 [1][20UPGFC0009299] 1183 1623 31.8436 1136 1583 33.9276 1099 1558 36.2172 1099 1554 35.743
2021-10-09 16:41:17 [2][20UPGFC0009331] 1068 1497 23.0545 1016 1450 17.9929 1029 1460 19.5829 1029 1472 20.825
2021-10-09 16:41:18 [3][20UPGFC0009315] 1108 1538 25.8797 1043 1483 24.683 1019 1469 26.3149 1017 1468 24.5362
2021-10-09 16:41:19 [0][20UPGFC0009283] 1134 1565 27.4112 1061 1504 28.0739 1044 1496 31.9793 1043 1497 27.775
2021-10-09 16:41:20 [1][20UPGFC0009299] 1184 1623 31.1504 1135 1583 34.6147 1099 1558 36.2172 1099 1554 35.743
2021-10-09 16:41:21 [2][20UPGFC0009331] 1069 1497 22.364 1016 1450 17.9929 1028 1460 20.2621 1029 1472 20.825
2021-10-09 16:41:22 [3][20UPGFC0009315] 1108 1537 25.1843 1042 1483 25.3598 1018 1469 26.9803 1016 1468 25.1962
2021-10-09 16:41:23 [0][20UPGFC0009283] 1134 1567 28.8058 1061 1503 27.394 1043 1497 33.3296 1043 1497 27.775
2021-10-09 16:41:25 [1][20UPGFC0009299] 1184 1623 31.1504 1135 1584 35.3017 1099 1558 36.2172 1100 1554 35.0641
2021-10-09 16:41:26 [2][20UPGFC0009331] 1068 1496 22.364 1016 1449 17.3221 1029 1460 19.5829 1028 1472 21.4886
2021-10-09 16:41:27 [3][20UPGFC0009315] 1108 1537 25.1843 1043 1482 24.006 1019 1469 26.3149 1017 1468 24.5362
2021-10-09 16:41:28 [0][20UPGFC0009283] 1135 1566 27.4112 1061 1502 26.7139 1043 1496 32.6544 1043 1497 27.775
2021-10-09 16:41:29 [1][20UPGFC0009299] 1183 1623 31.8436 1135 1584 35.3017 1099 1558 36.2172 1101 1554 34.3852
2021-10-09 16:41:30 [2][20UPGFC0009331] 1068 1497 23.0545 1016 1450 17.9929 1028 1460 20.2621 1028 1472 21.4886
2021-10-09 16:41:31 [3][20UPGFC0009315] 1109 1537 24.4889 1043 1483 24.683 1019 1469 26.3149 1016 1468 25.1962
2021-10-09 16:41:32 [0][20UPGFC0009283] 1134 1566 28.1085 1062 1503 26.714 1044 1496 31.9793 1043 1497 27.775
2021-10-09 16:41:33 [1][20UPGFC0009299] 1183 1622 31.1504 1135 1583 34.6147 1099 1558 36.2172 1100 1555 35.7429
2021-10-09 16:41:34 [2][20UPGFC0009331] 1068 1497 23.0545 1016 1450 17.9929 1029 1460 19.5829 1028 1472 21.4886
2021-10-09 16:41:35 [3][20UPGFC0009315] 1108 1538 25.8797 1042 1483 25.3598 1019 1469 26.3149 1016 1468 25.1962
2021-10-09 16:41:36 [0][20UPGFC0009283] 1134 1565 27.4112 1061 1503 27.394 1043 1496 32.6544 1043 1497 27.775
2021-10-09 16:41:37 [1][20UPGFC0009299] 1184 1623 31.1504 1136 1584 34.6147 1099 1559 36.8912 1100 1555 35.7429
2021-10-09 16:41:38 [2][20UPGFC0009331] 1069 1497 22.364 1016 1449 17.3221 1029 1460 19.5829 1028 1473 22.1521
2021-10-09 16:41:39 [3][20UPGFC0009315] 1108 1538 25.8797 1042 1483 25.3598 1019 1469 26.3149 1017 1467 23.8761
2021-10-09 16:41:40 [0][20UPGFC0009283] 1133 1566 28.8058 1061 1503 27.394 1043 1496 32.6544 1043 1496 27.112
2021-10-09 16:41:41 [1][20UPGFC0009299] 1183 1623 31.8436 1135 1584 35.3017 1099 1558 36.2172 1100 1556 36.4218
2021-10-09 16:41:42 [2][20UPGFC0009331] 1068 1497 23.0545 1016 1450 17.9929 1028 1461 20.9413 1029 1472 20.825
2021-10-09 16:41:43 [3][20UPGFC0009315] 1109 1538 25.1843 1042 1483 25.3598 1019 1469 26.3149 1016 1468 25.1962
2021-10-09 16:41:44 [0][20UPGFC0009283] 1134 1565 27.4112 1061 1504 28.0739 1043 1496 32.6544 1043 1497 27.775
2021-10-09 16:41:45 [1][20UPGFC0009299] 1184 1623 31.1504 1136 1584 34.6147 1099 1559 36.8912 1100 1555 35.7429
2021-10-09 16:41:46 [2][20UPGFC0009331] 1069 1497 22.364 1016 1450 17.9929 1029 1460 19.5829 1029 1472 20.825
2021-10-09 16:41:47 [3][20UPGFC0009315] 1109 1538 25.1843 1043 1484 25.3598 1019 1469 26.3149 1016 1469 25.8562
2021-10-09 16:41:48 [0][20UPGFC0009283] 1135 1565 26.7138 1062 1503 26.714 1043 1496 32.6544 1043 1497 27.775
2021-10-09 16:41:49 [1][20UPGFC0009299] 1183 1623 31.8436 1136 1584 34.6147 1099 1558 36.2172 1099 1555 36.4218
2021-10-09 16:41:50 [2][20UPGFC0009331] 1068 1496 22.364 1016 1449 17.3221 1029 1461 20.2622 1029 1472 20.825
2021-10-09 16:41:51 [3][20UPGFC0009315] 1108 1538 25.8797 1043 1483 24.683 1018 1468 26.3149 1017 1468 24.5362
2021-10-09 16:41:52 [0][20UPGFC0009283] 1134 1565 27.4112 1061 1503 27.394 1043 1496 32.6544 1043 1496 27.112
2021-10-09 16:41:53 [1][20UPGFC0009299] 1184 1623 31.1504 1135 1584 35.3017 1099 1559 36.8912 1100 1555 35.7429
2021-10-09 16:41:54 [2][20UPGFC0009331] 1069 1496 21.6735 1016 1450 17.9929 1028 1460 20.2621 1028 1472 21.4886
2021-10-09 16:41:55 [3][20UPGFC0009315] 1109 1538 25.1843 1043 1483 24.683 1019 1469 26.3149 1017 1468 24.5362
2021-10-09 16:41:56 [0][20UPGFC0009283] 1133 1565 28.1085 1062 1503 26.714 1043 1495 31.9795 1043 1497 27.775
2021-10-09 16:41:57 [1][20UPGFC0009299] 1184 1623 31.1504 1135 1584 35.3017 1099 1558 36.2172 1100 1555 35.7429
2021-10-09 16:41:58 [2][20UPGFC0009331] 1069 1496 21.6735 1016 1450 17.9929 1029 1460 19.5829 1029 1473 21.4886
2021-10-09 16:41:59 [3][20UPGFC0009315] 1109 1537 24.4889 1043 1483 24.683 1019 1469 26.3149 1017 1468 24.5362
2021-10-09 16:42:00 [0][20UPGFC0009283] 1134 1566 28.1085 1061 1504 28.0739 1043 1497 33.3296 1043 1497 27.775
2021-10-09 16:42:01 [1][20UPGFC0009299] 1183 1623 31.8436 1136 1584 34.6147 1099 1558 36.2172 1100 1554 35.0641
2021-10-09 16:42:02 [2][20UPGFC0009331] 1069 1497 22.364 1017 1450 17.322 1029 1460 19.5829 1030 1472 20.1614
2021-10-09 16:42:03 [3][20UPGFC0009315] 1109 1537 24.4889 1042 1482 24.6829 1018 1468 26.3149 1016 1468 25.1962
2021-10-09 16:42:04 [0][20UPGFC0009283] 1134 1566 28.1085 1061 1503 27.394 1044 1496 31.9793 1044 1497 27.1122
2021-10-09 16:42:05 [1][20UPGFC0009299] 1183 1623 31.8436 1135 1583 34.6147 1099 1558 36.2172 1100 1555 35.7429
2021-10-09 16:42:06 [2][20UPGFC0009331] 1069 1498 23.0545 1016 1450 17.9929 1029 1460 19.5829 1029 1472 20.825
2021-10-09 16:42:07 [3][20UPGFC0009315] 1109 1538 25.1843 1042 1483 25.3598 1019 1469 26.3149 1016 1469 25.8562
2021-10-09 16:42:08 [0][20UPGFC0009283] 1134 1566 28.1085 1062 1503 26.714 1043 1496 32.6544 1044 1499 28.4378
2021-10-09 16:42:09 [1][20UPGFC0009299] 1183 1623 31.8436 1135 1584 35.3017 1099 1557 35.5432 1101 1555 35.064
2021-10-09 16:42:10 [2][20UPGFC0009331] 1068 1498 23.7449 1016 1450 17.9929 1029 1461 20.2622 1029 1473 21.4886
2021-10-09 16:42:11 [3][20UPGFC0009315] 1109 1537 24.4889 1043 1483 24.683 1020 1469 25.6494 1017 1469 25.1962
2021-10-09 16:42:12 [0][20UPGFC0009283] 1133 1565 28.1085 1061 1502 26.7139 1043 1495 31.9795 1044 1496 26.4492
2021-10-09 16:42:13 [1][20UPGFC0009299] 1184 1623 31.1504 1135 1584 35.3017 1099 1558 36.2172 1100 1555 35.7429
2021-10-09 16:42:14 [2][20UPGFC0009331] 1069 1496 21.6735 1016 1450 17.9929 1029 1460 19.5829 1029 1472 20.825
2021-10-09 16:42:15 [3][20UPGFC0009315] 1109 1538 25.1843 1043 1483 24.683 1019 1470 26.9804 1016 1469 25.8562
2021-10-09 16:42:16 [0][20UPGFC0009283] 1134 1565 27.4112 1061 1503 27.394 1043 1496 32.6544 1043 1497 27.775
2021-10-09 16:42:17 [1][20UPGFC0009299] 1185 1623 30.4573 1135 1584 35.3017 1100 1558 35.5432 1100 1556 36.4218
2021-10-09 16:42:18 [2][20UPGFC0009331] 1069 1497 22.364 1016 1450 17.9929 1029 1460 19.5829 1029 1473 21.4886
2021-10-09 16:42:19 [3][20UPGFC0009315] 1108 1538 25.8797 1043 1483 24.683 1019 1468 25.6494 1017 1469 25.1962
2021-10-09 16:42:20 [0][20UPGFC0009283] 1135 1566 27.4112 1061 1503 27.394 1044 1496 31.9793 1043 1497 27.775
2021-10-09 16:42:21 [1][20UPGFC0009299] 1184 1623 31.1504 1135 1583 34.6147 1099 1558 36.2172 1100 1554 35.0641
2021-10-09 16:42:22 [2][20UPGFC0009331] 1069 1497 22.364 1016 1449 17.3221 1029 1460 19.5829 1029 1472 20.825
2021-10-09 16:42:23 [3][20UPGFC0009315] 1109 1537 24.4889 1043 1482 24.006 1020 1469 25.6494 1017 1468 24.5362
2021-10-09 16:42:24 [0][20UPGFC0009283] 1134 1566 28.1085 1062 1503 26.714 1043 1497 33.3296 1044 1497 27.1122
2021-10-09 16:42:25 [1][20UPGFC0009299] 1183 1623 31.8436 1135 1583 34.6147 1098 1558 36.8912 1100 1555 35.7429
2021-10-09 16:42:26 [2][20UPGFC0009331] 1069 1497 22.364 1015 1450 18.6637 1029 1460 19.5829 1029 1473 21.4886
2021-10-09 16:42:27 [3][20UPGFC0009315] 1109 1538 25.1843 1043 1482 24.006 1019 1469 26.3149 1016 1468 25.1962
2021-10-09 16:42:28 [0][20UPGFC0009283] 1134 1565 27.4112 1061 1503 27.394 1044 1496 31.9793 1044 1497 27.1122
2021-10-09 16:42:29 [1][20UPGFC0009299] 1184 1623 31.1504 1136 1584 34.6147 1100 1558 35.5432 1100 1555 35.7429
2021-10-09 16:42:30 [2][20UPGFC0009331] 1068 1496 22.364 1016 1450 17.9929 1029 1460 19.5829 1029 1471 20.1614
2021-10-09 16:42:31 [3][20UPGFC0009315] 1108 1537 25.1843 1042 1482 24.6829 1019 1469 26.3149 1017 1468 24.5362
2021-10-09 16:42:32 [0][20UPGFC0009283] 1135 1565 26.7138 1062 1503 26.714 1043 1496 32.6544 1043 1497 27.775
2021-10-09 16:42:33 [1][20UPGFC0009299] 1184 1624 31.8436 1135 1584 35.3017 1099 1559 36.8912 1100 1555 35.7429
2021-10-09 16:42:34 [2][20UPGFC0009331] 1069 1497 22.364 1016 1450 17.9929 1029 1460 19.5829 1029 1472 20.825
2021-10-09 16:42:35 [3][20UPGFC0009315] 1109 1537 24.4889 1042 1483 25.3598 1019 1469 26.3149 1016 1468 25.1962
2021-10-09 16:42:36 [0][20UPGFC0009283] 1134 1566 28.1085 1062 1503 26.714 1043 1497 33.3296 1043 1497 27.775
2021-10-09 16:42:37 [1][20UPGFC0009299] 1184 1623 31.1504 1135 1583 34.6147 1099 1558 36.2172 1100 1555 35.7429
2021-10-09 16:42:38 [2][20UPGFC0009331] 1068 1496 22.364 1016 1450 17.9929 1029 1461 20.2622 1029 1473 21.4886
2021-10-09 16:42:39 [3][20UPGFC0009315] 1109 1537 24.4889 1042 1482 24.6829 1019 1469 26.3149 1016 1468 25.1962
2021-10-09 16:42:40 [0][20UPGFC0009283] 1134 1565 27.4112 1062 1504 27.394 1044 1496 31.9793 1043 1497 27.775
2021-10-09 16:42:41 [1][20UPGFC0009299] 1183 1623 31.8436 1136 1584 34.6147 1099 1558 36.2172 1099 1554 35.743
2021-10-09 16:42:42 [2][20UPGFC0009331] 1068 1497 23.0545 1017 1449 16.6512 1029 1460 19.5829 1029 1472 20.825
2021-10-09 16:42:43 [3][20UPGFC0009315] 1108 1536 24.4888 1042 1483 25.3598 1019 1469 26.3149 1016 1468 25.1962
2021-10-09 16:42:44 [0][20UPGFC0009283] 1134 1565 27.4112 1061 1503 27.394 1044 1496 31.9793 1043 1497 27.775
2021-10-09 16:42:45 [1][20UPGFC0009299] 1183 1623 31.8436 1135 1583 34.6147 1098 1557 36.2171 1099 1554 35.743
2021-10-09 16:42:46 [2][20UPGFC0009331] 1069 1497 22.364 1016 1450 17.9929 1029 1460 19.5829 1029 1472 20.825
2021-10-09 16:42:47 [3][20UPGFC0009315] 1109 1538 25.1843 1042 1483 25.3598 1020 1469 25.6494 1017 1469 25.1962
2021-10-09 16:42:48 [0][20UPGFC0009283] 1134 1566 28.1085 1062 1504 27.394 1044 1496 31.9793 1043 1497 27.775
2021-10-09 16:42:49 [1][20UPGFC0009299] 1184 1622 30.4572 1135 1583 34.6147 1098 1558 36.8912 1100 1555 35.7429
2021-10-09 16:42:50 [2][20UPGFC0009331] 1069 1498 23.0545 1017 1450 17.322 1029 1460 19.5829 1029 1473 21.4886
2021-10-09 16:42:51 [3][20UPGFC0009315] 1109 1537 24.4889 1043 1483 24.683 1020 1469 25.6494 1017 1468 24.5362
2021-10-09 16:42:52 [0][20UPGFC0009283] 1133 1566 28.8058 1062 1504 27.394 1044 1496 31.9793 1043 1498 28.4378
2021-10-09 16:42:53 [1][20UPGFC0009299] 1183 1623 31.8436 1135 1583 34.6147 1099 1558 36.2172 1100 1554 35.0641
2021-10-09 16:42:54 [2][20UPGFC0009331] 1069 1498 23.0545 1016 1451 18.6637 1029 1459 18.9038 1029 1471 20.1614
2021-10-09 16:42:55 [3][20UPGFC0009315] 1109 1537 24.4889 1043 1483 24.683 1019 1470 26.9804 1017 1469 25.1962
2021-10-09 16:42:56 [0][20UPGFC0009283] 1134 1565 27.4112 1062 1503 26.714 1044 1496 31.9793 1043 1497 27.775
2021-10-09 16:42:57 [1][20UPGFC0009299] 1184 1623 31.1504 1135 1584 35.3017 1099 1557 35.5432 1100 1554 35.0641
2021-10-09 16:42:58 [2][20UPGFC0009331] 1070 1497 21.6736 1016 1449 17.3221 1029 1461 20.2622 1029 1472 20.825
2021-10-09 16:42:59 [3][20UPGFC0009315] 1109 1537 24.4889 1042 1482 24.6829 1019 1468 25.6494 1017 1468 24.5362
2021-10-09 16:43:00 [0][20UPGFC0009283] 1133 1565 28.1085 1061 1503 27.394 1044 1497 32.6545 1043 1497 27.775
2021-10-09 16:43:01 [1][20UPGFC0009299] 1184 1623 31.1504 1135 1585 35.9886 1099 1557 35.5432 1100 1555 35.7429
2021-10-09 16:43:02 [2][20UPGFC0009331] 1069 1498 23.0545 1016 1450 17.9929 1029 1460 19.5829 1028 1473 22.1521
2021-10-09 16:43:03 [3][20UPGFC0009315] 1109 1538 25.1843 1042 1482 24.6829 1018 1469 26.9803 1016 1468 25.1962
2021-10-09 16:43:04 [0][20UPGFC0009283] 1134 1566 28.1085 1061 1503 27.394 1043 1497 33.3296 1043 1497 27.775
2021-10-09 16:43:05 [1][20UPGFC0009299] 1183 1624 32.5368 1135 1583 34.6147 1099 1558 36.2172 1100 1553 34.3851
2021-10-09 16:43:06 [2][20UPGFC0009331] 1068 1497 23.0545 1017 1449 16.6512 1028 1460 20.2621 1029 1472 20.825
2021-10-09 16:43:07 [3][20UPGFC0009315] 1109 1538 25.1843 1042 1482 24.6829 1019 1470 26.9804 1016 1468 25.1962
2021-10-09 16:43:08 [0][20UPGFC0009283] 1134 1566 28.1085 1061 1503 27.394 1043 1496 32.6544 1043 1497 27.775
2021-10-09 16:43:09 [1][20UPGFC0009299] 1183 1623 31.8436 1135 1583 34.6147 1098 1557 36.2171 1100 1554 35.0641
2021-10-09 16:43:10 [2][20UPGFC0009331] 1069 1498 23.0545 1016 1450 17.9929 1029 1460 19.5829 1029 1473 21.4886
2021-10-09 16:43:11 [3][20UPGFC0009315] 1109 1537 24.4889 1043 1482 24.006 1019 1469 26.3149 1017 1468 24.5362
2021-10-09 16:43:12 [0][20UPGFC0009283] 1134 1565 27.4112 1061 1503 27.394 1044 1496 31.9793 1043 1497 27.775
2021-10-09 16:43:13 [1][20UPGFC0009299] 1184 1623 31.1504 1135 1585 35.9886 1099 1558 36.2172 1099 1554 35.743
2021-10-09 16:43:14 [2][20UPGFC0009331] 1069 1497 22.364 1016 1449 17.3221 1029 1460 19.5829 1029 1471 20.1614
2021-10-09 16:43:15 [3][20UPGFC0009315] 1109 1538 25.1843 1043 1483 24.683 1020 1470 26.3149 1017 1469 25.1962
2021-10-09 16:43:16 [0][20UPGFC0009283] 1133 1565 28.1085 1061 1503 27.394 1044 1496 31.9793 1043 1496 27.112
2021-10-09 16:43:17 [1][20UPGFC0009299] 1183 1622 31.1504 1136 1584 34.6147 1099 1559 36.8912 1100 1554 35.0641
2021-10-09 16:43:18 [2][20UPGFC0009331] 1069 1496 21.6735 1017 1450 17.322 1029 1461 20.2622 1029 1473 21.4886
2021-10-09 16:43:19 [3][20UPGFC0009315] 1109 1538 25.1843 1043 1483 24.683 1020 1469 25.6494 1017 1468 24.5362
2021-10-09 16:43:20 [0][20UPGFC0009283] 1134 1565 27.4112 1061 1503 27.394 1044 1496 31.9793 1043 1497 27.775
2021-10-09 16:43:21 [1][20UPGFC0009299] 1184 1624 31.8436 1136 1584 34.6147 1099 1558 36.2172 1100 1555 35.7429
2021-10-09 16:43:22 [2][20UPGFC0009331] 1069 1497 22.364 1016 1450 17.9929 1029 1461 20.2622 1029 1471 20.1614
2021-10-09 16:43:23 [3][20UPGFC0009315] 1109 1538 25.1843 1042 1482 24.6829 1019 1469 26.3149 1016 1468 25.1962
2021-10-09 16:43:24 [0][20UPGFC0009283] 1134 1566 28.1085 1062 1503 26.714 1044 1496 31.9793 1043 1496 27.112
2021-10-09 16:43:25 [1][20UPGFC0009299] 1184 1623 31.1504 1135 1584 35.3017 1099 1559 36.8912 1099 1554 35.743
2021-10-09 16:43:26 [2][20UPGFC0009331] 1069 1497 22.364 1016 1450 17.9929 1029 1460 19.5829 1029 1473 21.4886
2021-10-09 16:43:27 [3][20UPGFC0009315] 1108 1537 25.1843 1042 1483 25.3598 1019 1468 25.6494 1017 1468 24.5362
2021-10-09 16:43:28 [0][20UPGFC0009283] 1134 1565 27.4112 1062 1502 26.034 1043 1496 32.6544 1043 1497 27.775
2021-10-09 16:43:29 [1][20UPGFC0009299] 1184 1624 31.8436 1136 1584 34.6147 1099 1558 36.2172 1100 1555 35.7429
2021-10-09 16:43:30 [2][20UPGFC0009331] 1069 1498 23.0545 1017 1450 17.322 1029 1460 19.5829 1029 1472 20.825
2021-10-09 16:43:31 [3][20UPGFC0009315] 1109 1538 25.1843 1043 1483 24.683 1019 1468 25.6494 1017 1468 24.5362
2021-10-09 16:43:32 [0][20UPGFC0009283] 1134 1565 27.4112 1061 1502 26.7139 1044 1496 31.9793 1043 1497 27.775
2021-10-09 16:43:33 [1][20UPGFC0009299] 1184 1623 31.1504 1135 1584 35.3017 1099 1558 36.2172 1099 1554 35.743
2021-10-09 16:43:34 [2][20UPGFC0009331] 1069 1496 21.6735 1016 1449 17.3221 1028 1460 20.2621 1028 1473 22.1521
2021-10-09 16:43:35 [3][20UPGFC0009315] 1108 1537 25.1843 1042 1483 25.3598 1018 1469 26.9803 1017 1468 24.5362
2021-10-09 16:43:36 [0][20UPGFC0009283] 1134 1566 28.1085 1062 1503 26.714 1043 1496 32.6544 1043 1496 27.112
2021-10-09 16:43:37 [1][20UPGFC0009299] 1184 1623 31.1504 1136 1584 34.6147 1100 1558 35.5432 1101 1555 35.064
2021-10-09 16:43:38 [2][20UPGFC0009331] 1069 1497 22.364 1016 1449 17.3221 1029 1460 19.5829 1029 1473 21.4886
2021-10-09 16:43:39 [3][20UPGFC0009315] 1108 1537 25.1843 1043 1482 24.006 1019 1469 26.3149 1016 1468 25.1962
2021-10-09 16:43:40 [0][20UPGFC0009283] 1134 1565 27.4112 1061 1503 27.394 1043 1496 32.6544 1043 1497 27.775
2021-10-09 16:43:41 [1][20UPGFC0009299] 1184 1624 31.8436 1136 1584 34.6147 1099 1558 36.2172 1100 1555 35.7429
2021-10-09 16:43:42 [2][20UPGFC0009331] 1069 1497 22.364 1017 1451 17.9928 1029 1461 20.2622 1030 1473 20.825
2021-10-09 16:43:43 [3][20UPGFC0009315] 1108 1538 25.8797 1042 1482 24.6829 1019 1469 26.3149 1018 1468 23.8761
2021-10-09 16:43:44 [0][20UPGFC0009283] 1133 1565 28.1085 1061 1502 26.7139 1043 1495 31.9795 1042 1496 27.7749
2021-10-09 16:43:45 [1][20UPGFC0009299] 1183 1623 31.8436 1136 1584 34.6147 1099 1557 35.5432 1100 1553 34.3851
2021-10-09 16:43:46 [2][20UPGFC0009331] 1068 1496 22.364 1016 1450 17.9929 1029 1461 20.2622 1030 1473 20.825
2021-10-09 16:43:47 [3][20UPGFC0009315] 1109 1538 25.1843 1042 1483 25.3598 1019 1468 25.6494 1017 1469 25.1962
2021-10-09 16:43:48 [0][20UPGFC0009283] 1134 1564 26.7137 1061 1502 26.7139 1043 1495 31.9795 1043 1497 27.775
2021-10-09 16:43:49 [1][20UPGFC0009299] 1184 1625 32.5367 1136 1584 34.6147 1099 1558 36.2172 1100 1555 35.7429
2021-10-09 16:43:50 [2][20UPGFC0009331] 1069 1497 22.364 1016 1450 17.9929 1029 1461 20.2622 1029 1473 21.4886
2021-10-09 16:43:51 [3][20UPGFC0009315] 1109 1537 24.4889 1042 1483 25.3598 1019 1469 26.3149 1017 1468 24.5362
2021-10-09 16:43:52 [0][20UPGFC0009283] 1134 1565 27.4112 1061 1503 27.394 1043 1495 31.9795 1043 1497 27.775
2021-10-09 16:43:53 [1][20UPGFC0009299] 1184 1624 31.8436 1136 1583 33.9276 1100 1558 35.5432 1100 1555 35.7429
2021-10-09 16:43:54 [2][20UPGFC0009331] 1069 1498 23.0545 1016 1450 17.9929 1029 1461 20.2622 1029 1474 22.1521
2021-10-09 16:43:55 [3][20UPGFC0009315] 1108 1538 25.8797 1042 1483 25.3598 1019 1469 26.3149 1016 1468 25.1962
2021-10-09 16:43:56 [0][20UPGFC0009283] 1134 1565 27.4112 1061 1502 26.7139 1044 1495 31.3044 1043 1496 27.112
2021-10-09 16:43:57 [1][20UPGFC0009299] 1184 1622 30.4572 1135 1584 35.3017 1099 1557 35.5432 1100 1554 35.0641
2021-10-09 16:43:58 [2][20UPGFC0009331] 1069 1497 22.364 1016 1450 17.9929 1030 1460 18.9037 1029 1473 21.4886
2021-10-09 16:43:59 [3][20UPGFC0009315] 1108 1537 25.1843 1043 1482 24.006 1019 1469 26.3149 1016 1469 25.8562
2021-10-09 16:44:00 [0][20UPGFC0009283] 1134 1566 28.1085 1061 1503 27.394 1043 1496 32.6544 1042 1497 28.4378
2021-10-09 16:44:01 [1][20UPGFC0009299] 1183 1623 31.8436 1136 1585 35.3016 1099 1558 36.2172 1100 1555 35.7429
2021-10-09 16:44:02 [2][20UPGFC0009331] 1069 1497 22.364 1016 1450 17.9929 1029 1461 20.2622 1029 1472 20.825
2021-10-09 16:44:03 [3][20UPGFC0009315] 1108 1537 25.1843 1042 1483 25.3598 1019 1469 26.3149 1017 1468 24.5362
2021-10-09 16:44:04 [0][20UPGFC0009283] 1134 1565 27.4112 1061 1503 27.394 1043 1496 32.6544 1043 1496 27.112
2021-10-09 16:44:05 [1][20UPGFC0009299] 1184 1624 31.8436 1136 1584 34.6147 1099 1557 35.5432 1099 1555 36.4218
2021-10-09 16:44:06 [2][20UPGFC0009331] 1069 1497 22.364 1017 1449 16.6512 1029 1461 20.2622 1030 1473 20.825
2021-10-09 16:44:07 [3][20UPGFC0009315] 1109 1537 24.4889 1042 1483 25.3598 1019 1470 26.9804 1017 1469 25.1962
2021-10-09 16:44:08 [0][20UPGFC0009283] 1134 1565 27.4112 1061 1502 26.7139 1043 1496 32.6544 1043 1496 27.112
2021-10-09 16:44:09 [1][20UPGFC0009299] 1183 1623 31.8436 1135 1584 35.3017 1099 1558 36.2172 1099 1555 36.4218
2021-10-09 16:44:10 [2][20UPGFC0009331] 1069 1497 22.364 1017 1451 17.9928 1030 1460 18.9037 1029 1472 20.825
2021-10-09 16:44:11 [3][20UPGFC0009315] 1109 1537 24.4889 1043 1483 24.683 1019 1470 26.9804 1017 1469 25.1962
2021-10-09 16:44:12 [0][20UPGFC0009283] 1134 1565 27.4112 1061 1503 27.394 1043 1495 31.9795 1043 1497 27.775
2021-10-09 16:44:13 [1][20UPGFC0009299] 1184 1622 30.4572 1136 1584 34.6147 1099 1559 36.8912 1100 1555 35.7429
2021-10-09 16:44:14 [2][20UPGFC0009331] 1070 1497 21.6736 1016 1450 17.9929 1029 1461 20.2622 1029 1473 21.4886
2021-10-09 16:44:15 [3][20UPGFC0009315] 1109 1538 25.1843 1043 1483 24.683 1019 1470 26.9804 1017 1469 25.1962
2021-10-09 16:44:16 [0][20UPGFC0009283] 1134 1566 28.1085 1061 1503 27.394 1044 1496 31.9793 1043 1496 27.112
2021-10-09 16:44:17 [1][20UPGFC0009299] 1183 1623 31.8436 1135 1583 34.6147 1099 1558 36.2172 1100 1555 35.7429
2021-10-09 16:44:18 [2][20UPGFC0009331] 1068 1497 23.0545 1016 1451 18.6637 1029 1461 20.2622 1029 1473 21.4886
2021-10-09 16:44:19 [3][20UPGFC0009315] 1109 1538 25.1843 1043 1483 24.683 1020 1470 26.3149 1017 1469 25.1962
2021-10-09 16:44:20 [0][20UPGFC0009283] 1134 1565 27.4112 1062 1503 26.714 1043 1496 32.6544 1043 1496 27.112
2021-10-09 16:44:21 [1][20UPGFC0009299] 1183 1624 32.5368 1136 1584 34.6147 1100 1559 36.2172 1100 1554 35.0641
2021-10-09 16:44:22 [2][20UPGFC0009331] 1069 1497 22.364 1016 1450 17.9929 1029 1460 19.5829 1029 1472 20.825
2021-10-09 16:44:23 [3][20UPGFC0009315] 1109 1538 25.1843 1043 1483 24.683 1019 1469 26.3149 1016 1469 25.8562
2021-10-09 16:44:24 [0][20UPGFC0009283] 1134 1567 28.8058 1062 1503 26.714 1044 1496 31.9793 1043 1497 27.775
2021-10-09 16:44:25 [1][20UPGFC0009299] 1184 1624 31.8436 1136 1585 35.3016 1099 1558 36.2172 1100 1555 35.7429
2021-10-09 16:44:26 [2][20UPGFC0009331] 1069 1497 22.364 1016 1450 17.9929 1029 1460 19.5829 1030 1472 20.1614
2021-10-09 16:44:27 [3][20UPGFC0009315] 1109 1538 25.1843 1043 1484 25.3598 1020 1469 25.6494 1016 1469 25.8562
2021-10-09 16:44:28 [0][20UPGFC0009283] 1134 1565 27.4112 1061 1502 26.7139 1044 1496 31.9793 1043 1497 27.775
2021-10-09 16:44:29 [1][20UPGFC0009299] 1184 1623 31.1504 1135 1583 34.6147 1099 1558 36.2172 1100 1555 35.7429
2021-10-09 16:44:30 [2][20UPGFC0009331] 1069 1497 22.364 1016 1450 17.9929 1030 1460 18.9037 1029 1473 21.4886
2021-10-09 16:44:31 [3][20UPGFC0009315] 1109 1538 25.1843 1043 1483 24.683 1019 1469 26.3149 1017 1469 25.1962
2021-10-09 16:44:32 [0][20UPGFC0009283] 1134 1566 28.1085 1062 1503 26.714 1043 1496 32.6544 1043 1497 27.775
2021-10-09 16:44:33 [1][20UPGFC0009299] 1183 1624 32.5368 1135 1585 35.9886 1099 1558 36.2172 1100 1554 35.0641
2021-10-09 16:44:34 [2][20UPGFC0009331] 1068 1498 23.7449 1016 1450 17.9929 1029 1461 20.2622 1029 1472 20.825
2021-10-09 16:44:35 [3][20UPGFC0009315] 1108 1537 25.1843 1043 1483 24.683 1018 1469 26.9803 1017 1469 25.1962
2021-10-09 16:44:36 [0][20UPGFC0009283] 1135 1565 26.7138 1062 1503 26.714 1044 1496 31.9793 1044 1497 27.1122
2021-10-09 16:44:37 [1][20UPGFC0009299] 1183 1623 31.8436 1136 1584 34.6147 1098 1558 36.8912 1100 1554 35.0641
2021-10-09 16:44:38 [2][20UPGFC0009331] 1069 1497 22.364 1017 1450 17.322 1029 1461 20.2622 1029 1472 20.825
2021-10-09 16:44:39 [3][20UPGFC0009315] 1108 1537 25.1843 1042 1483 25.3598 1019 1470 26.9804 1017 1468 24.5362
2021-10-09 16:44:40 [0][20UPGFC0009283] 1133 1565 28.1085 1063 1504 26.714 1044 1496 31.9793 1043 1497 27.775
2021-10-09 16:44:41 [1][20UPGFC0009299] 1183 1623 31.8436 1136 1583 33.9276 1098 1558 36.8912 1100 1555 35.7429
2021-10-09 16:44:42 [2][20UPGFC0009331] 1069 1497 22.364 1016 1450 17.9929 1029 1460 19.5829 1029 1472 20.825
2021-10-09 16:44:43 [3][20UPGFC0009315] 1108 1537 25.1843 1043 1482 24.006 1019 1469 26.3149 1016 1468 25.1962
2021-10-09 16:44:44 [0][20UPGFC0009283] 1135 1566 27.4112 1062 1503 26.714 1044 1497 32.6545 1043 1497 27.775
2021-10-09 16:44:45 [1][20UPGFC0009299] 1184 1623 31.1504 1135 1584 35.3017 1099 1557 35.5432 1099 1555 36.4218
2021-10-09 16:44:46 [2][20UPGFC0009331] 1069 1497 22.364 1016 1450 17.9929 1030 1460 18.9037 1029 1473 21.4886
2021-10-09 16:44:47 [3][20UPGFC0009315] 1109 1537 24.4889 1043 1483 24.683 1020 1469 25.6494 1017 1468 24.5362
2021-10-09 16:44:48 [0][20UPGFC0009283] 1133 1565 28.1085 1062 1503 26.714 1043 1497 33.3296 1043 1497 27.775
2021-10-09 16:44:49 [1][20UPGFC0009299] 1184 1623 31.1504 1136 1584 34.6147 1100 1558 35.5432 1101 1555 35.064
2021-10-09 16:44:50 [2][20UPGFC0009331] 1069 1497 22.364 1016 1450 17.9929 1028 1460 20.2621 1029 1472 20.825
2021-10-09 16:44:51 [3][20UPGFC0009315] 1109 1538 25.1843 1043 1483 24.683 1019 1470 26.9804 1017 1469 25.1962
2021-10-09 16:44:52 [0][20UPGFC0009283] 1134 1566 28.1085 1061 1503 27.394 1043 1496 32.6544 1043 1497 27.775
2021-10-09 16:44:53 [1][20UPGFC0009299] 1183 1624 32.5368 1136 1583 33.9276 1098 1558 36.8912 1099 1555 36.4218
2021-10-09 16:44:54 [2][20UPGFC0009331] 1069 1497 22.364 1016 1451 18.6637 1029 1460 19.5829 1029 1473 21.4886
2021-10-09 16:44:55 [3][20UPGFC0009315] 1109 1538 25.1843 1043 1483 24.683 1018 1468 26.3149 1017 1469 25.1962
2021-10-09 16:44:56 [0][20UPGFC0009283] 1134 1565 27.4112 1061 1502 26.7139 1043 1495 31.9795 1043 1496 27.112
2021-10-09 16:44:57 [1][20UPGFC0009299] 1183 1623 31.8436 1135 1584 35.3017 1099 1558 36.2172 1100 1554 35.0641
2021-10-09 16:44:58 [2][20UPGFC0009331] 1069 1497 22.364 1017 1450 17.322 1029 1461 20.2622 1029 1473 21.4886
2021-10-09 16:44:59 [3][20UPGFC0009315] 1109 1537 24.4889 1043 1483 24.683 1019 1468 25.6494 1016 1469 25.8562
2021-10-09 16:45:00 [0][20UPGFC0009283] 1134 1566 28.1085 1062 1503 26.714 1043 1497 33.3296 1043 1497 27.775
2021-10-09 16:45:01 [1][20UPGFC0009299] 1185 1623 30.4573 1136 1583 33.9276 1099 1559 36.8912 1100 1555 35.7429
2021-10-09 16:45:02 [2][20UPGFC0009331] 1069 1497 22.364 1016 1450 17.9929 1029 1460 19.5829 1029 1472 20.825
2021-10-09 16:45:03 [3][20UPGFC0009315] 1108 1537 25.1843 1043 1483 24.683 1019 1469 26.3149 1017 1468 24.5362
2021-10-09 16:45:04 [0][20UPGFC0009283] 1133 1565 28.1085 1061 1503 27.394 1043 1496 32.6544 1043 1496 27.112
2021-10-09 16:45:05 [1][20UPGFC0009299] 1183 1622 31.1504 1136 1584 34.6147 1099 1558 36.2172 1100 1554 35.0641
2021-10-09 16:45:06 [2][20UPGFC0009331] 1069 1497 22.364 1016 1450 17.9929 1029 1461 20.2622 1029 1473 21.4886
2021-10-09 16:45:07 [3][20UPGFC0009315] 1108 1537 25.1843 1043 1483 24.683 1019 1469 26.3149 1017 1468 24.5362
2021-10-09 16:45:08 [0][20UPGFC0009283] 1135 1566 27.4112 1062 1503 26.714 1043 1496 32.6544 1043 1497 27.775
2021-10-09 16:45:09 [1][20UPGFC0009299] 1183 1623 31.8436 1135 1583 34.6147 1099 1558 36.2172 1099 1555 36.4218
2021-10-09 16:45:10 [2][20UPGFC0009331] 1069 1497 22.364 1016 1450 17.9929 1029 1460 19.5829 1029 1472 20.825
2021-10-09 16:45:11 [3][20UPGFC0009315] 1108 1538 25.8797 1043 1483 24.683 1020 1469 25.6494 1016 1469 25.8562
2021-10-09 16:45:12 [0][20UPGFC0009283] 1134 1566 28.1085 1062 1503 26.714 1043 1496 32.6544 1043 1497 27.775
2021-10-09 16:45:13 [1][20UPGFC0009299] 1184 1623 31.1504 1135 1584 35.3017 1099 1558 36.2172 1100 1555 35.7429
2021-10-09 16:45:14 [2][20UPGFC0009331] 1069 1497 22.364 1016 1450 17.9929 1029 1460 19.5829 1029 1472 20.825
2021-10-09 16:45:15 [3][20UPGFC0009315] 1109 1538 25.1843 1042 1483 25.3598 1019 1469 26.3149 1017 1468 24.5362
2021-10-09 16:45:16 [0][20UPGFC0009283] 1135 1566 27.4112 1062 1504 27.394 1044 1497 32.6545 1043 1497 27.775
2021-10-09 16:45:17 [1][20UPGFC0009299] 1184 1623 31.1504 1135 1584 35.3017 1099 1558 36.2172 1099 1554 35.743
2021-10-09 16:45:18 [2][20UPGFC0009331] 1069 1497 22.364 1017 1450 17.322 1029 1460 19.5829 1029 1473 21.4886
2021-10-09 16:45:19 [3][20UPGFC0009315] 1109 1538 25.1843 1043 1483 24.683 1019 1469 26.3149 1017 1468 24.5362
2021-10-09 16:45:20 [0][20UPGFC0009283] 1134 1565 27.4112 1061 1502 26.7139 1043 1496 32.6544 1043 1496 27.112
2021-10-09 16:45:21 [1][20UPGFC0009299] 1184 1623 31.1504 1135 1584 35.3017 1099 1558 36.2172 1100 1555 35.7429
2021-10-09 16:45:22 [2][20UPGFC0009331] 1069 1496 21.6735 1016 1450 17.9929 1029 1461 20.2622 1029 1472 20.825
2021-10-09 16:45:23 [3][20UPGFC0009315] 1110 1537 23.7934 1043 1483 24.683 1019 1469 26.3149 1017 1469 25.1962
2021-10-09 16:45:24 [0][20UPGFC0009283] 1134 1567 28.8058 1062 1504 27.394 1044 1497 32.6545 1043 1497 27.775
2021-10-09 16:45:25 [1][20UPGFC0009299] 1184 1624 31.8436 1136 1584 34.6147 1100 1558 35.5432 1101 1555 35.064
2021-10-09 16:45:26 [2][20UPGFC0009331] 1069 1497 22.364 1016 1450 17.9929 1029 1460 19.5829 1030 1472 20.1614
2021-10-09 16:45:27 [3][20UPGFC0009315] 1109 1538 25.1843 1044 1482 23.329 1019 1470 26.9804 1017 1469 25.1962
2021-10-09 16:45:28 [0][20UPGFC0009283] 1134 1566 28.1085 1062 1504 27.394 1044 1496 31.9793 1043 1497 27.775
2021-10-09 16:45:29 [1][20UPGFC0009299] 1184 1623 31.1504 1135 1584 35.3017 1099 1557 35.5432 1100 1555 35.7429
2021-10-09 16:45:30 [2][20UPGFC0009331] 1068 1496 22.364 1016 1449 17.3221 1029 1460 19.5829 1029 1472 20.825
2021-10-09 16:45:31 [3][20UPGFC0009315] 1109 1538 25.1843 1043 1483 24.683 1019 1469 26.3149 1017 1468 24.5362
2021-10-09 16:45:32 [0][20UPGFC0009283] 1134 1567 28.8058 1062 1504 27.394 1044 1496 31.9793 1043 1497 27.775
2021-10-09 16:45:33 [1][20UPGFC0009299] 1184 1624 31.8436 1136 1584 34.6147 1099 1558 36.2172 1100 1555 35.7429
2021-10-09 16:45:34 [2][20UPGFC0009331] 1068 1497 23.0545 1017 1451 17.9928 1029 1461 20.2622 1029 1472 20.825
2021-10-09 16:45:35 [3][20UPGFC0009315] 1109 1538 25.1843 1043 1483 24.683 1019 1469 26.3149 1017 1469 25.1962
2021-10-09 16:45:36 [0][20UPGFC0009283] 1135 1566 27.4112 1061 1503 27.394 1044 1497 32.6545 1044 1497 27.1122
2021-10-09 16:45:37 [1][20UPGFC0009299] 1183 1623 31.8436 1135 1585 35.9886 1099 1558 36.2172 1100 1555 35.7429
2021-10-09 16:45:38 [2][20UPGFC0009331] 1068 1497 23.0545 1016 1450 17.9929 1028 1460 20.2621 1028 1472 21.4886
2021-10-09 16:45:39 [3][20UPGFC0009315] 1109 1538 25.1843 1043 1484 25.3598 1019 1469 26.3149 1017 1468 24.5362
2021-10-09 16:45:40 [0][20UPGFC0009283] 1134 1566 28.1085 1061 1503 27.394 1043 1496 32.6544 1043 1497 27.775
2021-10-09 16:45:41 [1][20UPGFC0009299] 1184 1624 31.8436 1136 1584 34.6147 1100 1558 35.5432 1100 1554 35.0641
2021-10-09 16:45:42 [2][20UPGFC0009331] 1068 1497 23.0545 1016 1450 17.9929 1028 1460 20.2621 1029 1472 20.825
2021-10-09 16:45:43 [3][20UPGFC0009315] 1109 1538 25.1843 1043 1483 24.683 1020 1469 25.6494 1017 1469 25.1962
2021-10-09 16:45:44 [0][20UPGFC0009283] 1135 1566 27.4112 1061 1504 28.0739 1044 1496 31.9793 1043 1497 27.775
2021-10-09 16:45:45 [1][20UPGFC0009299] 1184 1624 31.8436 1136 1584 34.6147 1099 1558 36.2172 1100 1555 35.7429
2021-10-09 16:45:46 [2][20UPGFC0009331] 1069 1498 23.0545 1016 1450 17.9929 1029 1461 20.2622 1030 1472 20.1614
2021-10-09 16:45:47 [3][20UPGFC0009315] 1110 1538 24.4889 1043 1483 24.683 1019 1469 26.3149 1016 1468 25.1962
2021-10-09 16:45:48 [0][20UPGFC0009283] 1134 1566 28.1085 1061 1503 27.394 1043 1496 32.6544 1043 1497 27.775
2021-10-09 16:45:49 [1][20UPGFC0009299] 1184 1623 31.1504 1136 1585 35.3016 1099 1558 36.2172 1100 1555 35.7429
2021-10-09 16:45:50 [2][20UPGFC0009331] 1069 1497 22.364 1016 1450 17.9929 1029 1460 19.5829 1029 1472 20.825
2021-10-09 16:45:51 [3][20UPGFC0009315] 1109 1537 24.4889 1043 1483 24.683 1019 1469 26.3149 1017 1468 24.5362
2021-10-09 16:45:52 [0][20UPGFC0009283] 1133 1566 28.8058 1062 1502 26.034 1043 1496 32.6544 1043 1497 27.775
2021-10-09 16:45:53 [1][20UPGFC0009299] 1185 1623 30.4573 1136 1584 34.6147 1100 1559 36.2172 1101 1555 35.064
2021-10-09 16:45:54 [2][20UPGFC0009331] 1068 1497 23.0545 1016 1451 18.6637 1030 1460 18.9037 1029 1471 20.1614
2021-10-09 16:45:55 [3][20UPGFC0009315] 1109 1537 24.4889 1043 1483 24.683 1019 1469 26.3149 1016 1468 25.1962
2021-10-09 16:45:56 [0][20UPGFC0009283] 1135 1565 26.7138 1061 1503 27.394 1044 1497 32.6545 1043 1497 27.775
2021-10-09 16:45:57 [1][20UPGFC0009299] 1183 1623 31.8436 1135 1584 35.3017 1100 1558 35.5432 1101 1555 35.064
2021-10-09 16:45:58 [2][20UPGFC0009331] 1069 1497 22.364 1016 1450 17.9929 1029 1461 20.2622 1029 1472 20.825
2021-10-09 16:45:59 [3][20UPGFC0009315] 1109 1538 25.1843 1044 1484 24.6828 1019 1470 26.9804 1017 1468 24.5362
2021-10-09 16:46:00 [0][20UPGFC0009283] 1135 1566 27.4112 1061 1503 27.394 1044 1496 31.9793 1043 1497 27.775
2021-10-09 16:46:01 [1][20UPGFC0009299] 1184 1623 31.1504 1136 1584 34.6147 1100 1558 35.5432 1100 1555 35.7429
2021-10-09 16:46:02 [2][20UPGFC0009331] 1069 1497 22.364 1016 1449 17.3221 1029 1461 20.2622 1029 1473 21.4886
2021-10-09 16:46:03 [3][20UPGFC0009315] 1109 1538 25.1843 1042 1483 25.3598 1020 1470 26.3149 1017 1469 25.1962
2021-10-09 16:46:04 [0][20UPGFC0009283] 1134 1566 28.1085 1062 1503 26.714 1044 1497 32.6545 1043 1497 27.775
2021-10-09 16:46:05 [1][20UPGFC0009299] 1184 1624 31.8436 1136 1584 34.6147 1099 1558 36.2172 1100 1555 35.7429
2021-10-09 16:46:06 [2][20UPGFC0009331] 1070 1498 22.364 1016 1450 17.9929 1029 1461 20.2622 1029 1472 20.825
2021-10-09 16:46:07 [3][20UPGFC0009315] 1109 1538 25.1843 1043 1483 24.683 1019 1469 26.3149 1017 1468 24.5362
2021-10-09 16:46:08 [0][20UPGFC0009283] 1134 1564 26.7137 1061 1502 26.7139 1043 1496 32.6544 1042 1497 28.4378
2021-10-09 16:46:09 [1][20UPGFC0009299] 1184 1623 31.1504 1135 1584 35.3017 1099 1558 36.2172 1100 1555 35.7429
2021-10-09 16:46:10 [2][20UPGFC0009331] 1070 1498 22.364 1017 1451 17.9928 1029 1461 20.2622 1029 1473 21.4886
2021-10-09 16:46:11 [3][20UPGFC0009315] 1109 1538 25.1843 1043 1483 24.683 1019 1469 26.3149 1017 1468 24.5362
2021-10-09 16:46:12 [0][20UPGFC0009283] 1134 1566 28.1085 1062 1503 26.714 1042 1496 33.3295 1043 1497 27.775
2021-10-09 16:46:13 [1][20UPGFC0009299] 1184 1623 31.1504 1136 1584 34.6147 1100 1559 36.2172 1100 1555 35.7429
2021-10-09 16:46:14 [2][20UPGFC0009331] 1069 1498 23.0545 1017 1450 17.322 1030 1461 19.5829 1029 1473 21.4886
2021-10-09 16:46:15 [3][20UPGFC0009315] 1110 1537 23.7934 1043 1483 24.683 1019 1470 26.9804 1017 1469 25.1962
2021-10-09 16:46:16 [0][20UPGFC0009283] 1135 1565 26.7138 1061 1503 27.394 1044 1496 31.9793 1043 1496 27.112
2021-10-09 16:46:17 [1][20UPGFC0009299] 1184 1623 31.1504 1136 1584 34.6147 1100 1558 35.5432 1100 1554 35.0641
2021-10-09 16:46:18 [2][20UPGFC0009331] 1069 1497 22.364 1017 1450 17.322 1029 1461 20.2622 1029 1473 21.4886
2021-10-09 16:46:19 [3][20UPGFC0009315] 1109 1538 25.1843 1043 1483 24.683 1019 1469 26.3149 1017 1468 24.5362
2021-10-09 16:46:20 [0][20UPGFC0009283] 1135 1566 27.4112 1061 1503 27.394 1043 1496 32.6544 1043 1498 28.4378
2021-10-09 16:46:21 [1][20UPGFC0009299] 1184 1624 31.8436 1136 1584 34.6147 1100 1559 36.2172 1100 1555 35.7429
2021-10-09 16:46:22 [2][20UPGFC0009331] 1068 1497 23.0545 1017 1450 17.322 1028 1460 20.2621 1029 1473 21.4886
2021-10-09 16:46:23 [3][20UPGFC0009315] 1110 1539 25.1842 1044 1484 24.6828 1019 1469 26.3149 1018 1469 24.5361
2021-10-09 16:46:24 [0][20UPGFC0009283] 1133 1566 28.8058 1062 1503 26.714 1043 1496 32.6544 1043 1497 27.775
2021-10-09 16:46:25 [1][20UPGFC0009299] 1184 1623 31.1504 1136 1585 35.3016 1100 1559 36.2172 1100 1555 35.7429
2021-10-09 16:46:26 [2][20UPGFC0009331] 1069 1497 22.364 1016 1450 17.9929 1029 1460 19.5829 1029 1472 20.825
2021-10-09 16:46:27 [3][20UPGFC0009315] 1109 1538 25.1843 1043 1484 25.3598 1019 1470 26.9804 1017 1469 25.1962
2021-10-09 16:46:28 [0][20UPGFC0009283] 1134 1566 28.1085 1062 1503 26.714 1044 1496 31.9793 1043 1496 27.112
2021-10-09 16:46:29 [1][20UPGFC0009299] 1184 1624 31.8436 1135 1584 35.3017 1099 1558 36.2172 1100 1555 35.7429
2021-10-09 16:46:30 [2][20UPGFC0009331] 1068 1497 23.0545 1016 1450 17.9929 1029 1460 19.5829 1029 1472 20.825
2021-10-09 16:46:31 [3][20UPGFC0009315] 1110 1537 23.7934 1043 1484 25.3598 1019 1469 26.3149 1017 1469 25.1962
2021-10-09 16:46:32 [0][20UPGFC0009283] 1134 1566 28.1085 1062 1503 26.714 1043 1496 32.6544 1043 1497 27.775
2021-10-09 16:46:33 [1][20UPGFC0009299] 1184 1623 31.1504 1136 1584 34.6147 1100 1559 36.2172 1100 1555 35.7429
2021-10-09 16:46:34 [2][20UPGFC0009331] 1069 1497 22.364 1016 1450 17.9929 1029 1460 19.5829 1029 1472 20.825
2021-10-09 16:46:35 [3][20UPGFC0009315] 1110 1538 24.4889 1043 1483 24.683 1019 1469 26.3149 1017 1468 24.5362
2021-10-09 16:46:36 [0][20UPGFC0009283] 1135 1566 27.4112 1062 1503 26.714 1044 1496 31.9793 1044 1497 27.1122
2021-10-09 16:46:37 [1][20UPGFC0009299] 1184 1624 31.8436 1136 1584 34.6147 1100 1558 35.5432 1100 1556 36.4218
2021-10-09 16:46:38 [2][20UPGFC0009331] 1069 1498 23.0545 1016 1450 17.9929 1029 1460 19.5829 1029 1472 20.825
2021-10-09 16:46:39 [3][20UPGFC0009315] 1110 1539 25.1842 1043 1484 25.3598 1020 1470 26.3149 1017 1468 24.5362
2021-10-09 16:46:40 [0][20UPGFC0009283] 1134 1566 28.1085 1062 1504 27.394 1044 1496 31.9793 1043 1498 28.4378
2021-10-09 16:46:41 [1][20UPGFC0009299] 1184 1623 31.1504 1136 1584 34.6147 1099 1558 36.2172 1101 1555 35.064
2021-10-09 16:46:42 [2][20UPGFC0009331] 1068 1496 22.364 1016 1450 17.9929 1030 1461 19.5829 1029 1472 20.825
2021-10-09 16:46:43 [3][20UPGFC0009315] 1109 1538 25.1843 1043 1484 25.3598 1020 1470 26.3149 1017 1469 25.1962
2021-10-09 16:46:44 [0][20UPGFC0009283] 1135 1566 27.4112 1062 1503 26.714 1044 1497 32.6545 1044 1497 27.1122
2021-10-09 16:46:45 [1][20UPGFC0009299] 1185 1623 30.4573 1136 1584 34.6147 1099 1559 36.8912 1100 1555 35.7429
2021-10-09 16:46:46 [2][20UPGFC0009331] 1068 1496 22.364 1016 1450 17.9929 1029 1460 19.5829 1029 1472 20.825
2021-10-09 16:46:47 [3][20UPGFC0009315] 1110 1539 25.1842 1042 1483 25.3598 1019 1470 26.9804 1017 1468 24.5362
2021-10-09 16:46:48 [0][20UPGFC0009283] 1135 1566 27.4112 1061 1504 28.0739 1043 1496 32.6544 1043 1497 27.775
2021-10-09 16:46:49 [1][20UPGFC0009299] 1184 1622 30.4572 1135 1584 35.3017 1099 1558 36.2172 1100 1555 35.7429
2021-10-09 16:46:50 [2][20UPGFC0009331] 1069 1497 22.364 1016 1450 17.9929 1029 1460 19.5829 1029 1473 21.4886
2021-10-09 16:46:51 [3][20UPGFC0009315] 1109 1538 25.1843 1043 1483 24.683 1019 1469 26.3149 1017 1468 24.5362
2021-10-09 16:46:52 [0][20UPGFC0009283] 1135 1565 26.7138 1062 1504 27.394 1043 1497 33.3296 1043 1497 27.775
2021-10-09 16:46:53 [1][20UPGFC0009299] 1184 1624 31.8436 1135 1584 35.3017 1098 1558 36.8912 1101 1556 35.7429
2021-10-09 16:46:54 [2][20UPGFC0009331] 1069 1498 23.0545 1016 1449 17.3221 1029 1460 19.5829 1029 1472 20.825
2021-10-09 16:46:55 [3][20UPGFC0009315] 1110 1538 24.4889 1043 1483 24.683 1019 1469 26.3149 1017 1469 25.1962
2021-10-09 16:46:56 [0][20UPGFC0009283] 1135 1567 28.1085 1062 1504 27.394 1045 1497 31.9793 1044 1498 27.775
2021-10-09 16:46:57 [1][20UPGFC0009299] 1184 1623 31.1504 1136 1584 34.6147 1100 1558 35.5432 1101 1555 35.064
2021-10-09 16:46:58 [2][20UPGFC0009331] 1069 1497 22.364 1016 1450 17.9929 1029 1461 20.2622 1028 1472 21.4886
2021-10-09 16:46:59 [3][20UPGFC0009315] 1110 1538 24.4889 1043 1483 24.683 1020 1470 26.3149 1017 1468 24.5362
2021-10-09 16:47:00 [0][20UPGFC0009283] 1135 1566 27.4112 1062 1503 26.714 1043 1496 32.6544 1044 1498 27.775
2021-10-09 16:47:01 [1][20UPGFC0009299] 1183 1623 31.8436 1136 1584 34.6147 1099 1558 36.2172 1100 1554 35.0641
2021-10-09 16:47:02 [2][20UPGFC0009331] 1068 1496 22.364 1017 1450 17.322 1029 1460 19.5829 1029 1472 20.825
2021-10-09 16:47:03 [3][20UPGFC0009315] 1109 1538 25.1843 1044 1484 24.6828 1020 1470 26.3149 1017 1469 25.1962
2021-10-09 16:47:04 [0][20UPGFC0009283] 1135 1567 28.1085 1063 1504 26.714 1044 1497 32.6545 1044 1497 27.1122
2021-10-09 16:47:05 [1][20UPGFC0009299] 1184 1624 31.8436 1135 1584 35.3017 1099 1558 36.2172 1100 1555 35.7429
2021-10-09 16:47:06 [2][20UPGFC0009331] 1069 1497 22.364 1016 1450 17.9929 1029 1461 20.2622 1030 1473 20.825
2021-10-09 16:47:07 [3][20UPGFC0009315] 1110 1538 24.4889 1043 1484 25.3598 1020 1470 26.3149 1017 1469 25.1962
2021-10-09 16:47:08 [0][20UPGFC0009283] 1134 1566 28.1085 1062 1503 26.714 1044 1497 32.6545 1043 1497 27.775
2021-10-09 16:47:09 [1][20UPGFC0009299] 1185 1624 31.1505 1136 1585 35.3016 1099 1558 36.2172 1100 1555 35.7429
2021-10-09 16:47:10 [2][20UPGFC0009331] 1069 1498 23.0545 1017 1450 17.322 1029 1460 19.5829 1029 1472 20.825
2021-10-09 16:47:11 [3][20UPGFC0009315] 1109 1538 25.1843 1042 1483 25.3598 1019 1469 26.3149 1017 1469 25.1962
2021-10-09 16:47:12 [0][20UPGFC0009283] 1134 1565 27.4112 1062 1503 26.714 1044 1496 31.9793 1043 1498 28.4378
2021-10-09 16:47:13 [1][20UPGFC0009299] 1185 1624 31.1505 1135 1584 35.3017 1100 1558 35.5432 1101 1555 35.064
2021-10-09 16:47:14 [2][20UPGFC0009331] 1069 1498 23.0545 1016 1450 17.9929 1029 1461 20.2622 1029 1472 20.825
2021-10-09 16:47:15 [3][20UPGFC0009315] 1110 1538 24.4889 1043 1483 24.683 1020 1469 25.6494 1017 1469 25.1962
2021-10-09 16:47:16 [0][20UPGFC0009283] 1134 1566 28.1085 1062 1503 26.714 1044 1496 31.9793 1044 1498 27.775
2021-10-09 16:47:17 [1][20UPGFC0009299] 1184 1624 31.8436 1135 1585 35.9886 1100 1558 35.5432 1100 1555 35.7429
2021-10-09 16:47:18 [2][20UPGFC0009331] 1070 1497 21.6736 1016 1451 18.6637 1029 1460 19.5829 1029 1472 20.825
2021-10-09 16:47:19 [3][20UPGFC0009315] 1110 1538 24.4889 1043 1484 25.3598 1019 1469 26.3149 1017 1469 25.1962
2021-10-09 16:47:20 [0][20UPGFC0009283] 1134 1565 27.4112 1061 1503 27.394 1044 1496 31.9793 1043 1497 27.775
2021-10-09 16:47:21 [1][20UPGFC0009299] 1184 1624 31.8436 1136 1584 34.6147 1099 1558 36.2172 1100 1555 35.7429
2021-10-09 16:47:22 [2][20UPGFC0009331] 1069 1497 22.364 1016 1450 17.9929 1029 1461 20.2622 1029 1472 20.825
2021-10-09 16:47:23 [3][20UPGFC0009315] 1110 1538 24.4889 1043 1484 25.3598 1019 1470 26.9804 1017 1469 25.1962
2021-10-09 16:47:24 [0][20UPGFC0009283] 1134 1566 28.1085 1061 1503 27.394 1043 1496 32.6544 1043 1497 27.775
2021-10-09 16:47:25 [1][20UPGFC0009299] 1184 1623 31.1504 1136 1583 33.9276 1099 1558 36.2172 1100 1555 35.7429
2021-10-09 16:47:26 [2][20UPGFC0009331] 1069 1497 22.364 1017 1450 17.322 1029 1460 19.5829 1029 1473 21.4886
2021-10-09 16:47:27 [3][20UPGFC0009315] 1110 1538 24.4889 1044 1483 24.006 1019 1470 26.9804 1018 1469 24.5361
2021-10-09 16:47:28 [0][20UPGFC0009283] 1134 1566 28.1085 1062 1503 26.714 1043 1496 32.6544 1044 1497 27.1122
2021-10-09 16:47:29 [1][20UPGFC0009299] 1184 1624 31.8436 1136 1585 35.3016 1100 1559 36.2172 1100 1555 35.7429
2021-10-09 16:47:30 [2][20UPGFC0009331] 1069 1497 22.364 1017 1450 17.322 1029 1461 20.2622 1029 1473 21.4886
2021-10-09 16:47:31 [3][20UPGFC0009315] 1110 1539 25.1842 1044 1484 24.6828 1020 1470 26.3149 1018 1469 24.5361
2021-10-09 16:47:32 [0][20UPGFC0009283] 1135 1566 27.4112 1061 1503 27.394 1044 1496 31.9793 1044 1497 27.1122
2021-10-09 16:47:33 [1][20UPGFC0009299] 1185 1624 31.1505 1136 1584 34.6147 1099 1558 36.2172 1100 1554 35.0641
2021-10-09 16:47:34 [2][20UPGFC0009331] 1068 1498 23.7449 1016 1450 17.9929 1029 1460 19.5829 1029 1473 21.4886
2021-10-09 16:47:35 [3][20UPGFC0009315] 1110 1538 24.4889 1044 1485 25.3598 1020 1470 26.3149 1017 1469 25.1962
2021-10-09 16:47:36 [0][20UPGFC0009283] 1134 1566 28.1085 1061 1503 27.394 1044 1496 31.9793 1043 1497 27.775
2021-10-09 16:47:37 [1][20UPGFC0009299] 1184 1624 31.8436 1136 1584 34.6147 1099 1559 36.8912 1101 1556 35.7429
2021-10-09 16:47:38 [2][20UPGFC0009331] 1069 1496 21.6735 1016 1450 17.9929 1029 1460 19.5829 1029 1472 20.825
2021-10-09 16:47:39 [3][20UPGFC0009315] 1110 1539 25.1842 1044 1484 24.6828 1020 1470 26.3149 1018 1469 24.5361
2021-10-09 16:47:40 [0][20UPGFC0009283] 1135 1566 27.4112 1061 1503 27.394 1043 1497 33.3296 1043 1497 27.775
2021-10-09 16:47:41 [1][20UPGFC0009299] 1185 1625 31.8436 1136 1585 35.3016 1100 1559 36.2172 1101 1556 35.7429
2021-10-09 16:47:42 [2][20UPGFC0009331] 1069 1497 22.364 1017 1450 17.322 1029 1460 19.5829 1029 1472 20.825
2021-10-09 16:47:43 [3][20UPGFC0009315] 1110 1538 24.4889 1044 1484 24.6828 1020 1471 26.9803 1018 1470 25.1962
2021-10-09 16:47:44 [0][20UPGFC0009283] 1134 1566 28.1085 1061 1503 27.394 1043 1496 32.6544 1043 1497 27.775
2021-10-09 16:47:45 [1][20UPGFC0009299] 1184 1624 31.8436 1135 1585 35.9886 1099 1558 36.2172 1100 1554 35.0641
2021-10-09 16:47:46 [2][20UPGFC0009331] 1069 1497 22.364 1017 1450 17.322 1030 1461 19.5829 1029 1473 21.4886
2021-10-09 16:47:47 [3][20UPGFC0009315] 1109 1538 25.1843 1043 1483 24.683 1020 1470 26.3149 1017 1470 25.8563
2021-10-09 16:47:48 [0][20UPGFC0009283] 1134 1566 28.1085 1062 1503 26.714 1044 1496 31.9793 1044 1498 27.775
2021-10-09 16:47:49 [1][20UPGFC0009299] 1184 1624 31.8436 1135 1585 35.9886 1099 1558 36.2172 1100 1555 35.7429
2021-10-09 16:47:50 [2][20UPGFC0009331] 1068 1497 23.0545 1016 1450 17.9929 1029 1460 19.5829 1029 1472 20.825
2021-10-09 16:47:51 [3][20UPGFC0009315] 1109 1538 25.1843 1043 1484 25.3598 1020 1470 26.3149 1017 1469 25.1962
2021-10-09 16:47:52 [0][20UPGFC0009283] 1133 1565 28.1085 1062 1502 26.034 1044 1497 32.6545 1043 1496 27.112
2021-10-09 16:47:53 [1][20UPGFC0009299] 1185 1624 31.1505 1136 1584 34.6147 1099 1558 36.2172 1100 1555 35.7429
2021-10-09 16:47:54 [2][20UPGFC0009331] 1069 1496 21.6735 1017 1449 16.6512 1029 1460 19.5829 1029 1473 21.4886
2021-10-09 16:47:55 [3][20UPGFC0009315] 1109 1538 25.1843 1043 1484 25.3598 1020 1469 25.6494 1017 1469 25.1962
2021-10-09 16:47:56 [0][20UPGFC0009283] 1133 1566 28.8058 1062 1503 26.714 1043 1496 32.6544 1043 1497 27.775
2021-10-09 16:47:57 [1][20UPGFC0009299] 1184 1623 31.1504 1136 1584 34.6147 1099 1558 36.2172 1099 1555 36.4218
2021-10-09 16:47:58 [2][20UPGFC0009331] 1069 1497 22.364 1016 1450 17.9929 1029 1460 19.5829 1029 1472 20.825
2021-10-09 16:47:59 [3][20UPGFC0009315] 1109 1537 24.4889 1043 1484 25.3598 1020 1469 25.6494 1018 1469 24.5361
2021-10-09 16:48:00 [0][20UPGFC0009283] 1134 1566 28.1085 1061 1503 27.394 1044 1497 32.6545 1043 1498 28.4378
2021-10-09 16:48:01 [1][20UPGFC0009299] 1184 1624 31.8436 1136 1584 34.6147 1099 1558 36.2172 1099 1555 36.4218
2021-10-09 16:48:02 [2][20UPGFC0009331] 1070 1497 21.6736 1016 1450 17.9929 1030 1460 18.9037 1029 1472 20.825
2021-10-09 16:48:03 [3][20UPGFC0009315] 1109 1538 25.1843 1043 1483 24.683 1020 1470 26.3149 1017 1468 24.5362
2021-10-09 16:48:04 [0][20UPGFC0009283] 1135 1565 26.7138 1061 1504 28.0739 1044 1496 31.9793 1043 1497 27.775
2021-10-09 16:48:05 [1][20UPGFC0009299] 1185 1624 31.1505 1136 1585 35.3016 1100 1559 36.2172 1101 1556 35.7429
2021-10-09 16:48:06 [2][20UPGFC0009331] 1070 1497 21.6736 1017 1450 17.322 1029 1461 20.2622 1030 1473 20.825
2021-10-09 16:48:07 [3][20UPGFC0009315] 1109 1539 25.8797 1043 1483 24.683 1019 1470 26.9804 1017 1468 24.5362
2021-10-09 16:48:08 [0][20UPGFC0009283] 1134 1566 28.1085 1062 1504 27.394 1043 1496 32.6544 1043 1497 27.775
2021-10-09 16:48:09 [1][20UPGFC0009299] 1184 1624 31.8436 1136 1585 35.3016 1100 1558 35.5432 1100 1555 35.7429
2021-10-09 16:48:10 [2][20UPGFC0009331] 1068 1497 23.0545 1016 1450 17.9929 1029 1460 19.5829 1029 1472 20.825
2021-10-09 16:48:11 [3][20UPGFC0009315] 1109 1539 25.8797 1044 1484 24.6828 1020 1470 26.3149 1017 1469 25.1962
2021-10-09 16:48:12 [0][20UPGFC0009283] 1134 1565 27.4112 1062 1503 26.714 1044 1496 31.9793 1043 1497 27.775
2021-10-09 16:48:13 [1][20UPGFC0009299] 1185 1624 31.1505 1136 1585 35.3016 1100 1559 36.2172 1101 1555 35.064
2021-10-09 16:48:14 [2][20UPGFC0009331] 1069 1497 22.364 1017 1451 17.9928 1029 1461 20.2622 1030 1472 20.1614
2021-10-09 16:48:15 [3][20UPGFC0009315] 1109 1538 25.1843 1043 1484 25.3598 1019 1469 26.3149 1017 1469 25.1962
2021-10-09 16:48:16 [0][20UPGFC0009283] 1134 1565 27.4112 1062 1503 26.714 1043 1496 32.6544 1043 1497 27.775
2021-10-09 16:48:17 [1][20UPGFC0009299] 1184 1624 31.8436 1135 1585 35.9886 1100 1559 36.2172 1101 1555 35.064
2021-10-09 16:48:18 [2][20UPGFC0009331] 1069 1497 22.364 1016 1450 17.9929 1029 1460 19.5829 1029 1472 20.825
2021-10-09 16:48:19 [3][20UPGFC0009315] 1109 1539 25.8797 1043 1483 24.683 1019 1470 26.9804 1018 1469 24.5361
2021-10-09 16:48:20 [0][20UPGFC0009283] 1134 1566 28.1085 1062 1502 26.034 1044 1496 31.9793 1043 1496 27.112
2021-10-09 16:48:21 [1][20UPGFC0009299] 1184 1623 31.1504 1136 1585 35.3016 1100 1559 36.2172 1100 1555 35.7429
2021-10-09 16:48:22 [2][20UPGFC0009331] 1070 1497 21.6736 1017 1451 17.9928 1030 1461 19.5829 1030 1473 20.825
2021-10-09 16:48:23 [3][20UPGFC0009315] 1109 1538 25.1843 1043 1483 24.683 1020 1470 26.3149 1017 1469 25.1962
2021-10-09 16:48:24 [0][20UPGFC0009283] 1134 1566 28.1085 1062 1504 27.394 1044 1497 32.6545 1044 1498 27.775
2021-10-09 16:48:25 [1][20UPGFC0009299] 1185 1625 31.8436 1136 1585 35.3016 1100 1559 36.2172 1101 1555 35.064
2021-10-09 16:48:26 [2][20UPGFC0009331] 1070 1497 21.6736 1017 1450 17.322 1029 1461 20.2622 1030 1473 20.825
2021-10-09 16:48:27 [3][20UPGFC0009315] 1110 1538 24.4889 1044 1484 24.6828 1019 1470 26.9804 1017 1469 25.1962
2021-10-09 16:48:28 [0][20UPGFC0009283] 1134 1565 27.4112 1062 1503 26.714 1044 1496 31.9793 1044 1497 27.1122
2021-10-09 16:48:29 [1][20UPGFC0009299] 1184 1624 31.8436 1136 1586 35.9886 1100 1560 36.8911 1101 1555 35.064
2021-10-09 16:48:30 [2][20UPGFC0009331] 1070 1497 21.6736 1017 1451 17.9928 1030 1461 19.5829 1030 1473 20.825
2021-10-09 16:48:31 [3][20UPGFC0009315] 1109 1539 25.8797 1043 1484 25.3598 1020 1470 26.3149 1017 1469 25.1962
2021-10-09 16:48:32 [0][20UPGFC0009283] 1135 1566 27.4112 1061 1503 27.394 1044 1496 31.9793 1043 1497 27.775
2021-10-09 16:48:33 [1][20UPGFC0009299] 1184 1624 31.8436 1136 1585 35.3016 1100 1559 36.2172 1100 1556 36.4218
2021-10-09 16:48:34 [2][20UPGFC0009331] 1069 1497 22.364 1016 1450 17.9929 1029 1460 19.5829 1029 1473 21.4886
2021-10-09 16:48:35 [3][20UPGFC0009315] 1110 1539 25.1842 1044 1484 24.6828 1020 1470 26.3149 1017 1469 25.1962
2021-10-09 16:48:36 [0][20UPGFC0009283] 1134 1566 28.1085 1062 1503 26.714 1043 1497 33.3296 1044 1497 27.1122
2021-10-09 16:48:37 [1][20UPGFC0009299] 1185 1624 31.1505 1136 1585 35.3016 1099 1559 36.8912 1100 1555 35.7429
2021-10-09 16:48:38 [2][20UPGFC0009331] 1068 1497 23.0545 1017 1450 17.322 1030 1461 19.5829 1029 1472 20.825
2021-10-09 16:48:39 [3][20UPGFC0009315] 1109 1539 25.8797 1044 1483 24.006 1019 1470 26.9804 1018 1469 24.5361
2021-10-09 16:48:40 [0][20UPGFC0009283] 1134 1566 28.1085 1062 1503 26.714 1044 1497 32.6545 1044 1496 26.4492
2021-10-09 16:48:41 [1][20UPGFC0009299] 1185 1625 31.8436 1136 1585 35.3016 1100 1559 36.2172 1100 1555 35.7429
2021-10-09 16:48:42 [2][20UPGFC0009331] 1068 1496 22.364 1017 1450 17.322 1029 1461 20.2622 1029 1472 20.825
2021-10-09 16:48:43 [3][20UPGFC0009315] 1109 1538 25.1843 1044 1485 25.3598 1020 1471 26.9803 1017 1469 25.1962
2021-10-09 16:48:44 [0][20UPGFC0009283] 1134 1566 28.1085 1062 1503 26.714 1044 1497 32.6545 1044 1497 27.1122
2021-10-09 16:48:45 [1][20UPGFC0009299] 1185 1624 31.1505 1136 1584 34.6147 1099 1558 36.2172 1099 1555 36.4218
2021-10-09 16:48:46 [2][20UPGFC0009331] 1068 1497 23.0545 1016 1449 17.3221 1029 1460 19.5829 1030 1472 20.1614
2021-10-09 16:48:47 [3][20UPGFC0009315] 1109 1538 25.1843 1043 1484 25.3598 1020 1470 26.3149 1018 1469 24.5361
2021-10-09 16:48:48 [0][20UPGFC0009283] 1134 1566 28.1085 1062 1503 26.714 1044 1496 31.9793 1044 1497 27.1122
2021-10-09 16:48:49 [1][20UPGFC0009299] 1184 1624 31.8436 1135 1584 35.3017 1100 1559 36.2172 1100 1555 35.7429
2021-10-09 16:48:50 [2][20UPGFC0009331] 1070 1497 21.6736 1016 1450 17.9929 1030 1461 19.5829 1030 1473 20.825
2021-10-09 16:48:51 [3][20UPGFC0009315] 1110 1538 24.4889 1044 1484 24.6828 1020 1471 26.9803 1017 1470 25.8563
2021-10-09 16:48:52 [0][20UPGFC0009283] 1135 1566 27.4112 1062 1503 26.714 1044 1496 31.9793 1043 1498 28.4378
2021-10-09 16:48:53 [1][20UPGFC0009299] 1184 1623 31.1504 1135 1584 35.3017 1100 1558 35.5432 1100 1555 35.7429
2021-10-09 16:48:54 [2][20UPGFC0009331] 1069 1498 23.0545 1017 1450 17.322 1030 1461 19.5829 1029 1473 21.4886
2021-10-09 16:48:55 [3][20UPGFC0009315] 1109 1539 25.8797 1043 1484 25.3598 1020 1470 26.3149 1018 1470 25.1962
2021-10-09 16:48:56 [0][20UPGFC0009283] 1135 1566 27.4112 1062 1503 26.714 1043 1496 32.6544 1043 1496 27.112
2021-10-09 16:48:57 [1][20UPGFC0009299] 1184 1623 31.1504 1136 1585 35.3016 1099 1559 36.8912 1100 1555 35.7429
2021-10-09 16:48:58 [2][20UPGFC0009331] 1069 1498 23.0545 1016 1450 17.9929 1030 1461 19.5829 1030 1473 20.825
2021-10-09 16:48:59 [3][20UPGFC0009315] 1110 1538 24.4889 1043 1483 24.683 1020 1470 26.3149 1018 1470 25.1962
2021-10-09 16:49:00 [0][20UPGFC0009283] 1134 1566 28.1085 1062 1503 26.714 1043 1496 32.6544 1043 1496 27.112
2021-10-09 16:49:01 [1][20UPGFC0009299] 1184 1624 31.8436 1136 1585 35.3016 1099 1559 36.8912 1100 1556 36.4218
2021-10-09 16:49:02 [2][20UPGFC0009331] 1068 1497 23.0545 1016 1450 17.9929 1029 1461 20.2622 1030 1472 20.1614
2021-10-09 16:49:03 [3][20UPGFC0009315] 1109 1538 25.1843 1043 1483 24.683 1020 1469 25.6494 1018 1469 24.5361
2021-10-09 16:49:04 [0][20UPGFC0009283] 1134 1566 28.1085 1062 1503 26.714 1044 1496 31.9793 1043 1497 27.775
2021-10-09 16:49:05 [1][20UPGFC0009299] 1183 1624 32.5368 1136 1584 34.6147 1100 1559 36.2172 1101 1556 35.7429
2021-10-09 16:49:06 [2][20UPGFC0009331] 1069 1497 22.364 1016 1450 17.9929 1028 1460 20.2621 1029 1472 20.825
2021-10-09 16:49:07 [3][20UPGFC0009315] 1110 1538 24.4889 1043 1484 25.3598 1020 1469 25.6494 1017 1469 25.1962
2021-10-09 16:49:08 [0][20UPGFC0009283] 1135 1566 27.4112 1061 1503 27.394 1044 1496 31.9793 1044 1497 27.1122
2021-10-09 16:49:09 [1][20UPGFC0009299] 1184 1625 32.5367 1136 1586 35.9886 1100 1559 36.2172 1101 1555 35.064
2021-10-09 16:49:10 [2][20UPGFC0009331] 1070 1497 21.6736 1017 1449 16.6512 1030 1461 19.5829 1030 1472 20.1614
2021-10-09 16:49:11 [3][20UPGFC0009315] 1110 1538 24.4889 1044 1484 24.6828 1020 1470 26.3149 1018 1469 24.5361
2021-10-09 16:49:12 [0][20UPGFC0009283] 1133 1566 28.8058 1062 1502 26.034 1043 1497 33.3296 1043 1497 27.775
2021-10-09 16:49:13 [1][20UPGFC0009299] 1185 1624 31.1505 1136 1585 35.3016 1100 1558 35.5432 1100 1555 35.7429
2021-10-09 16:49:14 [2][20UPGFC0009331] 1070 1497 21.6736 1016 1450 17.9929 1029 1460 19.5829 1029 1472 20.825
2021-10-09 16:49:15 [3][20UPGFC0009315] 1110 1538 24.4889 1043 1483 24.683 1019 1470 26.9804 1017 1468 24.5362
2021-10-09 16:49:16 [0][20UPGFC0009283] 1135 1566 27.4112 1062 1504 27.394 1044 1497 32.6545 1043 1497 27.775
2021-10-09 16:49:17 [1][20UPGFC0009299] 1185 1624 31.1505 1136 1585 35.3016 1100 1559 36.2172 1100 1555 35.7429
2021-10-09 16:49:18 [2][20UPGFC0009331] 1069 1496 21.6735 1016 1450 17.9929 1029 1460 19.5829 1029 1473 21.4886
2021-10-09 16:49:19 [3][20UPGFC0009315] 1110 1538 24.4889 1043 1483 24.683 1019 1469 26.3149 1017 1469 25.1962
2021-10-09 16:49:20 [0][20UPGFC0009283] 1133 1566 28.8058 1062 1502 26.034 1044 1496 31.9793 1044 1498 27.775
2021-10-09 16:49:21 [1][20UPGFC0009299] 1184 1624 31.8436 1136 1585 35.3016 1099 1559 36.8912 1100 1554 35.0641
2021-10-09 16:49:22 [2][20UPGFC0009331] 1069 1497 22.364 1016 1450 17.9929 1029 1459 18.9038 1029 1473 21.4886
2021-10-09 16:49:23 [3][20UPGFC0009315] 1110 1538 24.4889 1043 1484 25.3598 1019 1470 26.9804 1017 1469 25.1962
2021-10-09 16:49:24 [0][20UPGFC0009283] 1135 1566 27.4112 1062 1502 26.034 1043 1496 32.6544 1043 1497 27.775
2021-10-09 16:49:25 [1][20UPGFC0009299] 1185 1625 31.8436 1136 1585 35.3016 1100 1560 36.8911 1101 1556 35.7429
2021-10-09 16:49:26 [2][20UPGFC0009331] 1068 1497 23.0545 1016 1449 17.3221 1029 1460 19.5829 1028 1472 21.4886
2021-10-09 16:49:27 [3][20UPGFC0009315] 1109 1538 25.1843 1043 1484 25.3598 1019 1470 26.9804 1017 1469 25.1962
2021-10-09 16:49:28 [0][20UPGFC0009283] 1134 1565 27.4112 1061 1504 28.0739 1044 1496 31.9793 1043 1498 28.4378
2021-10-09 16:49:29 [1][20UPGFC0009299] 1184 1625 32.5367 1136 1585 35.3016 1099 1559 36.8912 1101 1556 35.7429
2021-10-09 16:49:30 [2][20UPGFC0009331] 1069 1496 21.6735 1016 1450 17.9929 1029 1460 19.5829 1028 1472 21.4886
2021-10-09 16:49:31 [3][20UPGFC0009315] 1110 1539 25.1842 1043 1484 25.3598 1020 1470 26.3149 1017 1470 25.8563
2021-10-09 16:49:32 [0][20UPGFC0009283] 1134 1566 28.1085 1061 1504 28.0739 1044 1497 32.6545 1043 1497 27.775
2021-10-09 16:49:33 [1][20UPGFC0009299] 1185 1624 31.1505 1136 1585 35.3016 1100 1559 36.2172 1101 1556 35.7429
2021-10-09 16:49:34 [2][20UPGFC0009331] 1069 1497 22.364 1016 1450 17.9929 1029 1461 20.2622 1029 1473 21.4886
2021-10-09 16:49:35 [3][20UPGFC0009315] 1109 1538 25.1843 1044 1483 24.006 1020 1470 26.3149 1017 1469 25.1962
2021-10-09 16:49:36 [0][20UPGFC0009283] 1134 1566 28.1085 1062 1504 27.394 1043 1496 32.6544 1044 1496 26.4492
2021-10-09 16:49:37 [1][20UPGFC0009299] 1184 1624 31.8436 1136 1584 34.6147 1100 1558 35.5432 1101 1555 35.064
2021-10-09 16:49:38 [2][20UPGFC0009331] 1068 1497 23.0545 1016 1450 17.9929 1029 1460 19.5829 1029 1471 20.1614
2021-10-09 16:49:39 [3][20UPGFC0009315] 1110 1538 24.4889 1044 1484 24.6828 1019 1470 26.9804 1017 1469 25.1962
2021-10-09 16:49:40 [0][20UPGFC0009283] 1134 1566 28.1085 1061 1504 28.0739 1044 1496 31.9793 1043 1497 27.775
2021-10-09 16:49:41 [1][20UPGFC0009299] 1184 1624 31.8436 1135 1584 35.3017 1099 1558 36.2172 1100 1555 35.7429
2021-10-09 16:49:42 [2][20UPGFC0009331] 1069 1498 23.0545 1017 1450 17.322 1030 1462 20.2621 1030 1473 20.825
2021-10-09 16:49:43 [3][20UPGFC0009315] 1110 1539 25.1842 1044 1483 24.006 1020 1469 25.6494 1017 1469 25.1962
2021-10-09 16:49:44 [0][20UPGFC0009283] 1135 1566 27.4112 1062 1504 27.394 1044 1496 31.9793 1043 1497 27.775
2021-10-09 16:49:45 [1][20UPGFC0009299] 1185 1623 30.4573 1136 1584 34.6147 1100 1560 36.8911 1100 1556 36.4218
2021-10-09 16:49:46 [2][20UPGFC0009331] 1069 1497 22.364 1017 1450 17.322 1029 1461 20.2622 1029 1473 21.4886
2021-10-09 16:49:47 [3][20UPGFC0009315] 1110 1538 24.4889 1043 1483 24.683 1019 1469 26.3149 1017 1469 25.1962
2021-10-09 16:49:48 [0][20UPGFC0009283] 1133 1565 28.1085 1061 1503 27.394 1044 1496 31.9793 1044 1497 27.1122
2021-10-09 16:49:49 [1][20UPGFC0009299] 1184 1624 31.8436 1136 1584 34.6147 1100 1559 36.2172 1100 1555 35.7429
2021-10-09 16:49:50 [2][20UPGFC0009331] 1070 1497 21.6736 1016 1449 17.3221 1029 1460 19.5829 1029 1472 20.825
2021-10-09 16:49:51 [3][20UPGFC0009315] 1109 1538 25.1843 1043 1483 24.683 1020 1469 25.6494 1016 1469 25.8562
2021-10-09 16:49:52 [0][20UPGFC0009283] 1135 1565 26.7138 1062 1504 27.394 1044 1497 32.6545 1043 1497 27.775
2021-10-09 16:49:53 [1][20UPGFC0009299] 1185 1624 31.1505 1136 1584 34.6147 1099 1558 36.2172 1100 1555 35.7429
2021-10-09 16:49:54 [2][20UPGFC0009331] 1069 1496 21.6735 1016 1450 17.9929 1029 1460 19.5829 1028 1471 20.825
2021-10-09 16:49:55 [3][20UPGFC0009315] 1110 1538 24.4889 1043 1482 24.006 1019 1469 26.3149 1017 1468 24.5362
2021-10-09 16:49:56 [0][20UPGFC0009283] 1134 1566 28.1085 1062 1503 26.714 1044 1496 31.9793 1043 1496 27.112
2021-10-09 16:49:57 [1][20UPGFC0009299] 1185 1624 31.1505 1136 1585 35.3016 1100 1559 36.2172 1101 1555 35.064
2021-10-09 16:49:58 [2][20UPGFC0009331] 1069 1497 22.364 1016 1450 17.9929 1029 1460 19.5829 1029 1472 20.825
2021-10-09 16:49:59 [3][20UPGFC0009315] 1110 1537 23.7934 1043 1482 24.006 1019 1470 26.9804 1017 1469 25.1962
2021-10-09 16:50:00 [0][20UPGFC0009283] 1134 1565 27.4112 1062 1503 26.714 1043 1496 32.6544 1044 1497 27.1122
2021-10-09 16:50:01 [1][20UPGFC0009299] 1185 1625 31.8436 1137 1584 33.9277 1100 1559 36.2172 1100 1556 36.4218
2021-10-09 16:50:02 [2][20UPGFC0009331] 1068 1496 22.364 1016 1449 17.3221 1028 1460 20.2621 1029 1472 20.825
2021-10-09 16:50:03 [3][20UPGFC0009315] 1110 1539 25.1842 1043 1483 24.683 1019 1469 26.3149 1017 1468 24.5362
2021-10-09 16:50:04 [0][20UPGFC0009283] 1134 1566 28.1085 1062 1503 26.714 1044 1497 32.6545 1043 1496 27.112
2021-10-09 16:50:05 [1][20UPGFC0009299] 1185 1624 31.1505 1137 1585 34.6146 1100 1559 36.2172 1101 1555 35.064
2021-10-09 16:50:06 [2][20UPGFC0009331] 1068 1498 23.7449 1017 1450 17.322 1029 1460 19.5829 1029 1472 20.825
