2021-10-09 14:24:01 23.28533363342285
2021-10-09 14:24:07 23.46489906311035
2021-10-09 14:24:12 23.46489906311035
2021-10-09 14:24:17 23.46489906311035
2021-10-09 14:24:23 23.46489906311035
2021-10-09 14:24:28 23.46489906311035
2021-10-09 14:24:33 23.46489906311035
2021-10-09 14:24:39 23.28533363342285
2021-10-09 14:24:44 23.28533363342285
2021-10-09 14:24:50 23.28533363342285
2021-10-09 14:24:55 22.929101943969727
2021-10-09 14:25:00 23.28533363342285
2021-10-09 14:25:06 23.28533363342285
2021-10-09 14:25:11 23.28533363342285
2021-10-09 14:25:16 23.106775283813477
2021-10-09 14:25:22 23.106775283813477
2021-10-09 14:25:27 23.28533363342285
2021-10-09 14:25:32 23.106775283813477
2021-10-09 14:25:38 23.28533363342285
2021-10-09 14:25:43 23.106775283813477
2021-10-09 14:25:48 23.106775283813477
2021-10-09 14:25:54 22.929101943969727
2021-10-09 14:25:59 22.929101943969727
2021-10-09 14:26:04 23.106775283813477
2021-10-09 14:26:10 22.929101943969727
2021-10-09 14:26:15 22.929101943969727
2021-10-09 14:26:20 22.929101943969727
2021-10-09 14:26:26 22.752405166625977
2021-10-09 14:26:31 22.929101943969727
2021-10-09 14:26:36 22.752405166625977
2021-10-09 14:26:42 22.752405166625977
2021-10-09 14:26:47 22.752405166625977
2021-10-09 14:26:52 22.752405166625977
2021-10-09 14:26:58 22.752405166625977
2021-10-09 14:27:03 22.752405166625977
2021-10-09 14:27:08 22.576623916625977
2021-10-09 14:27:14 22.576623916625977
2021-10-09 14:27:19 22.401758193969727
2021-10-09 14:27:24 22.401758193969727
2021-10-09 14:27:30 22.576623916625977
2021-10-09 14:27:35 22.401758193969727
2021-10-09 14:27:41 22.401758193969727
2021-10-09 14:27:46 22.401758193969727
2021-10-09 14:27:51 22.2277774810791
2021-10-09 14:27:57 22.401758193969727
2021-10-09 14:28:02 22.2277774810791
2021-10-09 14:28:07 22.2277774810791
2021-10-09 14:28:13 22.0546817779541
2021-10-09 14:28:18 22.2277774810791
2021-10-09 14:28:23 22.0546817779541
2021-10-09 14:28:29 22.0546817779541
2021-10-09 14:28:34 22.0546817779541
2021-10-09 14:28:39 22.0546817779541
2021-10-09 14:28:45 21.88250160217285
2021-10-09 14:28:50 22.0546817779541
2021-10-09 14:28:55 21.88250160217285
2021-10-09 14:29:01 21.88250160217285
2021-10-09 14:29:06 22.0546817779541
2021-10-09 14:29:11 21.88250160217285
2021-10-09 14:29:17 21.88250160217285
2021-10-09 14:29:22 21.88250160217285
2021-10-09 14:29:27 21.540674209594727
2021-10-09 14:29:33 21.711145401000977
2021-10-09 14:29:38 21.88250160217285
2021-10-09 14:29:43 21.711145401000977
2021-10-09 14:29:49 21.711145401000977
2021-10-09 14:29:54 21.711145401000977
2021-10-09 14:29:59 21.540674209594727
2021-10-09 14:30:05 21.711145401000977
2021-10-09 14:30:10 21.711145401000977
2021-10-09 14:30:15 21.540674209594727
2021-10-09 14:30:21 21.540674209594727
2021-10-09 14:30:26 21.540674209594727
2021-10-09 14:30:32 21.711145401000977
2021-10-09 14:30:37 21.371057510375977
2021-10-09 14:30:42 21.371057510375977
2021-10-09 14:30:48 21.540674209594727
2021-10-09 14:30:53 21.371057510375977
2021-10-09 14:30:58 21.371057510375977
2021-10-09 14:31:04 21.371057510375977
2021-10-09 14:31:09 21.371057510375977
2021-10-09 14:31:14 21.371057510375977
2021-10-09 14:31:20 21.371057510375977
2021-10-09 14:31:25 21.2022647857666
2021-10-09 14:31:30 21.2022647857666
2021-10-09 14:31:36 21.371057510375977
2021-10-09 14:31:41 21.2022647857666
2021-10-09 14:31:46 21.2022647857666
2021-10-09 14:31:52 21.2022647857666
2021-10-09 14:31:57 21.2022647857666
2021-10-09 14:32:02 21.2022647857666
2021-10-09 14:32:08 21.034326553344727
2021-10-09 14:32:13 21.2022647857666
2021-10-09 14:32:18 21.2022647857666
2021-10-09 14:32:24 21.034326553344727
2021-10-09 14:32:29 21.034326553344727
2021-10-09 14:32:34 20.8671817779541
2021-10-09 14:32:40 21.034326553344727
2021-10-09 14:32:45 21.2022647857666
2021-10-09 14:32:50 21.034326553344727
2021-10-09 14:32:56 21.034326553344727
2021-10-09 14:33:01 21.034326553344727
2021-10-09 14:33:07 20.8671817779541
2021-10-09 14:33:12 21.034326553344727
2021-10-09 14:33:17 20.8671817779541
2021-10-09 14:33:23 21.034326553344727
2021-10-09 14:33:28 21.034326553344727
2021-10-09 14:33:33 20.8671817779541
2021-10-09 14:33:39 20.8671817779541
2021-10-09 14:33:44 20.8671817779541
2021-10-09 14:33:49 20.8671817779541
2021-10-09 14:33:55 21.2022647857666
2021-10-09 14:34:00 20.8671817779541
2021-10-09 14:34:05 20.70086097717285
2021-10-09 14:34:11 20.70086097717285
2021-10-09 14:34:16 20.70086097717285
2021-10-09 14:34:21 20.70086097717285
2021-10-09 14:34:27 20.70086097717285
2021-10-09 14:34:32 20.70086097717285
2021-10-09 14:34:37 20.8671817779541
2021-10-09 14:34:43 20.70086097717285
2021-10-09 14:34:48 20.8671817779541
2021-10-09 14:34:53 20.70086097717285
2021-10-09 14:34:59 20.70086097717285
2021-10-09 14:35:04 20.70086097717285
2021-10-09 14:35:09 20.70086097717285
2021-10-09 14:35:15 20.53533363342285
2021-10-09 14:35:20 20.70086097717285
2021-10-09 14:35:25 20.70086097717285
2021-10-09 14:35:31 20.70086097717285
2021-10-09 14:35:36 20.70086097717285
2021-10-09 14:35:42 20.53533363342285
2021-10-09 14:35:47 20.53533363342285
2021-10-09 14:35:52 20.53533363342285
2021-10-09 14:35:58 20.70086097717285
2021-10-09 14:36:03 20.70086097717285
2021-10-09 14:36:08 20.53533363342285
2021-10-09 14:36:14 20.53533363342285
2021-10-09 14:36:19 20.53533363342285
2021-10-09 14:36:24 20.53533363342285
2021-10-09 14:36:30 20.53533363342285
2021-10-09 14:36:35 20.53533363342285
2021-10-09 14:36:40 20.53533363342285
2021-10-09 14:36:46 20.53533363342285
2021-10-09 14:36:51 20.53533363342285
2021-10-09 14:36:56 20.53533363342285
2021-10-09 14:37:02 20.3705997467041
2021-10-09 14:37:07 20.53533363342285
2021-10-09 14:37:12 20.53533363342285
2021-10-09 14:37:18 20.53533363342285
2021-10-09 14:37:23 20.3705997467041
2021-10-09 14:37:28 20.3705997467041
2021-10-09 14:37:34 20.3705997467041
2021-10-09 14:37:39 20.3705997467041
2021-10-09 14:37:44 20.53533363342285
2021-10-09 14:37:50 20.3705997467041
2021-10-09 14:37:55 20.53533363342285
2021-10-09 14:38:00 20.3705997467041
2021-10-09 14:38:06 20.04351234436035
2021-10-09 14:38:11 20.2066593170166
2021-10-09 14:38:17 20.3705997467041
2021-10-09 14:38:22 20.3705997467041
2021-10-09 14:38:27 20.3705997467041
2021-10-09 14:38:33 20.3705997467041
2021-10-09 14:38:38 20.3705997467041
2021-10-09 14:38:43 20.2066593170166
2021-10-09 14:38:49 20.3705997467041
2021-10-09 14:38:54 20.3705997467041
2021-10-09 14:38:59 20.3705997467041
2021-10-09 14:39:05 20.3705997467041
2021-10-09 14:39:10 20.2066593170166
2021-10-09 14:39:15 20.3705997467041
2021-10-09 14:39:21 20.3705997467041
2021-10-09 14:39:26 20.2066593170166
2021-10-09 14:39:31 20.3705997467041
2021-10-09 14:39:37 20.2066593170166
2021-10-09 14:39:42 20.2066593170166
2021-10-09 14:39:47 20.2066593170166
2021-10-09 14:39:53 20.3705997467041
2021-10-09 14:39:58 20.2066593170166
2021-10-09 14:40:03 20.3705997467041
2021-10-09 14:40:09 20.2066593170166
2021-10-09 14:40:14 20.2066593170166
2021-10-09 14:40:19 20.2066593170166
2021-10-09 14:40:25 20.04351234436035
2021-10-09 14:40:30 20.2066593170166
2021-10-09 14:40:35 20.2066593170166
2021-10-09 14:40:41 20.2066593170166
2021-10-09 14:40:46 20.2066593170166
2021-10-09 14:40:52 20.2066593170166
2021-10-09 14:40:57 20.2066593170166
2021-10-09 14:41:02 20.2066593170166
2021-10-09 14:41:08 20.2066593170166
2021-10-09 14:41:13 20.2066593170166
2021-10-09 14:41:18 20.2066593170166
2021-10-09 14:41:24 20.2066593170166
2021-10-09 14:41:29 20.2066593170166
2021-10-09 14:41:34 20.2066593170166
2021-10-09 14:41:40 20.2066593170166
2021-10-09 14:41:45 20.2066593170166
2021-10-09 14:41:50 20.2066593170166
2021-10-09 14:41:56 20.2066593170166
2021-10-09 14:42:01 20.2066593170166
2021-10-09 14:42:06 20.2066593170166
2021-10-09 14:42:12 20.04351234436035
2021-10-09 14:42:17 20.04351234436035
2021-10-09 14:42:22 20.2066593170166
2021-10-09 14:42:28 20.2066593170166
2021-10-09 14:42:33 20.2066593170166
2021-10-09 14:42:38 20.2066593170166
2021-10-09 14:42:44 20.2066593170166
2021-10-09 14:42:49 20.2066593170166
2021-10-09 14:42:54 20.2066593170166
2021-10-09 14:43:00 20.04351234436035
2021-10-09 14:43:05 20.04351234436035
2021-10-09 14:43:10 20.04351234436035
2021-10-09 14:43:16 20.2066593170166
2021-10-09 14:43:21 20.2066593170166
2021-10-09 14:43:27 20.2066593170166
2021-10-09 14:43:32 20.04351234436035
2021-10-09 14:43:37 20.04351234436035
2021-10-09 14:43:43 20.04351234436035
2021-10-09 14:43:48 20.04351234436035
2021-10-09 14:43:53 20.2066593170166
2021-10-09 14:43:59 20.04351234436035
2021-10-09 14:44:04 20.04351234436035
2021-10-09 14:44:09 20.04351234436035
2021-10-09 14:44:15 20.04351234436035
2021-10-09 14:44:20 20.04351234436035
2021-10-09 14:44:25 20.04351234436035
2021-10-09 14:44:31 20.04351234436035
2021-10-09 14:44:36 20.04351234436035
2021-10-09 14:44:41 20.04351234436035
2021-10-09 14:44:47 20.04351234436035
2021-10-09 14:44:52 19.8810977935791
2021-10-09 14:44:57 20.04351234436035
2021-10-09 14:45:03 19.8810977935791
2021-10-09 14:45:08 20.04351234436035
2021-10-09 14:45:13 20.04351234436035
2021-10-09 14:45:19 20.04351234436035
2021-10-09 14:45:24 20.2066593170166
2021-10-09 14:45:29 20.2066593170166
2021-10-09 14:45:35 20.04351234436035
2021-10-09 14:45:40 20.04351234436035
2021-10-09 14:45:45 19.8810977935791
2021-10-09 14:45:51 20.04351234436035
2021-10-09 14:45:56 20.04351234436035
2021-10-09 14:46:01 20.04351234436035
2021-10-09 14:46:07 20.04351234436035
2021-10-09 14:46:12 20.04351234436035
2021-10-09 14:46:18 20.2066593170166
2021-10-09 14:46:23 20.04351234436035
2021-10-09 14:46:28 20.04351234436035
2021-10-09 14:46:34 19.8810977935791
2021-10-09 14:46:39 20.04351234436035
2021-10-09 14:46:44 20.04351234436035
2021-10-09 14:46:50 20.04351234436035
2021-10-09 14:46:55 20.04351234436035
2021-10-09 14:47:00 20.04351234436035
2021-10-09 14:47:06 20.04351234436035
2021-10-09 14:47:11 20.04351234436035
2021-10-09 14:47:16 20.04351234436035
2021-10-09 14:47:22 20.04351234436035
2021-10-09 14:47:27 20.04351234436035
2021-10-09 14:47:32 19.8810977935791
2021-10-09 14:47:38 20.04351234436035
2021-10-09 14:47:43 20.04351234436035
2021-10-09 14:47:48 20.04351234436035
2021-10-09 14:47:54 19.8810977935791
2021-10-09 14:47:59 19.8810977935791
2021-10-09 14:48:04 19.8810977935791
2021-10-09 14:48:10 20.04351234436035
2021-10-09 14:48:15 19.8810977935791
2021-10-09 14:48:20 20.04351234436035
2021-10-09 14:48:26 20.04351234436035
2021-10-09 14:48:31 19.8810977935791
2021-10-09 14:48:36 20.04351234436035
2021-10-09 14:48:42 19.8810977935791
2021-10-09 14:48:47 20.04351234436035
2021-10-09 14:48:53 19.8810977935791
2021-10-09 14:48:58 19.8810977935791
2021-10-09 14:49:03 20.04351234436035
2021-10-09 14:49:09 20.04351234436035
2021-10-09 14:49:14 19.8810977935791
2021-10-09 14:49:19 20.04351234436035
2021-10-09 14:49:25 19.8810977935791
2021-10-09 14:49:30 20.04351234436035
2021-10-09 14:49:35 20.04351234436035
2021-10-09 14:49:41 20.04351234436035
2021-10-09 14:49:46 20.04351234436035
2021-10-09 14:49:51 19.8810977935791
2021-10-09 14:49:57 20.04351234436035
2021-10-09 14:50:02 19.8810977935791
2021-10-09 14:50:07 19.55852699279785
2021-10-09 14:50:13 20.04351234436035
2021-10-09 14:50:18 20.04351234436035
2021-10-09 14:50:23 20.04351234436035
2021-10-09 14:50:29 19.8810977935791
2021-10-09 14:50:34 19.8810977935791
2021-10-09 14:50:39 20.04351234436035
2021-10-09 14:50:45 19.8810977935791
2021-10-09 14:50:50 20.04351234436035
2021-10-09 14:50:55 19.8810977935791
2021-10-09 14:51:01 20.04351234436035
2021-10-09 14:51:06 19.719446182250977
2021-10-09 14:51:11 20.04351234436035
2021-10-09 14:51:17 19.8810977935791
2021-10-09 14:51:22 19.8810977935791
2021-10-09 14:51:27 19.8810977935791
2021-10-09 14:51:33 19.8810977935791
2021-10-09 14:51:38 20.04351234436035
2021-10-09 14:51:44 19.8810977935791
2021-10-09 14:51:49 19.8810977935791
2021-10-09 14:51:54 19.8810977935791
2021-10-09 14:52:00 20.04351234436035
2021-10-09 14:52:05 20.04351234436035
2021-10-09 14:52:10 19.719446182250977
2021-10-09 14:52:16 19.8810977935791
2021-10-09 14:52:21 19.8810977935791
2021-10-09 14:52:26 19.8810977935791
2021-10-09 14:52:32 20.04351234436035
2021-10-09 14:52:37 19.8810977935791
2021-10-09 14:52:42 19.8810977935791
2021-10-09 14:52:48 19.8810977935791
2021-10-09 14:52:53 20.04351234436035
2021-10-09 14:52:58 19.8810977935791
2021-10-09 14:53:04 19.8810977935791
2021-10-09 14:53:09 19.8810977935791
2021-10-09 14:53:14 19.8810977935791
2021-10-09 14:53:20 19.8810977935791
2021-10-09 14:53:25 19.8810977935791
2021-10-09 14:53:30 19.8810977935791
2021-10-09 14:53:36 19.8810977935791
2021-10-09 14:53:41 19.8810977935791
2021-10-09 14:53:46 20.04351234436035
2021-10-09 14:53:52 20.04351234436035
2021-10-09 14:53:57 19.8810977935791
2021-10-09 14:54:02 19.8810977935791
2021-10-09 14:54:08 19.8810977935791
2021-10-09 14:54:13 19.8810977935791
2021-10-09 14:54:18 19.8810977935791
2021-10-09 14:54:24 20.04351234436035
2021-10-09 14:54:29 19.8810977935791
2021-10-09 14:54:35 19.8810977935791
2021-10-09 14:54:40 19.8810977935791
2021-10-09 14:54:45 19.8810977935791
2021-10-09 14:54:51 19.719446182250977
2021-10-09 14:54:56 19.8810977935791
2021-10-09 14:55:01 19.8810977935791
2021-10-09 14:55:07 19.719446182250977
2021-10-09 14:55:12 19.8810977935791
2021-10-09 14:55:17 19.8810977935791
2021-10-09 14:55:23 19.8810977935791
2021-10-09 14:55:28 20.04351234436035
2021-10-09 14:55:33 19.8810977935791
2021-10-09 14:55:39 20.04351234436035
2021-10-09 14:55:44 19.8810977935791
2021-10-09 14:55:49 19.719446182250977
2021-10-09 14:55:55 19.8810977935791
2021-10-09 14:56:00 20.04351234436035
2021-10-09 14:56:05 19.719446182250977
2021-10-09 14:56:11 19.719446182250977
2021-10-09 14:56:16 19.8810977935791
2021-10-09 14:56:21 19.8810977935791
2021-10-09 14:56:27 19.8810977935791
2021-10-09 14:56:32 19.8810977935791
2021-10-09 14:56:37 19.8810977935791
2021-10-09 14:56:43 19.719446182250977
2021-10-09 14:56:48 19.8810977935791
2021-10-09 14:56:53 19.8810977935791
2021-10-09 14:56:59 19.8810977935791
2021-10-09 14:57:04 19.8810977935791
2021-10-09 14:57:10 19.8810977935791
2021-10-09 14:57:15 19.8810977935791
2021-10-09 14:57:20 19.8810977935791
2021-10-09 14:57:26 19.8810977935791
2021-10-09 14:57:31 19.8810977935791
2021-10-09 14:57:36 20.04351234436035
2021-10-09 14:57:42 19.8810977935791
2021-10-09 14:57:47 19.8810977935791
2021-10-09 14:57:52 19.8810977935791
2021-10-09 14:57:58 19.8810977935791
2021-10-09 14:58:03 19.8810977935791
2021-10-09 14:58:08 19.8810977935791
2021-10-09 14:58:14 19.8810977935791
2021-10-09 14:58:19 20.04351234436035
2021-10-09 14:58:24 19.719446182250977
2021-10-09 14:58:30 19.8810977935791
2021-10-09 14:58:35 19.8810977935791
2021-10-09 14:58:40 19.8810977935791
2021-10-09 14:58:46 19.719446182250977
2021-10-09 14:58:51 19.8810977935791
2021-10-09 14:58:56 19.8810977935791
2021-10-09 14:59:02 19.719446182250977
2021-10-09 14:59:07 19.8810977935791
2021-10-09 14:59:12 19.719446182250977
2021-10-09 14:59:18 19.719446182250977
2021-10-09 14:59:23 19.8810977935791
2021-10-09 14:59:28 19.8810977935791
2021-10-09 14:59:34 19.8810977935791
2021-10-09 14:59:39 19.8810977935791
2021-10-09 14:59:45 19.719446182250977
2021-10-09 14:59:50 19.8810977935791
2021-10-09 14:59:55 19.8810977935791
2021-10-09 15:00:01 19.8810977935791
2021-10-09 15:00:06 19.719446182250977
2021-10-09 15:00:11 19.8810977935791
2021-10-09 15:00:17 19.8810977935791
2021-10-09 15:00:22 19.8810977935791
2021-10-09 15:00:27 19.8810977935791
2021-10-09 15:00:33 19.8810977935791
2021-10-09 15:00:38 19.719446182250977
2021-10-09 15:00:43 19.8810977935791
2021-10-09 15:00:49 19.8810977935791
2021-10-09 15:00:54 19.55852699279785
2021-10-09 15:00:59 19.8810977935791
2021-10-09 15:01:05 19.8810977935791
2021-10-09 15:01:10 19.8810977935791
2021-10-09 15:01:15 19.8810977935791
2021-10-09 15:01:21 19.8810977935791
2021-10-09 15:01:26 19.8810977935791
2021-10-09 15:01:31 19.8810977935791
2021-10-09 15:01:37 19.8810977935791
2021-10-09 15:01:42 19.8810977935791
2021-10-09 15:01:47 19.8810977935791
2021-10-09 15:01:53 19.719446182250977
2021-10-09 15:01:58 19.8810977935791
2021-10-09 15:02:03 19.8810977935791
2021-10-09 15:02:09 19.8810977935791
2021-10-09 15:02:14 19.8810977935791
2021-10-09 15:02:20 19.8810977935791
2021-10-09 15:02:25 19.8810977935791
2021-10-09 15:02:30 19.8810977935791
2021-10-09 15:02:36 19.719446182250977
2021-10-09 15:02:41 19.8810977935791
2021-10-09 15:02:46 19.719446182250977
2021-10-09 15:02:52 19.8810977935791
2021-10-09 15:02:57 19.8810977935791
2021-10-09 15:03:02 19.719446182250977
2021-10-09 15:03:08 19.8810977935791
2021-10-09 15:03:13 19.719446182250977
2021-10-09 15:03:18 19.8810977935791
2021-10-09 15:03:24 19.8810977935791
2021-10-09 15:03:29 19.8810977935791
2021-10-09 15:03:34 19.8810977935791
2021-10-09 15:03:40 19.8810977935791
2021-10-09 15:03:45 19.8810977935791
2021-10-09 15:03:50 19.719446182250977
2021-10-09 15:03:56 19.8810977935791
2021-10-09 15:04:01 20.04351234436035
2021-10-09 15:04:06 19.8810977935791
2021-10-09 15:04:12 19.8810977935791
2021-10-09 15:04:17 19.8810977935791
2021-10-09 15:04:22 19.8810977935791
2021-10-09 15:04:28 19.8810977935791
2021-10-09 15:04:33 20.04351234436035
2021-10-09 15:04:38 19.719446182250977
2021-10-09 15:04:44 20.04351234436035
2021-10-09 15:04:49 19.719446182250977
2021-10-09 15:04:54 19.8810977935791
2021-10-09 15:05:00 19.8810977935791
2021-10-09 15:05:05 19.8810977935791
2021-10-09 15:05:11 19.8810977935791
2021-10-09 15:05:16 19.719446182250977
2021-10-09 15:05:21 19.719446182250977
2021-10-09 15:05:27 19.8810977935791
2021-10-09 15:05:32 19.719446182250977
2021-10-09 15:05:37 19.719446182250977
2021-10-09 15:05:43 19.8810977935791
2021-10-09 15:05:48 19.8810977935791
2021-10-09 15:05:53 19.8810977935791
2021-10-09 15:05:59 20.2066593170166
2021-10-09 15:06:04 19.8810977935791
2021-10-09 15:06:09 19.8810977935791
2021-10-09 15:06:15 19.719446182250977
2021-10-09 15:06:20 19.719446182250977
2021-10-09 15:06:25 19.39837074279785
2021-10-09 15:06:31 19.08025550842285
2021-10-09 15:06:36 18.7650089263916
2021-10-09 15:06:41 18.608423233032227
2021-10-09 15:06:47 18.45256996154785
2021-10-09 15:06:52 18.142847061157227
2021-10-09 15:06:57 17.835840225219727
2021-10-09 15:07:03 17.3802433013916
2021-10-09 15:07:08 17.229639053344727
2021-10-09 15:07:13 16.9304141998291
2021-10-09 15:07:19 16.63360023498535
2021-10-09 15:07:24 16.486108779907227
2021-10-09 15:07:29 16.192895889282227
2021-10-09 15:07:35 15.757532119750977
2021-10-09 15:07:40 15.470117568969727
2021-10-09 15:07:46 15.184961318969727
2021-10-09 15:07:51 14.901971817016602
2021-10-09 15:07:56 14.621118545532227
2021-10-09 15:08:02 14.342432022094727
2021-10-09 15:08:07 13.928186416625977
2021-10-09 15:08:12 13.791131973266602
2021-10-09 15:08:18 13.518487930297852
2021-10-09 15:08:23 13.113183975219727
2021-10-09 15:08:28 12.979028701782227
2021-10-09 15:08:34 12.712152481079102
2021-10-09 15:08:39 12.447107315063477
2021-10-09 15:08:44 12.183832168579102
2021-10-09 15:08:50 11.792322158813477
2021-10-09 15:08:55 11.662683486938477
2021-10-09 15:09:00 11.404687881469727
2021-10-09 15:09:06 11.020837783813477
2021-10-09 15:09:11 10.766992568969727
2021-10-09 15:09:16 10.514764785766602
2021-10-09 15:09:22 10.264123916625977
2021-10-09 15:09:27 10.015039443969727
2021-10-09 15:09:32 9.767450332641602
2021-10-09 15:09:38 9.521387100219727
2021-10-09 15:09:43 9.276788711547852
2021-10-09 15:09:48 9.033655166625977
2021-10-09 15:09:54 8.791925430297852
2021-10-09 15:09:59 8.551599502563477
2021-10-09 15:10:04 8.312646865844727
2021-10-09 15:10:10 8.075067520141602
2021-10-09 15:10:15 7.838830471038818
2021-10-09 15:10:21 7.603845119476318
2021-10-09 15:10:26 7.370233058929443
2021-10-09 15:10:31 7.253869533538818
2021-10-09 15:10:37 7.022088527679443
2021-10-09 15:10:42 6.791558742523193
2021-10-09 15:10:47 6.562249660491943
2021-10-09 15:10:53 6.334130764007568
2021-10-09 15:10:58 6.220513820648193
2021-10-09 15:11:03 5.994134426116943
2021-10-09 15:11:09 5.768914699554443
2021-10-09 15:11:14 5.544824123382568
2021-10-09 15:11:19 5.321862697601318
2021-10-09 15:11:25 5.210809230804443
2021-10-09 15:11:30 4.989434719085693
2021-10-09 15:11:35 4.769158840179443
2021-10-09 15:11:41 4.659417629241943
2021-10-09 15:11:46 4.440698146820068
2021-10-09 15:11:51 4.223046779632568
2021-10-09 15:11:57 4.114556789398193
2021-10-09 15:12:02 4.006341457366943
2021-10-09 15:12:07 3.6831908226013184
2021-10-09 15:12:13 3.5759520530700684
2021-10-09 15:12:18 3.3622374534606934
2021-10-09 15:12:23 3.1494383811950684
2021-10-09 15:12:29 3.0433592796325684
2021-10-09 15:12:34 2.9375853538513184
2021-10-09 15:12:39 2.7266173362731934
2021-10-09 15:12:45 2.6215147972106934
2021-10-09 15:12:50 2.6215147972106934
2021-10-09 15:12:56 2.5165648460388184
2021-10-09 15:13:01 2.5165648460388184
2021-10-09 15:13:06 2.4119200706481934
2021-10-09 15:13:12 2.4119200706481934
2021-10-09 15:13:17 2.3074584007263184
2021-10-09 15:13:22 2.3074584007263184
2021-10-09 15:13:28 2.2031798362731934
2021-10-09 15:13:33 2.0991759300231934
2021-10-09 15:13:38 2.2031798362731934
2021-10-09 15:13:44 2.0991759300231934
2021-10-09 15:13:49 1.995355248451233
2021-10-09 15:13:54 1.995355248451233
2021-10-09 15:14:00 1.995355248451233
2021-10-09 15:14:05 1.891748070716858
2021-10-09 15:14:10 1.891748070716858
2021-10-09 15:14:16 1.891748070716858
2021-10-09 15:14:21 1.891748070716858
2021-10-09 15:14:26 1.788354516029358
2021-10-09 15:14:32 1.788354516029358
2021-10-09 15:14:37 1.685174584388733
2021-10-09 15:14:42 1.788354516029358
2021-10-09 15:14:48 1.685174584388733
2021-10-09 15:14:53 1.685174584388733
2021-10-09 15:14:58 1.685174584388733
2021-10-09 15:15:04 1.685174584388733
2021-10-09 15:15:09 1.582208275794983
2021-10-09 15:15:14 1.685174584388733
2021-10-09 15:15:20 1.582208275794983
2021-10-09 15:15:25 1.582208275794983
2021-10-09 15:15:31 1.582208275794983
2021-10-09 15:15:36 1.582208275794983
2021-10-09 15:15:41 1.582208275794983
2021-10-09 15:15:47 1.582208275794983
2021-10-09 15:15:52 1.479455590248108
2021-10-09 15:15:57 1.479455590248108
2021-10-09 15:16:03 1.479455590248108
2021-10-09 15:16:08 1.479455590248108
2021-10-09 15:16:13 1.479455590248108
2021-10-09 15:16:19 1.479455590248108
2021-10-09 15:16:24 1.479455590248108
2021-10-09 15:16:29 1.479455590248108
2021-10-09 15:16:35 1.479455590248108
2021-10-09 15:16:40 1.376886010169983
2021-10-09 15:16:45 1.376886010169983
2021-10-09 15:16:51 1.376886010169983
2021-10-09 15:16:56 1.376886010169983
2021-10-09 15:17:01 1.376886010169983
2021-10-09 15:17:07 1.274560570716858
2021-10-09 15:17:12 1.274560570716858
2021-10-09 15:17:17 1.274560570716858
2021-10-09 15:17:23 1.274560570716858
2021-10-09 15:17:28 1.274560570716858
2021-10-09 15:17:33 1.274560570716858
2021-10-09 15:17:39 1.274560570716858
2021-10-09 15:17:44 1.172387719154358
2021-10-09 15:17:49 1.172387719154358
2021-10-09 15:17:55 1.172387719154358
2021-10-09 15:18:00 1.274560570716858
2021-10-09 15:18:06 1.172387719154358
2021-10-09 15:18:11 1.172387719154358
2021-10-09 15:18:16 1.172387719154358
2021-10-09 15:18:22 1.172387719154358
2021-10-09 15:18:27 1.172387719154358
2021-10-09 15:18:32 1.172387719154358
2021-10-09 15:18:38 1.070428490638733
2021-10-09 15:18:43 1.070428490638733
2021-10-09 15:18:48 1.172387719154358
2021-10-09 15:18:54 1.172387719154358
2021-10-09 15:18:59 1.070428490638733
2021-10-09 15:19:04 1.070428490638733
2021-10-09 15:19:10 1.070428490638733
2021-10-09 15:19:15 1.070428490638733
2021-10-09 15:19:20 1.070428490638733
2021-10-09 15:19:26 1.070428490638733
2021-10-09 15:19:31 0.8671509027481079
2021-10-09 15:19:36 0.8671509027481079
2021-10-09 15:19:42 0.7658020257949829
2021-10-09 15:19:47 0.8671509027481079
2021-10-09 15:19:52 0.6646362543106079
2021-10-09 15:19:58 0.6646362543106079
2021-10-09 15:20:03 0.5636535882949829
2021-10-09 15:20:08 0.4628845155239105
2021-10-09 15:20:14 0.4628845155239105
2021-10-09 15:20:19 0.3622985780239105
2021-10-09 15:20:24 0.3622985780239105
2021-10-09 15:20:30 0.2619262635707855
2021-10-09 15:20:35 0.2619262635707855
2021-10-09 15:20:41 0.16170653700828552
2021-10-09 15:20:46 0.16170653700828552
2021-10-09 15:20:51 0.06166992336511612
2021-10-09 15:20:57 0.06166992336511612
2021-10-09 15:21:02 0.06166992336511612
2021-10-09 15:21:07 -0.03815307468175888
2021-10-09 15:21:13 -0.03815307468175888
2021-10-09 15:21:18 -0.03815307468175888
2021-10-09 15:21:23 -0.03815307468175888
2021-10-09 15:21:29 0.06166992336511612
2021-10-09 15:21:34 -0.03815307468175888
2021-10-09 15:21:39 0.06166992336511612
2021-10-09 15:21:45 -0.03815307468175888
2021-10-09 15:21:50 -0.03815307468175888
2021-10-09 15:21:55 0.06166992336511612
2021-10-09 15:22:01 -0.03815307468175888
2021-10-09 15:22:06 -0.03815307468175888
2021-10-09 15:22:11 -0.03815307468175888
2021-10-09 15:22:17 -0.03815307468175888
2021-10-09 15:22:22 -0.03815307468175888
2021-10-09 15:22:27 0.06166992336511612
2021-10-09 15:22:33 -0.03815307468175888
2021-10-09 15:22:38 0.06166992336511612
2021-10-09 15:22:43 -0.03815307468175888
2021-10-09 15:22:49 -0.03815307468175888
2021-10-09 15:22:54 0.06166992336511612
2021-10-09 15:22:59 0.06166992336511612
2021-10-09 15:23:05 0.06166992336511612
2021-10-09 15:23:10 0.06166992336511612
2021-10-09 15:23:16 0.06166992336511612
2021-10-09 15:23:21 0.06166992336511612
2021-10-09 15:23:26 0.06166992336511612
2021-10-09 15:23:32 -0.03815307468175888
2021-10-09 15:23:37 -0.03815307468175888
2021-10-09 15:23:42 0.06166992336511612
2021-10-09 15:23:48 0.06166992336511612
2021-10-09 15:23:53 0.06166992336511612
2021-10-09 15:23:58 0.06166992336511612
2021-10-09 15:24:04 0.06166992336511612
2021-10-09 15:24:09 0.06166992336511612
2021-10-09 15:24:14 0.06166992336511612
2021-10-09 15:24:20 0.06166992336511612
2021-10-09 15:24:25 0.16170653700828552
2021-10-09 15:24:30 0.06166992336511612
2021-10-09 15:24:36 0.06166992336511612
2021-10-09 15:24:41 0.06166992336511612
2021-10-09 15:24:46 0.16170653700828552
2021-10-09 15:24:52 0.16170653700828552
2021-10-09 15:24:57 0.06166992336511612
2021-10-09 15:25:02 0.16170653700828552
2021-10-09 15:25:08 0.16170653700828552
2021-10-09 15:25:13 0.06166992336511612
2021-10-09 15:25:18 0.06166992336511612
2021-10-09 15:25:24 0.06166992336511612
2021-10-09 15:25:29 0.16170653700828552
2021-10-09 15:25:34 0.06166992336511612
2021-10-09 15:25:40 0.06166992336511612
2021-10-09 15:25:45 0.16170653700828552
2021-10-09 15:25:51 0.16170653700828552
2021-10-09 15:25:56 0.16170653700828552
2021-10-09 15:26:01 0.16170653700828552
2021-10-09 15:26:07 0.16170653700828552
2021-10-09 15:26:12 0.16170653700828552
2021-10-09 15:26:17 0.16170653700828552
2021-10-09 15:26:23 0.16170653700828552
2021-10-09 15:26:28 0.2619262635707855
2021-10-09 15:26:33 0.2619262635707855
2021-10-09 15:26:39 0.06166992336511612
2021-10-09 15:26:44 0.16170653700828552
2021-10-09 15:26:49 0.16170653700828552
2021-10-09 15:26:55 0.16170653700828552
2021-10-09 15:27:00 0.16170653700828552
2021-10-09 15:27:05 0.16170653700828552
2021-10-09 15:27:11 0.2619262635707855
2021-10-09 15:27:16 0.06166992336511612
2021-10-09 15:27:21 0.2619262635707855
2021-10-09 15:27:27 0.16170653700828552
2021-10-09 15:27:32 0.16170653700828552
2021-10-09 15:27:37 0.16170653700828552
2021-10-09 15:27:43 0.2619262635707855
2021-10-09 15:27:48 0.2619262635707855
2021-10-09 15:27:53 0.2619262635707855
2021-10-09 15:27:59 0.2619262635707855
2021-10-09 15:28:04 0.16170653700828552
2021-10-09 15:28:09 0.2619262635707855
2021-10-09 15:28:15 0.16170653700828552
2021-10-09 15:28:20 0.2619262635707855
2021-10-09 15:28:26 0.2619262635707855
2021-10-09 15:28:31 0.16170653700828552
2021-10-09 15:28:36 0.16170653700828552
2021-10-09 15:28:42 0.2619262635707855
2021-10-09 15:28:47 0.16170653700828552
2021-10-09 15:28:52 0.2619262635707855
2021-10-09 15:28:58 0.16170653700828552
2021-10-09 15:29:03 0.2619262635707855
2021-10-09 15:29:08 0.2619262635707855
2021-10-09 15:29:14 0.2619262635707855
2021-10-09 15:29:19 0.2619262635707855
2021-10-09 15:29:24 0.2619262635707855
2021-10-09 15:29:30 0.2619262635707855
2021-10-09 15:29:35 0.16170653700828552
2021-10-09 15:29:40 0.2619262635707855
2021-10-09 15:29:46 0.16170653700828552
2021-10-09 15:29:51 0.2619262635707855
2021-10-09 15:29:56 0.2619262635707855
2021-10-09 15:30:02 0.16170653700828552
2021-10-09 15:30:07 0.2619262635707855
2021-10-09 15:30:12 0.2619262635707855
2021-10-09 15:30:18 0.2619262635707855
2021-10-09 15:30:23 0.16170653700828552
2021-10-09 15:30:28 0.2619262635707855
2021-10-09 15:30:34 0.2619262635707855
2021-10-09 15:30:39 0.2619262635707855
2021-10-09 15:30:44 0.2619262635707855
2021-10-09 15:30:50 0.2619262635707855
2021-10-09 15:30:55 0.2619262635707855
2021-10-09 15:31:01 0.16170653700828552
2021-10-09 15:31:06 0.2619262635707855
2021-10-09 15:31:11 0.2619262635707855
2021-10-09 15:31:17 0.2619262635707855
2021-10-09 15:31:22 0.2619262635707855
2021-10-09 15:31:27 0.2619262635707855
2021-10-09 15:31:33 0.3622985780239105
2021-10-09 15:31:38 0.2619262635707855
2021-10-09 15:31:43 0.2619262635707855
2021-10-09 15:31:49 0.2619262635707855
2021-10-09 15:31:54 0.3622985780239105
2021-10-09 15:31:59 0.4628845155239105
2021-10-09 15:32:05 0.2619262635707855
2021-10-09 15:32:10 0.2619262635707855
2021-10-09 15:32:15 0.2619262635707855
2021-10-09 15:32:21 0.2619262635707855
2021-10-09 15:32:26 0.2619262635707855
2021-10-09 15:32:31 0.3622985780239105
2021-10-09 15:32:37 0.2619262635707855
2021-10-09 15:32:42 0.2619262635707855
2021-10-09 15:32:47 0.2619262635707855
2021-10-09 15:32:53 0.16170653700828552
2021-10-09 15:32:58 0.2619262635707855
2021-10-09 15:33:03 0.4628845155239105
2021-10-09 15:33:09 0.2619262635707855
2021-10-09 15:33:14 0.2619262635707855
2021-10-09 15:33:19 0.2619262635707855
2021-10-09 15:33:25 0.16170653700828552
2021-10-09 15:33:30 0.2619262635707855
2021-10-09 15:33:36 0.2619262635707855
2021-10-09 15:33:41 0.2619262635707855
2021-10-09 15:33:46 0.2619262635707855
2021-10-09 15:33:52 0.2619262635707855
2021-10-09 15:33:57 0.2619262635707855
2021-10-09 15:34:02 0.2619262635707855
2021-10-09 15:34:08 0.2619262635707855
2021-10-09 15:34:13 0.2619262635707855
2021-10-09 15:34:18 0.2619262635707855
2021-10-09 15:34:24 0.2619262635707855
2021-10-09 15:34:29 0.2619262635707855
2021-10-09 15:34:34 0.2619262635707855
2021-10-09 15:34:40 0.2619262635707855
2021-10-09 15:34:45 0.2619262635707855
2021-10-09 15:34:50 0.2619262635707855
2021-10-09 15:34:56 0.2619262635707855
2021-10-09 15:35:01 0.2619262635707855
2021-10-09 15:35:06 0.2619262635707855
2021-10-09 15:35:12 0.2619262635707855
2021-10-09 15:35:17 0.2619262635707855
2021-10-09 15:35:22 0.2619262635707855
2021-10-09 15:35:28 0.16170653700828552
2021-10-09 15:35:33 0.2619262635707855
2021-10-09 15:35:38 0.2619262635707855
2021-10-09 15:35:44 0.2619262635707855
2021-10-09 15:35:49 0.2619262635707855
2021-10-09 15:35:54 0.2619262635707855
2021-10-09 15:36:00 0.2619262635707855
2021-10-09 15:36:05 0.2619262635707855
2021-10-09 15:36:10 0.2619262635707855
2021-10-09 15:36:16 0.2619262635707855
2021-10-09 15:36:21 0.16170653700828552
2021-10-09 15:36:27 0.2619262635707855
2021-10-09 15:36:32 0.2619262635707855
2021-10-09 15:36:37 0.2619262635707855
2021-10-09 15:36:43 0.2619262635707855
2021-10-09 15:36:48 0.2619262635707855
2021-10-09 15:36:53 0.2619262635707855
2021-10-09 15:36:59 0.2619262635707855
2021-10-09 15:37:04 0.16170653700828552
2021-10-09 15:37:09 0.2619262635707855
2021-10-09 15:37:15 0.16170653700828552
2021-10-09 15:37:20 0.16170653700828552
2021-10-09 15:37:25 0.2619262635707855
2021-10-09 15:37:31 0.2619262635707855
2021-10-09 15:37:36 0.2619262635707855
2021-10-09 15:37:41 0.2619262635707855
2021-10-09 15:37:47 0.2619262635707855
2021-10-09 15:37:52 0.16170653700828552
2021-10-09 15:37:57 0.16170653700828552
2021-10-09 15:38:03 0.16170653700828552
2021-10-09 15:38:08 0.16170653700828552
2021-10-09 15:38:13 0.16170653700828552
2021-10-09 15:38:19 0.16170653700828552
2021-10-09 15:38:24 0.16170653700828552
2021-10-09 15:38:29 0.2619262635707855
2021-10-09 15:38:35 0.16170653700828552
2021-10-09 15:38:40 0.2619262635707855
2021-10-09 15:38:46 0.16170653700828552
2021-10-09 15:38:51 0.2619262635707855
2021-10-09 15:38:56 0.16170653700828552
2021-10-09 15:39:02 0.16170653700828552
2021-10-09 15:39:07 0.16170653700828552
2021-10-09 15:39:12 0.16170653700828552
2021-10-09 15:39:18 0.2619262635707855
2021-10-09 15:39:23 0.16170653700828552
2021-10-09 15:39:28 0.16170653700828552
2021-10-09 15:39:34 0.16170653700828552
2021-10-09 15:39:39 0.2619262635707855
2021-10-09 15:39:44 0.2619262635707855
2021-10-09 15:39:50 0.2619262635707855
2021-10-09 15:39:55 0.16170653700828552
2021-10-09 15:40:00 0.16170653700828552
2021-10-09 15:40:06 0.16170653700828552
2021-10-09 15:40:11 0.2619262635707855
2021-10-09 15:40:16 0.16170653700828552
2021-10-09 15:40:22 0.16170653700828552
2021-10-09 15:40:27 0.16170653700828552
2021-10-09 15:40:32 0.2619262635707855
2021-10-09 15:40:38 0.2619262635707855
2021-10-09 15:40:43 0.2619262635707855
2021-10-09 15:40:48 0.16170653700828552
2021-10-09 15:40:54 0.16170653700828552
2021-10-09 15:40:59 0.2619262635707855
2021-10-09 15:41:04 0.16170653700828552
2021-10-09 15:41:10 0.16170653700828552
2021-10-09 15:41:15 0.16170653700828552
2021-10-09 15:41:21 0.16170653700828552
2021-10-09 15:41:26 0.2619262635707855
2021-10-09 15:41:31 0.16170653700828552
2021-10-09 15:41:37 0.16170653700828552
2021-10-09 15:41:42 0.2619262635707855
2021-10-09 15:41:47 0.06166992336511612
2021-10-09 15:41:53 0.16170653700828552
2021-10-09 15:41:58 0.2619262635707855
2021-10-09 15:42:03 0.2619262635707855
2021-10-09 15:42:09 0.16170653700828552
2021-10-09 15:42:14 0.16170653700828552
2021-10-09 15:42:19 0.16170653700828552
2021-10-09 15:42:25 0.16170653700828552
2021-10-09 15:42:30 0.16170653700828552
2021-10-09 15:42:35 0.16170653700828552
2021-10-09 15:42:41 0.16170653700828552
2021-10-09 15:42:46 0.3622985780239105
2021-10-09 15:42:51 0.2619262635707855
2021-10-09 15:42:57 0.16170653700828552
2021-10-09 15:43:02 0.16170653700828552
2021-10-09 15:43:07 0.2619262635707855
2021-10-09 15:43:13 0.2619262635707855
2021-10-09 15:43:18 0.2619262635707855
2021-10-09 15:43:23 0.16170653700828552
2021-10-09 15:43:29 0.16170653700828552
2021-10-09 15:43:34 0.06166992336511612
2021-10-09 15:43:39 0.16170653700828552
2021-10-09 15:43:45 0.16170653700828552
2021-10-09 15:43:50 0.16170653700828552
2021-10-09 15:43:56 0.2619262635707855
2021-10-09 15:44:01 0.16170653700828552
2021-10-09 15:44:06 0.2619262635707855
2021-10-09 15:44:12 0.2619262635707855
2021-10-09 15:44:17 0.06166992336511612
2021-10-09 15:44:22 0.2619262635707855
2021-10-09 15:44:28 0.2619262635707855
2021-10-09 15:44:33 0.16170653700828552
2021-10-09 15:44:38 0.2619262635707855
2021-10-09 15:44:44 0.16170653700828552
2021-10-09 15:44:49 0.2619262635707855
2021-10-09 15:44:54 0.16170653700828552
2021-10-09 15:45:00 0.16170653700828552
2021-10-09 15:45:05 0.16170653700828552
2021-10-09 15:45:10 0.16170653700828552
2021-10-09 15:45:16 0.16170653700828552
2021-10-09 15:45:21 0.2619262635707855
2021-10-09 15:45:26 0.16170653700828552
2021-10-09 15:45:32 0.16170653700828552
2021-10-09 15:45:37 0.16170653700828552
2021-10-09 15:45:42 0.16170653700828552
2021-10-09 15:45:48 0.16170653700828552
2021-10-09 15:45:53 0.16170653700828552
2021-10-09 15:45:58 0.16170653700828552
2021-10-09 15:46:04 0.16170653700828552
2021-10-09 15:46:09 0.16170653700828552
2021-10-09 15:46:14 0.16170653700828552
2021-10-09 15:46:20 0.2619262635707855
2021-10-09 15:46:25 0.2619262635707855
2021-10-09 15:46:31 0.16170653700828552
2021-10-09 15:46:36 0.16170653700828552
2021-10-09 15:46:41 0.16170653700828552
2021-10-09 15:46:47 0.16170653700828552
2021-10-09 15:46:52 0.16170653700828552
2021-10-09 15:46:57 0.16170653700828552
2021-10-09 15:47:03 0.16170653700828552
2021-10-09 15:47:08 0.16170653700828552
2021-10-09 15:47:13 0.16170653700828552
2021-10-09 15:47:19 0.16170653700828552
2021-10-09 15:47:24 0.16170653700828552
2021-10-09 15:47:29 0.16170653700828552
2021-10-09 15:47:35 0.06166992336511612
2021-10-09 15:47:40 0.16170653700828552
2021-10-09 15:47:45 0.16170653700828552
2021-10-09 15:47:51 0.16170653700828552
2021-10-09 15:47:56 0.16170653700828552
2021-10-09 15:48:01 0.16170653700828552
2021-10-09 15:48:07 0.16170653700828552
2021-10-09 15:48:12 0.06166992336511612
2021-10-09 15:48:17 0.16170653700828552
2021-10-09 15:48:23 0.16170653700828552
2021-10-09 15:48:28 0.16170653700828552
2021-10-09 15:48:33 0.16170653700828552
2021-10-09 15:48:39 0.06166992336511612
2021-10-09 15:48:44 0.06166992336511612
2021-10-09 15:48:49 0.2619262635707855
2021-10-09 15:48:55 0.06166992336511612
2021-10-09 15:49:00 0.16170653700828552
2021-10-09 15:49:06 0.16170653700828552
2021-10-09 15:49:11 0.16170653700828552
2021-10-09 15:49:16 0.06166992336511612
2021-10-09 15:49:22 0.06166992336511612
2021-10-09 15:49:27 0.06166992336511612
2021-10-09 15:49:32 0.16170653700828552
2021-10-09 15:49:38 0.16170653700828552
2021-10-09 15:49:43 0.06166992336511612
2021-10-09 15:49:48 0.06166992336511612
2021-10-09 15:49:54 0.16170653700828552
2021-10-09 15:49:59 0.06166992336511612
2021-10-09 15:50:04 0.06166992336511612
2021-10-09 15:50:10 0.16170653700828552
2021-10-09 15:50:15 0.16170653700828552
2021-10-09 15:50:20 0.06166992336511612
2021-10-09 15:50:26 0.16170653700828552
2021-10-09 15:50:31 0.06166992336511612
2021-10-09 15:50:36 0.06166992336511612
2021-10-09 15:50:42 0.2619262635707855
2021-10-09 15:50:47 0.06166992336511612
2021-10-09 15:50:52 0.16170653700828552
2021-10-09 15:50:58 0.06166992336511612
2021-10-09 15:51:03 0.06166992336511612
2021-10-09 15:51:08 0.06166992336511612
2021-10-09 15:51:14 0.06166992336511612
2021-10-09 15:51:19 0.06166992336511612
2021-10-09 15:51:24 0.06166992336511612
2021-10-09 15:51:30 0.06166992336511612
2021-10-09 15:51:35 0.06166992336511612
2021-10-09 15:51:41 0.06166992336511612
2021-10-09 15:51:46 0.06166992336511612
2021-10-09 15:51:51 0.16170653700828552
2021-10-09 15:51:57 0.06166992336511612
2021-10-09 15:52:02 0.06166992336511612
2021-10-09 15:52:07 0.06166992336511612
2021-10-09 15:52:13 0.06166992336511612
2021-10-09 15:52:18 0.06166992336511612
2021-10-09 15:52:23 5.210809230804443
2021-10-09 15:52:29 5.656762599945068
2021-10-09 15:52:34 5.994134426116943
2021-10-09 15:52:39 6.107171535491943
2021-10-09 15:52:45 6.448052883148193
2021-10-09 15:52:50 6.676782131195068
2021-10-09 15:52:55 6.906671047210693
2021-10-09 15:53:01 7.137811183929443
2021-10-09 15:53:06 7.370233058929443
2021-10-09 15:53:11 7.721185207366943
2021-10-09 15:53:17 7.838830471038818
2021-10-09 15:53:22 8.075067520141602
2021-10-09 15:53:27 8.193719863891602
2021-10-09 15:53:33 8.431970596313477
2021-10-09 15:53:38 8.671594619750977
2021-10-09 15:53:43 9.033655166625977
2021-10-09 15:53:49 9.155054092407227
2021-10-09 15:53:54 9.398920059204102
2021-10-09 15:53:59 9.644220352172852
2021-10-09 15:54:05 9.891046524047852
2021-10-09 15:54:10 10.015039443969727
2021-10-09 15:54:16 10.139368057250977
2021-10-09 15:54:21 10.389245986938477
2021-10-09 15:54:26 10.514764785766602
2021-10-09 15:54:32 10.640680313110352
2021-10-09 15:54:37 10.893732070922852
2021-10-09 15:54:42 11.020837783813477
2021-10-09 15:54:48 11.276330947875977
2021-10-09 15:54:53 11.404687881469727
2021-10-09 15:54:58 11.533472061157227
2021-10-09 15:55:04 11.792322158813477
2021-10-09 15:55:09 11.792322158813477
2021-10-09 15:55:14 12.052911758422852
2021-10-09 15:55:20 12.183832168579102
2021-10-09 15:55:25 12.447107315063477
2021-10-09 15:55:30 12.579370498657227
2021-10-09 15:55:36 12.712152481079102
2021-10-09 15:55:41 12.845361709594727
2021-10-09 15:55:46 12.979028701782227
2021-10-09 15:55:52 13.113183975219727
2021-10-09 15:55:57 13.382898330688477
2021-10-09 15:56:02 13.382898330688477
2021-10-09 15:56:08 13.518487930297852
2021-10-09 15:56:13 13.791131973266602
2021-10-09 15:56:18 13.791131973266602
2021-10-09 15:56:24 13.928186416625977
2021-10-09 15:56:29 13.928186416625977
2021-10-09 15:56:34 14.342432022094727
2021-10-09 15:56:40 14.342432022094727
2021-10-09 15:56:45 14.342432022094727
2021-10-09 15:56:50 14.761285781860352
2021-10-09 15:56:56 14.761285781860352
2021-10-09 15:57:01 14.761285781860352
2021-10-09 15:57:07 14.901971817016602
2021-10-09 15:57:12 14.901971817016602
2021-10-09 15:57:17 15.184961318969727
2021-10-09 15:57:23 15.327264785766602
2021-10-09 15:57:28 15.613519668579102
2021-10-09 15:57:33 15.613519668579102
2021-10-09 15:57:39 15.613519668579102
2021-10-09 15:57:44 15.757532119750977
2021-10-09 15:57:49 16.047204971313477
2021-10-09 15:57:55 16.047204971313477
2021-10-09 15:58:00 16.192895889282227
2021-10-09 15:58:05 16.339197158813477
2021-10-09 15:58:11 16.339197158813477
2021-10-09 15:58:16 16.339197158813477
2021-10-09 15:58:21 16.63360023498535
2021-10-09 15:58:27 16.63360023498535
2021-10-09 15:58:32 16.78167152404785
2021-10-09 15:58:37 16.78167152404785
2021-10-09 15:58:43 16.9304141998291
2021-10-09 15:58:48 16.9304141998291
2021-10-09 15:58:53 17.229639053344727
2021-10-09 15:58:59 17.0797061920166
2021-10-09 15:59:04 17.229639053344727
2021-10-09 15:59:09 17.3802433013916
2021-10-09 15:59:15 17.3802433013916
2021-10-09 15:59:20 17.531457901000977
2021-10-09 15:59:25 17.531457901000977
2021-10-09 15:59:31 17.6833438873291
2021-10-09 15:59:36 17.6833438873291
2021-10-09 15:59:41 17.989038467407227
2021-10-09 15:59:47 17.989038467407227
2021-10-09 15:59:52 17.835840225219727
2021-10-09 15:59:58 18.142847061157227
2021-10-09 16:00:03 17.989038467407227
2021-10-09 16:00:08 18.2973575592041
2021-10-09 16:00:14 18.2973575592041
2021-10-09 16:00:19 18.2973575592041
2021-10-09 16:00:24 18.45256996154785
2021-10-09 16:00:30 18.45256996154785
2021-10-09 16:00:35 18.45256996154785
2021-10-09 16:00:40 18.608423233032227
2021-10-09 16:00:46 18.608423233032227
2021-10-09 16:00:51 18.7650089263916
2021-10-09 16:00:56 18.7650089263916
2021-10-09 16:01:02 18.7650089263916
2021-10-09 16:01:07 18.92229652404785
2021-10-09 16:01:12 18.92229652404785
2021-10-09 16:01:18 18.92229652404785
2021-10-09 16:01:23 19.08025550842285
2021-10-09 16:01:28 19.08025550842285
2021-10-09 16:01:34 19.08025550842285
2021-10-09 16:01:39 19.08025550842285
2021-10-09 16:01:44 19.39837074279785
2021-10-09 16:01:50 19.238977432250977
2021-10-09 16:01:55 19.39837074279785
2021-10-09 16:02:01 19.39837074279785
2021-10-09 16:02:06 19.39837074279785
2021-10-09 16:02:11 19.55852699279785
2021-10-09 16:02:17 19.55852699279785
2021-10-09 16:02:22 19.55852699279785
2021-10-09 16:02:27 19.719446182250977
2021-10-09 16:02:33 19.719446182250977
2021-10-09 16:02:38 19.8810977935791
2021-10-09 16:02:43 19.719446182250977
2021-10-09 16:02:49 19.719446182250977
2021-10-09 16:02:54 19.719446182250977
2021-10-09 16:02:59 20.04351234436035
2021-10-09 16:03:05 19.8810977935791
2021-10-09 16:03:10 20.04351234436035
2021-10-09 16:03:15 20.2066593170166
2021-10-09 16:03:21 20.2066593170166
2021-10-09 16:03:26 20.2066593170166
2021-10-09 16:03:31 20.2066593170166
2021-10-09 16:03:37 20.2066593170166
2021-10-09 16:03:42 20.3705997467041
2021-10-09 16:03:47 20.3705997467041
2021-10-09 16:03:53 20.3705997467041
2021-10-09 16:03:58 20.2066593170166
2021-10-09 16:04:03 20.3705997467041
2021-10-09 16:04:09 20.3705997467041
2021-10-09 16:04:14 20.53533363342285
2021-10-09 16:04:19 20.53533363342285
2021-10-09 16:04:25 20.70086097717285
2021-10-09 16:04:30 20.70086097717285
2021-10-09 16:04:36 20.70086097717285
2021-10-09 16:04:41 20.70086097717285
2021-10-09 16:04:46 20.70086097717285
2021-10-09 16:04:52 20.53533363342285
2021-10-09 16:04:57 20.8671817779541
2021-10-09 16:05:02 20.8671817779541
2021-10-09 16:05:08 20.8671817779541
2021-10-09 16:05:13 20.8671817779541
2021-10-09 16:05:18 21.034326553344727
2021-10-09 16:05:24 21.034326553344727
2021-10-09 16:05:29 20.8671817779541
2021-10-09 16:05:34 21.034326553344727
2021-10-09 16:05:40 21.034326553344727
2021-10-09 16:05:45 21.034326553344727
2021-10-09 16:05:50 21.034326553344727
2021-10-09 16:05:56 21.034326553344727
2021-10-09 16:06:01 21.2022647857666
2021-10-09 16:06:06 21.034326553344727
2021-10-09 16:06:12 21.034326553344727
2021-10-09 16:06:17 21.2022647857666
2021-10-09 16:06:22 21.2022647857666
2021-10-09 16:06:28 21.2022647857666
2021-10-09 16:06:33 21.2022647857666
2021-10-09 16:06:38 21.2022647857666
2021-10-09 16:06:44 21.2022647857666
2021-10-09 16:06:49 21.371057510375977
2021-10-09 16:06:55 21.371057510375977
2021-10-09 16:07:00 21.371057510375977
2021-10-09 16:07:05 21.371057510375977
2021-10-09 16:07:11 21.371057510375977
2021-10-09 16:07:16 21.371057510375977
2021-10-09 16:07:21 21.371057510375977
2021-10-09 16:07:27 21.540674209594727
2021-10-09 16:07:32 21.540674209594727
2021-10-09 16:07:37 21.540674209594727
2021-10-09 16:07:43 21.540674209594727
2021-10-09 16:07:48 21.540674209594727
2021-10-09 16:07:53 21.540674209594727
2021-10-09 16:07:59 21.540674209594727
2021-10-09 16:08:04 21.540674209594727
2021-10-09 16:08:09 21.88250160217285
2021-10-09 16:08:15 21.711145401000977
2021-10-09 16:08:20 21.88250160217285
2021-10-09 16:08:25 21.711145401000977
2021-10-09 16:08:31 21.711145401000977
2021-10-09 16:08:36 21.88250160217285
2021-10-09 16:08:41 22.0546817779541
2021-10-09 16:08:47 21.88250160217285
2021-10-09 16:08:52 21.88250160217285
2021-10-09 16:08:57 22.0546817779541
2021-10-09 16:09:03 22.0546817779541
2021-10-09 16:09:08 22.0546817779541
2021-10-09 16:09:13 22.0546817779541
2021-10-09 16:09:19 22.0546817779541
2021-10-09 16:09:24 22.0546817779541
2021-10-09 16:09:29 22.2277774810791
2021-10-09 16:09:35 22.401758193969727
2021-10-09 16:09:40 22.2277774810791
2021-10-09 16:09:46 22.401758193969727
2021-10-09 16:09:51 22.401758193969727
2021-10-09 16:09:56 22.401758193969727
2021-10-09 16:10:02 22.576623916625977
2021-10-09 16:10:07 22.401758193969727
2021-10-09 16:10:12 22.401758193969727
2021-10-09 16:10:18 22.576623916625977
2021-10-09 16:10:23 22.576623916625977
2021-10-09 16:10:28 22.752405166625977
2021-10-09 16:10:34 22.752405166625977
2021-10-09 16:10:39 22.752405166625977
2021-10-09 16:10:44 22.752405166625977
2021-10-09 16:10:50 22.752405166625977
2021-10-09 16:10:55 22.752405166625977
2021-10-09 16:11:00 22.752405166625977
2021-10-09 16:11:06 22.752405166625977
2021-10-09 16:11:11 22.752405166625977
2021-10-09 16:11:16 22.752405166625977
2021-10-09 16:11:22 22.752405166625977
2021-10-09 16:11:27 22.752405166625977
2021-10-09 16:11:32 22.752405166625977
2021-10-09 16:11:38 22.752405166625977
2021-10-09 16:11:43 22.929101943969727
2021-10-09 16:11:49 22.576623916625977
2021-10-09 16:11:54 22.752405166625977
2021-10-09 16:11:59 22.929101943969727
2021-10-09 16:12:05 22.929101943969727
2021-10-09 16:12:10 22.752405166625977
2021-10-09 16:12:15 22.929101943969727
2021-10-09 16:12:21 22.929101943969727
2021-10-09 16:12:26 22.752405166625977
2021-10-09 16:12:31 22.929101943969727
2021-10-09 16:12:37 22.929101943969727
2021-10-09 16:12:42 22.929101943969727
2021-10-09 16:12:47 22.929101943969727
2021-10-09 16:12:53 22.752405166625977
2021-10-09 16:12:58 22.752405166625977
2021-10-09 16:13:03 22.752405166625977
2021-10-09 16:13:09 22.752405166625977
2021-10-09 16:13:14 22.752405166625977
2021-10-09 16:13:19 22.752405166625977
2021-10-09 16:13:25 22.752405166625977
2021-10-09 16:13:30 22.752405166625977
2021-10-09 16:13:35 22.929101943969727
2021-10-09 16:13:41 22.929101943969727
2021-10-09 16:13:46 22.752405166625977
2021-10-09 16:13:51 22.929101943969727
2021-10-09 16:13:57 22.752405166625977
2021-10-09 16:14:02 22.929101943969727
2021-10-09 16:14:07 22.752405166625977
2021-10-09 16:14:13 22.752405166625977
2021-10-09 16:14:18 22.752405166625977
2021-10-09 16:14:24 22.929101943969727
2021-10-09 16:14:29 22.929101943969727
2021-10-09 16:14:34 22.752405166625977
2021-10-09 16:14:40 22.752405166625977
2021-10-09 16:14:45 22.929101943969727
2021-10-09 16:14:50 22.752405166625977
2021-10-09 16:14:56 22.929101943969727
2021-10-09 16:15:01 22.929101943969727
2021-10-09 16:15:06 22.576623916625977
2021-10-09 16:15:12 22.752405166625977
2021-10-09 16:15:17 22.752405166625977
2021-10-09 16:15:22 22.752405166625977
2021-10-09 16:15:28 22.929101943969727
2021-10-09 16:15:33 22.752405166625977
2021-10-09 16:15:38 22.929101943969727
2021-10-09 16:15:44 22.752405166625977
2021-10-09 16:15:49 22.929101943969727
2021-10-09 16:15:54 22.752405166625977
2021-10-09 16:16:00 22.752405166625977
2021-10-09 16:16:05 22.752405166625977
2021-10-09 16:16:10 22.752405166625977
2021-10-09 16:16:16 22.929101943969727
2021-10-09 16:16:21 22.752405166625977
2021-10-09 16:16:26 22.929101943969727
2021-10-09 16:16:32 22.752405166625977
2021-10-09 16:16:37 22.752405166625977
2021-10-09 16:16:42 22.929101943969727
2021-10-09 16:16:48 22.752405166625977
2021-10-09 16:16:53 22.929101943969727
2021-10-09 16:16:59 22.929101943969727
2021-10-09 16:17:04 22.752405166625977
2021-10-09 16:17:09 22.752405166625977
2021-10-09 16:17:15 22.929101943969727
2021-10-09 16:17:20 22.929101943969727
2021-10-09 16:17:25 22.752405166625977
2021-10-09 16:17:31 22.752405166625977
2021-10-09 16:17:36 22.752405166625977
2021-10-09 16:17:41 22.929101943969727
2021-10-09 16:17:47 22.752405166625977
2021-10-09 16:17:52 22.929101943969727
2021-10-09 16:17:57 22.752405166625977
2021-10-09 16:18:03 22.752405166625977
2021-10-09 16:18:08 22.752405166625977
2021-10-09 16:18:13 22.752405166625977
2021-10-09 16:18:19 22.752405166625977
2021-10-09 16:18:24 22.929101943969727
2021-10-09 16:18:29 22.752405166625977
2021-10-09 16:18:35 22.752405166625977
2021-10-09 16:18:40 22.752405166625977
2021-10-09 16:18:45 22.929101943969727
2021-10-09 16:18:51 22.929101943969727
2021-10-09 16:18:56 22.929101943969727
2021-10-09 16:19:01 22.752405166625977
2021-10-09 16:19:07 22.929101943969727
2021-10-09 16:19:12 22.752405166625977
2021-10-09 16:19:17 22.576623916625977
2021-10-09 16:19:23 22.929101943969727
2021-10-09 16:19:28 22.929101943969727
2021-10-09 16:19:34 22.929101943969727
2021-10-09 16:19:39 22.929101943969727
2021-10-09 16:19:44 22.752405166625977
2021-10-09 16:19:50 22.929101943969727
2021-10-09 16:19:55 22.752405166625977
2021-10-09 16:20:00 22.929101943969727
2021-10-09 16:20:06 22.929101943969727
2021-10-09 16:20:11 22.929101943969727
2021-10-09 16:20:16 22.752405166625977
2021-10-09 16:20:22 22.752405166625977
2021-10-09 16:20:27 22.752405166625977
2021-10-09 16:20:32 22.752405166625977
2021-10-09 16:20:38 22.752405166625977
2021-10-09 16:20:43 22.929101943969727
2021-10-09 16:20:48 22.752405166625977
2021-10-09 16:20:54 22.929101943969727
2021-10-09 16:20:59 22.929101943969727
2021-10-09 16:21:04 22.929101943969727
2021-10-09 16:21:10 22.929101943969727
2021-10-09 16:21:15 22.929101943969727
2021-10-09 16:21:20 22.752405166625977
2021-10-09 16:21:26 22.929101943969727
2021-10-09 16:21:31 22.752405166625977
2021-10-09 16:21:36 22.929101943969727
2021-10-09 16:21:42 22.929101943969727
2021-10-09 16:21:47 22.929101943969727
2021-10-09 16:21:52 23.106775283813477
2021-10-09 16:21:58 23.106775283813477
2021-10-09 16:22:03 22.752405166625977
2021-10-09 16:22:09 22.929101943969727
2021-10-09 16:22:14 22.929101943969727
2021-10-09 16:22:19 22.929101943969727
2021-10-09 16:22:25 22.929101943969727
2021-10-09 16:22:30 22.929101943969727
2021-10-09 16:22:35 22.929101943969727
2021-10-09 16:22:41 22.929101943969727
2021-10-09 16:22:46 23.106775283813477
2021-10-09 16:22:51 22.929101943969727
2021-10-09 16:22:57 23.106775283813477
2021-10-09 16:23:02 23.28533363342285
2021-10-09 16:23:07 23.106775283813477
2021-10-09 16:23:13 23.28533363342285
2021-10-09 16:23:18 23.28533363342285
2021-10-09 16:23:23 23.28533363342285
2021-10-09 16:23:29 23.46489906311035
2021-10-09 16:23:34 23.28533363342285
2021-10-09 16:23:39 23.28533363342285
2021-10-09 16:23:45 23.28533363342285
2021-10-09 16:23:50 23.46489906311035
2021-10-09 16:23:55 23.46489906311035
2021-10-09 16:24:01 23.46489906311035
2021-10-09 16:24:06 23.645410537719727
2021-10-09 16:24:11 23.645410537719727
2021-10-09 16:24:17 23.46489906311035
2021-10-09 16:24:22 23.645410537719727
2021-10-09 16:24:28 23.645410537719727
2021-10-09 16:24:33 23.8268985748291
2021-10-09 16:24:38 23.645410537719727
2021-10-09 16:24:44 23.645410537719727
2021-10-09 16:24:49 23.8268985748291
2021-10-09 16:24:54 23.645410537719727
2021-10-09 16:25:00 23.8268985748291
2021-10-09 16:25:05 23.645410537719727
2021-10-09 16:25:10 23.8268985748291
2021-10-09 16:25:16 23.8268985748291
2021-10-09 16:25:21 23.8268985748291
2021-10-09 16:25:26 23.8268985748291
2021-10-09 16:25:32 23.8268985748291
2021-10-09 16:25:37 23.645410537719727
2021-10-09 16:25:42 24.009424209594727
2021-10-09 16:25:48 24.009424209594727
2021-10-09 16:25:53 24.009424209594727
2021-10-09 16:25:58 24.009424209594727
2021-10-09 16:26:04 23.8268985748291
2021-10-09 16:26:09 24.009424209594727
2021-10-09 16:26:14 24.009424209594727
2021-10-09 16:26:20 24.009424209594727
2021-10-09 16:26:25 24.192895889282227
2021-10-09 16:26:30 24.009424209594727
2021-10-09 16:26:36 24.009424209594727
2021-10-09 16:26:41 24.009424209594727
2021-10-09 16:26:47 24.009424209594727
2021-10-09 16:26:52 24.009424209594727
2021-10-09 16:26:57 24.009424209594727
2021-10-09 16:27:03 24.192895889282227
2021-10-09 16:27:08 24.009424209594727
2021-10-09 16:27:13 23.8268985748291
2021-10-09 16:27:19 23.8268985748291
2021-10-09 16:27:24 24.009424209594727
2021-10-09 16:27:29 24.009424209594727
2021-10-09 16:27:35 24.009424209594727
2021-10-09 16:27:40 24.009424209594727
2021-10-09 16:27:45 23.645410537719727
2021-10-09 16:27:51 24.009424209594727
2021-10-09 16:27:56 24.009424209594727
2021-10-09 16:28:01 24.009424209594727
2021-10-09 16:28:07 23.8268985748291
2021-10-09 16:28:12 23.8268985748291
2021-10-09 16:28:17 23.8268985748291
2021-10-09 16:28:23 23.8268985748291
2021-10-09 16:28:28 23.8268985748291
2021-10-09 16:28:33 23.8268985748291
2021-10-09 16:28:39 23.8268985748291
2021-10-09 16:28:44 23.46489906311035
2021-10-09 16:28:49 23.8268985748291
2021-10-09 16:28:55 23.645410537719727
2021-10-09 16:29:00 23.8268985748291
2021-10-09 16:29:06 23.8268985748291
2021-10-09 16:29:11 23.8268985748291
2021-10-09 16:29:16 23.645410537719727
2021-10-09 16:29:22 23.8268985748291
2021-10-09 16:29:27 23.8268985748291
2021-10-09 16:29:32 23.645410537719727
2021-10-09 16:29:38 23.645410537719727
2021-10-09 16:29:43 23.8268985748291
2021-10-09 16:29:48 23.645410537719727
2021-10-09 16:29:54 23.645410537719727
2021-10-09 16:29:59 23.645410537719727
2021-10-09 16:30:04 23.645410537719727
2021-10-09 16:30:10 23.645410537719727
2021-10-09 16:30:15 23.645410537719727
2021-10-09 16:30:20 23.645410537719727
2021-10-09 16:30:26 23.645410537719727
2021-10-09 16:30:31 23.645410537719727
2021-10-09 16:30:36 23.46489906311035
2021-10-09 16:30:42 23.46489906311035
2021-10-09 16:30:47 23.46489906311035
2021-10-09 16:30:52 23.645410537719727
2021-10-09 16:30:58 23.46489906311035
2021-10-09 16:31:03 23.46489906311035
2021-10-09 16:31:08 23.46489906311035
2021-10-09 16:31:14 23.28533363342285
2021-10-09 16:31:19 23.645410537719727
2021-10-09 16:31:25 23.46489906311035
2021-10-09 16:31:30 23.46489906311035
2021-10-09 16:31:35 23.46489906311035
2021-10-09 16:31:41 23.46489906311035
2021-10-09 16:31:46 23.46489906311035
2021-10-09 16:31:51 23.46489906311035
2021-10-09 16:31:57 23.46489906311035
2021-10-09 16:32:02 23.28533363342285
2021-10-09 16:32:07 23.28533363342285
2021-10-09 16:32:13 23.28533363342285
2021-10-09 16:32:18 23.28533363342285
2021-10-09 16:32:23 23.28533363342285
2021-10-09 16:32:29 23.28533363342285
2021-10-09 16:32:34 23.46489906311035
2021-10-09 16:32:39 23.46489906311035
2021-10-09 16:32:45 23.28533363342285
2021-10-09 16:32:50 23.28533363342285
2021-10-09 16:32:55 23.28533363342285
2021-10-09 16:33:01 23.46489906311035
2021-10-09 16:33:06 23.28533363342285
2021-10-09 16:33:11 23.28533363342285
2021-10-09 16:33:17 23.28533363342285
2021-10-09 16:33:22 23.28533363342285
2021-10-09 16:33:27 23.28533363342285
2021-10-09 16:33:33 23.28533363342285
2021-10-09 16:33:38 23.28533363342285
2021-10-09 16:33:44 23.106775283813477
2021-10-09 16:33:49 23.106775283813477
2021-10-09 16:33:54 23.28533363342285
2021-10-09 16:34:00 23.106775283813477
2021-10-09 16:34:05 23.106775283813477
2021-10-09 16:34:10 23.28533363342285
2021-10-09 16:34:16 23.106775283813477
2021-10-09 16:34:21 23.106775283813477
2021-10-09 16:34:26 23.106775283813477
2021-10-09 16:34:32 23.28533363342285
2021-10-09 16:34:37 23.106775283813477
2021-10-09 16:34:42 23.106775283813477
2021-10-09 16:34:48 23.106775283813477
2021-10-09 16:34:53 23.28533363342285
2021-10-09 16:34:58 23.106775283813477
2021-10-09 16:35:04 23.28533363342285
2021-10-09 16:35:09 23.106775283813477
2021-10-09 16:35:14 23.106775283813477
2021-10-09 16:35:20 23.28533363342285
2021-10-09 16:35:25 22.929101943969727
2021-10-09 16:35:30 23.106775283813477
2021-10-09 16:35:36 23.106775283813477
2021-10-09 16:35:41 23.106775283813477
2021-10-09 16:35:46 22.929101943969727
2021-10-09 16:35:52 23.106775283813477
2021-10-09 16:35:57 22.929101943969727
2021-10-09 16:36:02 23.106775283813477
2021-10-09 16:36:08 23.106775283813477
2021-10-09 16:36:13 22.929101943969727
2021-10-09 16:36:19 22.929101943969727
2021-10-09 16:36:24 23.106775283813477
2021-10-09 16:36:29 23.106775283813477
2021-10-09 16:36:35 22.929101943969727
2021-10-09 16:36:40 22.929101943969727
2021-10-09 16:36:45 22.929101943969727
2021-10-09 16:36:51 22.929101943969727
2021-10-09 16:36:56 22.929101943969727
2021-10-09 16:37:01 22.929101943969727
2021-10-09 16:37:07 22.929101943969727
2021-10-09 16:37:12 22.929101943969727
2021-10-09 16:37:17 22.929101943969727
2021-10-09 16:37:23 22.929101943969727
2021-10-09 16:37:28 22.929101943969727
2021-10-09 16:37:33 23.28533363342285
2021-10-09 16:37:39 22.929101943969727
2021-10-09 16:37:44 22.929101943969727
2021-10-09 16:37:49 22.929101943969727
2021-10-09 16:37:55 22.752405166625977
2021-10-09 16:38:00 23.106775283813477
2021-10-09 16:38:05 22.929101943969727
2021-10-09 16:38:11 22.929101943969727
2021-10-09 16:38:16 22.929101943969727
2021-10-09 16:38:21 22.929101943969727
2021-10-09 16:38:27 23.106775283813477
2021-10-09 16:38:32 22.752405166625977
2021-10-09 16:38:37 22.929101943969727
2021-10-09 16:38:43 22.929101943969727
2021-10-09 16:38:48 22.929101943969727
2021-10-09 16:38:54 22.929101943969727
2021-10-09 16:38:59 23.106775283813477
2021-10-09 16:39:04 22.929101943969727
2021-10-09 16:39:10 22.929101943969727
2021-10-09 16:39:15 22.929101943969727
2021-10-09 16:39:20 22.929101943969727
2021-10-09 16:39:26 22.752405166625977
2021-10-09 16:39:31 22.929101943969727
2021-10-09 16:39:36 22.929101943969727
2021-10-09 16:39:42 22.929101943969727
2021-10-09 16:39:47 22.929101943969727
2021-10-09 16:39:52 22.929101943969727
2021-10-09 16:39:58 22.929101943969727
2021-10-09 16:40:03 22.752405166625977
2021-10-09 16:40:08 23.106775283813477
2021-10-09 16:40:14 22.929101943969727
2021-10-09 16:40:19 22.752405166625977
2021-10-09 16:40:24 23.106775283813477
2021-10-09 16:40:30 22.929101943969727
2021-10-09 16:40:35 22.929101943969727
2021-10-09 16:40:40 22.929101943969727
2021-10-09 16:40:46 22.929101943969727
2021-10-09 16:40:51 22.929101943969727
2021-10-09 16:40:56 22.929101943969727
2021-10-09 16:41:02 22.929101943969727
2021-10-09 16:41:07 22.929101943969727
2021-10-09 16:41:12 22.752405166625977
2021-10-09 16:41:18 22.929101943969727
2021-10-09 16:41:23 22.929101943969727
2021-10-09 16:41:29 23.106775283813477
2021-10-09 16:41:34 22.929101943969727
2021-10-09 16:41:39 22.752405166625977
2021-10-09 16:41:45 22.929101943969727
2021-10-09 16:41:50 22.752405166625977
2021-10-09 16:41:55 22.752405166625977
2021-10-09 16:42:01 22.752405166625977
2021-10-09 16:42:06 22.929101943969727
2021-10-09 16:42:11 22.929101943969727
2021-10-09 16:42:17 22.752405166625977
2021-10-09 16:42:22 22.929101943969727
2021-10-09 16:42:27 22.929101943969727
2021-10-09 16:42:33 22.752405166625977
2021-10-09 16:42:38 22.752405166625977
2021-10-09 16:42:43 22.929101943969727
2021-10-09 16:42:49 22.929101943969727
2021-10-09 16:42:54 22.752405166625977
2021-10-09 16:42:59 22.752405166625977
2021-10-09 16:43:05 22.929101943969727
2021-10-09 16:43:10 22.752405166625977
2021-10-09 16:43:15 22.929101943969727
2021-10-09 16:43:21 22.752405166625977
2021-10-09 16:43:26 22.929101943969727
2021-10-09 16:43:31 22.929101943969727
2021-10-09 16:43:37 22.752405166625977
2021-10-09 16:43:42 22.752405166625977
2021-10-09 16:43:47 22.752405166625977
2021-10-09 16:43:53 22.929101943969727
2021-10-09 16:43:58 22.929101943969727
2021-10-09 16:44:04 22.929101943969727
2021-10-09 16:44:09 22.929101943969727
2021-10-09 16:44:14 22.752405166625977
2021-10-09 16:44:20 22.929101943969727
2021-10-09 16:44:25 22.752405166625977
2021-10-09 16:44:30 22.929101943969727
2021-10-09 16:44:36 22.576623916625977
2021-10-09 16:44:41 22.929101943969727
2021-10-09 16:44:46 22.929101943969727
2021-10-09 16:44:52 22.576623916625977
2021-10-09 16:44:57 22.929101943969727
2021-10-09 16:45:02 22.929101943969727
2021-10-09 16:45:08 22.752405166625977
2021-10-09 16:45:13 22.752405166625977
2021-10-09 16:45:18 22.752405166625977
2021-10-09 16:45:24 22.752405166625977
2021-10-09 16:45:29 22.929101943969727
2021-10-09 16:45:34 22.929101943969727
2021-10-09 16:45:40 22.752405166625977
2021-10-09 16:45:45 22.929101943969727
2021-10-09 16:45:50 22.752405166625977
2021-10-09 16:45:56 22.752405166625977
2021-10-09 16:46:01 22.752405166625977
2021-10-09 16:46:06 22.752405166625977
2021-10-09 16:46:12 22.752405166625977
2021-10-09 16:46:17 22.752405166625977
2021-10-09 16:46:22 22.752405166625977
2021-10-09 16:46:28 22.929101943969727
2021-10-09 16:46:33 22.752405166625977
2021-10-09 16:46:38 22.752405166625977
2021-10-09 16:46:44 22.752405166625977
2021-10-09 16:46:49 22.752405166625977
2021-10-09 16:46:55 22.752405166625977
2021-10-09 16:47:00 22.752405166625977
2021-10-09 16:47:05 22.752405166625977
2021-10-09 16:47:11 22.752405166625977
2021-10-09 16:47:16 22.752405166625977
2021-10-09 16:47:21 22.752405166625977
2021-10-09 16:47:27 22.752405166625977
2021-10-09 16:47:32 22.752405166625977
2021-10-09 16:47:37 22.752405166625977
2021-10-09 16:47:43 22.929101943969727
2021-10-09 16:47:48 22.752405166625977
2021-10-09 16:47:53 22.752405166625977
2021-10-09 16:47:59 22.752405166625977
2021-10-09 16:48:04 22.752405166625977
2021-10-09 16:48:09 22.752405166625977
2021-10-09 16:48:15 22.576623916625977
2021-10-09 16:48:20 22.752405166625977
2021-10-09 16:48:25 22.752405166625977
2021-10-09 16:48:31 22.752405166625977
2021-10-09 16:48:36 22.752405166625977
2021-10-09 16:48:41 22.752405166625977
2021-10-09 16:48:47 22.929101943969727
2021-10-09 16:48:52 22.752405166625977
2021-10-09 16:48:57 22.929101943969727
2021-10-09 16:49:03 22.752405166625977
2021-10-09 16:49:08 22.929101943969727
2021-10-09 16:49:13 22.929101943969727
2021-10-09 16:49:19 22.929101943969727
2021-10-09 16:49:24 22.929101943969727
2021-10-09 16:49:30 22.929101943969727
2021-10-09 16:49:35 23.106775283813477
2021-10-09 16:49:40 22.929101943969727
2021-10-09 16:49:46 23.106775283813477
2021-10-09 16:49:51 23.106775283813477
2021-10-09 16:49:56 23.106775283813477
2021-10-09 16:50:02 23.28533363342285
2021-10-09 16:50:07 23.106775283813477
2021-10-09 16:50:12 23.28533363342285
2021-10-09 16:50:18 23.28533363342285
2021-10-09 16:50:23 23.28533363342285
2021-10-09 16:50:28 23.28533363342285
2021-10-09 16:50:34 23.46489906311035
2021-10-09 16:50:39 23.28533363342285
2021-10-09 16:50:44 23.46489906311035
2021-10-09 16:50:50 23.46489906311035
2021-10-09 16:50:55 23.46489906311035
2021-10-09 16:51:00 23.46489906311035
2021-10-09 16:51:06 23.28533363342285
2021-10-09 16:51:11 23.645410537719727
2021-10-09 16:51:16 23.28533363342285
2021-10-09 16:51:22 23.46489906311035
2021-10-09 16:51:27 23.46489906311035
2021-10-09 16:51:32 23.645410537719727
2021-10-09 16:51:38 23.8268985748291
2021-10-09 16:51:43 24.009424209594727
2021-10-09 16:51:49 24.192895889282227
2021-10-09 16:51:54 24.3774356842041
2021-10-09 16:51:59 24.3774356842041
2021-10-09 16:52:05 24.937219619750977
2021-10-09 16:52:10 25.125940322875977
2021-10-09 16:52:15 25.50664710998535
2021-10-09 16:52:21 25.698694229125977
2021-10-09 16:52:26 25.8918399810791
2021-10-09 16:52:31 24.74956703186035
2021-10-09 16:52:37 24.009424209594727
2021-10-09 16:52:42 24.009424209594727
2021-10-09 16:52:47 23.645410537719727
2021-10-09 16:52:53 23.645410537719727
2021-10-09 16:52:58 23.645410537719727
2021-10-09 16:53:03 23.46489906311035
2021-10-09 16:53:09 23.46489906311035
2021-10-09 16:53:14 23.28533363342285
2021-10-09 16:53:19 23.28533363342285
2021-10-09 16:53:25 23.28533363342285
2021-10-09 16:53:30 23.28533363342285
2021-10-09 16:53:35 23.106775283813477
2021-10-09 16:53:41 23.106775283813477
2021-10-09 16:53:46 23.106775283813477
2021-10-09 16:53:51 23.106775283813477
2021-10-09 16:53:57 23.106775283813477
2021-10-09 16:54:02 22.929101943969727
2021-10-09 16:54:07 23.106775283813477
2021-10-09 16:54:13 22.929101943969727
2021-10-09 16:54:18 22.752405166625977
2021-10-09 16:54:24 22.929101943969727
2021-10-09 16:54:29 22.929101943969727
2021-10-09 16:54:34 22.929101943969727
2021-10-09 16:54:40 22.929101943969727
2021-10-09 16:54:45 22.929101943969727
2021-10-09 16:54:50 22.929101943969727
2021-10-09 16:54:56 22.752405166625977
2021-10-09 16:55:01 22.929101943969727
2021-10-09 16:55:06 22.929101943969727
2021-10-09 16:55:12 22.929101943969727
2021-10-09 16:55:17 22.929101943969727
2021-10-09 16:55:22 22.752405166625977
2021-10-09 16:55:28 22.752405166625977
2021-10-09 16:55:33 22.752405166625977
2021-10-09 16:55:38 23.106775283813477
2021-10-09 16:55:44 22.752405166625977
2021-10-09 16:55:49 22.752405166625977
2021-10-09 16:55:54 22.929101943969727
2021-10-09 16:56:00 22.752405166625977
2021-10-09 16:56:05 22.929101943969727
2021-10-09 16:56:10 22.929101943969727
2021-10-09 16:56:16 22.929101943969727
2021-10-09 16:56:21 25.125940322875977
2021-10-09 16:56:26 25.125940322875977
2021-10-09 16:56:32 25.698694229125977
2021-10-09 16:56:37 26.086145401000977
2021-10-09 16:56:42 26.478235244750977
2021-10-09 16:56:48 26.8751163482666
2021-10-09 16:56:53 27.07537269592285
2021-10-09 16:56:59 27.4796085357666
2021-10-09 16:57:04 27.889001846313477
2021-10-09 16:57:09 28.303613662719727
2021-10-09 16:57:15 26.478235244750977
2021-10-09 16:57:20 26.2816104888916
2021-10-09 16:57:25 26.086145401000977
2021-10-09 16:57:31 26.086145401000977
2021-10-09 16:57:36 26.086145401000977
2021-10-09 16:57:41 25.8918399810791
2021-10-09 16:57:47 26.086145401000977
2021-10-09 16:57:52 25.8918399810791
2021-10-09 16:57:57 25.698694229125977
2021-10-09 16:58:03 25.8918399810791
2021-10-09 16:58:08 25.698694229125977
2021-10-09 16:58:13 25.698694229125977
2021-10-09 16:58:19 25.698694229125977
2021-10-09 16:58:24 25.698694229125977
2021-10-09 16:58:29 25.8918399810791
2021-10-09 16:58:35 25.698694229125977
2021-10-09 16:58:40 25.698694229125977
2021-10-09 16:58:45 25.698694229125977
2021-10-09 16:58:51 25.8918399810791
2021-10-09 16:58:56 25.698694229125977
2021-10-09 16:59:01 25.698694229125977
2021-10-09 16:59:07 25.50664710998535
2021-10-09 16:59:12 25.698694229125977
2021-10-09 16:59:17 25.50664710998535
2021-10-09 16:59:23 25.698694229125977
2021-10-09 16:59:28 25.698694229125977
2021-10-09 16:59:34 25.8918399810791
2021-10-09 16:59:39 25.698694229125977
2021-10-09 16:59:44 25.50664710998535
2021-10-09 16:59:50 25.698694229125977
2021-10-09 16:59:55 25.698694229125977
2021-10-09 17:00:00 25.698694229125977
2021-10-09 17:00:06 25.698694229125977
2021-10-09 17:00:11 25.698694229125977
2021-10-09 17:00:16 25.50664710998535
2021-10-09 17:00:22 25.8918399810791
2021-10-09 17:00:27 25.8918399810791
2021-10-09 17:00:32 25.8918399810791
2021-10-09 17:00:38 25.8918399810791
2021-10-09 17:00:43 25.8918399810791
2021-10-09 17:00:48 25.698694229125977
2021-10-09 17:00:54 25.8918399810791
2021-10-09 17:00:59 25.698694229125977
2021-10-09 17:01:04 25.698694229125977
2021-10-09 17:01:10 25.698694229125977
2021-10-09 17:01:15 25.8918399810791
2021-10-09 17:01:20 -273.1499938964844
2021-10-09 17:01:26 -273.1499938964844
