{'measurement': 'measName', 'fields': {'measV_HV2': -50.0, 'measI_HV2': -1.303711e-07, 'settV_HV2': -50.0, 'settI_HV2': 0.0}, 'tags': {'user': 'root'}}
{'measurement': 'measName', 'fields': {'measV_HV2': -50.0, 'measI_HV2': -1.372786e-07, 'settV_HV2': -50.0, 'settI_HV2': 0.0}, 'tags': {'user': 'root'}}
{'measurement': 'measName', 'fields': {'measV_HV2': -50.0, 'measI_HV2': -1.227723e-07, 'settV_HV2': -50.0, 'settI_HV2': 0.0}, 'tags': {'user': 'root'}}
{'measurement': 'measName', 'fields': {'measV_HV2': -50.0, 'measI_HV2': -1.317731e-07, 'settV_HV2': -50.0, 'settI_HV2': 0.0}, 'tags': {'user': 'root'}}
{'measurement': 'measName', 'fields': {'measV_HV2': -50.0, 'measI_HV2': -1.397892e-07, 'settV_HV2': -50.0, 'settI_HV2': 0.0}, 'tags': {'user': 'root'}}
{'measurement': 'measName', 'fields': {'measV_HV2': -50.0, 'measI_HV2': -1.231353e-07, 'settV_HV2': -50.0, 'settI_HV2': 0.0}, 'tags': {'user': 'root'}}
{'measurement': 'measName', 'fields': {'measV_HV2': -50.0, 'measI_HV2': -1.326143e-07, 'settV_HV2': -50.0, 'settI_HV2': 0.0}, 'tags': {'user': 'root'}}
{'measurement': 'measName', 'fields': {'measV_HV2': -50.0, 'measI_HV2': -1.390254e-07, 'settV_HV2': -50.0, 'settI_HV2': 0.0}, 'tags': {'user': 'root'}}
{'measurement': 'measName', 'fields': {'measV_HV2': -50.0, 'measI_HV2': -1.243941e-07, 'settV_HV2': -50.0, 'settI_HV2': 0.0}, 'tags': {'user': 'root'}}
{'measurement': 'measName', 'fields': {'measV_HV2': -50.0, 'measI_HV2': -1.265021e-07, 'settV_HV2': -50.0, 'settI_HV2': 0.0}, 'tags': {'user': 'root'}}
{'measurement': 'measName', 'fields': {'measV_HV2': -50.0, 'measI_HV2': -1.374388e-07, 'settV_HV2': -50.0, 'settI_HV2': 0.0}, 'tags': {'user': 'root'}}
{'measurement': 'measName', 'fields': {'measV_HV2': -50.0, 'measI_HV2': -1.225688e-07, 'settV_HV2': -50.0, 'settI_HV2': 0.0}, 'tags': {'user': 'root'}}
{'measurement': 'measName', 'fields': {'measV_HV2': -50.0, 'measI_HV2': -1.318408e-07, 'settV_HV2': -50.0, 'settI_HV2': 0.0}, 'tags': {'user': 'root'}}
{'measurement': 'measName', 'fields': {'measV_HV2': -50.0, 'measI_HV2': -1.356484e-07, 'settV_HV2': -50.0, 'settI_HV2': 0.0}, 'tags': {'user': 'root'}}
{'measurement': 'measName', 'fields': {'measV_HV2': -50.0, 'measI_HV2': -1.219819e-07, 'settV_HV2': -50.0, 'settI_HV2': 0.0}, 'tags': {'user': 'root'}}
{'measurement': 'measName', 'fields': {'measV_HV2': -50.0, 'measI_HV2': -1.286916e-07, 'settV_HV2': -50.0, 'settI_HV2': 0.0}, 'tags': {'user': 'root'}}
{'measurement': 'measName', 'fields': {'measV_HV2': -50.0, 'measI_HV2': -1.373278e-07, 'settV_HV2': -50.0, 'settI_HV2': 0.0}, 'tags': {'user': 'root'}}
{'measurement': 'measName', 'fields': {'measV_HV2': -50.0, 'measI_HV2': -1.229269e-07, 'settV_HV2': -50.0, 'settI_HV2': 0.0}, 'tags': {'user': 'root'}}
{'measurement': 'measName', 'fields': {'measV_HV2': -50.0, 'measI_HV2': -1.362291e-07, 'settV_HV2': -50.0, 'settI_HV2': 0.0}, 'tags': {'user': 'root'}}
{'measurement': 'measName', 'fields': {'measV_HV2': -50.0, 'measI_HV2': -1.253743e-07, 'settV_HV2': -50.0, 'settI_HV2': 0.0}, 'tags': {'user': 'root'}}
{'measurement': 'measName', 'fields': {'measV_HV2': -50.0, 'measI_HV2': -1.336027e-07, 'settV_HV2': -50.0, 'settI_HV2': 0.0}, 'tags': {'user': 'root'}}
{'measurement': 'measName', 'fields': {'measV_HV2': -50.0, 'measI_HV2': -1.296553e-07, 'settV_HV2': -50.0, 'settI_HV2': 0.0}, 'tags': {'user': 'root'}}
{'measurement': 'measName', 'fields': {'measV_HV2': -50.0, 'measI_HV2': -1.247082e-07, 'settV_HV2': -50.0, 'settI_HV2': 0.0}, 'tags': {'user': 'root'}}
{'measurement': 'measName', 'fields': {'measV_HV2': -50.0, 'measI_HV2': -1.376526e-07, 'settV_HV2': -50.0, 'settI_HV2': 0.0}, 'tags': {'user': 'root'}}
{'measurement': 'measName', 'fields': {'measV_HV2': -50.0, 'measI_HV2': -1.266186e-07, 'settV_HV2': -50.0, 'settI_HV2': 0.0}, 'tags': {'user': 'root'}}
{'measurement': 'measName', 'fields': {'measV_HV2': -50.0, 'measI_HV2': -1.233333e-07, 'settV_HV2': -50.0, 'settI_HV2': 0.0}, 'tags': {'user': 'root'}}
{'measurement': 'measName', 'fields': {'measV_HV2': -50.0, 'measI_HV2': -1.370315e-07, 'settV_HV2': -50.0, 'settI_HV2': 0.0}, 'tags': {'user': 'root'}}
{'measurement': 'measName', 'fields': {'measV_HV2': -50.0, 'measI_HV2': -1.204774e-07, 'settV_HV2': -50.0, 'settI_HV2': 0.0}, 'tags': {'user': 'root'}}
{'measurement': 'measName', 'fields': {'measV_HV2': -50.0, 'measI_HV2': -1.301551e-07, 'settV_HV2': -50.0, 'settI_HV2': 0.0}, 'tags': {'user': 'root'}}
{'measurement': 'measName', 'fields': {'measV_HV2': -50.0, 'measI_HV2': -1.209255e-07, 'settV_HV2': -50.0, 'settI_HV2': 0.0}, 'tags': {'user': 'root'}}
{'measurement': 'measName', 'fields': {'measV_HV2': -50.0, 'measI_HV2': -1.264117e-07, 'settV_HV2': -50.0, 'settI_HV2': 0.0}, 'tags': {'user': 'root'}}
{'measurement': 'measName', 'fields': {'measV_HV2': -50.0, 'measI_HV2': -1.298266e-07, 'settV_HV2': -50.0, 'settI_HV2': 0.0}, 'tags': {'user': 'root'}}
{'measurement': 'measName', 'fields': {'measV_HV2': -50.0, 'measI_HV2': -1.17111e-07, 'settV_HV2': -50.0, 'settI_HV2': 0.0}, 'tags': {'user': 'root'}}
{'measurement': 'measName', 'fields': {'measV_HV2': -50.0, 'measI_HV2': -1.326211e-07, 'settV_HV2': -50.0, 'settI_HV2': 0.0}, 'tags': {'user': 'root'}}
{'measurement': 'measName', 'fields': {'measV_HV2': -50.0, 'measI_HV2': -1.185524e-07, 'settV_HV2': -50.0, 'settI_HV2': 0.0}, 'tags': {'user': 'root'}}
{'measurement': 'measName', 'fields': {'measV_HV2': -50.0, 'measI_HV2': -1.330158e-07, 'settV_HV2': -50.0, 'settI_HV2': 0.0}, 'tags': {'user': 'root'}}
{'measurement': 'measName', 'fields': {'measV_HV2': -50.0, 'measI_HV2': -1.171343e-07, 'settV_HV2': -50.0, 'settI_HV2': 0.0}, 'tags': {'user': 'root'}}
{'measurement': 'measName', 'fields': {'measV_HV2': -50.0, 'measI_HV2': -1.199335e-07, 'settV_HV2': -50.0, 'settI_HV2': 0.0}, 'tags': {'user': 'root'}}
{'measurement': 'measName', 'fields': {'measV_HV2': -50.0, 'measI_HV2': -1.326587e-07, 'settV_HV2': -50.0, 'settI_HV2': 0.0}, 'tags': {'user': 'root'}}
{'measurement': 'measName', 'fields': {'measV_HV2': -50.0, 'measI_HV2': -1.243621e-07, 'settV_HV2': -50.0, 'settI_HV2': 0.0}, 'tags': {'user': 'root'}}
{'measurement': 'measName', 'fields': {'measV_HV2': -50.0, 'measI_HV2': -1.171146e-07, 'settV_HV2': -50.0, 'settI_HV2': 0.0}, 'tags': {'user': 'root'}}
{'measurement': 'measName', 'fields': {'measV_HV2': -50.0, 'measI_HV2': -1.288425e-07, 'settV_HV2': -50.0, 'settI_HV2': 0.0}, 'tags': {'user': 'root'}}
{'measurement': 'measName', 'fields': {'measV_HV2': -50.0, 'measI_HV2': -1.325846e-07, 'settV_HV2': -50.0, 'settI_HV2': 0.0}, 'tags': {'user': 'root'}}
{'measurement': 'measName', 'fields': {'measV_HV2': -50.0, 'measI_HV2': -1.20733e-07, 'settV_HV2': -50.0, 'settI_HV2': 0.0}, 'tags': {'user': 'root'}}
{'measurement': 'measName', 'fields': {'measV_HV2': -50.0, 'measI_HV2': -1.203441e-07, 'settV_HV2': -50.0, 'settI_HV2': 0.0}, 'tags': {'user': 'root'}}
{'measurement': 'measName', 'fields': {'measV_HV2': -50.0, 'measI_HV2': -1.315664e-07, 'settV_HV2': -50.0, 'settI_HV2': 0.0}, 'tags': {'user': 'root'}}
{'measurement': 'measName', 'fields': {'measV_HV2': -50.0, 'measI_HV2': -1.172648e-07, 'settV_HV2': -50.0, 'settI_HV2': 0.0}, 'tags': {'user': 'root'}}
{'measurement': 'measName', 'fields': {'measV_HV2': -50.0, 'measI_HV2': -1.332548e-07, 'settV_HV2': -50.0, 'settI_HV2': 0.0}, 'tags': {'user': 'root'}}
{'measurement': 'measName', 'fields': {'measV_HV2': -50.0, 'measI_HV2': -1.179473e-07, 'settV_HV2': -50.0, 'settI_HV2': 0.0}, 'tags': {'user': 'root'}}
{'measurement': 'measName', 'fields': {'measV_HV2': -50.0, 'measI_HV2': -1.268183e-07, 'settV_HV2': -50.0, 'settI_HV2': 0.0}, 'tags': {'user': 'root'}}
{'measurement': 'measName', 'fields': {'measV_HV2': -50.0, 'measI_HV2': -1.329514e-07, 'settV_HV2': -50.0, 'settI_HV2': 0.0}, 'tags': {'user': 'root'}}
{'measurement': 'measName', 'fields': {'measV_HV2': -50.0, 'measI_HV2': -1.216665e-07, 'settV_HV2': -50.0, 'settI_HV2': 0.0}, 'tags': {'user': 'root'}}
{'measurement': 'measName', 'fields': {'measV_HV2': -50.0, 'measI_HV2': -1.234832e-07, 'settV_HV2': -50.0, 'settI_HV2': 0.0}, 'tags': {'user': 'root'}}
{'measurement': 'measName', 'fields': {'measV_HV2': -50.0, 'measI_HV2': -1.32973e-07, 'settV_HV2': -50.0, 'settI_HV2': 0.0}, 'tags': {'user': 'root'}}
{'measurement': 'measName', 'fields': {'measV_HV2': -50.0, 'measI_HV2': -1.181623e-07, 'settV_HV2': -50.0, 'settI_HV2': 0.0}, 'tags': {'user': 'root'}}
{'measurement': 'measName', 'fields': {'measV_HV2': -50.0, 'measI_HV2': -1.341148e-07, 'settV_HV2': -50.0, 'settI_HV2': 0.0}, 'tags': {'user': 'root'}}
{'measurement': 'measName', 'fields': {'measV_HV2': -50.0, 'measI_HV2': -1.252682e-07, 'settV_HV2': -50.0, 'settI_HV2': 0.0}, 'tags': {'user': 'root'}}
{'measurement': 'measName', 'fields': {'measV_HV2': -50.0, 'measI_HV2': -1.266915e-07, 'settV_HV2': -50.0, 'settI_HV2': 0.0}, 'tags': {'user': 'root'}}
{'measurement': 'measName', 'fields': {'measV_HV2': -50.0, 'measI_HV2': -1.301277e-07, 'settV_HV2': -50.0, 'settI_HV2': 0.0}, 'tags': {'user': 'root'}}
{'measurement': 'measName', 'fields': {'measV_HV2': -50.0, 'measI_HV2': -1.255196e-07, 'settV_HV2': -50.0, 'settI_HV2': 0.0}, 'tags': {'user': 'root'}}
{'measurement': 'measName', 'fields': {'measV_HV2': -50.0, 'measI_HV2': -1.292258e-07, 'settV_HV2': -50.0, 'settI_HV2': 0.0}, 'tags': {'user': 'root'}}
{'measurement': 'measName', 'fields': {'measV_HV2': -50.0, 'measI_HV2': -1.269179e-07, 'settV_HV2': -50.0, 'settI_HV2': 0.0}, 'tags': {'user': 'root'}}
{'measurement': 'measName', 'fields': {'measV_HV2': -50.0, 'measI_HV2': -1.292855e-07, 'settV_HV2': -50.0, 'settI_HV2': 0.0}, 'tags': {'user': 'root'}}
{'measurement': 'measName', 'fields': {'measV_HV2': -50.0, 'measI_HV2': -1.25555e-07, 'settV_HV2': -50.0, 'settI_HV2': 0.0}, 'tags': {'user': 'root'}}
{'measurement': 'measName', 'fields': {'measV_HV2': -50.0, 'measI_HV2': -1.295041e-07, 'settV_HV2': -50.0, 'settI_HV2': 0.0}, 'tags': {'user': 'root'}}
{'measurement': 'measName', 'fields': {'measV_HV2': -50.0, 'measI_HV2': -1.218194e-07, 'settV_HV2': -50.0, 'settI_HV2': 0.0}, 'tags': {'user': 'root'}}
{'measurement': 'measName', 'fields': {'measV_HV2': -50.0, 'measI_HV2': -1.364756e-07, 'settV_HV2': -50.0, 'settI_HV2': 0.0}, 'tags': {'user': 'root'}}
{'measurement': 'measName', 'fields': {'measV_HV2': -50.0, 'measI_HV2': -1.234626e-07, 'settV_HV2': -50.0, 'settI_HV2': 0.0}, 'tags': {'user': 'root'}}
{'measurement': 'measName', 'fields': {'measV_HV2': -50.0, 'measI_HV2': -1.236624e-07, 'settV_HV2': -50.0, 'settI_HV2': 0.0}, 'tags': {'user': 'root'}}
{'measurement': 'measName', 'fields': {'measV_HV2': -50.0, 'measI_HV2': -1.363389e-07, 'settV_HV2': -50.0, 'settI_HV2': 0.0}, 'tags': {'user': 'root'}}
{'measurement': 'measName', 'fields': {'measV_HV2': -50.0, 'measI_HV2': -1.325373e-07, 'settV_HV2': -50.0, 'settI_HV2': 0.0}, 'tags': {'user': 'root'}}
{'measurement': 'measName', 'fields': {'measV_HV2': -50.0, 'measI_HV2': -1.206436e-07, 'settV_HV2': -50.0, 'settI_HV2': 0.0}, 'tags': {'user': 'root'}}
{'measurement': 'measName', 'fields': {'measV_HV2': -50.0, 'measI_HV2': -1.320168e-07, 'settV_HV2': -50.0, 'settI_HV2': 0.0}, 'tags': {'user': 'root'}}
{'measurement': 'measName', 'fields': {'measV_HV2': -50.0, 'measI_HV2': -1.328241e-07, 'settV_HV2': -50.0, 'settI_HV2': 0.0}, 'tags': {'user': 'root'}}
{'measurement': 'measName', 'fields': {'measV_HV2': -50.0, 'measI_HV2': -1.194397e-07, 'settV_HV2': -50.0, 'settI_HV2': 0.0}, 'tags': {'user': 'root'}}
{'measurement': 'measName', 'fields': {'measV_HV2': -50.0, 'measI_HV2': -1.354812e-07, 'settV_HV2': -50.0, 'settI_HV2': 0.0}, 'tags': {'user': 'root'}}
{'measurement': 'measName', 'fields': {'measV_HV2': -50.0, 'measI_HV2': -1.281371e-07, 'settV_HV2': -50.0, 'settI_HV2': 0.0}, 'tags': {'user': 'root'}}
{'measurement': 'measName', 'fields': {'measV_HV2': -50.0, 'measI_HV2': -1.236741e-07, 'settV_HV2': -50.0, 'settI_HV2': 0.0}, 'tags': {'user': 'root'}}
{'measurement': 'measName', 'fields': {'measV_HV2': -50.0, 'measI_HV2': -1.343273e-07, 'settV_HV2': -50.0, 'settI_HV2': 0.0}, 'tags': {'user': 'root'}}
{'measurement': 'measName', 'fields': {'measV_HV2': -50.0, 'measI_HV2': -1.183336e-07, 'settV_HV2': -50.0, 'settI_HV2': 0.0}, 'tags': {'user': 'root'}}
{'measurement': 'measName', 'fields': {'measV_HV2': -50.0, 'measI_HV2': -1.3457e-07, 'settV_HV2': -50.0, 'settI_HV2': 0.0}, 'tags': {'user': 'root'}}
{'measurement': 'measName', 'fields': {'measV_HV2': -50.0, 'measI_HV2': -1.190589e-07, 'settV_HV2': -50.0, 'settI_HV2': 0.0}, 'tags': {'user': 'root'}}
{'measurement': 'measName', 'fields': {'measV_HV2': -50.0, 'measI_HV2': -1.34883e-07, 'settV_HV2': -50.0, 'settI_HV2': 0.0}, 'tags': {'user': 'root'}}
{'measurement': 'measName', 'fields': {'measV_HV2': -50.0, 'measI_HV2': -1.176749e-07, 'settV_HV2': -50.0, 'settI_HV2': 0.0}, 'tags': {'user': 'root'}}
{'measurement': 'measName', 'fields': {'measV_HV2': -50.0, 'measI_HV2': -1.321618e-07, 'settV_HV2': -50.0, 'settI_HV2': 0.0}, 'tags': {'user': 'root'}}
{'measurement': 'measName', 'fields': {'measV_HV2': -50.0, 'measI_HV2': -1.182468e-07, 'settV_HV2': -50.0, 'settI_HV2': 0.0}, 'tags': {'user': 'root'}}
{'measurement': 'measName', 'fields': {'measV_HV2': -50.0, 'measI_HV2': -1.326404e-07, 'settV_HV2': -50.0, 'settI_HV2': 0.0}, 'tags': {'user': 'root'}}
{'measurement': 'measName', 'fields': {'measV_HV2': -50.0, 'measI_HV2': -1.288978e-07, 'settV_HV2': -50.0, 'settI_HV2': 0.0}, 'tags': {'user': 'root'}}
{'measurement': 'measName', 'fields': {'measV_HV2': -50.0, 'measI_HV2': -1.17664e-07, 'settV_HV2': -50.0, 'settI_HV2': 0.0}, 'tags': {'user': 'root'}}
{'measurement': 'measName', 'fields': {'measV_HV2': -50.0, 'measI_HV2': -1.188294e-07, 'settV_HV2': -50.0, 'settI_HV2': 0.0}, 'tags': {'user': 'root'}}
{'measurement': 'measName', 'fields': {'measV_HV2': -50.0, 'measI_HV2': -1.297641e-07, 'settV_HV2': -50.0, 'settI_HV2': 0.0}, 'tags': {'user': 'root'}}
{'measurement': 'measName', 'fields': {'measV_HV2': -50.0, 'measI_HV2': -1.277244e-07, 'settV_HV2': -50.0, 'settI_HV2': 0.0}, 'tags': {'user': 'root'}}
{'measurement': 'measName', 'fields': {'measV_HV2': -50.0, 'measI_HV2': -1.165572e-07, 'settV_HV2': -50.0, 'settI_HV2': 0.0}, 'tags': {'user': 'root'}}
{'measurement': 'measName', 'fields': {'measV_HV2': -50.0, 'measI_HV2': -1.298207e-07, 'settV_HV2': -50.0, 'settI_HV2': 0.0}, 'tags': {'user': 'root'}}
{'measurement': 'measName', 'fields': {'measV_HV2': -50.0, 'measI_HV2': -1.278291e-07, 'settV_HV2': -50.0, 'settI_HV2': 0.0}, 'tags': {'user': 'root'}}
{'measurement': 'measName', 'fields': {'measV_HV2': -50.0, 'measI_HV2': -1.184163e-07, 'settV_HV2': -50.0, 'settI_HV2': 0.0}, 'tags': {'user': 'root'}}
{'measurement': 'measName', 'fields': {'measV_HV2': -50.0, 'measI_HV2': -1.318888e-07, 'settV_HV2': -50.0, 'settI_HV2': 0.0}, 'tags': {'user': 'root'}}
{'measurement': 'measName', 'fields': {'measV_HV2': -50.0, 'measI_HV2': -1.193194e-07, 'settV_HV2': -50.0, 'settI_HV2': 0.0}, 'tags': {'user': 'root'}}
{'measurement': 'measName', 'fields': {'measV_HV2': -50.0, 'measI_HV2': -1.252944e-07, 'settV_HV2': -50.0, 'settI_HV2': 0.0}, 'tags': {'user': 'root'}}
{'measurement': 'measName', 'fields': {'measV_HV2': -50.0, 'measI_HV2': -1.275311e-07, 'settV_HV2': -50.0, 'settI_HV2': 0.0}, 'tags': {'user': 'root'}}
{'measurement': 'measName', 'fields': {'measV_HV2': -50.0, 'measI_HV2': -1.170087e-07, 'settV_HV2': -50.0, 'settI_HV2': 0.0}, 'tags': {'user': 'root'}}
{'measurement': 'measName', 'fields': {'measV_HV2': -50.0, 'measI_HV2': -1.337689e-07, 'settV_HV2': -50.0, 'settI_HV2': 0.0}, 'tags': {'user': 'root'}}
{'measurement': 'measName', 'fields': {'measV_HV2': -50.0, 'measI_HV2': -1.19737e-07, 'settV_HV2': -50.0, 'settI_HV2': 0.0}, 'tags': {'user': 'root'}}
{'measurement': 'measName', 'fields': {'measV_HV2': -50.0, 'measI_HV2': -1.293585e-07, 'settV_HV2': -50.0, 'settI_HV2': 0.0}, 'tags': {'user': 'root'}}
{'measurement': 'measName', 'fields': {'measV_HV2': -50.0, 'measI_HV2': -1.240344e-07, 'settV_HV2': -50.0, 'settI_HV2': 0.0}, 'tags': {'user': 'root'}}
{'measurement': 'measName', 'fields': {'measV_HV2': -50.0, 'measI_HV2': -1.18557e-07, 'settV_HV2': -50.0, 'settI_HV2': 0.0}, 'tags': {'user': 'root'}}
{'measurement': 'measName', 'fields': {'measV_HV2': -50.0, 'measI_HV2': -1.32482e-07, 'settV_HV2': -50.0, 'settI_HV2': 0.0}, 'tags': {'user': 'root'}}
{'measurement': 'measName', 'fields': {'measV_HV2': -50.0, 'measI_HV2': -1.243128e-07, 'settV_HV2': -50.0, 'settI_HV2': 0.0}, 'tags': {'user': 'root'}}
{'measurement': 'measName', 'fields': {'measV_HV2': -50.0, 'measI_HV2': -1.173136e-07, 'settV_HV2': -50.0, 'settI_HV2': 0.0}, 'tags': {'user': 'root'}}
{'measurement': 'measName', 'fields': {'measV_HV2': -50.0, 'measI_HV2': -1.327322e-07, 'settV_HV2': -50.0, 'settI_HV2': 0.0}, 'tags': {'user': 'root'}}
{'measurement': 'measName', 'fields': {'measV_HV2': -50.0, 'measI_HV2': -1.2318e-07, 'settV_HV2': -50.0, 'settI_HV2': 0.0}, 'tags': {'user': 'root'}}
{'measurement': 'measName', 'fields': {'measV_HV2': -50.0, 'measI_HV2': -1.254161e-07, 'settV_HV2': -50.0, 'settI_HV2': 0.0}, 'tags': {'user': 'root'}}
{'measurement': 'measName', 'fields': {'measV_HV2': -50.0, 'measI_HV2': -1.258268e-07, 'settV_HV2': -50.0, 'settI_HV2': 0.0}, 'tags': {'user': 'root'}}
{'measurement': 'measName', 'fields': {'measV_HV2': -50.0, 'measI_HV2': -1.224023e-07, 'settV_HV2': -50.0, 'settI_HV2': 0.0}, 'tags': {'user': 'root'}}
{'measurement': 'measName', 'fields': {'measV_HV2': -50.0, 'measI_HV2': -1.274778e-07, 'settV_HV2': -50.0, 'settI_HV2': 0.0}, 'tags': {'user': 'root'}}
{'measurement': 'measName', 'fields': {'measV_HV2': -50.0, 'measI_HV2': -1.241284e-07, 'settV_HV2': -50.0, 'settI_HV2': 0.0}, 'tags': {'user': 'root'}}
{'measurement': 'measName', 'fields': {'measV_HV2': -50.0, 'measI_HV2': -1.306281e-07, 'settV_HV2': -50.0, 'settI_HV2': 0.0}, 'tags': {'user': 'root'}}
{'measurement': 'measName', 'fields': {'measV_HV2': -50.0, 'measI_HV2': -1.220683e-07, 'settV_HV2': -50.0, 'settI_HV2': 0.0}, 'tags': {'user': 'root'}}
{'measurement': 'measName', 'fields': {'measV_HV2': -50.0, 'measI_HV2': -1.319897e-07, 'settV_HV2': -50.0, 'settI_HV2': 0.0}, 'tags': {'user': 'root'}}
{'measurement': 'measName', 'fields': {'measV_HV2': -50.0, 'measI_HV2': -1.173419e-07, 'settV_HV2': -50.0, 'settI_HV2': 0.0}, 'tags': {'user': 'root'}}
{'measurement': 'measName', 'fields': {'measV_HV2': -50.0, 'measI_HV2': -1.340525e-07, 'settV_HV2': -50.0, 'settI_HV2': 0.0}, 'tags': {'user': 'root'}}
{'measurement': 'measName', 'fields': {'measV_HV2': -50.0, 'measI_HV2': -1.219002e-07, 'settV_HV2': -50.0, 'settI_HV2': 0.0}, 'tags': {'user': 'root'}}
{'measurement': 'measName', 'fields': {'measV_HV2': -50.0, 'measI_HV2': -1.324055e-07, 'settV_HV2': -50.0, 'settI_HV2': 0.0}, 'tags': {'user': 'root'}}
{'measurement': 'measName', 'fields': {'measV_HV2': -50.0, 'measI_HV2': -1.235389e-07, 'settV_HV2': -50.0, 'settI_HV2': 0.0}, 'tags': {'user': 'root'}}
{'measurement': 'measName', 'fields': {'measV_HV2': -50.0, 'measI_HV2': -1.259692e-07, 'settV_HV2': -50.0, 'settI_HV2': 0.0}, 'tags': {'user': 'root'}}
{'measurement': 'measName', 'fields': {'measV_HV2': -50.0, 'measI_HV2': -1.362723e-07, 'settV_HV2': -50.0, 'settI_HV2': 0.0}, 'tags': {'user': 'root'}}
{'measurement': 'measName', 'fields': {'measV_HV2': -50.0, 'measI_HV2': -1.268044e-07, 'settV_HV2': -50.0, 'settI_HV2': 0.0}, 'tags': {'user': 'root'}}
{'measurement': 'measName', 'fields': {'measV_HV2': -50.0, 'measI_HV2': -1.205871e-07, 'settV_HV2': -50.0, 'settI_HV2': 0.0}, 'tags': {'user': 'root'}}
{'measurement': 'measName', 'fields': {'measV_HV2': -50.0, 'measI_HV2': -1.299782e-07, 'settV_HV2': -50.0, 'settI_HV2': 0.0}, 'tags': {'user': 'root'}}

