{'measurement': 'measName', 'fields': {'measV_HV2': -50.0, 'measI_HV2': -1.945613e-06, 'settV_HV2': -50.0, 'settI_HV2': 0.0}, 'tags': {'user': 'root'}}
{'measurement': 'measName', 'fields': {'measV_HV2': -50.0, 'measI_HV2': -1.938442e-06, 'settV_HV2': -50.0, 'settI_HV2': 0.0}, 'tags': {'user': 'root'}}
{'measurement': 'measName', 'fields': {'measV_HV2': -50.0, 'measI_HV2': -1.939099e-06, 'settV_HV2': -50.0, 'settI_HV2': 0.0}, 'tags': {'user': 'root'}}
{'measurement': 'measName', 'fields': {'measV_HV2': -50.0, 'measI_HV2': -1.949542e-06, 'settV_HV2': -50.0, 'settI_HV2': 0.0}, 'tags': {'user': 'root'}}
{'measurement': 'measName', 'fields': {'measV_HV2': -50.0, 'measI_HV2': -1.934651e-06, 'settV_HV2': -50.0, 'settI_HV2': 0.0}, 'tags': {'user': 'root'}}
{'measurement': 'measName', 'fields': {'measV_HV2': -50.0, 'measI_HV2': -1.941302e-06, 'settV_HV2': -50.0, 'settI_HV2': 0.0}, 'tags': {'user': 'root'}}
{'measurement': 'measName', 'fields': {'measV_HV2': -50.0, 'measI_HV2': -1.946589e-06, 'settV_HV2': -50.0, 'settI_HV2': 0.0}, 'tags': {'user': 'root'}}
{'measurement': 'measName', 'fields': {'measV_HV2': -50.0, 'measI_HV2': -1.933604e-06, 'settV_HV2': -50.0, 'settI_HV2': 0.0}, 'tags': {'user': 'root'}}
{'measurement': 'measName', 'fields': {'measV_HV2': -50.0, 'measI_HV2': -1.947423e-06, 'settV_HV2': -50.0, 'settI_HV2': 0.0}, 'tags': {'user': 'root'}}
{'measurement': 'measName', 'fields': {'measV_HV2': -50.0, 'measI_HV2': -1.943007e-06, 'settV_HV2': -50.0, 'settI_HV2': 0.0}, 'tags': {'user': 'root'}}
{'measurement': 'measName', 'fields': {'measV_HV2': -50.0, 'measI_HV2': -1.935326e-06, 'settV_HV2': -50.0, 'settI_HV2': 0.0}, 'tags': {'user': 'root'}}
{'measurement': 'measName', 'fields': {'measV_HV2': -50.0, 'measI_HV2': -1.948503e-06, 'settV_HV2': -50.0, 'settI_HV2': 0.0}, 'tags': {'user': 'root'}}
{'measurement': 'measName', 'fields': {'measV_HV2': -50.0, 'measI_HV2': -1.934271e-06, 'settV_HV2': -50.0, 'settI_HV2': 0.0}, 'tags': {'user': 'root'}}
{'measurement': 'measName', 'fields': {'measV_HV2': -50.0, 'measI_HV2': -1.948429e-06, 'settV_HV2': -50.0, 'settI_HV2': 0.0}, 'tags': {'user': 'root'}}
{'measurement': 'measName', 'fields': {'measV_HV2': -50.0, 'measI_HV2': -1.935579e-06, 'settV_HV2': -50.0, 'settI_HV2': 0.0}, 'tags': {'user': 'root'}}
{'measurement': 'measName', 'fields': {'measV_HV2': -50.0, 'measI_HV2': -1.943696e-06, 'settV_HV2': -50.0, 'settI_HV2': 0.0}, 'tags': {'user': 'root'}}
{'measurement': 'measName', 'fields': {'measV_HV2': -50.0, 'measI_HV2': -1.941694e-06, 'settV_HV2': -50.0, 'settI_HV2': 0.0}, 'tags': {'user': 'root'}}
{'measurement': 'measName', 'fields': {'measV_HV2': -50.0, 'measI_HV2': -1.935178e-06, 'settV_HV2': -50.0, 'settI_HV2': 0.0}, 'tags': {'user': 'root'}}
{'measurement': 'measName', 'fields': {'measV_HV2': -50.0, 'measI_HV2': -1.950361e-06, 'settV_HV2': -50.0, 'settI_HV2': 0.0}, 'tags': {'user': 'root'}}
{'measurement': 'measName', 'fields': {'measV_HV2': -50.0, 'measI_HV2': -1.93427e-06, 'settV_HV2': -50.0, 'settI_HV2': 0.0}, 'tags': {'user': 'root'}}
{'measurement': 'measName', 'fields': {'measV_HV2': -50.0, 'measI_HV2': -1.949885e-06, 'settV_HV2': -50.0, 'settI_HV2': 0.0}, 'tags': {'user': 'root'}}
{'measurement': 'measName', 'fields': {'measV_HV2': -50.0, 'measI_HV2': -1.943417e-06, 'settV_HV2': -50.0, 'settI_HV2': 0.0}, 'tags': {'user': 'root'}}
{'measurement': 'measName', 'fields': {'measV_HV2': -50.0, 'measI_HV2': -1.938102e-06, 'settV_HV2': -50.0, 'settI_HV2': 0.0}, 'tags': {'user': 'root'}}
{'measurement': 'measName', 'fields': {'measV_HV2': -50.0, 'measI_HV2': -1.951011e-06, 'settV_HV2': -50.0, 'settI_HV2': 0.0}, 'tags': {'user': 'root'}}
{'measurement': 'measName', 'fields': {'measV_HV2': -50.0, 'measI_HV2': -1.937139e-06, 'settV_HV2': -50.0, 'settI_HV2': 0.0}, 'tags': {'user': 'root'}}
{'measurement': 'measName', 'fields': {'measV_HV2': -50.0, 'measI_HV2': -1.942778e-06, 'settV_HV2': -50.0, 'settI_HV2': 0.0}, 'tags': {'user': 'root'}}
{'measurement': 'measName', 'fields': {'measV_HV2': -50.0, 'measI_HV2': -1.947875e-06, 'settV_HV2': -50.0, 'settI_HV2': 0.0}, 'tags': {'user': 'root'}}
{'measurement': 'measName', 'fields': {'measV_HV2': -50.0, 'measI_HV2': -1.933785e-06, 'settV_HV2': -50.0, 'settI_HV2': 0.0}, 'tags': {'user': 'root'}}
{'measurement': 'measName', 'fields': {'measV_HV2': -50.0, 'measI_HV2': -1.950355e-06, 'settV_HV2': -50.0, 'settI_HV2': 0.0}, 'tags': {'user': 'root'}}
{'measurement': 'measName', 'fields': {'measV_HV2': -50.0, 'measI_HV2': -1.942888e-06, 'settV_HV2': -50.0, 'settI_HV2': 0.0}, 'tags': {'user': 'root'}}
{'measurement': 'measName', 'fields': {'measV_HV2': -50.0, 'measI_HV2': -1.938154e-06, 'settV_HV2': -50.0, 'settI_HV2': 0.0}, 'tags': {'user': 'root'}}
{'measurement': 'measName', 'fields': {'measV_HV2': -50.0, 'measI_HV2': -1.952397e-06, 'settV_HV2': -50.0, 'settI_HV2': 0.0}, 'tags': {'user': 'root'}}
{'measurement': 'measName', 'fields': {'measV_HV2': -50.0, 'measI_HV2': -1.936509e-06, 'settV_HV2': -50.0, 'settI_HV2': 0.0}, 'tags': {'user': 'root'}}
{'measurement': 'measName', 'fields': {'measV_HV2': -50.0, 'measI_HV2': -1.952395e-06, 'settV_HV2': -50.0, 'settI_HV2': 0.0}, 'tags': {'user': 'root'}}
{'measurement': 'measName', 'fields': {'measV_HV2': -50.0, 'measI_HV2': -1.941414e-06, 'settV_HV2': -50.0, 'settI_HV2': 0.0}, 'tags': {'user': 'root'}}
{'measurement': 'measName', 'fields': {'measV_HV2': -50.0, 'measI_HV2': -1.947164e-06, 'settV_HV2': -50.0, 'settI_HV2': 0.0}, 'tags': {'user': 'root'}}
{'measurement': 'measName', 'fields': {'measV_HV2': -50.0, 'measI_HV2': -1.947425e-06, 'settV_HV2': -50.0, 'settI_HV2': 0.0}, 'tags': {'user': 'root'}}
{'measurement': 'measName', 'fields': {'measV_HV2': -50.0, 'measI_HV2': -1.936811e-06, 'settV_HV2': -50.0, 'settI_HV2': 0.0}, 'tags': {'user': 'root'}}
{'measurement': 'measName', 'fields': {'measV_HV2': -50.0, 'measI_HV2': -1.953495e-06, 'settV_HV2': -50.0, 'settI_HV2': 0.0}, 'tags': {'user': 'root'}}
{'measurement': 'measName', 'fields': {'measV_HV2': -50.0, 'measI_HV2': -1.940323e-06, 'settV_HV2': -50.0, 'settI_HV2': 0.0}, 'tags': {'user': 'root'}}
{'measurement': 'measName', 'fields': {'measV_HV2': -50.0, 'measI_HV2': -1.938638e-06, 'settV_HV2': -50.0, 'settI_HV2': 0.0}, 'tags': {'user': 'root'}}
{'measurement': 'measName', 'fields': {'measV_HV2': -50.0, 'measI_HV2': -1.95162e-06, 'settV_HV2': -50.0, 'settI_HV2': 0.0}, 'tags': {'user': 'root'}}
{'measurement': 'measName', 'fields': {'measV_HV2': -50.0, 'measI_HV2': -1.935348e-06, 'settV_HV2': -50.0, 'settI_HV2': 0.0}, 'tags': {'user': 'root'}}
{'measurement': 'measName', 'fields': {'measV_HV2': -50.0, 'measI_HV2': -1.95142e-06, 'settV_HV2': -50.0, 'settI_HV2': 0.0}, 'tags': {'user': 'root'}}
{'measurement': 'measName', 'fields': {'measV_HV2': -50.0, 'measI_HV2': -1.939665e-06, 'settV_HV2': -50.0, 'settI_HV2': 0.0}, 'tags': {'user': 'root'}}
{'measurement': 'measName', 'fields': {'measV_HV2': -50.0, 'measI_HV2': -1.944537e-06, 'settV_HV2': -50.0, 'settI_HV2': 0.0}, 'tags': {'user': 'root'}}
{'measurement': 'measName', 'fields': {'measV_HV2': -50.0, 'measI_HV2': -1.951177e-06, 'settV_HV2': -50.0, 'settI_HV2': 0.0}, 'tags': {'user': 'root'}}
{'measurement': 'measName', 'fields': {'measV_HV2': -50.0, 'measI_HV2': -1.937512e-06, 'settV_HV2': -50.0, 'settI_HV2': 0.0}, 'tags': {'user': 'root'}}
{'measurement': 'measName', 'fields': {'measV_HV2': -50.0, 'measI_HV2': -1.949816e-06, 'settV_HV2': -50.0, 'settI_HV2': 0.0}, 'tags': {'user': 'root'}}
{'measurement': 'measName', 'fields': {'measV_HV2': -50.0, 'measI_HV2': -1.948409e-06, 'settV_HV2': -50.0, 'settI_HV2': 0.0}, 'tags': {'user': 'root'}}
{'measurement': 'measName', 'fields': {'measV_HV2': -50.0, 'measI_HV2': -1.938921e-06, 'settV_HV2': -50.0, 'settI_HV2': 0.0}, 'tags': {'user': 'root'}}
{'measurement': 'measName', 'fields': {'measV_HV2': -50.0, 'measI_HV2': -1.954428e-06, 'settV_HV2': -50.0, 'settI_HV2': 0.0}, 'tags': {'user': 'root'}}
{'measurement': 'measName', 'fields': {'measV_HV2': -50.0, 'measI_HV2': -1.94264e-06, 'settV_HV2': -50.0, 'settI_HV2': 0.0}, 'tags': {'user': 'root'}}
{'measurement': 'measName', 'fields': {'measV_HV2': -50.0, 'measI_HV2': -1.949198e-06, 'settV_HV2': -50.0, 'settI_HV2': 0.0}, 'tags': {'user': 'root'}}
{'measurement': 'measName', 'fields': {'measV_HV2': -50.0, 'measI_HV2': -1.950134e-06, 'settV_HV2': -50.0, 'settI_HV2': 0.0}, 'tags': {'user': 'root'}}
{'measurement': 'measName', 'fields': {'measV_HV2': -50.0, 'measI_HV2': -1.939859e-06, 'settV_HV2': -50.0, 'settI_HV2': 0.0}, 'tags': {'user': 'root'}}
{'measurement': 'measName', 'fields': {'measV_HV2': -50.0, 'measI_HV2': -1.954867e-06, 'settV_HV2': -50.0, 'settI_HV2': 0.0}, 'tags': {'user': 'root'}}
{'measurement': 'measName', 'fields': {'measV_HV2': -50.0, 'measI_HV2': -1.941572e-06, 'settV_HV2': -50.0, 'settI_HV2': 0.0}, 'tags': {'user': 'root'}}
{'measurement': 'measName', 'fields': {'measV_HV2': -50.0, 'measI_HV2': -1.947122e-06, 'settV_HV2': -50.0, 'settI_HV2': 0.0}, 'tags': {'user': 'root'}}
{'measurement': 'measName', 'fields': {'measV_HV2': -50.0, 'measI_HV2': -1.945368e-06, 'settV_HV2': -50.0, 'settI_HV2': 0.0}, 'tags': {'user': 'root'}}
{'measurement': 'measName', 'fields': {'measV_HV2': -50.0, 'measI_HV2': -1.944915e-06, 'settV_HV2': -50.0, 'settI_HV2': 0.0}, 'tags': {'user': 'root'}}
{'measurement': 'measName', 'fields': {'measV_HV2': -50.0, 'measI_HV2': -1.945884e-06, 'settV_HV2': -50.0, 'settI_HV2': 0.0}, 'tags': {'user': 'root'}}
{'measurement': 'measName', 'fields': {'measV_HV2': -50.0, 'measI_HV2': -1.947572e-06, 'settV_HV2': -50.0, 'settI_HV2': 0.0}, 'tags': {'user': 'root'}}
{'measurement': 'measName', 'fields': {'measV_HV2': -50.0, 'measI_HV2': -1.953184e-06, 'settV_HV2': -50.0, 'settI_HV2': 0.0}, 'tags': {'user': 'root'}}
{'measurement': 'measName', 'fields': {'measV_HV2': -50.0, 'measI_HV2': -1.938529e-06, 'settV_HV2': -50.0, 'settI_HV2': 0.0}, 'tags': {'user': 'root'}}
{'measurement': 'measName', 'fields': {'measV_HV2': -50.0, 'measI_HV2': -1.955557e-06, 'settV_HV2': -50.0, 'settI_HV2': 0.0}, 'tags': {'user': 'root'}}
{'measurement': 'measName', 'fields': {'measV_HV2': -50.0, 'measI_HV2': -1.943782e-06, 'settV_HV2': -50.0, 'settI_HV2': 0.0}, 'tags': {'user': 'root'}}
{'measurement': 'measName', 'fields': {'measV_HV2': -50.0, 'measI_HV2': -1.941823e-06, 'settV_HV2': -50.0, 'settI_HV2': 0.0}, 'tags': {'user': 'root'}}
{'measurement': 'measName', 'fields': {'measV_HV2': -50.0, 'measI_HV2': -1.954699e-06, 'settV_HV2': -50.0, 'settI_HV2': 0.0}, 'tags': {'user': 'root'}}
{'measurement': 'measName', 'fields': {'measV_HV2': -50.0, 'measI_HV2': -1.940992e-06, 'settV_HV2': -50.0, 'settI_HV2': 0.0}, 'tags': {'user': 'root'}}
{'measurement': 'measName', 'fields': {'measV_HV2': -50.0, 'measI_HV2': -1.957163e-06, 'settV_HV2': -50.0, 'settI_HV2': 0.0}, 'tags': {'user': 'root'}}
{'measurement': 'measName', 'fields': {'measV_HV2': -50.0, 'measI_HV2': -1.950605e-06, 'settV_HV2': -50.0, 'settI_HV2': 0.0}, 'tags': {'user': 'root'}}
{'measurement': 'measName', 'fields': {'measV_HV2': -50.0, 'measI_HV2': -1.940034e-06, 'settV_HV2': -50.0, 'settI_HV2': 0.0}, 'tags': {'user': 'root'}}
{'measurement': 'measName', 'fields': {'measV_HV2': -50.0, 'measI_HV2': -1.956267e-06, 'settV_HV2': -50.0, 'settI_HV2': 0.0}, 'tags': {'user': 'root'}}
{'measurement': 'measName', 'fields': {'measV_HV2': -50.0, 'measI_HV2': -1.942221e-06, 'settV_HV2': -50.0, 'settI_HV2': 0.0}, 'tags': {'user': 'root'}}
{'measurement': 'measName', 'fields': {'measV_HV2': -50.0, 'measI_HV2': -1.951473e-06, 'settV_HV2': -50.0, 'settI_HV2': 0.0}, 'tags': {'user': 'root'}}
{'measurement': 'measName', 'fields': {'measV_HV2': -50.0, 'measI_HV2': -1.948229e-06, 'settV_HV2': -50.0, 'settI_HV2': 0.0}, 'tags': {'user': 'root'}}
{'measurement': 'measName', 'fields': {'measV_HV2': -50.0, 'measI_HV2': -1.939173e-06, 'settV_HV2': -50.0, 'settI_HV2': 0.0}, 'tags': {'user': 'root'}}
{'measurement': 'measName', 'fields': {'measV_HV2': -50.0, 'measI_HV2': -1.955888e-06, 'settV_HV2': -50.0, 'settI_HV2': 0.0}, 'tags': {'user': 'root'}}
{'measurement': 'measName', 'fields': {'measV_HV2': -50.0, 'measI_HV2': -1.950271e-06, 'settV_HV2': -50.0, 'settI_HV2': 0.0}, 'tags': {'user': 'root'}}
{'measurement': 'measName', 'fields': {'measV_HV2': -50.0, 'measI_HV2': -1.941696e-06, 'settV_HV2': -50.0, 'settI_HV2': 0.0}, 'tags': {'user': 'root'}}
{'measurement': 'measName', 'fields': {'measV_HV2': -50.0, 'measI_HV2': -1.956756e-06, 'settV_HV2': -50.0, 'settI_HV2': 0.0}, 'tags': {'user': 'root'}}
{'measurement': 'measName', 'fields': {'measV_HV2': -50.0, 'measI_HV2': -1.940844e-06, 'settV_HV2': -50.0, 'settI_HV2': 0.0}, 'tags': {'user': 'root'}}
{'measurement': 'measName', 'fields': {'measV_HV2': -50.0, 'measI_HV2': -1.946687e-06, 'settV_HV2': -50.0, 'settI_HV2': 0.0}, 'tags': {'user': 'root'}}
{'measurement': 'measName', 'fields': {'measV_HV2': -50.0, 'measI_HV2': -1.952031e-06, 'settV_HV2': -50.0, 'settI_HV2': 0.0}, 'tags': {'user': 'root'}}
{'measurement': 'measName', 'fields': {'measV_HV2': -50.0, 'measI_HV2': -1.940322e-06, 'settV_HV2': -50.0, 'settI_HV2': 0.0}, 'tags': {'user': 'root'}}
{'measurement': 'measName', 'fields': {'measV_HV2': -50.0, 'measI_HV2': -1.956062e-06, 'settV_HV2': -50.0, 'settI_HV2': 0.0}, 'tags': {'user': 'root'}}
{'measurement': 'measName', 'fields': {'measV_HV2': -50.0, 'measI_HV2': -1.945831e-06, 'settV_HV2': -50.0, 'settI_HV2': 0.0}, 'tags': {'user': 'root'}}
{'measurement': 'measName', 'fields': {'measV_HV2': -50.0, 'measI_HV2': -1.942915e-06, 'settV_HV2': -50.0, 'settI_HV2': 0.0}, 'tags': {'user': 'root'}}
{'measurement': 'measName', 'fields': {'measV_HV2': -50.0, 'measI_HV2': -1.956291e-06, 'settV_HV2': -50.0, 'settI_HV2': 0.0}, 'tags': {'user': 'root'}}
{'measurement': 'measName', 'fields': {'measV_HV2': -50.0, 'measI_HV2': -1.946305e-06, 'settV_HV2': -50.0, 'settI_HV2': 0.0}, 'tags': {'user': 'root'}}
{'measurement': 'measName', 'fields': {'measV_HV2': -50.0, 'measI_HV2': -1.949107e-06, 'settV_HV2': -50.0, 'settI_HV2': 0.0}, 'tags': {'user': 'root'}}
{'measurement': 'measName', 'fields': {'measV_HV2': -50.0, 'measI_HV2': -1.956661e-06, 'settV_HV2': -50.0, 'settI_HV2': 0.0}, 'tags': {'user': 'root'}}
{'measurement': 'measName', 'fields': {'measV_HV2': -50.0, 'measI_HV2': -1.939756e-06, 'settV_HV2': -50.0, 'settI_HV2': 0.0}, 'tags': {'user': 'root'}}
{'measurement': 'measName', 'fields': {'measV_HV2': -50.0, 'measI_HV2': -1.952778e-06, 'settV_HV2': -50.0, 'settI_HV2': 0.0}, 'tags': {'user': 'root'}}
{'measurement': 'measName', 'fields': {'measV_HV2': -50.0, 'measI_HV2': -1.954133e-06, 'settV_HV2': -50.0, 'settI_HV2': 0.0}, 'tags': {'user': 'root'}}
{'measurement': 'measName', 'fields': {'measV_HV2': -50.0, 'measI_HV2': -1.940853e-06, 'settV_HV2': -50.0, 'settI_HV2': 0.0}, 'tags': {'user': 'root'}}
{'measurement': 'measName', 'fields': {'measV_HV2': -50.0, 'measI_HV2': -1.956879e-06, 'settV_HV2': -50.0, 'settI_HV2': 0.0}, 'tags': {'user': 'root'}}
{'measurement': 'measName', 'fields': {'measV_HV2': -50.0, 'measI_HV2': -1.946563e-06, 'settV_HV2': -50.0, 'settI_HV2': 0.0}, 'tags': {'user': 'root'}}
{'measurement': 'measName', 'fields': {'measV_HV2': -50.0, 'measI_HV2': -1.948373e-06, 'settV_HV2': -50.0, 'settI_HV2': 0.0}, 'tags': {'user': 'root'}}
{'measurement': 'measName', 'fields': {'measV_HV2': -50.0, 'measI_HV2': -1.958211e-06, 'settV_HV2': -50.0, 'settI_HV2': 0.0}, 'tags': {'user': 'root'}}
{'measurement': 'measName', 'fields': {'measV_HV2': -50.0, 'measI_HV2': -1.943765e-06, 'settV_HV2': -50.0, 'settI_HV2': 0.0}, 'tags': {'user': 'root'}}
{'measurement': 'measName', 'fields': {'measV_HV2': -50.0, 'measI_HV2': -1.951521e-06, 'settV_HV2': -50.0, 'settI_HV2': 0.0}, 'tags': {'user': 'root'}}
{'measurement': 'measName', 'fields': {'measV_HV2': -50.0, 'measI_HV2': -1.955459e-06, 'settV_HV2': -50.0, 'settI_HV2': 0.0}, 'tags': {'user': 'root'}}
{'measurement': 'measName', 'fields': {'measV_HV2': -50.0, 'measI_HV2': -1.942549e-06, 'settV_HV2': -50.0, 'settI_HV2': 0.0}, 'tags': {'user': 'root'}}
{'measurement': 'measName', 'fields': {'measV_HV2': -50.0, 'measI_HV2': -1.956163e-06, 'settV_HV2': -50.0, 'settI_HV2': 0.0}, 'tags': {'user': 'root'}}
{'measurement': 'measName', 'fields': {'measV_HV2': -50.0, 'measI_HV2': -1.950963e-06, 'settV_HV2': -50.0, 'settI_HV2': 0.0}, 'tags': {'user': 'root'}}
{'measurement': 'measName', 'fields': {'measV_HV2': -50.0, 'measI_HV2': -1.941914e-06, 'settV_HV2': -50.0, 'settI_HV2': 0.0}, 'tags': {'user': 'root'}}
{'measurement': 'measName', 'fields': {'measV_HV2': -50.0, 'measI_HV2': -1.956005e-06, 'settV_HV2': -50.0, 'settI_HV2': 0.0}, 'tags': {'user': 'root'}}
{'measurement': 'measName', 'fields': {'measV_HV2': -50.0, 'measI_HV2': -1.947707e-06, 'settV_HV2': -50.0, 'settI_HV2': 0.0}, 'tags': {'user': 'root'}}
{'measurement': 'measName', 'fields': {'measV_HV2': -50.0, 'measI_HV2': -1.943611e-06, 'settV_HV2': -50.0, 'settI_HV2': 0.0}, 'tags': {'user': 'root'}}
{'measurement': 'measName', 'fields': {'measV_HV2': -50.0, 'measI_HV2': -1.958595e-06, 'settV_HV2': -50.0, 'settI_HV2': 0.0}, 'tags': {'user': 'root'}}
{'measurement': 'measName', 'fields': {'measV_HV2': -50.0, 'measI_HV2': -1.943274e-06, 'settV_HV2': -50.0, 'settI_HV2': 0.0}, 'tags': {'user': 'root'}}
{'measurement': 'measName', 'fields': {'measV_HV2': -50.0, 'measI_HV2': -1.953211e-06, 'settV_HV2': -50.0, 'settI_HV2': 0.0}, 'tags': {'user': 'root'}}
{'measurement': 'measName', 'fields': {'measV_HV2': -50.0, 'measI_HV2': -1.956596e-06, 'settV_HV2': -50.0, 'settI_HV2': 0.0}, 'tags': {'user': 'root'}}
{'measurement': 'measName', 'fields': {'measV_HV2': -50.0, 'measI_HV2': -1.942108e-06, 'settV_HV2': -50.0, 'settI_HV2': 0.0}, 'tags': {'user': 'root'}}
{'measurement': 'measName', 'fields': {'measV_HV2': -50.0, 'measI_HV2': -1.957881e-06, 'settV_HV2': -50.0, 'settI_HV2': 0.0}, 'tags': {'user': 'root'}}
{'measurement': 'measName', 'fields': {'measV_HV2': -50.0, 'measI_HV2': -1.946777e-06, 'settV_HV2': -50.0, 'settI_HV2': 0.0}, 'tags': {'user': 'root'}}
{'measurement': 'measName', 'fields': {'measV_HV2': -50.0, 'measI_HV2': -1.950876e-06, 'settV_HV2': -50.0, 'settI_HV2': 0.0}, 'tags': {'user': 'root'}}
{'measurement': 'measName', 'fields': {'measV_HV2': -50.0, 'measI_HV2': -1.955344e-06, 'settV_HV2': -50.0, 'settI_HV2': 0.0}, 'tags': {'user': 'root'}}
{'measurement': 'measName', 'fields': {'measV_HV2': -50.0, 'measI_HV2': -1.946104e-06, 'settV_HV2': -50.0, 'settI_HV2': 0.0}, 'tags': {'user': 'root'}}
{'measurement': 'measName', 'fields': {'measV_HV2': -50.0, 'measI_HV2': -1.959561e-06, 'settV_HV2': -50.0, 'settI_HV2': 0.0}, 'tags': {'user': 'root'}}
{'measurement': 'measName', 'fields': {'measV_HV2': -50.0, 'measI_HV2': -1.943916e-06, 'settV_HV2': -50.0, 'settI_HV2': 0.0}, 'tags': {'user': 'root'}}
{'measurement': 'measName', 'fields': {'measV_HV2': -50.0, 'measI_HV2': -1.953726e-06, 'settV_HV2': -50.0, 'settI_HV2': 0.0}, 'tags': {'user': 'root'}}
{'measurement': 'measName', 'fields': {'measV_HV2': -50.0, 'measI_HV2': -1.954878e-06, 'settV_HV2': -50.0, 'settI_HV2': 0.0}, 'tags': {'user': 'root'}}
{'measurement': 'measName', 'fields': {'measV_HV2': -50.0, 'measI_HV2': -1.942347e-06, 'settV_HV2': -50.0, 'settI_HV2': 0.0}, 'tags': {'user': 'root'}}
{'measurement': 'measName', 'fields': {'measV_HV2': -50.0, 'measI_HV2': -1.958937e-06, 'settV_HV2': -50.0, 'settI_HV2': 0.0}, 'tags': {'user': 'root'}}
{'measurement': 'measName', 'fields': {'measV_HV2': -50.0, 'measI_HV2': -1.94905e-06, 'settV_HV2': -50.0, 'settI_HV2': 0.0}, 'tags': {'user': 'root'}}
{'measurement': 'measName', 'fields': {'measV_HV2': -50.0, 'measI_HV2': -1.948564e-06, 'settV_HV2': -50.0, 'settI_HV2': 0.0}, 'tags': {'user': 'root'}}
{'measurement': 'measName', 'fields': {'measV_HV2': -50.0, 'measI_HV2': -1.95996e-06, 'settV_HV2': -50.0, 'settI_HV2': 0.0}, 'tags': {'user': 'root'}}
{'measurement': 'measName', 'fields': {'measV_HV2': -50.0, 'measI_HV2': -1.943825e-06, 'settV_HV2': -50.0, 'settI_HV2': 0.0}, 'tags': {'user': 'root'}}
{'measurement': 'measName', 'fields': {'measV_HV2': -50.0, 'measI_HV2': -1.959135e-06, 'settV_HV2': -50.0, 'settI_HV2': 0.0}, 'tags': {'user': 'root'}}
{'measurement': 'measName', 'fields': {'measV_HV2': -50.0, 'measI_HV2': -1.955714e-06, 'settV_HV2': -50.0, 'settI_HV2': 0.0}, 'tags': {'user': 'root'}}
{'measurement': 'measName', 'fields': {'measV_HV2': -50.0, 'measI_HV2': -1.946672e-06, 'settV_HV2': -50.0, 'settI_HV2': 0.0}, 'tags': {'user': 'root'}}
{'measurement': 'measName', 'fields': {'measV_HV2': -50.0, 'measI_HV2': -1.961626e-06, 'settV_HV2': -50.0, 'settI_HV2': 0.0}, 'tags': {'user': 'root'}}
{'measurement': 'measName', 'fields': {'measV_HV2': -50.0, 'measI_HV2': -1.948767e-06, 'settV_HV2': -50.0, 'settI_HV2': 0.0}, 'tags': {'user': 'root'}}
{'measurement': 'measName', 'fields': {'measV_HV2': -50.0, 'measI_HV2': -1.953915e-06, 'settV_HV2': -50.0, 'settI_HV2': 0.0}, 'tags': {'user': 'root'}}
{'measurement': 'measName', 'fields': {'measV_HV2': -50.0, 'measI_HV2': -1.958203e-06, 'settV_HV2': -50.0, 'settI_HV2': 0.0}, 'tags': {'user': 'root'}}
{'measurement': 'measName', 'fields': {'measV_HV2': -50.0, 'measI_HV2': -1.94625e-06, 'settV_HV2': -50.0, 'settI_HV2': 0.0}, 'tags': {'user': 'root'}}
{'measurement': 'measName', 'fields': {'measV_HV2': -50.0, 'measI_HV2': -1.959989e-06, 'settV_HV2': -50.0, 'settI_HV2': 0.0}, 'tags': {'user': 'root'}}
{'measurement': 'measName', 'fields': {'measV_HV2': -50.0, 'measI_HV2': -1.951426e-06, 'settV_HV2': -50.0, 'settI_HV2': 0.0}, 'tags': {'user': 'root'}}
{'measurement': 'measName', 'fields': {'measV_HV2': -50.0, 'measI_HV2': -1.94728e-06, 'settV_HV2': -50.0, 'settI_HV2': 0.0}, 'tags': {'user': 'root'}}
{'measurement': 'measName', 'fields': {'measV_HV2': -50.0, 'measI_HV2': -1.961209e-06, 'settV_HV2': -50.0, 'settI_HV2': 0.0}, 'tags': {'user': 'root'}}
{'measurement': 'measName', 'fields': {'measV_HV2': -50.0, 'measI_HV2': -1.945077e-06, 'settV_HV2': -50.0, 'settI_HV2': 0.0}, 'tags': {'user': 'root'}}
{'measurement': 'measName', 'fields': {'measV_HV2': -50.0, 'measI_HV2': -1.95968e-06, 'settV_HV2': -50.0, 'settI_HV2': 0.0}, 'tags': {'user': 'root'}}
{'measurement': 'measName', 'fields': {'measV_HV2': -50.0, 'measI_HV2': -1.949528e-06, 'settV_HV2': -50.0, 'settI_HV2': 0.0}, 'tags': {'user': 'root'}}
{'measurement': 'measName', 'fields': {'measV_HV2': -50.0, 'measI_HV2': -1.948941e-06, 'settV_HV2': -50.0, 'settI_HV2': 0.0}, 'tags': {'user': 'root'}}
{'measurement': 'measName', 'fields': {'measV_HV2': -50.0, 'measI_HV2': -1.960859e-06, 'settV_HV2': -50.0, 'settI_HV2': 0.0}, 'tags': {'user': 'root'}}
{'measurement': 'measName', 'fields': {'measV_HV2': -50.0, 'measI_HV2': -1.946497e-06, 'settV_HV2': -50.0, 'settI_HV2': 0.0}, 'tags': {'user': 'root'}}
{'measurement': 'measName', 'fields': {'measV_HV2': -50.0, 'measI_HV2': -1.961167e-06, 'settV_HV2': -50.0, 'settI_HV2': 0.0}, 'tags': {'user': 'root'}}
{'measurement': 'measName', 'fields': {'measV_HV2': -50.0, 'measI_HV2': -1.95553e-06, 'settV_HV2': -50.0, 'settI_HV2': 0.0}, 'tags': {'user': 'root'}}
{'measurement': 'measName', 'fields': {'measV_HV2': -50.0, 'measI_HV2': -1.949059e-06, 'settV_HV2': -50.0, 'settI_HV2': 0.0}, 'tags': {'user': 'root'}}
{'measurement': 'measName', 'fields': {'measV_HV2': -50.0, 'measI_HV2': -1.963349e-06, 'settV_HV2': -50.0, 'settI_HV2': 0.0}, 'tags': {'user': 'root'}}
{'measurement': 'measName', 'fields': {'measV_HV2': -50.0, 'measI_HV2': -1.947022e-06, 'settV_HV2': -50.0, 'settI_HV2': 0.0}, 'tags': {'user': 'root'}}
{'measurement': 'measName', 'fields': {'measV_HV2': -50.0, 'measI_HV2': -1.961508e-06, 'settV_HV2': -50.0, 'settI_HV2': 0.0}, 'tags': {'user': 'root'}}
{'measurement': 'measName', 'fields': {'measV_HV2': -50.0, 'measI_HV2': -1.947163e-06, 'settV_HV2': -50.0, 'settI_HV2': 0.0}, 'tags': {'user': 'root'}}
{'measurement': 'measName', 'fields': {'measV_HV2': -50.0, 'measI_HV2': -1.95967e-06, 'settV_HV2': -50.0, 'settI_HV2': 0.0}, 'tags': {'user': 'root'}}
{'measurement': 'measName', 'fields': {'measV_HV2': -50.0, 'measI_HV2': -1.956266e-06, 'settV_HV2': -50.0, 'settI_HV2': 0.0}, 'tags': {'user': 'root'}}
{'measurement': 'measName', 'fields': {'measV_HV2': -50.0, 'measI_HV2': -1.953898e-06, 'settV_HV2': -50.0, 'settI_HV2': 0.0}, 'tags': {'user': 'root'}}
{'measurement': 'measName', 'fields': {'measV_HV2': -50.0, 'measI_HV2': -1.95958e-06, 'settV_HV2': -50.0, 'settI_HV2': 0.0}, 'tags': {'user': 'root'}}
{'measurement': 'measName', 'fields': {'measV_HV2': -50.0, 'measI_HV2': -1.945553e-06, 'settV_HV2': -50.0, 'settI_HV2': 0.0}, 'tags': {'user': 'root'}}
{'measurement': 'measName', 'fields': {'measV_HV2': -50.0, 'measI_HV2': -1.962697e-06, 'settV_HV2': -50.0, 'settI_HV2': 0.0}, 'tags': {'user': 'root'}}
{'measurement': 'measName', 'fields': {'measV_HV2': -50.0, 'measI_HV2': -1.951223e-06, 'settV_HV2': -50.0, 'settI_HV2': 0.0}, 'tags': {'user': 'root'}}
{'measurement': 'measName', 'fields': {'measV_HV2': -50.0, 'measI_HV2': -1.955854e-06, 'settV_HV2': -50.0, 'settI_HV2': 0.0}, 'tags': {'user': 'root'}}
{'measurement': 'measName', 'fields': {'measV_HV2': -50.0, 'measI_HV2': -1.962084e-06, 'settV_HV2': -50.0, 'settI_HV2': 0.0}, 'tags': {'user': 'root'}}
{'measurement': 'measName', 'fields': {'measV_HV2': -50.0, 'measI_HV2': -1.947806e-06, 'settV_HV2': -50.0, 'settI_HV2': 0.0}, 'tags': {'user': 'root'}}
{'measurement': 'measName', 'fields': {'measV_HV2': -50.0, 'measI_HV2': -1.957524e-06, 'settV_HV2': -50.0, 'settI_HV2': 0.0}, 'tags': {'user': 'root'}}
{'measurement': 'measName', 'fields': {'measV_HV2': -50.0, 'measI_HV2': -1.960678e-06, 'settV_HV2': -50.0, 'settI_HV2': 0.0}, 'tags': {'user': 'root'}}
{'measurement': 'measName', 'fields': {'measV_HV2': -50.0, 'measI_HV2': -1.946463e-06, 'settV_HV2': -50.0, 'settI_HV2': 0.0}, 'tags': {'user': 'root'}}
{'measurement': 'measName', 'fields': {'measV_HV2': -50.0, 'measI_HV2': -1.962054e-06, 'settV_HV2': -50.0, 'settI_HV2': 0.0}, 'tags': {'user': 'root'}}
{'measurement': 'measName', 'fields': {'measV_HV2': -50.0, 'measI_HV2': -1.950731e-06, 'settV_HV2': -50.0, 'settI_HV2': 0.0}, 'tags': {'user': 'root'}}
{'measurement': 'measName', 'fields': {'measV_HV2': -50.0, 'measI_HV2': -1.953552e-06, 'settV_HV2': -50.0, 'settI_HV2': 0.0}, 'tags': {'user': 'root'}}
{'measurement': 'measName', 'fields': {'measV_HV2': -50.0, 'measI_HV2': -1.96215e-06, 'settV_HV2': -50.0, 'settI_HV2': 0.0}, 'tags': {'user': 'root'}}
{'measurement': 'measName', 'fields': {'measV_HV2': -50.0, 'measI_HV2': -1.948155e-06, 'settV_HV2': -50.0, 'settI_HV2': 0.0}, 'tags': {'user': 'root'}}
{'measurement': 'measName', 'fields': {'measV_HV2': -50.0, 'measI_HV2': -1.962248e-06, 'settV_HV2': -50.0, 'settI_HV2': 0.0}, 'tags': {'user': 'root'}}
{'measurement': 'measName', 'fields': {'measV_HV2': -50.0, 'measI_HV2': -1.952162e-06, 'settV_HV2': -50.0, 'settI_HV2': 0.0}, 'tags': {'user': 'root'}}
{'measurement': 'measName', 'fields': {'measV_HV2': -50.0, 'measI_HV2': -1.952696e-06, 'settV_HV2': -50.0, 'settI_HV2': 0.0}, 'tags': {'user': 'root'}}
{'measurement': 'measName', 'fields': {'measV_HV2': -50.0, 'measI_HV2': -1.96427e-06, 'settV_HV2': -50.0, 'settI_HV2': 0.0}, 'tags': {'user': 'root'}}
{'measurement': 'measName', 'fields': {'measV_HV2': -50.0, 'measI_HV2': -1.948266e-06, 'settV_HV2': -50.0, 'settI_HV2': 0.0}, 'tags': {'user': 'root'}}
{'measurement': 'measName', 'fields': {'measV_HV2': -50.0, 'measI_HV2': -1.956536e-06, 'settV_HV2': -50.0, 'settI_HV2': 0.0}, 'tags': {'user': 'root'}}
{'measurement': 'measName', 'fields': {'measV_HV2': -50.0, 'measI_HV2': -1.957623e-06, 'settV_HV2': -50.0, 'settI_HV2': 0.0}, 'tags': {'user': 'root'}}
{'measurement': 'measName', 'fields': {'measV_HV2': -50.0, 'measI_HV2': -1.947841e-06, 'settV_HV2': -50.0, 'settI_HV2': 0.0}, 'tags': {'user': 'root'}}
{'measurement': 'measName', 'fields': {'measV_HV2': -50.0, 'measI_HV2': -1.962255e-06, 'settV_HV2': -50.0, 'settI_HV2': 0.0}, 'tags': {'user': 'root'}}
{'measurement': 'measName', 'fields': {'measV_HV2': -50.0, 'measI_HV2': -1.957298e-06, 'settV_HV2': -50.0, 'settI_HV2': 0.0}, 'tags': {'user': 'root'}}
{'measurement': 'measName', 'fields': {'measV_HV2': -50.0, 'measI_HV2': -1.947743e-06, 'settV_HV2': -50.0, 'settI_HV2': 0.0}, 'tags': {'user': 'root'}}
{'measurement': 'measName', 'fields': {'measV_HV2': -50.0, 'measI_HV2': -1.96406e-06, 'settV_HV2': -50.0, 'settI_HV2': 0.0}, 'tags': {'user': 'root'}}
{'measurement': 'measName', 'fields': {'measV_HV2': -50.0, 'measI_HV2': -1.950628e-06, 'settV_HV2': -50.0, 'settI_HV2': 0.0}, 'tags': {'user': 'root'}}
{'measurement': 'measName', 'fields': {'measV_HV2': -50.0, 'measI_HV2': -1.953881e-06, 'settV_HV2': -50.0, 'settI_HV2': 0.0}, 'tags': {'user': 'root'}}
{'measurement': 'measName', 'fields': {'measV_HV2': -50.0, 'measI_HV2': -1.962085e-06, 'settV_HV2': -50.0, 'settI_HV2': 0.0}, 'tags': {'user': 'root'}}
{'measurement': 'measName', 'fields': {'measV_HV2': -50.0, 'measI_HV2': -1.947975e-06, 'settV_HV2': -50.0, 'settI_HV2': 0.0}, 'tags': {'user': 'root'}}
{'measurement': 'measName', 'fields': {'measV_HV2': -50.0, 'measI_HV2': -1.964172e-06, 'settV_HV2': -50.0, 'settI_HV2': 0.0}, 'tags': {'user': 'root'}}
{'measurement': 'measName', 'fields': {'measV_HV2': -50.0, 'measI_HV2': -1.95714e-06, 'settV_HV2': -50.0, 'settI_HV2': 0.0}, 'tags': {'user': 'root'}}
{'measurement': 'measName', 'fields': {'measV_HV2': -50.0, 'measI_HV2': -1.952683e-06, 'settV_HV2': -50.0, 'settI_HV2': 0.0}, 'tags': {'user': 'root'}}
{'measurement': 'measName', 'fields': {'measV_HV2': -50.0, 'measI_HV2': -1.964986e-06, 'settV_HV2': -50.0, 'settI_HV2': 0.0}, 'tags': {'user': 'root'}}
{'measurement': 'measName', 'fields': {'measV_HV2': -50.0, 'measI_HV2': -1.951053e-06, 'settV_HV2': -50.0, 'settI_HV2': 0.0}, 'tags': {'user': 'root'}}
{'measurement': 'measName', 'fields': {'measV_HV2': -50.0, 'measI_HV2': -1.957633e-06, 'settV_HV2': -50.0, 'settI_HV2': 0.0}, 'tags': {'user': 'root'}}
{'measurement': 'measName', 'fields': {'measV_HV2': -50.0, 'measI_HV2': -1.962637e-06, 'settV_HV2': -50.0, 'settI_HV2': 0.0}, 'tags': {'user': 'root'}}
{'measurement': 'measName', 'fields': {'measV_HV2': -50.0, 'measI_HV2': -1.947464e-06, 'settV_HV2': -50.0, 'settI_HV2': 0.0}, 'tags': {'user': 'root'}}
{'measurement': 'measName', 'fields': {'measV_HV2': -50.0, 'measI_HV2': -1.965295e-06, 'settV_HV2': -50.0, 'settI_HV2': 0.0}, 'tags': {'user': 'root'}}
{'measurement': 'measName', 'fields': {'measV_HV2': -50.0, 'measI_HV2': -1.953395e-06, 'settV_HV2': -50.0, 'settI_HV2': 0.0}, 'tags': {'user': 'root'}}
{'measurement': 'measName', 'fields': {'measV_HV2': -50.0, 'measI_HV2': -1.956161e-06, 'settV_HV2': -50.0, 'settI_HV2': 0.0}, 'tags': {'user': 'root'}}
{'measurement': 'measName', 'fields': {'measV_HV2': -50.0, 'measI_HV2': -1.961945e-06, 'settV_HV2': -50.0, 'settI_HV2': 0.0}, 'tags': {'user': 'root'}}
{'measurement': 'measName', 'fields': {'measV_HV2': -50.0, 'measI_HV2': -1.948752e-06, 'settV_HV2': -50.0, 'settI_HV2': 0.0}, 'tags': {'user': 'root'}}
{'measurement': 'measName', 'fields': {'measV_HV2': -50.0, 'measI_HV2': -1.965334e-06, 'settV_HV2': -50.0, 'settI_HV2': 0.0}, 'tags': {'user': 'root'}}
{'measurement': 'measName', 'fields': {'measV_HV2': -50.0, 'measI_HV2': -1.955146e-06, 'settV_HV2': -50.0, 'settI_HV2': 0.0}, 'tags': {'user': 'root'}}
{'measurement': 'measName', 'fields': {'measV_HV2': -50.0, 'measI_HV2': -1.954186e-06, 'settV_HV2': -50.0, 'settI_HV2': 0.0}, 'tags': {'user': 'root'}}
{'measurement': 'measName', 'fields': {'measV_HV2': -50.0, 'measI_HV2': -1.966342e-06, 'settV_HV2': -50.0, 'settI_HV2': 0.0}, 'tags': {'user': 'root'}}
{'measurement': 'measName', 'fields': {'measV_HV2': -50.0, 'measI_HV2': -1.94895e-06, 'settV_HV2': -50.0, 'settI_HV2': 0.0}, 'tags': {'user': 'root'}}
{'measurement': 'measName', 'fields': {'measV_HV2': -50.0, 'measI_HV2': -1.966069e-06, 'settV_HV2': -50.0, 'settI_HV2': 0.0}, 'tags': {'user': 'root'}}
{'measurement': 'measName', 'fields': {'measV_HV2': -50.0, 'measI_HV2': -1.952658e-06, 'settV_HV2': -50.0, 'settI_HV2': 0.0}, 'tags': {'user': 'root'}}
{'measurement': 'measName', 'fields': {'measV_HV2': -50.0, 'measI_HV2': -1.958158e-06, 'settV_HV2': -50.0, 'settI_HV2': 0.0}, 'tags': {'user': 'root'}}
{'measurement': 'measName', 'fields': {'measV_HV2': -50.0, 'measI_HV2': -1.965798e-06, 'settV_HV2': -50.0, 'settI_HV2': 0.0}, 'tags': {'user': 'root'}}
{'measurement': 'measName', 'fields': {'measV_HV2': -50.0, 'measI_HV2': -1.949412e-06, 'settV_HV2': -50.0, 'settI_HV2': 0.0}, 'tags': {'user': 'root'}}
{'measurement': 'measName', 'fields': {'measV_HV2': -50.0, 'measI_HV2': -1.966046e-06, 'settV_HV2': -50.0, 'settI_HV2': 0.0}, 'tags': {'user': 'root'}}
{'measurement': 'measName', 'fields': {'measV_HV2': -50.0, 'measI_HV2': -1.951637e-06, 'settV_HV2': -50.0, 'settI_HV2': 0.0}, 'tags': {'user': 'root'}}
{'measurement': 'measName', 'fields': {'measV_HV2': -50.0, 'measI_HV2': -1.958e-06, 'settV_HV2': -50.0, 'settI_HV2': 0.0}, 'tags': {'user': 'root'}}
{'measurement': 'measName', 'fields': {'measV_HV2': -50.0, 'measI_HV2': -1.96588e-06, 'settV_HV2': -50.0, 'settI_HV2': 0.0}, 'tags': {'user': 'root'}}
{'measurement': 'measName', 'fields': {'measV_HV2': -50.0, 'measI_HV2': -1.949041e-06, 'settV_HV2': -50.0, 'settI_HV2': 0.0}, 'tags': {'user': 'root'}}
{'measurement': 'measName', 'fields': {'measV_HV2': -50.0, 'measI_HV2': -1.96674e-06, 'settV_HV2': -50.0, 'settI_HV2': 0.0}, 'tags': {'user': 'root'}}
{'measurement': 'measName', 'fields': {'measV_HV2': -50.0, 'measI_HV2': -1.954157e-06, 'settV_HV2': -50.0, 'settI_HV2': 0.0}, 'tags': {'user': 'root'}}
{'measurement': 'measName', 'fields': {'measV_HV2': -50.0, 'measI_HV2': -1.959031e-06, 'settV_HV2': -50.0, 'settI_HV2': 0.0}, 'tags': {'user': 'root'}}
{'measurement': 'measName', 'fields': {'measV_HV2': -50.0, 'measI_HV2': -1.962436e-06, 'settV_HV2': -50.0, 'settI_HV2': 0.0}, 'tags': {'user': 'root'}}
{'measurement': 'measName', 'fields': {'measV_HV2': -50.0, 'measI_HV2': -1.949405e-06, 'settV_HV2': -50.0, 'settI_HV2': 0.0}, 'tags': {'user': 'root'}}
{'measurement': 'measName', 'fields': {'measV_HV2': -50.0, 'measI_HV2': -1.966063e-06, 'settV_HV2': -50.0, 'settI_HV2': 0.0}, 'tags': {'user': 'root'}}
{'measurement': 'measName', 'fields': {'measV_HV2': -50.0, 'measI_HV2': -1.952377e-06, 'settV_HV2': -50.0, 'settI_HV2': 0.0}, 'tags': {'user': 'root'}}
{'measurement': 'measName', 'fields': {'measV_HV2': -50.0, 'measI_HV2': -1.96061e-06, 'settV_HV2': -50.0, 'settI_HV2': 0.0}, 'tags': {'user': 'root'}}
{'measurement': 'measName', 'fields': {'measV_HV2': -50.0, 'measI_HV2': -1.962104e-06, 'settV_HV2': -50.0, 'settI_HV2': 0.0}, 'tags': {'user': 'root'}}
{'measurement': 'measName', 'fields': {'measV_HV2': -50.0, 'measI_HV2': -1.949327e-06, 'settV_HV2': -50.0, 'settI_HV2': 0.0}, 'tags': {'user': 'root'}}
{'measurement': 'measName', 'fields': {'measV_HV2': -50.0, 'measI_HV2': -1.966622e-06, 'settV_HV2': -50.0, 'settI_HV2': 0.0}, 'tags': {'user': 'root'}}
{'measurement': 'measName', 'fields': {'measV_HV2': -50.0, 'measI_HV2': -1.952431e-06, 'settV_HV2': -50.0, 'settI_HV2': 0.0}, 'tags': {'user': 'root'}}
{'measurement': 'measName', 'fields': {'measV_HV2': -50.0, 'measI_HV2': -1.956939e-06, 'settV_HV2': -50.0, 'settI_HV2': 0.0}, 'tags': {'user': 'root'}}
{'measurement': 'measName', 'fields': {'measV_HV2': -50.0, 'measI_HV2': -1.965482e-06, 'settV_HV2': -50.0, 'settI_HV2': 0.0}, 'tags': {'user': 'root'}}
{'measurement': 'measName', 'fields': {'measV_HV2': -50.0, 'measI_HV2': -1.949792e-06, 'settV_HV2': -50.0, 'settI_HV2': 0.0}, 'tags': {'user': 'root'}}
{'measurement': 'measName', 'fields': {'measV_HV2': -50.0, 'measI_HV2': -1.963199e-06, 'settV_HV2': -50.0, 'settI_HV2': 0.0}, 'tags': {'user': 'root'}}
{'measurement': 'measName', 'fields': {'measV_HV2': -50.0, 'measI_HV2': -1.964159e-06, 'settV_HV2': -50.0, 'settI_HV2': 0.0}, 'tags': {'user': 'root'}}
{'measurement': 'measName', 'fields': {'measV_HV2': -50.0, 'measI_HV2': -1.952448e-06, 'settV_HV2': -50.0, 'settI_HV2': 0.0}, 'tags': {'user': 'root'}}
{'measurement': 'measName', 'fields': {'measV_HV2': -50.0, 'measI_HV2': -1.966779e-06, 'settV_HV2': -50.0, 'settI_HV2': 0.0}, 'tags': {'user': 'root'}}
{'measurement': 'measName', 'fields': {'measV_HV2': -50.0, 'measI_HV2': -1.952033e-06, 'settV_HV2': -50.0, 'settI_HV2': 0.0}, 'tags': {'user': 'root'}}
{'measurement': 'measName', 'fields': {'measV_HV2': -50.0, 'measI_HV2': -1.958797e-06, 'settV_HV2': -50.0, 'settI_HV2': 0.0}, 'tags': {'user': 'root'}}
{'measurement': 'measName', 'fields': {'measV_HV2': -50.0, 'measI_HV2': -1.966214e-06, 'settV_HV2': -50.0, 'settI_HV2': 0.0}, 'tags': {'user': 'root'}}
{'measurement': 'measName', 'fields': {'measV_HV2': -50.0, 'measI_HV2': -1.950779e-06, 'settV_HV2': -50.0, 'settI_HV2': 0.0}, 'tags': {'user': 'root'}}
{'measurement': 'measName', 'fields': {'measV_HV2': -50.0, 'measI_HV2': -1.961996e-06, 'settV_HV2': -50.0, 'settI_HV2': 0.0}, 'tags': {'user': 'root'}}
{'measurement': 'measName', 'fields': {'measV_HV2': -50.0, 'measI_HV2': -1.960185e-06, 'settV_HV2': -50.0, 'settI_HV2': 0.0}, 'tags': {'user': 'root'}}
{'measurement': 'measName', 'fields': {'measV_HV2': -50.0, 'measI_HV2': -1.950263e-06, 'settV_HV2': -50.0, 'settI_HV2': 0.0}, 'tags': {'user': 'root'}}
{'measurement': 'measName', 'fields': {'measV_HV2': -50.0, 'measI_HV2': -1.96766e-06, 'settV_HV2': -50.0, 'settI_HV2': 0.0}, 'tags': {'user': 'root'}}
{'measurement': 'measName', 'fields': {'measV_HV2': -50.0, 'measI_HV2': -1.95189e-06, 'settV_HV2': -50.0, 'settI_HV2': 0.0}, 'tags': {'user': 'root'}}
{'measurement': 'measName', 'fields': {'measV_HV2': -50.0, 'measI_HV2': -1.962118e-06, 'settV_HV2': -50.0, 'settI_HV2': 0.0}, 'tags': {'user': 'root'}}
{'measurement': 'measName', 'fields': {'measV_HV2': -50.0, 'measI_HV2': -1.959673e-06, 'settV_HV2': -50.0, 'settI_HV2': 0.0}, 'tags': {'user': 'root'}}
{'measurement': 'measName', 'fields': {'measV_HV2': -50.0, 'measI_HV2': -1.95409e-06, 'settV_HV2': -50.0, 'settI_HV2': 0.0}, 'tags': {'user': 'root'}}
{'measurement': 'measName', 'fields': {'measV_HV2': -50.0, 'measI_HV2': -1.968258e-06, 'settV_HV2': -50.0, 'settI_HV2': 0.0}, 'tags': {'user': 'root'}}
{'measurement': 'measName', 'fields': {'measV_HV2': -50.0, 'measI_HV2': -1.951623e-06, 'settV_HV2': -50.0, 'settI_HV2': 0.0}, 'tags': {'user': 'root'}}
{'measurement': 'measName', 'fields': {'measV_HV2': -50.0, 'measI_HV2': -1.95741e-06, 'settV_HV2': -50.0, 'settI_HV2': 0.0}, 'tags': {'user': 'root'}}
{'measurement': 'measName', 'fields': {'measV_HV2': -50.0, 'measI_HV2': -1.964283e-06, 'settV_HV2': -50.0, 'settI_HV2': 0.0}, 'tags': {'user': 'root'}}
{'measurement': 'measName', 'fields': {'measV_HV2': -50.0, 'measI_HV2': -1.951262e-06, 'settV_HV2': -50.0, 'settI_HV2': 0.0}, 'tags': {'user': 'root'}}
{'measurement': 'measName', 'fields': {'measV_HV2': -50.0, 'measI_HV2': -1.967807e-06, 'settV_HV2': -50.0, 'settI_HV2': 0.0}, 'tags': {'user': 'root'}}
{'measurement': 'measName', 'fields': {'measV_HV2': -50.0, 'measI_HV2': -1.954779e-06, 'settV_HV2': -50.0, 'settI_HV2': 0.0}, 'tags': {'user': 'root'}}
{'measurement': 'measName', 'fields': {'measV_HV2': -50.0, 'measI_HV2': -1.964991e-06, 'settV_HV2': -50.0, 'settI_HV2': 0.0}, 'tags': {'user': 'root'}}
{'measurement': 'measName', 'fields': {'measV_HV2': -50.0, 'measI_HV2': -1.963636e-06, 'settV_HV2': -50.0, 'settI_HV2': 0.0}, 'tags': {'user': 'root'}}
{'measurement': 'measName', 'fields': {'measV_HV2': -50.0, 'measI_HV2': -1.951152e-06, 'settV_HV2': -50.0, 'settI_HV2': 0.0}, 'tags': {'user': 'root'}}
{'measurement': 'measName', 'fields': {'measV_HV2': -50.0, 'measI_HV2': -1.964702e-06, 'settV_HV2': -50.0, 'settI_HV2': 0.0}, 'tags': {'user': 'root'}}
{'measurement': 'measName', 'fields': {'measV_HV2': -50.0, 'measI_HV2': -1.962486e-06, 'settV_HV2': -50.0, 'settI_HV2': 0.0}, 'tags': {'user': 'root'}}
{'measurement': 'measName', 'fields': {'measV_HV2': -50.0, 'measI_HV2': -1.95712e-06, 'settV_HV2': -50.0, 'settI_HV2': 0.0}, 'tags': {'user': 'root'}}
{'measurement': 'measName', 'fields': {'measV_HV2': -50.0, 'measI_HV2': -1.968187e-06, 'settV_HV2': -50.0, 'settI_HV2': 0.0}, 'tags': {'user': 'root'}}
{'measurement': 'measName', 'fields': {'measV_HV2': -50.0, 'measI_HV2': -1.951159e-06, 'settV_HV2': -50.0, 'settI_HV2': 0.0}, 'tags': {'user': 'root'}}
{'measurement': 'measName', 'fields': {'measV_HV2': -50.0, 'measI_HV2': -1.96369e-06, 'settV_HV2': -50.0, 'settI_HV2': 0.0}, 'tags': {'user': 'root'}}
{'measurement': 'measName', 'fields': {'measV_HV2': -50.0, 'measI_HV2': -1.965368e-06, 'settV_HV2': -50.0, 'settI_HV2': 0.0}, 'tags': {'user': 'root'}}
{'measurement': 'measName', 'fields': {'measV_HV2': -50.0, 'measI_HV2': -1.952151e-06, 'settV_HV2': -50.0, 'settI_HV2': 0.0}, 'tags': {'user': 'root'}}
{'measurement': 'measName', 'fields': {'measV_HV2': -50.0, 'measI_HV2': -1.966262e-06, 'settV_HV2': -50.0, 'settI_HV2': 0.0}, 'tags': {'user': 'root'}}
{'measurement': 'measName', 'fields': {'measV_HV2': -50.0, 'measI_HV2': -1.958846e-06, 'settV_HV2': -50.0, 'settI_HV2': 0.0}, 'tags': {'user': 'root'}}
{'measurement': 'measName', 'fields': {'measV_HV2': -50.0, 'measI_HV2': -1.9536e-06, 'settV_HV2': -50.0, 'settI_HV2': 0.0}, 'tags': {'user': 'root'}}
{'measurement': 'measName', 'fields': {'measV_HV2': -50.0, 'measI_HV2': -1.967528e-06, 'settV_HV2': -50.0, 'settI_HV2': 0.0}, 'tags': {'user': 'root'}}

