2022-08-20 16:40:46 {'measurement': 'measName', 'fields': {'measV_HV2': -150.0, 'measI_HV2': -1.74793e-07, 'settV_HV2': -150.0, 'settI_HV2': 0.0}, 'tags': {'user': 'root'}}
2022-08-20 16:40:47 {'measurement': 'measName', 'fields': {'measV_HV2': -150.0, 'measI_HV2': -1.690713e-07, 'settV_HV2': -150.0, 'settI_HV2': 0.0}, 'tags': {'user': 'root'}}
2022-08-20 16:40:48 {'measurement': 'measName', 'fields': {'measV_HV2': -150.0, 'measI_HV2': -1.652126e-07, 'settV_HV2': -150.0, 'settI_HV2': 0.0}, 'tags': {'user': 'root'}}
2022-08-20 16:40:48 {'measurement': 'measName', 'fields': {'measV_HV2': -150.0, 'measI_HV2': -1.617738e-07, 'settV_HV2': -150.0, 'settI_HV2': 0.0}, 'tags': {'user': 'root'}}
2022-08-20 16:40:49 {'measurement': 'measName', 'fields': {'measV_HV2': -150.0, 'measI_HV2': -1.684515e-07, 'settV_HV2': -150.0, 'settI_HV2': 0.0}, 'tags': {'user': 'root'}}
2022-08-20 16:40:50 {'measurement': 'measName', 'fields': {'measV_HV2': -150.0, 'measI_HV2': -1.724738e-07, 'settV_HV2': -150.0, 'settI_HV2': 0.0}, 'tags': {'user': 'root'}}
2022-08-20 16:40:50 {'measurement': 'measName', 'fields': {'measV_HV2': -150.0, 'measI_HV2': -1.756763e-07, 'settV_HV2': -150.0, 'settI_HV2': 0.0}, 'tags': {'user': 'root'}}
2022-08-20 16:40:51 {'measurement': 'measName', 'fields': {'measV_HV2': -150.0, 'measI_HV2': -1.704815e-07, 'settV_HV2': -150.0, 'settI_HV2': 0.0}, 'tags': {'user': 'root'}}
2022-08-20 16:40:52 {'measurement': 'measName', 'fields': {'measV_HV2': -150.0, 'measI_HV2': -1.665357e-07, 'settV_HV2': -150.0, 'settI_HV2': 0.0}, 'tags': {'user': 'root'}}
2022-08-20 16:40:53 {'measurement': 'measName', 'fields': {'measV_HV2': -150.0, 'measI_HV2': -1.630493e-07, 'settV_HV2': -150.0, 'settI_HV2': 0.0}, 'tags': {'user': 'root'}}
2022-08-20 16:40:53 {'measurement': 'measName', 'fields': {'measV_HV2': -150.0, 'measI_HV2': -1.669376e-07, 'settV_HV2': -150.0, 'settI_HV2': 0.0}, 'tags': {'user': 'root'}}
2022-08-20 16:40:54 {'measurement': 'measName', 'fields': {'measV_HV2': -150.0, 'measI_HV2': -1.733085e-07, 'settV_HV2': -150.0, 'settI_HV2': 0.0}, 'tags': {'user': 'root'}}
2022-08-20 16:40:55 {'measurement': 'measName', 'fields': {'measV_HV2': -150.0, 'measI_HV2': -1.732314e-07, 'settV_HV2': -150.0, 'settI_HV2': 0.0}, 'tags': {'user': 'root'}}
2022-08-20 16:40:56 {'measurement': 'measName', 'fields': {'measV_HV2': -150.0, 'measI_HV2': -1.757878e-07, 'settV_HV2': -150.0, 'settI_HV2': 0.0}, 'tags': {'user': 'root'}}
2022-08-20 16:40:57 {'measurement': 'measName', 'fields': {'measV_HV2': -150.0, 'measI_HV2': -1.742787e-07, 'settV_HV2': -150.0, 'settI_HV2': 0.0}, 'tags': {'user': 'root'}}
2022-08-20 16:40:57 {'measurement': 'measName', 'fields': {'measV_HV2': -150.0, 'measI_HV2': -1.673769e-07, 'settV_HV2': -150.0, 'settI_HV2': 0.0}, 'tags': {'user': 'root'}}
2022-08-20 16:40:58 {'measurement': 'measName', 'fields': {'measV_HV2': -150.0, 'measI_HV2': -1.630585e-07, 'settV_HV2': -150.0, 'settI_HV2': 0.0}, 'tags': {'user': 'root'}}
2022-08-20 16:40:59 {'measurement': 'measName', 'fields': {'measV_HV2': -150.0, 'measI_HV2': -1.640575e-07, 'settV_HV2': -150.0, 'settI_HV2': 0.0}, 'tags': {'user': 'root'}}
2022-08-20 16:40:59 {'measurement': 'measName', 'fields': {'measV_HV2': -150.0, 'measI_HV2': -1.730527e-07, 'settV_HV2': -150.0, 'settI_HV2': 0.0}, 'tags': {'user': 'root'}}
2022-08-20 16:41:00 {'measurement': 'measName', 'fields': {'measV_HV2': -150.0, 'measI_HV2': -1.743202e-07, 'settV_HV2': -150.0, 'settI_HV2': 0.0}, 'tags': {'user': 'root'}}
2022-08-20 16:41:01 {'measurement': 'measName', 'fields': {'measV_HV2': -150.0, 'measI_HV2': -1.711117e-07, 'settV_HV2': -150.0, 'settI_HV2': 0.0}, 'tags': {'user': 'root'}}
2022-08-20 16:41:01 {'measurement': 'measName', 'fields': {'measV_HV2': -150.0, 'measI_HV2': -1.646797e-07, 'settV_HV2': -150.0, 'settI_HV2': 0.0}, 'tags': {'user': 'root'}}
2022-08-20 16:41:02 {'measurement': 'measName', 'fields': {'measV_HV2': -150.0, 'measI_HV2': -1.624462e-07, 'settV_HV2': -150.0, 'settI_HV2': 0.0}, 'tags': {'user': 'root'}}
2022-08-20 16:41:03 {'measurement': 'measName', 'fields': {'measV_HV2': -150.0, 'measI_HV2': -1.642023e-07, 'settV_HV2': -150.0, 'settI_HV2': 0.0}, 'tags': {'user': 'root'}}
2022-08-20 16:41:03 {'measurement': 'measName', 'fields': {'measV_HV2': -150.0, 'measI_HV2': -1.686258e-07, 'settV_HV2': -150.0, 'settI_HV2': 0.0}, 'tags': {'user': 'root'}}
2022-08-20 16:41:04 {'measurement': 'measName', 'fields': {'measV_HV2': -150.0, 'measI_HV2': -1.739779e-07, 'settV_HV2': -150.0, 'settI_HV2': 0.0}, 'tags': {'user': 'root'}}
2022-08-20 16:41:05 {'measurement': 'measName', 'fields': {'measV_HV2': -150.0, 'measI_HV2': -1.733219e-07, 'settV_HV2': -150.0, 'settI_HV2': 0.0}, 'tags': {'user': 'root'}}
2022-08-20 16:41:05 {'measurement': 'measName', 'fields': {'measV_HV2': -150.0, 'measI_HV2': -1.704575e-07, 'settV_HV2': -150.0, 'settI_HV2': 0.0}, 'tags': {'user': 'root'}}
2022-08-20 16:41:06 {'measurement': 'measName', 'fields': {'measV_HV2': -150.0, 'measI_HV2': -1.639588e-07, 'settV_HV2': -150.0, 'settI_HV2': 0.0}, 'tags': {'user': 'root'}}
2022-08-20 16:41:08 {'measurement': 'measName', 'fields': {'measV_HV2': -150.0, 'measI_HV2': -1.746711e-07, 'settV_HV2': -150.0, 'settI_HV2': 0.0}, 'tags': {'user': 'root'}}
2022-08-20 16:41:08 {'measurement': 'measName', 'fields': {'measV_HV2': -150.0, 'measI_HV2': -1.650908e-07, 'settV_HV2': -150.0, 'settI_HV2': 0.0}, 'tags': {'user': 'root'}}
2022-08-20 16:41:09 {'measurement': 'measName', 'fields': {'measV_HV2': -150.0, 'measI_HV2': -1.633436e-07, 'settV_HV2': -150.0, 'settI_HV2': 0.0}, 'tags': {'user': 'root'}}
2022-08-20 16:41:10 {'measurement': 'measName', 'fields': {'measV_HV2': -150.0, 'measI_HV2': -1.62208e-07, 'settV_HV2': -150.0, 'settI_HV2': 0.0}, 'tags': {'user': 'root'}}
2022-08-20 16:41:10 {'measurement': 'measName', 'fields': {'measV_HV2': -150.0, 'measI_HV2': -1.691155e-07, 'settV_HV2': -150.0, 'settI_HV2': 0.0}, 'tags': {'user': 'root'}}
2022-08-20 16:41:11 {'measurement': 'measName', 'fields': {'measV_HV2': -150.0, 'measI_HV2': -1.705709e-07, 'settV_HV2': -150.0, 'settI_HV2': 0.0}, 'tags': {'user': 'root'}}
2022-08-20 16:41:12 {'measurement': 'measName', 'fields': {'measV_HV2': -150.0, 'measI_HV2': -1.736449e-07, 'settV_HV2': -150.0, 'settI_HV2': 0.0}, 'tags': {'user': 'root'}}
2022-08-20 16:41:12 {'measurement': 'measName', 'fields': {'measV_HV2': -150.0, 'measI_HV2': -1.738887e-07, 'settV_HV2': -150.0, 'settI_HV2': 0.0}, 'tags': {'user': 'root'}}
2022-08-20 16:41:13 {'measurement': 'measName', 'fields': {'measV_HV2': -150.0, 'measI_HV2': -1.692884e-07, 'settV_HV2': -150.0, 'settI_HV2': 0.0}, 'tags': {'user': 'root'}}
2022-08-20 16:41:14 {'measurement': 'measName', 'fields': {'measV_HV2': -150.0, 'measI_HV2': -1.63425e-07, 'settV_HV2': -150.0, 'settI_HV2': 0.0}, 'tags': {'user': 'root'}}
2022-08-20 16:41:14 {'measurement': 'measName', 'fields': {'measV_HV2': -150.0, 'measI_HV2': -1.624311e-07, 'settV_HV2': -150.0, 'settI_HV2': 0.0}, 'tags': {'user': 'root'}}
2022-08-20 16:41:15 {'measurement': 'measName', 'fields': {'measV_HV2': -150.0, 'measI_HV2': -1.671588e-07, 'settV_HV2': -150.0, 'settI_HV2': 0.0}, 'tags': {'user': 'root'}}
2022-08-20 16:41:16 {'measurement': 'measName', 'fields': {'measV_HV2': -150.0, 'measI_HV2': -1.711066e-07, 'settV_HV2': -150.0, 'settI_HV2': 0.0}, 'tags': {'user': 'root'}}
2022-08-20 16:41:17 {'measurement': 'measName', 'fields': {'measV_HV2': -150.0, 'measI_HV2': -1.750306e-07, 'settV_HV2': -150.0, 'settI_HV2': 0.0}, 'tags': {'user': 'root'}}
2022-08-20 16:41:17 {'measurement': 'measName', 'fields': {'measV_HV2': -150.0, 'measI_HV2': -1.671835e-07, 'settV_HV2': -150.0, 'settI_HV2': 0.0}, 'tags': {'user': 'root'}}
2022-08-20 16:41:18 {'measurement': 'measName', 'fields': {'measV_HV2': -150.0, 'measI_HV2': -1.741873e-07, 'settV_HV2': -150.0, 'settI_HV2': 0.0}, 'tags': {'user': 'root'}}
2022-08-20 16:41:19 {'measurement': 'measName', 'fields': {'measV_HV2': -150.0, 'measI_HV2': -1.663021e-07, 'settV_HV2': -150.0, 'settI_HV2': 0.0}, 'tags': {'user': 'root'}}
2022-08-20 16:41:20 {'measurement': 'measName', 'fields': {'measV_HV2': -150.0, 'measI_HV2': -1.635076e-07, 'settV_HV2': -150.0, 'settI_HV2': 0.0}, 'tags': {'user': 'root'}}
2022-08-20 16:41:21 {'measurement': 'measName', 'fields': {'measV_HV2': -150.0, 'measI_HV2': -1.629973e-07, 'settV_HV2': -150.0, 'settI_HV2': 0.0}, 'tags': {'user': 'root'}}
2022-08-20 16:41:21 {'measurement': 'measName', 'fields': {'measV_HV2': -150.0, 'measI_HV2': -1.670026e-07, 'settV_HV2': -150.0, 'settI_HV2': 0.0}, 'tags': {'user': 'root'}}
2022-08-20 16:41:22 {'measurement': 'measName', 'fields': {'measV_HV2': -150.0, 'measI_HV2': -1.700003e-07, 'settV_HV2': -150.0, 'settI_HV2': 0.0}, 'tags': {'user': 'root'}}
2022-08-20 16:41:23 {'measurement': 'measName', 'fields': {'measV_HV2': -150.0, 'measI_HV2': -1.747919e-07, 'settV_HV2': -150.0, 'settI_HV2': 0.0}, 'tags': {'user': 'root'}}
2022-08-20 16:41:23 {'measurement': 'measName', 'fields': {'measV_HV2': -150.0, 'measI_HV2': -1.737238e-07, 'settV_HV2': -150.0, 'settI_HV2': 0.0}, 'tags': {'user': 'root'}}
2022-08-20 16:41:24 {'measurement': 'measName', 'fields': {'measV_HV2': -150.0, 'measI_HV2': -1.720408e-07, 'settV_HV2': -150.0, 'settI_HV2': 0.0}, 'tags': {'user': 'root'}}
2022-08-20 16:41:25 {'measurement': 'measName', 'fields': {'measV_HV2': -150.0, 'measI_HV2': -1.668992e-07, 'settV_HV2': -150.0, 'settI_HV2': 0.0}, 'tags': {'user': 'root'}}
2022-08-20 16:41:26 {'measurement': 'measName', 'fields': {'measV_HV2': -150.0, 'measI_HV2': -1.627263e-07, 'settV_HV2': -150.0, 'settI_HV2': 0.0}, 'tags': {'user': 'root'}}
2022-08-20 16:41:26 {'measurement': 'measName', 'fields': {'measV_HV2': -150.0, 'measI_HV2': -1.620828e-07, 'settV_HV2': -150.0, 'settI_HV2': 0.0}, 'tags': {'user': 'root'}}
2022-08-20 16:41:27 {'measurement': 'measName', 'fields': {'measV_HV2': -150.0, 'measI_HV2': -1.653036e-07, 'settV_HV2': -150.0, 'settI_HV2': 0.0}, 'tags': {'user': 'root'}}
2022-08-20 16:41:28 {'measurement': 'measName', 'fields': {'measV_HV2': -150.0, 'measI_HV2': -1.721405e-07, 'settV_HV2': -150.0, 'settI_HV2': 0.0}, 'tags': {'user': 'root'}}
2022-08-20 16:41:28 {'measurement': 'measName', 'fields': {'measV_HV2': -150.0, 'measI_HV2': -1.732979e-07, 'settV_HV2': -150.0, 'settI_HV2': 0.0}, 'tags': {'user': 'root'}}
2022-08-20 16:41:30 {'measurement': 'measName', 'fields': {'measV_HV2': -150.0, 'measI_HV2': -1.618342e-07, 'settV_HV2': -150.0, 'settI_HV2': 0.0}, 'tags': {'user': 'root'}}
2022-08-20 16:41:30 {'measurement': 'measName', 'fields': {'measV_HV2': -150.0, 'measI_HV2': -1.709983e-07, 'settV_HV2': -150.0, 'settI_HV2': 0.0}, 'tags': {'user': 'root'}}
2022-08-20 16:41:31 {'measurement': 'measName', 'fields': {'measV_HV2': -150.0, 'measI_HV2': -1.72366e-07, 'settV_HV2': -150.0, 'settI_HV2': 0.0}, 'tags': {'user': 'root'}}
2022-08-20 16:41:32 {'measurement': 'measName', 'fields': {'measV_HV2': -150.0, 'measI_HV2': -1.734637e-07, 'settV_HV2': -150.0, 'settI_HV2': 0.0}, 'tags': {'user': 'root'}}
2022-08-20 16:41:33 {'measurement': 'measName', 'fields': {'measV_HV2': -150.0, 'measI_HV2': -1.705542e-07, 'settV_HV2': -150.0, 'settI_HV2': 0.0}, 'tags': {'user': 'root'}}
2022-08-20 16:41:33 {'measurement': 'measName', 'fields': {'measV_HV2': -150.0, 'measI_HV2': -1.650666e-07, 'settV_HV2': -150.0, 'settI_HV2': 0.0}, 'tags': {'user': 'root'}}
2022-08-20 16:41:34 {'measurement': 'measName', 'fields': {'measV_HV2': -150.0, 'measI_HV2': -1.625849e-07, 'settV_HV2': -150.0, 'settI_HV2': 0.0}, 'tags': {'user': 'root'}}
2022-08-20 16:41:35 {'measurement': 'measName', 'fields': {'measV_HV2': -150.0, 'measI_HV2': -1.62268e-07, 'settV_HV2': -150.0, 'settI_HV2': 0.0}, 'tags': {'user': 'root'}}
2022-08-20 16:41:35 {'measurement': 'measName', 'fields': {'measV_HV2': -150.0, 'measI_HV2': -1.680358e-07, 'settV_HV2': -150.0, 'settI_HV2': 0.0}, 'tags': {'user': 'root'}}
2022-08-20 16:41:36 {'measurement': 'measName', 'fields': {'measV_HV2': -150.0, 'measI_HV2': -1.747495e-07, 'settV_HV2': -150.0, 'settI_HV2': 0.0}, 'tags': {'user': 'root'}}
2022-08-20 16:41:37 {'measurement': 'measName', 'fields': {'measV_HV2': -150.0, 'measI_HV2': -1.745246e-07, 'settV_HV2': -150.0, 'settI_HV2': 0.0}, 'tags': {'user': 'root'}}
2022-08-20 16:41:37 {'measurement': 'measName', 'fields': {'measV_HV2': -150.0, 'measI_HV2': -1.722041e-07, 'settV_HV2': -150.0, 'settI_HV2': 0.0}, 'tags': {'user': 'root'}}
2022-08-20 16:41:38 {'measurement': 'measName', 'fields': {'measV_HV2': -150.0, 'measI_HV2': -1.700849e-07, 'settV_HV2': -150.0, 'settI_HV2': 0.0}, 'tags': {'user': 'root'}}
2022-08-20 16:41:39 {'measurement': 'measName', 'fields': {'measV_HV2': -150.0, 'measI_HV2': -1.650385e-07, 'settV_HV2': -150.0, 'settI_HV2': 0.0}, 'tags': {'user': 'root'}}
2022-08-20 16:41:39 {'measurement': 'measName', 'fields': {'measV_HV2': -150.0, 'measI_HV2': -1.624571e-07, 'settV_HV2': -150.0, 'settI_HV2': 0.0}, 'tags': {'user': 'root'}}
2022-08-20 16:41:40 {'measurement': 'measName', 'fields': {'measV_HV2': -150.0, 'measI_HV2': -1.627074e-07, 'settV_HV2': -150.0, 'settI_HV2': 0.0}, 'tags': {'user': 'root'}}
2022-08-20 16:41:41 {'measurement': 'measName', 'fields': {'measV_HV2': -150.0, 'measI_HV2': -1.620692e-07, 'settV_HV2': -150.0, 'settI_HV2': 0.0}, 'tags': {'user': 'root'}}
2022-08-20 16:41:42 {'measurement': 'measName', 'fields': {'measV_HV2': -150.0, 'measI_HV2': -1.645123e-07, 'settV_HV2': -150.0, 'settI_HV2': 0.0}, 'tags': {'user': 'root'}}
2022-08-20 16:41:43 {'measurement': 'measName', 'fields': {'measV_HV2': -150.0, 'measI_HV2': -1.667891e-07, 'settV_HV2': -150.0, 'settI_HV2': 0.0}, 'tags': {'user': 'root'}}
2022-08-20 16:41:43 {'measurement': 'measName', 'fields': {'measV_HV2': -150.0, 'measI_HV2': -1.685897e-07, 'settV_HV2': -150.0, 'settI_HV2': 0.0}, 'tags': {'user': 'root'}}
2022-08-20 16:41:44 {'measurement': 'measName', 'fields': {'measV_HV2': -150.0, 'measI_HV2': -1.748492e-07, 'settV_HV2': -150.0, 'settI_HV2': 0.0}, 'tags': {'user': 'root'}}
2022-08-20 16:41:45 {'measurement': 'measName', 'fields': {'measV_HV2': -150.0, 'measI_HV2': -1.74203e-07, 'settV_HV2': -150.0, 'settI_HV2': 0.0}, 'tags': {'user': 'root'}}
2022-08-20 16:41:45 {'measurement': 'measName', 'fields': {'measV_HV2': -150.0, 'measI_HV2': -1.698683e-07, 'settV_HV2': -150.0, 'settI_HV2': 0.0}, 'tags': {'user': 'root'}}
2022-08-20 16:41:46 {'measurement': 'measName', 'fields': {'measV_HV2': -150.0, 'measI_HV2': -1.649722e-07, 'settV_HV2': -150.0, 'settI_HV2': 0.0}, 'tags': {'user': 'root'}}
2022-08-20 16:41:47 {'measurement': 'measName', 'fields': {'measV_HV2': -150.0, 'measI_HV2': -1.628077e-07, 'settV_HV2': -150.0, 'settI_HV2': 0.0}, 'tags': {'user': 'root'}}
2022-08-20 16:41:48 {'measurement': 'measName', 'fields': {'measV_HV2': -150.0, 'measI_HV2': -1.672298e-07, 'settV_HV2': -150.0, 'settI_HV2': 0.0}, 'tags': {'user': 'root'}}
2022-08-20 16:41:48 {'measurement': 'measName', 'fields': {'measV_HV2': -150.0, 'measI_HV2': -1.735157e-07, 'settV_HV2': -150.0, 'settI_HV2': 0.0}, 'tags': {'user': 'root'}}
2022-08-20 16:41:49 {'measurement': 'measName', 'fields': {'measV_HV2': -150.0, 'measI_HV2': -1.74283e-07, 'settV_HV2': -150.0, 'settI_HV2': 0.0}, 'tags': {'user': 'root'}}
2022-08-20 16:41:50 {'measurement': 'measName', 'fields': {'measV_HV2': -150.0, 'measI_HV2': -1.730492e-07, 'settV_HV2': -150.0, 'settI_HV2': 0.0}, 'tags': {'user': 'root'}}
2022-08-20 16:41:50 {'measurement': 'measName', 'fields': {'measV_HV2': -150.0, 'measI_HV2': -1.658023e-07, 'settV_HV2': -150.0, 'settI_HV2': 0.0}, 'tags': {'user': 'root'}}
2022-08-20 16:41:51 {'measurement': 'measName', 'fields': {'measV_HV2': -150.0, 'measI_HV2': -1.62365e-07, 'settV_HV2': -150.0, 'settI_HV2': 0.0}, 'tags': {'user': 'root'}}
2022-08-20 16:41:52 {'measurement': 'measName', 'fields': {'measV_HV2': -150.0, 'measI_HV2': -1.640609e-07, 'settV_HV2': -150.0, 'settI_HV2': 0.0}, 'tags': {'user': 'root'}}
2022-08-20 16:41:52 {'measurement': 'measName', 'fields': {'measV_HV2': -150.0, 'measI_HV2': -1.710248e-07, 'settV_HV2': -150.0, 'settI_HV2': 0.0}, 'tags': {'user': 'root'}}
2022-08-20 16:41:53 {'measurement': 'measName', 'fields': {'measV_HV2': -150.0, 'measI_HV2': -1.748235e-07, 'settV_HV2': -150.0, 'settI_HV2': 0.0}, 'tags': {'user': 'root'}}
2022-08-20 16:41:54 {'measurement': 'measName', 'fields': {'measV_HV2': -150.0, 'measI_HV2': -1.703606e-07, 'settV_HV2': -150.0, 'settI_HV2': 0.0}, 'tags': {'user': 'root'}}
2022-08-20 16:41:55 {'measurement': 'measName', 'fields': {'measV_HV2': -150.0, 'measI_HV2': -1.632729e-07, 'settV_HV2': -150.0, 'settI_HV2': 0.0}, 'tags': {'user': 'root'}}
2022-08-20 16:41:56 {'measurement': 'measName', 'fields': {'measV_HV2': -150.0, 'measI_HV2': -1.627733e-07, 'settV_HV2': -150.0, 'settI_HV2': 0.0}, 'tags': {'user': 'root'}}
2022-08-20 16:41:56 {'measurement': 'measName', 'fields': {'measV_HV2': -150.0, 'measI_HV2': -1.663557e-07, 'settV_HV2': -150.0, 'settI_HV2': 0.0}, 'tags': {'user': 'root'}}
2022-08-20 16:41:57 {'measurement': 'measName', 'fields': {'measV_HV2': -150.0, 'measI_HV2': -1.691111e-07, 'settV_HV2': -150.0, 'settI_HV2': 0.0}, 'tags': {'user': 'root'}}
2022-08-20 16:41:58 {'measurement': 'measName', 'fields': {'measV_HV2': -150.0, 'measI_HV2': -1.740069e-07, 'settV_HV2': -150.0, 'settI_HV2': 0.0}, 'tags': {'user': 'root'}}
2022-08-20 16:41:59 {'measurement': 'measName', 'fields': {'measV_HV2': -150.0, 'measI_HV2': -1.741421e-07, 'settV_HV2': -150.0, 'settI_HV2': 0.0}, 'tags': {'user': 'root'}}
2022-08-20 16:41:59 {'measurement': 'measName', 'fields': {'measV_HV2': -150.0, 'measI_HV2': -1.672691e-07, 'settV_HV2': -150.0, 'settI_HV2': 0.0}, 'tags': {'user': 'root'}}
2022-08-20 16:42:00 {'measurement': 'measName', 'fields': {'measV_HV2': -150.0, 'measI_HV2': -1.637639e-07, 'settV_HV2': -150.0, 'settI_HV2': 0.0}, 'tags': {'user': 'root'}}
2022-08-20 16:42:01 {'measurement': 'measName', 'fields': {'measV_HV2': -150.0, 'measI_HV2': -1.638777e-07, 'settV_HV2': -150.0, 'settI_HV2': 0.0}, 'tags': {'user': 'root'}}
2022-08-20 16:42:01 {'measurement': 'measName', 'fields': {'measV_HV2': -150.0, 'measI_HV2': -1.625448e-07, 'settV_HV2': -150.0, 'settI_HV2': 0.0}, 'tags': {'user': 'root'}}
2022-08-20 16:42:02 {'measurement': 'measName', 'fields': {'measV_HV2': -150.0, 'measI_HV2': -1.646022e-07, 'settV_HV2': -150.0, 'settI_HV2': 0.0}, 'tags': {'user': 'root'}}
2022-08-20 16:42:03 {'measurement': 'measName', 'fields': {'measV_HV2': -150.0, 'measI_HV2': -1.672619e-07, 'settV_HV2': -150.0, 'settI_HV2': 0.0}, 'tags': {'user': 'root'}}
2022-08-20 16:42:03 {'measurement': 'measName', 'fields': {'measV_HV2': -150.0, 'measI_HV2': -1.704796e-07, 'settV_HV2': -150.0, 'settI_HV2': 0.0}, 'tags': {'user': 'root'}}
2022-08-20 16:42:04 {'measurement': 'measName', 'fields': {'measV_HV2': -150.0, 'measI_HV2': -1.737491e-07, 'settV_HV2': -150.0, 'settI_HV2': 0.0}, 'tags': {'user': 'root'}}
2022-08-20 16:42:05 {'measurement': 'measName', 'fields': {'measV_HV2': -150.0, 'measI_HV2': -1.658948e-07, 'settV_HV2': -150.0, 'settI_HV2': 0.0}, 'tags': {'user': 'root'}}
2022-08-20 16:42:06 {'measurement': 'measName', 'fields': {'measV_HV2': -150.0, 'measI_HV2': -1.739815e-07, 'settV_HV2': -150.0, 'settI_HV2': 0.0}, 'tags': {'user': 'root'}}
2022-08-20 16:42:07 {'measurement': 'measName', 'fields': {'measV_HV2': -150.0, 'measI_HV2': -1.70564e-07, 'settV_HV2': -150.0, 'settI_HV2': 0.0}, 'tags': {'user': 'root'}}
2022-08-20 16:42:07 {'measurement': 'measName', 'fields': {'measV_HV2': -150.0, 'measI_HV2': -1.747954e-07, 'settV_HV2': -150.0, 'settI_HV2': 0.0}, 'tags': {'user': 'root'}}
2022-08-20 16:42:08 {'measurement': 'measName', 'fields': {'measV_HV2': -150.0, 'measI_HV2': -1.686579e-07, 'settV_HV2': -150.0, 'settI_HV2': 0.0}, 'tags': {'user': 'root'}}
2022-08-20 16:42:09 {'measurement': 'measName', 'fields': {'measV_HV2': -150.0, 'measI_HV2': -1.622282e-07, 'settV_HV2': -150.0, 'settI_HV2': 0.0}, 'tags': {'user': 'root'}}
2022-08-20 16:42:09 {'measurement': 'measName', 'fields': {'measV_HV2': -150.0, 'measI_HV2': -1.647098e-07, 'settV_HV2': -150.0, 'settI_HV2': 0.0}, 'tags': {'user': 'root'}}
2022-08-20 16:42:10 {'measurement': 'measName', 'fields': {'measV_HV2': -150.0, 'measI_HV2': -1.698214e-07, 'settV_HV2': -150.0, 'settI_HV2': 0.0}, 'tags': {'user': 'root'}}
2022-08-20 16:42:11 {'measurement': 'measName', 'fields': {'measV_HV2': -150.0, 'measI_HV2': -1.748457e-07, 'settV_HV2': -150.0, 'settI_HV2': 0.0}, 'tags': {'user': 'root'}}
2022-08-20 16:42:12 {'measurement': 'measName', 'fields': {'measV_HV2': -150.0, 'measI_HV2': -1.701494e-07, 'settV_HV2': -150.0, 'settI_HV2': 0.0}, 'tags': {'user': 'root'}}
2022-08-20 16:42:12 {'measurement': 'measName', 'fields': {'measV_HV2': -150.0, 'measI_HV2': -1.629093e-07, 'settV_HV2': -150.0, 'settI_HV2': 0.0}, 'tags': {'user': 'root'}}
2022-08-20 16:42:13 {'measurement': 'measName', 'fields': {'measV_HV2': -150.0, 'measI_HV2': -1.649531e-07, 'settV_HV2': -150.0, 'settI_HV2': 0.0}, 'tags': {'user': 'root'}}
2022-08-20 16:42:14 {'measurement': 'measName', 'fields': {'measV_HV2': -150.0, 'measI_HV2': -1.736989e-07, 'settV_HV2': -150.0, 'settI_HV2': 0.0}, 'tags': {'user': 'root'}}
2022-08-20 16:42:14 {'measurement': 'measName', 'fields': {'measV_HV2': -150.0, 'measI_HV2': -1.728285e-07, 'settV_HV2': -150.0, 'settI_HV2': 0.0}, 'tags': {'user': 'root'}}
2022-08-20 16:42:15 {'measurement': 'measName', 'fields': {'measV_HV2': -150.0, 'measI_HV2': -1.6414e-07, 'settV_HV2': -150.0, 'settI_HV2': 0.0}, 'tags': {'user': 'root'}}
2022-08-20 16:42:16 {'measurement': 'measName', 'fields': {'measV_HV2': -150.0, 'measI_HV2': -1.624603e-07, 'settV_HV2': -150.0, 'settI_HV2': 0.0}, 'tags': {'user': 'root'}}
2022-08-20 16:42:17 {'measurement': 'measName', 'fields': {'measV_HV2': -150.0, 'measI_HV2': -1.670703e-07, 'settV_HV2': -150.0, 'settI_HV2': 0.0}, 'tags': {'user': 'root'}}
2022-08-20 16:42:18 {'measurement': 'measName', 'fields': {'measV_HV2': -150.0, 'measI_HV2': -1.742348e-07, 'settV_HV2': -150.0, 'settI_HV2': 0.0}, 'tags': {'user': 'root'}}
2022-08-20 16:42:18 {'measurement': 'measName', 'fields': {'measV_HV2': -150.0, 'measI_HV2': -1.693169e-07, 'settV_HV2': -150.0, 'settI_HV2': 0.0}, 'tags': {'user': 'root'}}
2022-08-20 16:42:19 {'measurement': 'measName', 'fields': {'measV_HV2': -150.0, 'measI_HV2': -1.619342e-07, 'settV_HV2': -150.0, 'settI_HV2': 0.0}, 'tags': {'user': 'root'}}
2022-08-20 16:42:20 {'measurement': 'measName', 'fields': {'measV_HV2': -150.0, 'measI_HV2': -1.655834e-07, 'settV_HV2': -150.0, 'settI_HV2': 0.0}, 'tags': {'user': 'root'}}
2022-08-20 16:42:21 {'measurement': 'measName', 'fields': {'measV_HV2': -150.0, 'measI_HV2': -1.691282e-07, 'settV_HV2': -150.0, 'settI_HV2': 0.0}, 'tags': {'user': 'root'}}
2022-08-20 16:42:21 {'measurement': 'measName', 'fields': {'measV_HV2': -150.0, 'measI_HV2': -1.740566e-07, 'settV_HV2': -150.0, 'settI_HV2': 0.0}, 'tags': {'user': 'root'}}
2022-08-20 16:42:22 {'measurement': 'measName', 'fields': {'measV_HV2': -150.0, 'measI_HV2': -1.725612e-07, 'settV_HV2': -150.0, 'settI_HV2': 0.0}, 'tags': {'user': 'root'}}
2022-08-20 16:42:23 {'measurement': 'measName', 'fields': {'measV_HV2': -150.0, 'measI_HV2': -1.674005e-07, 'settV_HV2': -150.0, 'settI_HV2': 0.0}, 'tags': {'user': 'root'}}
2022-08-20 16:42:23 {'measurement': 'measName', 'fields': {'measV_HV2': -150.0, 'measI_HV2': -1.656676e-07, 'settV_HV2': -150.0, 'settI_HV2': 0.0}, 'tags': {'user': 'root'}}
2022-08-20 16:42:24 {'measurement': 'measName', 'fields': {'measV_HV2': -150.0, 'measI_HV2': -1.638357e-07, 'settV_HV2': -150.0, 'settI_HV2': 0.0}, 'tags': {'user': 'root'}}
2022-08-20 16:42:25 {'measurement': 'measName', 'fields': {'measV_HV2': -150.0, 'measI_HV2': -1.635601e-07, 'settV_HV2': -150.0, 'settI_HV2': 0.0}, 'tags': {'user': 'root'}}
2022-08-20 16:42:25 {'measurement': 'measName', 'fields': {'measV_HV2': -150.0, 'measI_HV2': -1.650207e-07, 'settV_HV2': -150.0, 'settI_HV2': 0.0}, 'tags': {'user': 'root'}}
2022-08-20 16:42:26 {'measurement': 'measName', 'fields': {'measV_HV2': -150.0, 'measI_HV2': -1.706157e-07, 'settV_HV2': -150.0, 'settI_HV2': 0.0}, 'tags': {'user': 'root'}}
2022-08-20 16:42:27 {'measurement': 'measName', 'fields': {'measV_HV2': -150.0, 'measI_HV2': -1.747615e-07, 'settV_HV2': -150.0, 'settI_HV2': 0.0}, 'tags': {'user': 'root'}}
2022-08-20 16:42:27 {'measurement': 'measName', 'fields': {'measV_HV2': -150.0, 'measI_HV2': -1.678044e-07, 'settV_HV2': -150.0, 'settI_HV2': 0.0}, 'tags': {'user': 'root'}}
2022-08-20 16:42:28 {'measurement': 'measName', 'fields': {'measV_HV2': -150.0, 'measI_HV2': -1.635454e-07, 'settV_HV2': -150.0, 'settI_HV2': 0.0}, 'tags': {'user': 'root'}}
2022-08-20 16:42:29 {'measurement': 'measName', 'fields': {'measV_HV2': -150.0, 'measI_HV2': -1.690815e-07, 'settV_HV2': -150.0, 'settI_HV2': 0.0}, 'tags': {'user': 'root'}}
2022-08-20 16:42:30 {'measurement': 'measName', 'fields': {'measV_HV2': -150.0, 'measI_HV2': -1.722417e-07, 'settV_HV2': -150.0, 'settI_HV2': 0.0}, 'tags': {'user': 'root'}}
2022-08-20 16:42:31 {'measurement': 'measName', 'fields': {'measV_HV2': -150.0, 'measI_HV2': -1.657052e-07, 'settV_HV2': -150.0, 'settI_HV2': 0.0}, 'tags': {'user': 'root'}}
2022-08-20 16:42:32 {'measurement': 'measName', 'fields': {'measV_HV2': -150.0, 'measI_HV2': -1.614638e-07, 'settV_HV2': -150.0, 'settI_HV2': 0.0}, 'tags': {'user': 'root'}}
2022-08-20 16:42:32 {'measurement': 'measName', 'fields': {'measV_HV2': -150.0, 'measI_HV2': -1.694548e-07, 'settV_HV2': -150.0, 'settI_HV2': 0.0}, 'tags': {'user': 'root'}}
2022-08-20 16:42:33 {'measurement': 'measName', 'fields': {'measV_HV2': -150.0, 'measI_HV2': -1.743769e-07, 'settV_HV2': -150.0, 'settI_HV2': 0.0}, 'tags': {'user': 'root'}}
2022-08-20 16:42:34 {'measurement': 'measName', 'fields': {'measV_HV2': -150.0, 'measI_HV2': -1.72985e-07, 'settV_HV2': -150.0, 'settI_HV2': 0.0}, 'tags': {'user': 'root'}}
2022-08-20 16:42:34 {'measurement': 'measName', 'fields': {'measV_HV2': -150.0, 'measI_HV2': -1.68015e-07, 'settV_HV2': -150.0, 'settI_HV2': 0.0}, 'tags': {'user': 'root'}}
2022-08-20 16:42:35 {'measurement': 'measName', 'fields': {'measV_HV2': -150.0, 'measI_HV2': -1.642714e-07, 'settV_HV2': -150.0, 'settI_HV2': 0.0}, 'tags': {'user': 'root'}}
2022-08-20 16:42:36 {'measurement': 'measName', 'fields': {'measV_HV2': -150.0, 'measI_HV2': -1.626615e-07, 'settV_HV2': -150.0, 'settI_HV2': 0.0}, 'tags': {'user': 'root'}}
2022-08-20 16:42:36 {'measurement': 'measName', 'fields': {'measV_HV2': -150.0, 'measI_HV2': -1.662107e-07, 'settV_HV2': -150.0, 'settI_HV2': 0.0}, 'tags': {'user': 'root'}}
2022-08-20 16:42:37 {'measurement': 'measName', 'fields': {'measV_HV2': -150.0, 'measI_HV2': -1.697187e-07, 'settV_HV2': -150.0, 'settI_HV2': 0.0}, 'tags': {'user': 'root'}}
2022-08-20 16:42:38 {'measurement': 'measName', 'fields': {'measV_HV2': -150.0, 'measI_HV2': -1.741704e-07, 'settV_HV2': -150.0, 'settI_HV2': 0.0}, 'tags': {'user': 'root'}}
2022-08-20 16:42:38 {'measurement': 'measName', 'fields': {'measV_HV2': -150.0, 'measI_HV2': -1.733922e-07, 'settV_HV2': -150.0, 'settI_HV2': 0.0}, 'tags': {'user': 'root'}}
2022-08-20 16:42:39 {'measurement': 'measName', 'fields': {'measV_HV2': -150.0, 'measI_HV2': -1.718869e-07, 'settV_HV2': -150.0, 'settI_HV2': 0.0}, 'tags': {'user': 'root'}}
2022-08-20 16:42:40 {'measurement': 'measName', 'fields': {'measV_HV2': -150.0, 'measI_HV2': -1.704733e-07, 'settV_HV2': -150.0, 'settI_HV2': 0.0}, 'tags': {'user': 'root'}}
2022-08-20 16:42:41 {'measurement': 'measName', 'fields': {'measV_HV2': -150.0, 'measI_HV2': -1.729461e-07, 'settV_HV2': -150.0, 'settI_HV2': 0.0}, 'tags': {'user': 'root'}}
2022-08-20 16:42:42 {'measurement': 'measName', 'fields': {'measV_HV2': -150.0, 'measI_HV2': -1.72503e-07, 'settV_HV2': -150.0, 'settI_HV2': 0.0}, 'tags': {'user': 'root'}}
2022-08-20 16:42:43 {'measurement': 'measName', 'fields': {'measV_HV2': -150.0, 'measI_HV2': -1.746751e-07, 'settV_HV2': -150.0, 'settI_HV2': 0.0}, 'tags': {'user': 'root'}}
2022-08-20 16:42:43 {'measurement': 'measName', 'fields': {'measV_HV2': -150.0, 'measI_HV2': -1.733725e-07, 'settV_HV2': -150.0, 'settI_HV2': 0.0}, 'tags': {'user': 'root'}}
2022-08-20 16:42:44 {'measurement': 'measName', 'fields': {'measV_HV2': -150.0, 'measI_HV2': -1.71946e-07, 'settV_HV2': -150.0, 'settI_HV2': 0.0}, 'tags': {'user': 'root'}}
2022-08-20 16:42:45 {'measurement': 'measName', 'fields': {'measV_HV2': -150.0, 'measI_HV2': -1.721456e-07, 'settV_HV2': -150.0, 'settI_HV2': 0.0}, 'tags': {'user': 'root'}}
2022-08-20 16:42:45 {'measurement': 'measName', 'fields': {'measV_HV2': -150.0, 'measI_HV2': -1.662654e-07, 'settV_HV2': -150.0, 'settI_HV2': 0.0}, 'tags': {'user': 'root'}}
2022-08-20 16:42:46 {'measurement': 'measName', 'fields': {'measV_HV2': -150.0, 'measI_HV2': -1.612676e-07, 'settV_HV2': -150.0, 'settI_HV2': 0.0}, 'tags': {'user': 'root'}}
2022-08-20 16:42:47 {'measurement': 'measName', 'fields': {'measV_HV2': -150.0, 'measI_HV2': -1.624106e-07, 'settV_HV2': -150.0, 'settI_HV2': 0.0}, 'tags': {'user': 'root'}}
2022-08-20 16:42:47 {'measurement': 'measName', 'fields': {'measV_HV2': -150.0, 'measI_HV2': -1.625802e-07, 'settV_HV2': -150.0, 'settI_HV2': 0.0}, 'tags': {'user': 'root'}}
2022-08-20 16:42:48 {'measurement': 'measName', 'fields': {'measV_HV2': -150.0, 'measI_HV2': -1.675005e-07, 'settV_HV2': -150.0, 'settI_HV2': 0.0}, 'tags': {'user': 'root'}}
2022-08-20 16:42:49 {'measurement': 'measName', 'fields': {'measV_HV2': -150.0, 'measI_HV2': -1.718788e-07, 'settV_HV2': -150.0, 'settI_HV2': 0.0}, 'tags': {'user': 'root'}}
2022-08-20 16:42:49 {'measurement': 'measName', 'fields': {'measV_HV2': -150.0, 'measI_HV2': -1.728209e-07, 'settV_HV2': -150.0, 'settI_HV2': 0.0}, 'tags': {'user': 'root'}}
2022-08-20 16:42:50 {'measurement': 'measName', 'fields': {'measV_HV2': -150.0, 'measI_HV2': -1.696073e-07, 'settV_HV2': -150.0, 'settI_HV2': 0.0}, 'tags': {'user': 'root'}}
2022-08-20 16:42:51 {'measurement': 'measName', 'fields': {'measV_HV2': -150.0, 'measI_HV2': -1.627003e-07, 'settV_HV2': -150.0, 'settI_HV2': 0.0}, 'tags': {'user': 'root'}}
2022-08-20 16:42:52 {'measurement': 'measName', 'fields': {'measV_HV2': -150.0, 'measI_HV2': -1.731543e-07, 'settV_HV2': -150.0, 'settI_HV2': 0.0}, 'tags': {'user': 'root'}}
2022-08-20 16:42:53 {'measurement': 'measName', 'fields': {'measV_HV2': -150.0, 'measI_HV2': -1.655285e-07, 'settV_HV2': -150.0, 'settI_HV2': 0.0}, 'tags': {'user': 'root'}}
2022-08-20 16:42:54 {'measurement': 'measName', 'fields': {'measV_HV2': -150.0, 'measI_HV2': -1.721877e-07, 'settV_HV2': -150.0, 'settI_HV2': 0.0}, 'tags': {'user': 'root'}}
2022-08-20 16:42:54 {'measurement': 'measName', 'fields': {'measV_HV2': -150.0, 'measI_HV2': -1.74082e-07, 'settV_HV2': -150.0, 'settI_HV2': 0.0}, 'tags': {'user': 'root'}}
2022-08-20 16:42:55 {'measurement': 'measName', 'fields': {'measV_HV2': -150.0, 'measI_HV2': -1.741661e-07, 'settV_HV2': -150.0, 'settI_HV2': 0.0}, 'tags': {'user': 'root'}}
2022-08-20 16:42:56 {'measurement': 'measName', 'fields': {'measV_HV2': -150.0, 'measI_HV2': -1.739735e-07, 'settV_HV2': -150.0, 'settI_HV2': 0.0}, 'tags': {'user': 'root'}}
2022-08-20 16:42:56 {'measurement': 'measName', 'fields': {'measV_HV2': -150.0, 'measI_HV2': -1.726165e-07, 'settV_HV2': -150.0, 'settI_HV2': 0.0}, 'tags': {'user': 'root'}}
2022-08-20 16:42:57 {'measurement': 'measName', 'fields': {'measV_HV2': -150.0, 'measI_HV2': -1.722981e-07, 'settV_HV2': -150.0, 'settI_HV2': 0.0}, 'tags': {'user': 'root'}}
2022-08-20 16:42:58 {'measurement': 'measName', 'fields': {'measV_HV2': -150.0, 'measI_HV2': -1.695678e-07, 'settV_HV2': -150.0, 'settI_HV2': 0.0}, 'tags': {'user': 'root'}}
2022-08-20 16:42:58 {'measurement': 'measName', 'fields': {'measV_HV2': -150.0, 'measI_HV2': -1.688061e-07, 'settV_HV2': -150.0, 'settI_HV2': 0.0}, 'tags': {'user': 'root'}}
2022-08-20 16:42:59 {'measurement': 'measName', 'fields': {'measV_HV2': -150.0, 'measI_HV2': -1.646311e-07, 'settV_HV2': -150.0, 'settI_HV2': 0.0}, 'tags': {'user': 'root'}}
2022-08-20 16:43:00 {'measurement': 'measName', 'fields': {'measV_HV2': -150.0, 'measI_HV2': -1.646058e-07, 'settV_HV2': -150.0, 'settI_HV2': 0.0}, 'tags': {'user': 'root'}}
2022-08-20 16:43:00 {'measurement': 'measName', 'fields': {'measV_HV2': -150.0, 'measI_HV2': -1.624421e-07, 'settV_HV2': -150.0, 'settI_HV2': 0.0}, 'tags': {'user': 'root'}}
2022-08-20 16:43:01 {'measurement': 'measName', 'fields': {'measV_HV2': -150.0, 'measI_HV2': -1.612178e-07, 'settV_HV2': -150.0, 'settI_HV2': 0.0}, 'tags': {'user': 'root'}}
2022-08-20 16:43:02 {'measurement': 'measName', 'fields': {'measV_HV2': -150.0, 'measI_HV2': -1.646447e-07, 'settV_HV2': -150.0, 'settI_HV2': 0.0}, 'tags': {'user': 'root'}}
2022-08-20 16:43:03 {'measurement': 'measName', 'fields': {'measV_HV2': -150.0, 'measI_HV2': -1.678205e-07, 'settV_HV2': -150.0, 'settI_HV2': 0.0}, 'tags': {'user': 'root'}}
2022-08-20 16:43:04 {'measurement': 'measName', 'fields': {'measV_HV2': -150.0, 'measI_HV2': -1.631233e-07, 'settV_HV2': -150.0, 'settI_HV2': 0.0}, 'tags': {'user': 'root'}}
2022-08-20 16:43:05 {'measurement': 'measName', 'fields': {'measV_HV2': -150.0, 'measI_HV2': -1.712803e-07, 'settV_HV2': -150.0, 'settI_HV2': 0.0}, 'tags': {'user': 'root'}}
2022-08-20 16:43:05 {'measurement': 'measName', 'fields': {'measV_HV2': -150.0, 'measI_HV2': -1.662073e-07, 'settV_HV2': -150.0, 'settI_HV2': 0.0}, 'tags': {'user': 'root'}}
2022-08-20 16:43:06 {'measurement': 'measName', 'fields': {'measV_HV2': -150.0, 'measI_HV2': -1.620376e-07, 'settV_HV2': -150.0, 'settI_HV2': 0.0}, 'tags': {'user': 'root'}}
2022-08-20 16:43:07 {'measurement': 'measName', 'fields': {'measV_HV2': -150.0, 'measI_HV2': -1.653909e-07, 'settV_HV2': -150.0, 'settI_HV2': 0.0}, 'tags': {'user': 'root'}}
2022-08-20 16:43:07 {'measurement': 'measName', 'fields': {'measV_HV2': -150.0, 'measI_HV2': -1.715869e-07, 'settV_HV2': -150.0, 'settI_HV2': 0.0}, 'tags': {'user': 'root'}}
2022-08-20 16:43:08 {'measurement': 'measName', 'fields': {'measV_HV2': -150.0, 'measI_HV2': -1.732168e-07, 'settV_HV2': -150.0, 'settI_HV2': 0.0}, 'tags': {'user': 'root'}}
2022-08-20 16:43:09 {'measurement': 'measName', 'fields': {'measV_HV2': -150.0, 'measI_HV2': -1.735997e-07, 'settV_HV2': -150.0, 'settI_HV2': 0.0}, 'tags': {'user': 'root'}}
2022-08-20 16:43:09 {'measurement': 'measName', 'fields': {'measV_HV2': -150.0, 'measI_HV2': -1.71905e-07, 'settV_HV2': -150.0, 'settI_HV2': 0.0}, 'tags': {'user': 'root'}}
2022-08-20 16:43:10 {'measurement': 'measName', 'fields': {'measV_HV2': -150.0, 'measI_HV2': -1.673484e-07, 'settV_HV2': -150.0, 'settI_HV2': 0.0}, 'tags': {'user': 'root'}}
2022-08-20 16:43:11 {'measurement': 'measName', 'fields': {'measV_HV2': -150.0, 'measI_HV2': -1.633118e-07, 'settV_HV2': -150.0, 'settI_HV2': 0.0}, 'tags': {'user': 'root'}}
2022-08-20 16:43:12 {'measurement': 'measName', 'fields': {'measV_HV2': -150.0, 'measI_HV2': -1.613228e-07, 'settV_HV2': -150.0, 'settI_HV2': 0.0}, 'tags': {'user': 'root'}}
2022-08-20 16:43:12 {'measurement': 'measName', 'fields': {'measV_HV2': -150.0, 'measI_HV2': -1.638355e-07, 'settV_HV2': -150.0, 'settI_HV2': 0.0}, 'tags': {'user': 'root'}}
2022-08-20 16:43:13 {'measurement': 'measName', 'fields': {'measV_HV2': -150.0, 'measI_HV2': -1.693654e-07, 'settV_HV2': -150.0, 'settI_HV2': 0.0}, 'tags': {'user': 'root'}}
2022-08-20 16:43:14 {'measurement': 'measName', 'fields': {'measV_HV2': -150.0, 'measI_HV2': -1.673013e-07, 'settV_HV2': -150.0, 'settI_HV2': 0.0}, 'tags': {'user': 'root'}}
