2022-08-20 17:24:52 {'measurement': 'measName', 'fields': {'measV_HV2': -150.0, 'measI_HV2': -7.174961e-08, 'settV_HV2': -150.0, 'settI_HV2': 0.0}, 'tags': {'user': 'root'}}
2022-08-20 17:24:53 {'measurement': 'measName', 'fields': {'measV_HV2': -150.0, 'measI_HV2': -7.005289e-08, 'settV_HV2': -150.0, 'settI_HV2': 0.0}, 'tags': {'user': 'root'}}
2022-08-20 17:24:54 {'measurement': 'measName', 'fields': {'measV_HV2': -150.0, 'measI_HV2': -6.860243e-08, 'settV_HV2': -150.0, 'settI_HV2': 0.0}, 'tags': {'user': 'root'}}
2022-08-20 17:24:54 {'measurement': 'measName', 'fields': {'measV_HV2': -150.0, 'measI_HV2': -6.47922e-08, 'settV_HV2': -150.0, 'settI_HV2': 0.0}, 'tags': {'user': 'root'}}
2022-08-20 17:24:55 {'measurement': 'measName', 'fields': {'measV_HV2': -150.0, 'measI_HV2': -5.971941e-08, 'settV_HV2': -150.0, 'settI_HV2': 0.0}, 'tags': {'user': 'root'}}
2022-08-20 17:24:56 {'measurement': 'measName', 'fields': {'measV_HV2': -150.0, 'measI_HV2': -6.491529e-08, 'settV_HV2': -150.0, 'settI_HV2': 0.0}, 'tags': {'user': 'root'}}
2022-08-20 17:24:57 {'measurement': 'measName', 'fields': {'measV_HV2': -150.0, 'measI_HV2': -6.534136e-08, 'settV_HV2': -150.0, 'settI_HV2': 0.0}, 'tags': {'user': 'root'}}
2022-08-20 17:24:58 {'measurement': 'measName', 'fields': {'measV_HV2': -150.0, 'measI_HV2': -7.137435e-08, 'settV_HV2': -150.0, 'settI_HV2': 0.0}, 'tags': {'user': 'root'}}
2022-08-20 17:24:58 {'measurement': 'measName', 'fields': {'measV_HV2': -150.0, 'measI_HV2': -6.659334e-08, 'settV_HV2': -150.0, 'settI_HV2': 0.0}, 'tags': {'user': 'root'}}
2022-08-20 17:24:59 {'measurement': 'measName', 'fields': {'measV_HV2': -150.0, 'measI_HV2': -6.099476e-08, 'settV_HV2': -150.0, 'settI_HV2': 0.0}, 'tags': {'user': 'root'}}
2022-08-20 17:25:00 {'measurement': 'measName', 'fields': {'measV_HV2': -150.0, 'measI_HV2': -5.874556e-08, 'settV_HV2': -150.0, 'settI_HV2': 0.0}, 'tags': {'user': 'root'}}
2022-08-20 17:25:00 {'measurement': 'measName', 'fields': {'measV_HV2': -150.0, 'measI_HV2': -5.866861e-08, 'settV_HV2': -150.0, 'settI_HV2': 0.0}, 'tags': {'user': 'root'}}
2022-08-20 17:25:01 {'measurement': 'measName', 'fields': {'measV_HV2': -150.0, 'measI_HV2': -6.203538e-08, 'settV_HV2': -150.0, 'settI_HV2': 0.0}, 'tags': {'user': 'root'}}
2022-08-20 17:25:02 {'measurement': 'measName', 'fields': {'measV_HV2': -150.0, 'measI_HV2': -6.735359e-08, 'settV_HV2': -150.0, 'settI_HV2': 0.0}, 'tags': {'user': 'root'}}
2022-08-20 17:25:03 {'measurement': 'measName', 'fields': {'measV_HV2': -150.0, 'measI_HV2': -6.950513e-08, 'settV_HV2': -150.0, 'settI_HV2': 0.0}, 'tags': {'user': 'root'}}
2022-08-20 17:25:03 {'measurement': 'measName', 'fields': {'measV_HV2': -150.0, 'measI_HV2': -7.064862e-08, 'settV_HV2': -150.0, 'settI_HV2': 0.0}, 'tags': {'user': 'root'}}
2022-08-20 17:25:04 {'measurement': 'measName', 'fields': {'measV_HV2': -150.0, 'measI_HV2': -7.107032e-08, 'settV_HV2': -150.0, 'settI_HV2': 0.0}, 'tags': {'user': 'root'}}
2022-08-20 17:25:05 {'measurement': 'measName', 'fields': {'measV_HV2': -150.0, 'measI_HV2': -6.948827e-08, 'settV_HV2': -150.0, 'settI_HV2': 0.0}, 'tags': {'user': 'root'}}
2022-08-20 17:25:05 {'measurement': 'measName', 'fields': {'measV_HV2': -150.0, 'measI_HV2': -7.082362e-08, 'settV_HV2': -150.0, 'settI_HV2': 0.0}, 'tags': {'user': 'root'}}
2022-08-20 17:25:06 {'measurement': 'measName', 'fields': {'measV_HV2': -150.0, 'measI_HV2': -6.979347e-08, 'settV_HV2': -150.0, 'settI_HV2': 0.0}, 'tags': {'user': 'root'}}
2022-08-20 17:25:07 {'measurement': 'measName', 'fields': {'measV_HV2': -150.0, 'measI_HV2': -6.785096e-08, 'settV_HV2': -150.0, 'settI_HV2': 0.0}, 'tags': {'user': 'root'}}
2022-08-20 17:25:08 {'measurement': 'measName', 'fields': {'measV_HV2': -150.0, 'measI_HV2': -6.510754e-08, 'settV_HV2': -150.0, 'settI_HV2': 0.0}, 'tags': {'user': 'root'}}
2022-08-20 17:25:09 {'measurement': 'measName', 'fields': {'measV_HV2': -150.0, 'measI_HV2': -6.928997e-08, 'settV_HV2': -150.0, 'settI_HV2': 0.0}, 'tags': {'user': 'root'}}
2022-08-20 17:25:09 {'measurement': 'measName', 'fields': {'measV_HV2': -150.0, 'measI_HV2': -6.787685e-08, 'settV_HV2': -150.0, 'settI_HV2': 0.0}, 'tags': {'user': 'root'}}
2022-08-20 17:25:10 {'measurement': 'measName', 'fields': {'measV_HV2': -150.0, 'measI_HV2': -7.071955e-08, 'settV_HV2': -150.0, 'settI_HV2': 0.0}, 'tags': {'user': 'root'}}
2022-08-20 17:25:11 {'measurement': 'measName', 'fields': {'measV_HV2': -150.0, 'measI_HV2': -6.943619e-08, 'settV_HV2': -150.0, 'settI_HV2': 0.0}, 'tags': {'user': 'root'}}
2022-08-20 17:25:11 {'measurement': 'measName', 'fields': {'measV_HV2': -150.0, 'measI_HV2': -6.977739e-08, 'settV_HV2': -150.0, 'settI_HV2': 0.0}, 'tags': {'user': 'root'}}
2022-08-20 17:25:12 {'measurement': 'measName', 'fields': {'measV_HV2': -150.0, 'measI_HV2': -6.748007e-08, 'settV_HV2': -150.0, 'settI_HV2': 0.0}, 'tags': {'user': 'root'}}
2022-08-20 17:25:13 {'measurement': 'measName', 'fields': {'measV_HV2': -150.0, 'measI_HV2': -6.591725e-08, 'settV_HV2': -150.0, 'settI_HV2': 0.0}, 'tags': {'user': 'root'}}
2022-08-20 17:25:14 {'measurement': 'measName', 'fields': {'measV_HV2': -150.0, 'measI_HV2': -5.906855e-08, 'settV_HV2': -150.0, 'settI_HV2': 0.0}, 'tags': {'user': 'root'}}
2022-08-20 17:25:14 {'measurement': 'measName', 'fields': {'measV_HV2': -150.0, 'measI_HV2': -5.852014e-08, 'settV_HV2': -150.0, 'settI_HV2': 0.0}, 'tags': {'user': 'root'}}
2022-08-20 17:25:15 {'measurement': 'measName', 'fields': {'measV_HV2': -150.0, 'measI_HV2': -5.826014e-08, 'settV_HV2': -150.0, 'settI_HV2': 0.0}, 'tags': {'user': 'root'}}
2022-08-20 17:25:16 {'measurement': 'measName', 'fields': {'measV_HV2': -150.0, 'measI_HV2': -5.835979e-08, 'settV_HV2': -150.0, 'settI_HV2': 0.0}, 'tags': {'user': 'root'}}
2022-08-20 17:25:16 {'measurement': 'measName', 'fields': {'measV_HV2': -150.0, 'measI_HV2': -5.859985e-08, 'settV_HV2': -150.0, 'settI_HV2': 0.0}, 'tags': {'user': 'root'}}
2022-08-20 17:25:17 {'measurement': 'measName', 'fields': {'measV_HV2': -150.0, 'measI_HV2': -5.830675e-08, 'settV_HV2': -150.0, 'settI_HV2': 0.0}, 'tags': {'user': 'root'}}
2022-08-20 17:25:18 {'measurement': 'measName', 'fields': {'measV_HV2': -150.0, 'measI_HV2': -5.90987e-08, 'settV_HV2': -150.0, 'settI_HV2': 0.0}, 'tags': {'user': 'root'}}
2022-08-20 17:25:18 {'measurement': 'measName', 'fields': {'measV_HV2': -150.0, 'measI_HV2': -6.01801e-08, 'settV_HV2': -150.0, 'settI_HV2': 0.0}, 'tags': {'user': 'root'}}
2022-08-20 17:25:20 {'measurement': 'measName', 'fields': {'measV_HV2': -150.0, 'measI_HV2': -6.117377e-08, 'settV_HV2': -150.0, 'settI_HV2': 0.0}, 'tags': {'user': 'root'}}
2022-08-20 17:25:20 {'measurement': 'measName', 'fields': {'measV_HV2': -150.0, 'measI_HV2': -6.62469e-08, 'settV_HV2': -150.0, 'settI_HV2': 0.0}, 'tags': {'user': 'root'}}
2022-08-20 17:25:21 {'measurement': 'measName', 'fields': {'measV_HV2': -150.0, 'measI_HV2': -6.883626e-08, 'settV_HV2': -150.0, 'settI_HV2': 0.0}, 'tags': {'user': 'root'}}
2022-08-20 17:25:22 {'measurement': 'measName', 'fields': {'measV_HV2': -150.0, 'measI_HV2': -6.948051e-08, 'settV_HV2': -150.0, 'settI_HV2': 0.0}, 'tags': {'user': 'root'}}
2022-08-20 17:25:22 {'measurement': 'measName', 'fields': {'measV_HV2': -150.0, 'measI_HV2': -6.87829e-08, 'settV_HV2': -150.0, 'settI_HV2': 0.0}, 'tags': {'user': 'root'}}
2022-08-20 17:25:23 {'measurement': 'measName', 'fields': {'measV_HV2': -150.0, 'measI_HV2': -6.047727e-08, 'settV_HV2': -150.0, 'settI_HV2': 0.0}, 'tags': {'user': 'root'}}
2022-08-20 17:25:24 {'measurement': 'measName', 'fields': {'measV_HV2': -150.0, 'measI_HV2': -6.038676e-08, 'settV_HV2': -150.0, 'settI_HV2': 0.0}, 'tags': {'user': 'root'}}
2022-08-20 17:25:25 {'measurement': 'measName', 'fields': {'measV_HV2': -150.0, 'measI_HV2': -5.796229e-08, 'settV_HV2': -150.0, 'settI_HV2': 0.0}, 'tags': {'user': 'root'}}
2022-08-20 17:25:25 {'measurement': 'measName', 'fields': {'measV_HV2': -150.0, 'measI_HV2': -6.015818e-08, 'settV_HV2': -150.0, 'settI_HV2': 0.0}, 'tags': {'user': 'root'}}
2022-08-20 17:25:26 {'measurement': 'measName', 'fields': {'measV_HV2': -150.0, 'measI_HV2': -5.951647e-08, 'settV_HV2': -150.0, 'settI_HV2': 0.0}, 'tags': {'user': 'root'}}
2022-08-20 17:25:27 {'measurement': 'measName', 'fields': {'measV_HV2': -150.0, 'measI_HV2': -5.903217e-08, 'settV_HV2': -150.0, 'settI_HV2': 0.0}, 'tags': {'user': 'root'}}
2022-08-20 17:25:27 {'measurement': 'measName', 'fields': {'measV_HV2': -150.0, 'measI_HV2': -5.965755e-08, 'settV_HV2': -150.0, 'settI_HV2': 0.0}, 'tags': {'user': 'root'}}
2022-08-20 17:25:28 {'measurement': 'measName', 'fields': {'measV_HV2': -150.0, 'measI_HV2': -5.802218e-08, 'settV_HV2': -150.0, 'settI_HV2': 0.0}, 'tags': {'user': 'root'}}
2022-08-20 17:25:29 {'measurement': 'measName', 'fields': {'measV_HV2': -150.0, 'measI_HV2': -5.889462e-08, 'settV_HV2': -150.0, 'settI_HV2': 0.0}, 'tags': {'user': 'root'}}
2022-08-20 17:25:29 {'measurement': 'measName', 'fields': {'measV_HV2': -150.0, 'measI_HV2': -5.91887e-08, 'settV_HV2': -150.0, 'settI_HV2': 0.0}, 'tags': {'user': 'root'}}
2022-08-20 17:25:30 {'measurement': 'measName', 'fields': {'measV_HV2': -150.0, 'measI_HV2': -6.58742e-08, 'settV_HV2': -150.0, 'settI_HV2': 0.0}, 'tags': {'user': 'root'}}
2022-08-20 17:25:31 {'measurement': 'measName', 'fields': {'measV_HV2': -150.0, 'measI_HV2': -6.949603e-08, 'settV_HV2': -150.0, 'settI_HV2': 0.0}, 'tags': {'user': 'root'}}
2022-08-20 17:25:32 {'measurement': 'measName', 'fields': {'measV_HV2': -150.0, 'measI_HV2': -6.992199e-08, 'settV_HV2': -150.0, 'settI_HV2': 0.0}, 'tags': {'user': 'root'}}
2022-08-20 17:25:33 {'measurement': 'measName', 'fields': {'measV_HV2': -150.0, 'measI_HV2': -7.011658e-08, 'settV_HV2': -150.0, 'settI_HV2': 0.0}, 'tags': {'user': 'root'}}
2022-08-20 17:25:33 {'measurement': 'measName', 'fields': {'measV_HV2': -150.0, 'measI_HV2': -6.835648e-08, 'settV_HV2': -150.0, 'settI_HV2': 0.0}, 'tags': {'user': 'root'}}
2022-08-20 17:25:34 {'measurement': 'measName', 'fields': {'measV_HV2': -150.0, 'measI_HV2': -6.563419e-08, 'settV_HV2': -150.0, 'settI_HV2': 0.0}, 'tags': {'user': 'root'}}
2022-08-20 17:25:35 {'measurement': 'measName', 'fields': {'measV_HV2': -150.0, 'measI_HV2': -5.847755e-08, 'settV_HV2': -150.0, 'settI_HV2': 0.0}, 'tags': {'user': 'root'}}
2022-08-20 17:25:35 {'measurement': 'measName', 'fields': {'measV_HV2': -150.0, 'measI_HV2': -5.884717e-08, 'settV_HV2': -150.0, 'settI_HV2': 0.0}, 'tags': {'user': 'root'}}
2022-08-20 17:25:36 {'measurement': 'measName', 'fields': {'measV_HV2': -150.0, 'measI_HV2': -5.746682e-08, 'settV_HV2': -150.0, 'settI_HV2': 0.0}, 'tags': {'user': 'root'}}
2022-08-20 17:25:37 {'measurement': 'measName', 'fields': {'measV_HV2': -150.0, 'measI_HV2': -5.864376e-08, 'settV_HV2': -150.0, 'settI_HV2': 0.0}, 'tags': {'user': 'root'}}
2022-08-20 17:25:38 {'measurement': 'measName', 'fields': {'measV_HV2': -150.0, 'measI_HV2': -5.762709e-08, 'settV_HV2': -150.0, 'settI_HV2': 0.0}, 'tags': {'user': 'root'}}
2022-08-20 17:25:38 {'measurement': 'measName', 'fields': {'measV_HV2': -150.0, 'measI_HV2': -5.877074e-08, 'settV_HV2': -150.0, 'settI_HV2': 0.0}, 'tags': {'user': 'root'}}
2022-08-20 17:25:39 {'measurement': 'measName', 'fields': {'measV_HV2': -150.0, 'measI_HV2': -5.868767e-08, 'settV_HV2': -150.0, 'settI_HV2': 0.0}, 'tags': {'user': 'root'}}
2022-08-20 17:25:40 {'measurement': 'measName', 'fields': {'measV_HV2': -150.0, 'measI_HV2': -6.225505e-08, 'settV_HV2': -150.0, 'settI_HV2': 0.0}, 'tags': {'user': 'root'}}
2022-08-20 17:25:40 {'measurement': 'measName', 'fields': {'measV_HV2': -150.0, 'measI_HV2': -6.420871e-08, 'settV_HV2': -150.0, 'settI_HV2': 0.0}, 'tags': {'user': 'root'}}
2022-08-20 17:25:41 {'measurement': 'measName', 'fields': {'measV_HV2': -150.0, 'measI_HV2': -6.654117e-08, 'settV_HV2': -150.0, 'settI_HV2': 0.0}, 'tags': {'user': 'root'}}
2022-08-20 17:25:42 {'measurement': 'measName', 'fields': {'measV_HV2': -150.0, 'measI_HV2': -7.003015e-08, 'settV_HV2': -150.0, 'settI_HV2': 0.0}, 'tags': {'user': 'root'}}
2022-08-20 17:25:43 {'measurement': 'measName', 'fields': {'measV_HV2': -150.0, 'measI_HV2': -5.811635e-08, 'settV_HV2': -150.0, 'settI_HV2': 0.0}, 'tags': {'user': 'root'}}
2022-08-20 17:25:44 {'measurement': 'measName', 'fields': {'measV_HV2': -150.0, 'measI_HV2': -6.650736e-08, 'settV_HV2': -150.0, 'settI_HV2': 0.0}, 'tags': {'user': 'root'}}
2022-08-20 17:25:45 {'measurement': 'measName', 'fields': {'measV_HV2': -150.0, 'measI_HV2': -6.95053e-08, 'settV_HV2': -150.0, 'settI_HV2': 0.0}, 'tags': {'user': 'root'}}
2022-08-20 17:25:45 {'measurement': 'measName', 'fields': {'measV_HV2': -150.0, 'measI_HV2': -6.658273e-08, 'settV_HV2': -150.0, 'settI_HV2': 0.0}, 'tags': {'user': 'root'}}
2022-08-20 17:25:46 {'measurement': 'measName', 'fields': {'measV_HV2': -150.0, 'measI_HV2': -6.027406e-08, 'settV_HV2': -150.0, 'settI_HV2': 0.0}, 'tags': {'user': 'root'}}
2022-08-20 17:25:47 {'measurement': 'measName', 'fields': {'measV_HV2': -150.0, 'measI_HV2': -5.905934e-08, 'settV_HV2': -150.0, 'settI_HV2': 0.0}, 'tags': {'user': 'root'}}
2022-08-20 17:25:47 {'measurement': 'measName', 'fields': {'measV_HV2': -150.0, 'measI_HV2': -6.12034e-08, 'settV_HV2': -150.0, 'settI_HV2': 0.0}, 'tags': {'user': 'root'}}
2022-08-20 17:25:48 {'measurement': 'measName', 'fields': {'measV_HV2': -150.0, 'measI_HV2': -6.822425e-08, 'settV_HV2': -150.0, 'settI_HV2': 0.0}, 'tags': {'user': 'root'}}
2022-08-20 17:25:49 {'measurement': 'measName', 'fields': {'measV_HV2': -150.0, 'measI_HV2': -7.058632e-08, 'settV_HV2': -150.0, 'settI_HV2': 0.0}, 'tags': {'user': 'root'}}
2022-08-20 17:25:49 {'measurement': 'measName', 'fields': {'measV_HV2': -150.0, 'measI_HV2': -6.506788e-08, 'settV_HV2': -150.0, 'settI_HV2': 0.0}, 'tags': {'user': 'root'}}
2022-08-20 17:25:50 {'measurement': 'measName', 'fields': {'measV_HV2': -150.0, 'measI_HV2': -6.224136e-08, 'settV_HV2': -150.0, 'settI_HV2': 0.0}, 'tags': {'user': 'root'}}
2022-08-20 17:25:51 {'measurement': 'measName', 'fields': {'measV_HV2': -150.0, 'measI_HV2': -6.113942e-08, 'settV_HV2': -150.0, 'settI_HV2': 0.0}, 'tags': {'user': 'root'}}
2022-08-20 17:25:51 {'measurement': 'measName', 'fields': {'measV_HV2': -150.0, 'measI_HV2': -5.796261e-08, 'settV_HV2': -150.0, 'settI_HV2': 0.0}, 'tags': {'user': 'root'}}
2022-08-20 17:25:52 {'measurement': 'measName', 'fields': {'measV_HV2': -150.0, 'measI_HV2': -5.84967e-08, 'settV_HV2': -150.0, 'settI_HV2': 0.0}, 'tags': {'user': 'root'}}
2022-08-20 17:25:53 {'measurement': 'measName', 'fields': {'measV_HV2': -150.0, 'measI_HV2': -5.845424e-08, 'settV_HV2': -150.0, 'settI_HV2': 0.0}, 'tags': {'user': 'root'}}
2022-08-20 17:25:54 {'measurement': 'measName', 'fields': {'measV_HV2': -150.0, 'measI_HV2': -6.931442e-08, 'settV_HV2': -150.0, 'settI_HV2': 0.0}, 'tags': {'user': 'root'}}
2022-08-20 17:25:55 {'measurement': 'measName', 'fields': {'measV_HV2': -150.0, 'measI_HV2': -6.964302e-08, 'settV_HV2': -150.0, 'settI_HV2': 0.0}, 'tags': {'user': 'root'}}
2022-08-20 17:25:55 {'measurement': 'measName', 'fields': {'measV_HV2': -150.0, 'measI_HV2': -6.452563e-08, 'settV_HV2': -150.0, 'settI_HV2': 0.0}, 'tags': {'user': 'root'}}
2022-08-20 17:25:56 {'measurement': 'measName', 'fields': {'measV_HV2': -150.0, 'measI_HV2': -6.479952e-08, 'settV_HV2': -150.0, 'settI_HV2': 0.0}, 'tags': {'user': 'root'}}
2022-08-20 17:25:57 {'measurement': 'measName', 'fields': {'measV_HV2': -150.0, 'measI_HV2': -6.761138e-08, 'settV_HV2': -150.0, 'settI_HV2': 0.0}, 'tags': {'user': 'root'}}
2022-08-20 17:25:58 {'measurement': 'measName', 'fields': {'measV_HV2': -150.0, 'measI_HV2': -6.974579e-08, 'settV_HV2': -150.0, 'settI_HV2': 0.0}, 'tags': {'user': 'root'}}
2022-08-20 17:25:58 {'measurement': 'measName', 'fields': {'measV_HV2': -150.0, 'measI_HV2': -6.811121e-08, 'settV_HV2': -150.0, 'settI_HV2': 0.0}, 'tags': {'user': 'root'}}
2022-08-20 17:25:59 {'measurement': 'measName', 'fields': {'measV_HV2': -150.0, 'measI_HV2': -6.135954e-08, 'settV_HV2': -150.0, 'settI_HV2': 0.0}, 'tags': {'user': 'root'}}
2022-08-20 17:26:00 {'measurement': 'measName', 'fields': {'measV_HV2': -150.0, 'measI_HV2': -6.061612e-08, 'settV_HV2': -150.0, 'settI_HV2': 0.0}, 'tags': {'user': 'root'}}
2022-08-20 17:26:00 {'measurement': 'measName', 'fields': {'measV_HV2': -150.0, 'measI_HV2': -6.483634e-08, 'settV_HV2': -150.0, 'settI_HV2': 0.0}, 'tags': {'user': 'root'}}
2022-08-20 17:26:01 {'measurement': 'measName', 'fields': {'measV_HV2': -150.0, 'measI_HV2': -6.878626e-08, 'settV_HV2': -150.0, 'settI_HV2': 0.0}, 'tags': {'user': 'root'}}
2022-08-20 17:26:02 {'measurement': 'measName', 'fields': {'measV_HV2': -150.0, 'measI_HV2': -6.989453e-08, 'settV_HV2': -150.0, 'settI_HV2': 0.0}, 'tags': {'user': 'root'}}
2022-08-20 17:26:02 {'measurement': 'measName', 'fields': {'measV_HV2': -150.0, 'measI_HV2': -6.631197e-08, 'settV_HV2': -150.0, 'settI_HV2': 0.0}, 'tags': {'user': 'root'}}
2022-08-20 17:26:03 {'measurement': 'measName', 'fields': {'measV_HV2': -150.0, 'measI_HV2': -6.001929e-08, 'settV_HV2': -150.0, 'settI_HV2': 0.0}, 'tags': {'user': 'root'}}
2022-08-20 17:26:04 {'measurement': 'measName', 'fields': {'measV_HV2': -150.0, 'measI_HV2': -5.803521e-08, 'settV_HV2': -150.0, 'settI_HV2': 0.0}, 'tags': {'user': 'root'}}
2022-08-20 17:26:04 {'measurement': 'measName', 'fields': {'measV_HV2': -150.0, 'measI_HV2': -6.333382e-08, 'settV_HV2': -150.0, 'settI_HV2': 0.0}, 'tags': {'user': 'root'}}
2022-08-20 17:26:05 {'measurement': 'measName', 'fields': {'measV_HV2': -150.0, 'measI_HV2': -6.354541e-08, 'settV_HV2': -150.0, 'settI_HV2': 0.0}, 'tags': {'user': 'root'}}
2022-08-20 17:26:06 {'measurement': 'measName', 'fields': {'measV_HV2': -150.0, 'measI_HV2': -6.223985e-08, 'settV_HV2': -150.0, 'settI_HV2': 0.0}, 'tags': {'user': 'root'}}
2022-08-20 17:26:07 {'measurement': 'measName', 'fields': {'measV_HV2': -150.0, 'measI_HV2': -6.015718e-08, 'settV_HV2': -150.0, 'settI_HV2': 0.0}, 'tags': {'user': 'root'}}
2022-08-20 17:26:08 {'measurement': 'measName', 'fields': {'measV_HV2': -150.0, 'measI_HV2': -5.995711e-08, 'settV_HV2': -150.0, 'settI_HV2': 0.0}, 'tags': {'user': 'root'}}
2022-08-20 17:26:09 {'measurement': 'measName', 'fields': {'measV_HV2': -150.0, 'measI_HV2': -5.923982e-08, 'settV_HV2': -150.0, 'settI_HV2': 0.0}, 'tags': {'user': 'root'}}
2022-08-20 17:26:09 {'measurement': 'measName', 'fields': {'measV_HV2': -150.0, 'measI_HV2': -6.361416e-08, 'settV_HV2': -150.0, 'settI_HV2': 0.0}, 'tags': {'user': 'root'}}
2022-08-20 17:26:10 {'measurement': 'measName', 'fields': {'measV_HV2': -150.0, 'measI_HV2': -6.649689e-08, 'settV_HV2': -150.0, 'settI_HV2': 0.0}, 'tags': {'user': 'root'}}
2022-08-20 17:26:11 {'measurement': 'measName', 'fields': {'measV_HV2': -150.0, 'measI_HV2': -7.073549e-08, 'settV_HV2': -150.0, 'settI_HV2': 0.0}, 'tags': {'user': 'root'}}
2022-08-20 17:26:11 {'measurement': 'measName', 'fields': {'measV_HV2': -150.0, 'measI_HV2': -6.682819e-08, 'settV_HV2': -150.0, 'settI_HV2': 0.0}, 'tags': {'user': 'root'}}
2022-08-20 17:26:12 {'measurement': 'measName', 'fields': {'measV_HV2': -150.0, 'measI_HV2': -6.655051e-08, 'settV_HV2': -150.0, 'settI_HV2': 0.0}, 'tags': {'user': 'root'}}
2022-08-20 17:26:13 {'measurement': 'measName', 'fields': {'measV_HV2': -150.0, 'measI_HV2': -6.365517e-08, 'settV_HV2': -150.0, 'settI_HV2': 0.0}, 'tags': {'user': 'root'}}
2022-08-20 17:26:13 {'measurement': 'measName', 'fields': {'measV_HV2': -150.0, 'measI_HV2': -6.322743e-08, 'settV_HV2': -150.0, 'settI_HV2': 0.0}, 'tags': {'user': 'root'}}
2022-08-20 17:26:14 {'measurement': 'measName', 'fields': {'measV_HV2': -150.0, 'measI_HV2': -6.364028e-08, 'settV_HV2': -150.0, 'settI_HV2': 0.0}, 'tags': {'user': 'root'}}
2022-08-20 17:26:15 {'measurement': 'measName', 'fields': {'measV_HV2': -150.0, 'measI_HV2': -6.474364e-08, 'settV_HV2': -150.0, 'settI_HV2': 0.0}, 'tags': {'user': 'root'}}
2022-08-20 17:26:15 {'measurement': 'measName', 'fields': {'measV_HV2': -150.0, 'measI_HV2': -6.250974e-08, 'settV_HV2': -150.0, 'settI_HV2': 0.0}, 'tags': {'user': 'root'}}
2022-08-20 17:26:16 {'measurement': 'measName', 'fields': {'measV_HV2': -150.0, 'measI_HV2': -6.180445e-08, 'settV_HV2': -150.0, 'settI_HV2': 0.0}, 'tags': {'user': 'root'}}
2022-08-20 17:26:17 {'measurement': 'measName', 'fields': {'measV_HV2': -150.0, 'measI_HV2': -6.006691e-08, 'settV_HV2': -150.0, 'settI_HV2': 0.0}, 'tags': {'user': 'root'}}
2022-08-20 17:26:18 {'measurement': 'measName', 'fields': {'measV_HV2': -150.0, 'measI_HV2': -6.373089e-08, 'settV_HV2': -150.0, 'settI_HV2': 0.0}, 'tags': {'user': 'root'}}
2022-08-20 17:26:19 {'measurement': 'measName', 'fields': {'measV_HV2': -150.0, 'measI_HV2': -5.838113e-08, 'settV_HV2': -150.0, 'settI_HV2': 0.0}, 'tags': {'user': 'root'}}
2022-08-20 17:26:19 {'measurement': 'measName', 'fields': {'measV_HV2': -150.0, 'measI_HV2': -5.736961e-08, 'settV_HV2': -150.0, 'settI_HV2': 0.0}, 'tags': {'user': 'root'}}
2022-08-20 17:26:20 {'measurement': 'measName', 'fields': {'measV_HV2': -150.0, 'measI_HV2': -5.913019e-08, 'settV_HV2': -150.0, 'settI_HV2': 0.0}, 'tags': {'user': 'root'}}
2022-08-20 17:26:21 {'measurement': 'measName', 'fields': {'measV_HV2': -150.0, 'measI_HV2': -6.100355e-08, 'settV_HV2': -150.0, 'settI_HV2': 0.0}, 'tags': {'user': 'root'}}
2022-08-20 17:26:22 {'measurement': 'measName', 'fields': {'measV_HV2': -150.0, 'measI_HV2': -6.616028e-08, 'settV_HV2': -150.0, 'settI_HV2': 0.0}, 'tags': {'user': 'root'}}
2022-08-20 17:26:22 {'measurement': 'measName', 'fields': {'measV_HV2': -150.0, 'measI_HV2': -7.06159e-08, 'settV_HV2': -150.0, 'settI_HV2': 0.0}, 'tags': {'user': 'root'}}
2022-08-20 17:26:23 {'measurement': 'measName', 'fields': {'measV_HV2': -150.0, 'measI_HV2': -6.589296e-08, 'settV_HV2': -150.0, 'settI_HV2': 0.0}, 'tags': {'user': 'root'}}
2022-08-20 17:26:24 {'measurement': 'measName', 'fields': {'measV_HV2': -150.0, 'measI_HV2': -6.132098e-08, 'settV_HV2': -150.0, 'settI_HV2': 0.0}, 'tags': {'user': 'root'}}
2022-08-20 17:26:24 {'measurement': 'measName', 'fields': {'measV_HV2': -150.0, 'measI_HV2': -5.963208e-08, 'settV_HV2': -150.0, 'settI_HV2': 0.0}, 'tags': {'user': 'root'}}
2022-08-20 17:26:25 {'measurement': 'measName', 'fields': {'measV_HV2': -150.0, 'measI_HV2': -5.845544e-08, 'settV_HV2': -150.0, 'settI_HV2': 0.0}, 'tags': {'user': 'root'}}
2022-08-20 17:26:26 {'measurement': 'measName', 'fields': {'measV_HV2': -150.0, 'measI_HV2': -6.008241e-08, 'settV_HV2': -150.0, 'settI_HV2': 0.0}, 'tags': {'user': 'root'}}
2022-08-20 17:26:26 {'measurement': 'measName', 'fields': {'measV_HV2': -150.0, 'measI_HV2': -6.236689e-08, 'settV_HV2': -150.0, 'settI_HV2': 0.0}, 'tags': {'user': 'root'}}
2022-08-20 17:26:27 {'measurement': 'measName', 'fields': {'measV_HV2': -150.0, 'measI_HV2': -6.52562e-08, 'settV_HV2': -150.0, 'settI_HV2': 0.0}, 'tags': {'user': 'root'}}
2022-08-20 17:26:28 {'measurement': 'measName', 'fields': {'measV_HV2': -150.0, 'measI_HV2': -6.903253e-08, 'settV_HV2': -150.0, 'settI_HV2': 0.0}, 'tags': {'user': 'root'}}
2022-08-20 17:26:29 {'measurement': 'measName', 'fields': {'measV_HV2': -150.0, 'measI_HV2': -6.660581e-08, 'settV_HV2': -150.0, 'settI_HV2': 0.0}, 'tags': {'user': 'root'}}
2022-08-20 17:26:30 {'measurement': 'measName', 'fields': {'measV_HV2': -150.0, 'measI_HV2': -5.882614e-08, 'settV_HV2': -150.0, 'settI_HV2': 0.0}, 'tags': {'user': 'root'}}
2022-08-20 17:26:31 {'measurement': 'measName', 'fields': {'measV_HV2': -150.0, 'measI_HV2': -6.797412e-08, 'settV_HV2': -150.0, 'settI_HV2': 0.0}, 'tags': {'user': 'root'}}
2022-08-20 17:26:31 {'measurement': 'measName', 'fields': {'measV_HV2': -150.0, 'measI_HV2': -7.040358e-08, 'settV_HV2': -150.0, 'settI_HV2': 0.0}, 'tags': {'user': 'root'}}
2022-08-20 17:26:32 {'measurement': 'measName', 'fields': {'measV_HV2': -150.0, 'measI_HV2': -6.693816e-08, 'settV_HV2': -150.0, 'settI_HV2': 0.0}, 'tags': {'user': 'root'}}
2022-08-20 17:26:33 {'measurement': 'measName', 'fields': {'measV_HV2': -150.0, 'measI_HV2': -6.436719e-08, 'settV_HV2': -150.0, 'settI_HV2': 0.0}, 'tags': {'user': 'root'}}
2022-08-20 17:26:33 {'measurement': 'measName', 'fields': {'measV_HV2': -150.0, 'measI_HV2': -6.409205e-08, 'settV_HV2': -150.0, 'settI_HV2': 0.0}, 'tags': {'user': 'root'}}
2022-08-20 17:26:34 {'measurement': 'measName', 'fields': {'measV_HV2': -150.0, 'measI_HV2': -6.091642e-08, 'settV_HV2': -150.0, 'settI_HV2': 0.0}, 'tags': {'user': 'root'}}
2022-08-20 17:26:35 {'measurement': 'measName', 'fields': {'measV_HV2': -150.0, 'measI_HV2': -5.896866e-08, 'settV_HV2': -150.0, 'settI_HV2': 0.0}, 'tags': {'user': 'root'}}
2022-08-20 17:26:35 {'measurement': 'measName', 'fields': {'measV_HV2': -150.0, 'measI_HV2': -6.018962e-08, 'settV_HV2': -150.0, 'settI_HV2': 0.0}, 'tags': {'user': 'root'}}
2022-08-20 17:26:36 {'measurement': 'measName', 'fields': {'measV_HV2': -150.0, 'measI_HV2': -5.794038e-08, 'settV_HV2': -150.0, 'settI_HV2': 0.0}, 'tags': {'user': 'root'}}
2022-08-20 17:26:37 {'measurement': 'measName', 'fields': {'measV_HV2': -150.0, 'measI_HV2': -5.726126e-08, 'settV_HV2': -150.0, 'settI_HV2': 0.0}, 'tags': {'user': 'root'}}
2022-08-20 17:26:37 {'measurement': 'measName', 'fields': {'measV_HV2': -150.0, 'measI_HV2': -6.188731e-08, 'settV_HV2': -150.0, 'settI_HV2': 0.0}, 'tags': {'user': 'root'}}
2022-08-20 17:26:38 {'measurement': 'measName', 'fields': {'measV_HV2': -150.0, 'measI_HV2': -6.695537e-08, 'settV_HV2': -150.0, 'settI_HV2': 0.0}, 'tags': {'user': 'root'}}
2022-08-20 17:26:39 {'measurement': 'measName', 'fields': {'measV_HV2': -150.0, 'measI_HV2': -6.906701e-08, 'settV_HV2': -150.0, 'settI_HV2': 0.0}, 'tags': {'user': 'root'}}
2022-08-20 17:26:40 {'measurement': 'measName', 'fields': {'measV_HV2': -150.0, 'measI_HV2': -6.522109e-08, 'settV_HV2': -150.0, 'settI_HV2': 0.0}, 'tags': {'user': 'root'}}
2022-08-20 17:26:41 {'measurement': 'measName', 'fields': {'measV_HV2': -150.0, 'measI_HV2': -6.67532e-08, 'settV_HV2': -150.0, 'settI_HV2': 0.0}, 'tags': {'user': 'root'}}
2022-08-20 17:26:42 {'measurement': 'measName', 'fields': {'measV_HV2': -150.0, 'measI_HV2': -6.25192e-08, 'settV_HV2': -150.0, 'settI_HV2': 0.0}, 'tags': {'user': 'root'}}
2022-08-20 17:26:42 {'measurement': 'measName', 'fields': {'measV_HV2': -150.0, 'measI_HV2': -6.395762e-08, 'settV_HV2': -150.0, 'settI_HV2': 0.0}, 'tags': {'user': 'root'}}
2022-08-20 17:26:43 {'measurement': 'measName', 'fields': {'measV_HV2': -150.0, 'measI_HV2': -6.759897e-08, 'settV_HV2': -150.0, 'settI_HV2': 0.0}, 'tags': {'user': 'root'}}
2022-08-20 17:26:44 {'measurement': 'measName', 'fields': {'measV_HV2': -150.0, 'measI_HV2': -6.999091e-08, 'settV_HV2': -150.0, 'settI_HV2': 0.0}, 'tags': {'user': 'root'}}
2022-08-20 17:26:44 {'measurement': 'measName', 'fields': {'measV_HV2': -150.0, 'measI_HV2': -7.049881e-08, 'settV_HV2': -150.0, 'settI_HV2': 0.0}, 'tags': {'user': 'root'}}
2022-08-20 17:26:45 {'measurement': 'measName', 'fields': {'measV_HV2': -150.0, 'measI_HV2': -6.905979e-08, 'settV_HV2': -150.0, 'settI_HV2': 0.0}, 'tags': {'user': 'root'}}
2022-08-20 17:26:46 {'measurement': 'measName', 'fields': {'measV_HV2': -150.0, 'measI_HV2': -6.634258e-08, 'settV_HV2': -150.0, 'settI_HV2': 0.0}, 'tags': {'user': 'root'}}
2022-08-20 17:26:46 {'measurement': 'measName', 'fields': {'measV_HV2': -150.0, 'measI_HV2': -5.983904e-08, 'settV_HV2': -150.0, 'settI_HV2': 0.0}, 'tags': {'user': 'root'}}
2022-08-20 17:26:47 {'measurement': 'measName', 'fields': {'measV_HV2': -150.0, 'measI_HV2': -5.776776e-08, 'settV_HV2': -150.0, 'settI_HV2': 0.0}, 'tags': {'user': 'root'}}
2022-08-20 17:26:48 {'measurement': 'measName', 'fields': {'measV_HV2': -150.0, 'measI_HV2': -5.821678e-08, 'settV_HV2': -150.0, 'settI_HV2': 0.0}, 'tags': {'user': 'root'}}
2022-08-20 17:26:48 {'measurement': 'measName', 'fields': {'measV_HV2': -150.0, 'measI_HV2': -6.129569e-08, 'settV_HV2': -150.0, 'settI_HV2': 0.0}, 'tags': {'user': 'root'}}
2022-08-20 17:26:49 {'measurement': 'measName', 'fields': {'measV_HV2': -150.0, 'measI_HV2': -6.313847e-08, 'settV_HV2': -150.0, 'settI_HV2': 0.0}, 'tags': {'user': 'root'}}
2022-08-20 17:26:50 {'measurement': 'measName', 'fields': {'measV_HV2': -150.0, 'measI_HV2': -6.351235e-08, 'settV_HV2': -150.0, 'settI_HV2': 0.0}, 'tags': {'user': 'root'}}
2022-08-20 17:26:51 {'measurement': 'measName', 'fields': {'measV_HV2': -150.0, 'measI_HV2': -6.289015e-08, 'settV_HV2': -150.0, 'settI_HV2': 0.0}, 'tags': {'user': 'root'}}
2022-08-20 17:26:52 {'measurement': 'measName', 'fields': {'measV_HV2': -150.0, 'measI_HV2': -6.796596e-08, 'settV_HV2': -150.0, 'settI_HV2': 0.0}, 'tags': {'user': 'root'}}
2022-08-20 17:26:52 {'measurement': 'measName', 'fields': {'measV_HV2': -150.0, 'measI_HV2': -6.656516e-08, 'settV_HV2': -150.0, 'settI_HV2': 0.0}, 'tags': {'user': 'root'}}
2022-08-20 17:26:53 {'measurement': 'measName', 'fields': {'measV_HV2': -150.0, 'measI_HV2': -6.548575e-08, 'settV_HV2': -150.0, 'settI_HV2': 0.0}, 'tags': {'user': 'root'}}
2022-08-20 17:26:54 {'measurement': 'measName', 'fields': {'measV_HV2': -150.0, 'measI_HV2': -6.131074e-08, 'settV_HV2': -150.0, 'settI_HV2': 0.0}, 'tags': {'user': 'root'}}
2022-08-20 17:26:55 {'measurement': 'measName', 'fields': {'measV_HV2': -150.0, 'measI_HV2': -5.902557e-08, 'settV_HV2': -150.0, 'settI_HV2': 0.0}, 'tags': {'user': 'root'}}
2022-08-20 17:26:55 {'measurement': 'measName', 'fields': {'measV_HV2': -150.0, 'measI_HV2': -5.952893e-08, 'settV_HV2': -150.0, 'settI_HV2': 0.0}, 'tags': {'user': 'root'}}
2022-08-20 17:26:56 {'measurement': 'measName', 'fields': {'measV_HV2': -150.0, 'measI_HV2': -6.018126e-08, 'settV_HV2': -150.0, 'settI_HV2': 0.0}, 'tags': {'user': 'root'}}
2022-08-20 17:26:57 {'measurement': 'measName', 'fields': {'measV_HV2': -150.0, 'measI_HV2': -6.627516e-08, 'settV_HV2': -150.0, 'settI_HV2': 0.0}, 'tags': {'user': 'root'}}
2022-08-20 17:26:57 {'measurement': 'measName', 'fields': {'measV_HV2': -150.0, 'measI_HV2': -6.917067e-08, 'settV_HV2': -150.0, 'settI_HV2': 0.0}, 'tags': {'user': 'root'}}
2022-08-20 17:26:58 {'measurement': 'measName', 'fields': {'measV_HV2': -150.0, 'measI_HV2': -7.029097e-08, 'settV_HV2': -150.0, 'settI_HV2': 0.0}, 'tags': {'user': 'root'}}
2022-08-20 17:26:59 {'measurement': 'measName', 'fields': {'measV_HV2': -150.0, 'measI_HV2': -6.584222e-08, 'settV_HV2': -150.0, 'settI_HV2': 0.0}, 'tags': {'user': 'root'}}
2022-08-20 17:26:59 {'measurement': 'measName', 'fields': {'measV_HV2': -150.0, 'measI_HV2': -6.321149e-08, 'settV_HV2': -150.0, 'settI_HV2': 0.0}, 'tags': {'user': 'root'}}
2022-08-20 17:27:00 {'measurement': 'measName', 'fields': {'measV_HV2': -150.0, 'measI_HV2': -5.805499e-08, 'settV_HV2': -150.0, 'settI_HV2': 0.0}, 'tags': {'user': 'root'}}
2022-08-20 17:27:01 {'measurement': 'measName', 'fields': {'measV_HV2': -150.0, 'measI_HV2': -5.892188e-08, 'settV_HV2': -150.0, 'settI_HV2': 0.0}, 'tags': {'user': 'root'}}
2022-08-20 17:27:02 {'measurement': 'measName', 'fields': {'measV_HV2': -150.0, 'measI_HV2': -6.077697e-08, 'settV_HV2': -150.0, 'settI_HV2': 0.0}, 'tags': {'user': 'root'}}
2022-08-20 17:27:02 {'measurement': 'measName', 'fields': {'measV_HV2': -150.0, 'measI_HV2': -6.867776e-08, 'settV_HV2': -150.0, 'settI_HV2': 0.0}, 'tags': {'user': 'root'}}
2022-08-20 17:27:03 {'measurement': 'measName', 'fields': {'measV_HV2': -150.0, 'measI_HV2': -6.93988e-08, 'settV_HV2': -150.0, 'settI_HV2': 0.0}, 'tags': {'user': 'root'}}
2022-08-20 17:27:04 {'measurement': 'measName', 'fields': {'measV_HV2': -150.0, 'measI_HV2': -5.83456e-08, 'settV_HV2': -150.0, 'settI_HV2': 0.0}, 'tags': {'user': 'root'}}
2022-08-20 17:27:05 {'measurement': 'measName', 'fields': {'measV_HV2': -150.0, 'measI_HV2': -6.396241e-08, 'settV_HV2': -150.0, 'settI_HV2': 0.0}, 'tags': {'user': 'root'}}
2022-08-20 17:27:06 {'measurement': 'measName', 'fields': {'measV_HV2': -150.0, 'measI_HV2': -7.017968e-08, 'settV_HV2': -150.0, 'settI_HV2': 0.0}, 'tags': {'user': 'root'}}
2022-08-20 17:27:06 {'measurement': 'measName', 'fields': {'measV_HV2': -150.0, 'measI_HV2': -6.894292e-08, 'settV_HV2': -150.0, 'settI_HV2': 0.0}, 'tags': {'user': 'root'}}
2022-08-20 17:27:07 {'measurement': 'measName', 'fields': {'measV_HV2': -150.0, 'measI_HV2': -6.908832e-08, 'settV_HV2': -150.0, 'settI_HV2': 0.0}, 'tags': {'user': 'root'}}
2022-08-20 17:27:08 {'measurement': 'measName', 'fields': {'measV_HV2': -150.0, 'measI_HV2': -6.413319e-08, 'settV_HV2': -150.0, 'settI_HV2': 0.0}, 'tags': {'user': 'root'}}
2022-08-20 17:27:08 {'measurement': 'measName', 'fields': {'measV_HV2': -150.0, 'measI_HV2': -6.092498e-08, 'settV_HV2': -150.0, 'settI_HV2': 0.0}, 'tags': {'user': 'root'}}
2022-08-20 17:27:09 {'measurement': 'measName', 'fields': {'measV_HV2': -150.0, 'measI_HV2': -5.749575e-08, 'settV_HV2': -150.0, 'settI_HV2': 0.0}, 'tags': {'user': 'root'}}
2022-08-20 17:27:10 {'measurement': 'measName', 'fields': {'measV_HV2': -150.0, 'measI_HV2': -5.960099e-08, 'settV_HV2': -150.0, 'settI_HV2': 0.0}, 'tags': {'user': 'root'}}
2022-08-20 17:27:10 {'measurement': 'measName', 'fields': {'measV_HV2': -150.0, 'measI_HV2': -6.6228e-08, 'settV_HV2': -150.0, 'settI_HV2': 0.0}, 'tags': {'user': 'root'}}
2022-08-20 17:27:11 {'measurement': 'measName', 'fields': {'measV_HV2': -150.0, 'measI_HV2': -6.778989e-08, 'settV_HV2': -150.0, 'settI_HV2': 0.0}, 'tags': {'user': 'root'}}
2022-08-20 17:27:12 {'measurement': 'measName', 'fields': {'measV_HV2': -150.0, 'measI_HV2': -6.979722e-08, 'settV_HV2': -150.0, 'settI_HV2': 0.0}, 'tags': {'user': 'root'}}
2022-08-20 17:27:13 {'measurement': 'measName', 'fields': {'measV_HV2': -150.0, 'measI_HV2': -6.890991e-08, 'settV_HV2': -150.0, 'settI_HV2': 0.0}, 'tags': {'user': 'root'}}
2022-08-20 17:27:13 {'measurement': 'measName', 'fields': {'measV_HV2': -150.0, 'measI_HV2': -6.925865e-08, 'settV_HV2': -150.0, 'settI_HV2': 0.0}, 'tags': {'user': 'root'}}
2022-08-20 17:27:14 {'measurement': 'measName', 'fields': {'measV_HV2': -150.0, 'measI_HV2': -7.005308e-08, 'settV_HV2': -150.0, 'settI_HV2': 0.0}, 'tags': {'user': 'root'}}
2022-08-20 17:27:15 {'measurement': 'measName', 'fields': {'measV_HV2': -150.0, 'measI_HV2': -6.959996e-08, 'settV_HV2': -150.0, 'settI_HV2': 0.0}, 'tags': {'user': 'root'}}
2022-08-20 17:27:16 {'measurement': 'measName', 'fields': {'measV_HV2': -150.0, 'measI_HV2': -6.973192e-08, 'settV_HV2': -150.0, 'settI_HV2': 0.0}, 'tags': {'user': 'root'}}
2022-08-20 17:27:17 {'measurement': 'measName', 'fields': {'measV_HV2': -150.0, 'measI_HV2': -6.8644e-08, 'settV_HV2': -150.0, 'settI_HV2': 0.0}, 'tags': {'user': 'root'}}
2022-08-20 17:27:17 {'measurement': 'measName', 'fields': {'measV_HV2': -150.0, 'measI_HV2': -6.781682e-08, 'settV_HV2': -150.0, 'settI_HV2': 0.0}, 'tags': {'user': 'root'}}
2022-08-20 17:27:18 {'measurement': 'measName', 'fields': {'measV_HV2': -150.0, 'measI_HV2': -6.963971e-08, 'settV_HV2': -150.0, 'settI_HV2': 0.0}, 'tags': {'user': 'root'}}
2022-08-20 17:27:19 {'measurement': 'measName', 'fields': {'measV_HV2': -150.0, 'measI_HV2': -6.685661e-08, 'settV_HV2': -150.0, 'settI_HV2': 0.0}, 'tags': {'user': 'root'}}
2022-08-20 17:27:19 {'measurement': 'measName', 'fields': {'measV_HV2': -150.0, 'measI_HV2': -7.074743e-08, 'settV_HV2': -150.0, 'settI_HV2': 0.0}, 'tags': {'user': 'root'}}
2022-08-20 17:27:20 {'measurement': 'measName', 'fields': {'measV_HV2': -150.0, 'measI_HV2': -6.899088e-08, 'settV_HV2': -150.0, 'settI_HV2': 0.0}, 'tags': {'user': 'root'}}
2022-08-20 17:27:21 {'measurement': 'measName', 'fields': {'measV_HV2': -150.0, 'measI_HV2': -6.576452e-08, 'settV_HV2': -150.0, 'settI_HV2': 0.0}, 'tags': {'user': 'root'}}
2022-08-20 17:27:21 {'measurement': 'measName', 'fields': {'measV_HV2': -150.0, 'measI_HV2': -6.250308e-08, 'settV_HV2': -150.0, 'settI_HV2': 0.0}, 'tags': {'user': 'root'}}
2022-08-20 17:27:22 {'measurement': 'measName', 'fields': {'measV_HV2': -150.0, 'measI_HV2': -6.44821e-08, 'settV_HV2': -150.0, 'settI_HV2': 0.0}, 'tags': {'user': 'root'}}
2022-08-20 17:27:23 {'measurement': 'measName', 'fields': {'measV_HV2': -150.0, 'measI_HV2': -6.263922e-08, 'settV_HV2': -150.0, 'settI_HV2': 0.0}, 'tags': {'user': 'root'}}
2022-08-20 17:27:24 {'measurement': 'measName', 'fields': {'measV_HV2': -150.0, 'measI_HV2': -6.131772e-08, 'settV_HV2': -150.0, 'settI_HV2': 0.0}, 'tags': {'user': 'root'}}
2022-08-20 17:27:24 {'measurement': 'measName', 'fields': {'measV_HV2': -150.0, 'measI_HV2': -6.210272e-08, 'settV_HV2': -150.0, 'settI_HV2': 0.0}, 'tags': {'user': 'root'}}
2022-08-20 17:27:25 {'measurement': 'measName', 'fields': {'measV_HV2': -150.0, 'measI_HV2': -6.421125e-08, 'settV_HV2': -150.0, 'settI_HV2': 0.0}, 'tags': {'user': 'root'}}
2022-08-20 17:27:26 {'measurement': 'measName', 'fields': {'measV_HV2': -150.0, 'measI_HV2': -6.465569e-08, 'settV_HV2': -150.0, 'settI_HV2': 0.0}, 'tags': {'user': 'root'}}
2022-08-20 17:27:26 {'measurement': 'measName', 'fields': {'measV_HV2': -150.0, 'measI_HV2': -6.58152e-08, 'settV_HV2': -150.0, 'settI_HV2': 0.0}, 'tags': {'user': 'root'}}
2022-08-20 17:27:27 {'measurement': 'measName', 'fields': {'measV_HV2': -150.0, 'measI_HV2': -5.832873e-08, 'settV_HV2': -150.0, 'settI_HV2': 0.0}, 'tags': {'user': 'root'}}
2022-08-20 17:27:28 {'measurement': 'measName', 'fields': {'measV_HV2': -150.0, 'measI_HV2': -6.017078e-08, 'settV_HV2': -150.0, 'settI_HV2': 0.0}, 'tags': {'user': 'root'}}
2022-08-20 17:27:29 {'measurement': 'measName', 'fields': {'measV_HV2': -150.0, 'measI_HV2': -5.857314e-08, 'settV_HV2': -150.0, 'settI_HV2': 0.0}, 'tags': {'user': 'root'}}
2022-08-20 17:27:30 {'measurement': 'measName', 'fields': {'measV_HV2': -150.0, 'measI_HV2': -5.751923e-08, 'settV_HV2': -150.0, 'settI_HV2': 0.0}, 'tags': {'user': 'root'}}
2022-08-20 17:27:30 {'measurement': 'measName', 'fields': {'measV_HV2': -150.0, 'measI_HV2': -5.852806e-08, 'settV_HV2': -150.0, 'settI_HV2': 0.0}, 'tags': {'user': 'root'}}
2022-08-20 17:27:31 {'measurement': 'measName', 'fields': {'measV_HV2': -150.0, 'measI_HV2': -5.865764e-08, 'settV_HV2': -150.0, 'settI_HV2': 0.0}, 'tags': {'user': 'root'}}
