2022-08-20 17:21:49 {'measurement': 'measName', 'fields': {'measV_HV2': -100.0, 'measI_HV2': -5.670512e-08, 'settV_HV2': -100.0, 'settI_HV2': 0.0}, 'tags': {'user': 'root'}}
2022-08-20 17:21:50 {'measurement': 'measName', 'fields': {'measV_HV2': -100.0, 'measI_HV2': -5.349071e-08, 'settV_HV2': -100.0, 'settI_HV2': 0.0}, 'tags': {'user': 'root'}}
2022-08-20 17:21:50 {'measurement': 'measName', 'fields': {'measV_HV2': -100.0, 'measI_HV2': -5.353096e-08, 'settV_HV2': -100.0, 'settI_HV2': 0.0}, 'tags': {'user': 'root'}}
2022-08-20 17:21:51 {'measurement': 'measName', 'fields': {'measV_HV2': -100.0, 'measI_HV2': -5.298628e-08, 'settV_HV2': -100.0, 'settI_HV2': 0.0}, 'tags': {'user': 'root'}}
2022-08-20 17:21:52 {'measurement': 'measName', 'fields': {'measV_HV2': -100.0, 'measI_HV2': -5.216449e-08, 'settV_HV2': -100.0, 'settI_HV2': 0.0}, 'tags': {'user': 'root'}}
2022-08-20 17:21:53 {'measurement': 'measName', 'fields': {'measV_HV2': -100.0, 'measI_HV2': -6.349142e-08, 'settV_HV2': -100.0, 'settI_HV2': 0.0}, 'tags': {'user': 'root'}}
2022-08-20 17:21:54 {'measurement': 'measName', 'fields': {'measV_HV2': -100.0, 'measI_HV2': -6.611117e-08, 'settV_HV2': -100.0, 'settI_HV2': 0.0}, 'tags': {'user': 'root'}}
2022-08-20 17:21:54 {'measurement': 'measName', 'fields': {'measV_HV2': -100.0, 'measI_HV2': -6.383251e-08, 'settV_HV2': -100.0, 'settI_HV2': 0.0}, 'tags': {'user': 'root'}}
2022-08-20 17:21:55 {'measurement': 'measName', 'fields': {'measV_HV2': -100.0, 'measI_HV2': -6.176558e-08, 'settV_HV2': -100.0, 'settI_HV2': 0.0}, 'tags': {'user': 'root'}}
2022-08-20 17:21:56 {'measurement': 'measName', 'fields': {'measV_HV2': -100.0, 'measI_HV2': -5.71657e-08, 'settV_HV2': -100.0, 'settI_HV2': 0.0}, 'tags': {'user': 'root'}}
2022-08-20 17:21:56 {'measurement': 'measName', 'fields': {'measV_HV2': -100.0, 'measI_HV2': -5.10953e-08, 'settV_HV2': -100.0, 'settI_HV2': 0.0}, 'tags': {'user': 'root'}}
2022-08-20 17:21:57 {'measurement': 'measName', 'fields': {'measV_HV2': -100.0, 'measI_HV2': -5.480518e-08, 'settV_HV2': -100.0, 'settI_HV2': 0.0}, 'tags': {'user': 'root'}}
2022-08-20 17:21:58 {'measurement': 'measName', 'fields': {'measV_HV2': -100.0, 'measI_HV2': -5.986558e-08, 'settV_HV2': -100.0, 'settI_HV2': 0.0}, 'tags': {'user': 'root'}}
2022-08-20 17:21:59 {'measurement': 'measName', 'fields': {'measV_HV2': -100.0, 'measI_HV2': -6.515699e-08, 'settV_HV2': -100.0, 'settI_HV2': 0.0}, 'tags': {'user': 'root'}}
2022-08-20 17:21:59 {'measurement': 'measName', 'fields': {'measV_HV2': -100.0, 'measI_HV2': -6.573016e-08, 'settV_HV2': -100.0, 'settI_HV2': 0.0}, 'tags': {'user': 'root'}}
2022-08-20 17:22:00 {'measurement': 'measName', 'fields': {'measV_HV2': -100.0, 'measI_HV2': -6.091587e-08, 'settV_HV2': -100.0, 'settI_HV2': 0.0}, 'tags': {'user': 'root'}}
2022-08-20 17:22:01 {'measurement': 'measName', 'fields': {'measV_HV2': -100.0, 'measI_HV2': -5.908898e-08, 'settV_HV2': -100.0, 'settI_HV2': 0.0}, 'tags': {'user': 'root'}}
2022-08-20 17:22:01 {'measurement': 'measName', 'fields': {'measV_HV2': -100.0, 'measI_HV2': -5.547518e-08, 'settV_HV2': -100.0, 'settI_HV2': 0.0}, 'tags': {'user': 'root'}}
2022-08-20 17:22:02 {'measurement': 'measName', 'fields': {'measV_HV2': -100.0, 'measI_HV2': -5.536688e-08, 'settV_HV2': -100.0, 'settI_HV2': 0.0}, 'tags': {'user': 'root'}}
2022-08-20 17:22:03 {'measurement': 'measName', 'fields': {'measV_HV2': -100.0, 'measI_HV2': -100.0, 'settV_HV2': -100.0, 'settI_HV2': 0.0}, 'tags': {'user': 'root'}}
2022-08-20 17:22:04 {'measurement': 'measName', 'fields': {'measV_HV2': -100.0, 'measI_HV2': -6.515987e-08, 'settV_HV2': -100.0, 'settI_HV2': 0.0}, 'tags': {'user': 'root'}}
2022-08-20 17:22:05 {'measurement': 'measName', 'fields': {'measV_HV2': -100.0, 'measI_HV2': -6.497996e-08, 'settV_HV2': -100.0, 'settI_HV2': 0.0}, 'tags': {'user': 'root'}}
2022-08-20 17:22:05 {'measurement': 'measName', 'fields': {'measV_HV2': -100.0, 'measI_HV2': -6.54739e-08, 'settV_HV2': -100.0, 'settI_HV2': 0.0}, 'tags': {'user': 'root'}}
2022-08-20 17:22:06 {'measurement': 'measName', 'fields': {'measV_HV2': -100.0, 'measI_HV2': -6.228825e-08, 'settV_HV2': -100.0, 'settI_HV2': 0.0}, 'tags': {'user': 'root'}}
2022-08-20 17:22:07 {'measurement': 'measName', 'fields': {'measV_HV2': -100.0, 'measI_HV2': -5.962708e-08, 'settV_HV2': -100.0, 'settI_HV2': 0.0}, 'tags': {'user': 'root'}}
2022-08-20 17:22:08 {'measurement': 'measName', 'fields': {'measV_HV2': -100.0, 'measI_HV2': -5.629955e-08, 'settV_HV2': -100.0, 'settI_HV2': 0.0}, 'tags': {'user': 'root'}}
2022-08-20 17:22:08 {'measurement': 'measName', 'fields': {'measV_HV2': -100.0, 'measI_HV2': -5.204819e-08, 'settV_HV2': -100.0, 'settI_HV2': 0.0}, 'tags': {'user': 'root'}}
2022-08-20 17:22:09 {'measurement': 'measName', 'fields': {'measV_HV2': -100.0, 'measI_HV2': -5.384993e-08, 'settV_HV2': -100.0, 'settI_HV2': 0.0}, 'tags': {'user': 'root'}}
2022-08-20 17:22:10 {'measurement': 'measName', 'fields': {'measV_HV2': -100.0, 'measI_HV2': -5.333668e-08, 'settV_HV2': -100.0, 'settI_HV2': 0.0}, 'tags': {'user': 'root'}}
2022-08-20 17:22:10 {'measurement': 'measName', 'fields': {'measV_HV2': -100.0, 'measI_HV2': -5.564233e-08, 'settV_HV2': -100.0, 'settI_HV2': 0.0}, 'tags': {'user': 'root'}}
2022-08-20 17:22:11 {'measurement': 'measName', 'fields': {'measV_HV2': -100.0, 'measI_HV2': -5.549775e-08, 'settV_HV2': -100.0, 'settI_HV2': 0.0}, 'tags': {'user': 'root'}}
2022-08-20 17:22:12 {'measurement': 'measName', 'fields': {'measV_HV2': -100.0, 'measI_HV2': -5.804543e-08, 'settV_HV2': -100.0, 'settI_HV2': 0.0}, 'tags': {'user': 'root'}}
2022-08-20 17:22:12 {'measurement': 'measName', 'fields': {'measV_HV2': -100.0, 'measI_HV2': -6.320165e-08, 'settV_HV2': -100.0, 'settI_HV2': 0.0}, 'tags': {'user': 'root'}}
2022-08-20 17:22:13 {'measurement': 'measName', 'fields': {'measV_HV2': -100.0, 'measI_HV2': -6.592987e-08, 'settV_HV2': -100.0, 'settI_HV2': 0.0}, 'tags': {'user': 'root'}}
2022-08-20 17:22:14 {'measurement': 'measName', 'fields': {'measV_HV2': -100.0, 'measI_HV2': -6.246416e-08, 'settV_HV2': -100.0, 'settI_HV2': 0.0}, 'tags': {'user': 'root'}}
2022-08-20 17:22:15 {'measurement': 'measName', 'fields': {'measV_HV2': -100.0, 'measI_HV2': -5.400595e-08, 'settV_HV2': -100.0, 'settI_HV2': 0.0}, 'tags': {'user': 'root'}}
2022-08-20 17:22:16 {'measurement': 'measName', 'fields': {'measV_HV2': -100.0, 'measI_HV2': -5.281666e-08, 'settV_HV2': -100.0, 'settI_HV2': 0.0}, 'tags': {'user': 'root'}}
2022-08-20 17:22:16 {'measurement': 'measName', 'fields': {'measV_HV2': -100.0, 'measI_HV2': -5.618e-08, 'settV_HV2': -100.0, 'settI_HV2': 0.0}, 'tags': {'user': 'root'}}
2022-08-20 17:22:17 {'measurement': 'measName', 'fields': {'measV_HV2': -100.0, 'measI_HV2': -6.417882e-08, 'settV_HV2': -100.0, 'settI_HV2': 0.0}, 'tags': {'user': 'root'}}
2022-08-20 17:22:18 {'measurement': 'measName', 'fields': {'measV_HV2': -100.0, 'measI_HV2': -6.517509e-08, 'settV_HV2': -100.0, 'settI_HV2': 0.0}, 'tags': {'user': 'root'}}
2022-08-20 17:22:19 {'measurement': 'measName', 'fields': {'measV_HV2': -100.0, 'measI_HV2': -5.948246e-08, 'settV_HV2': -100.0, 'settI_HV2': 0.0}, 'tags': {'user': 'root'}}
2022-08-20 17:22:19 {'measurement': 'measName', 'fields': {'measV_HV2': -100.0, 'measI_HV2': -5.685901e-08, 'settV_HV2': -100.0, 'settI_HV2': 0.0}, 'tags': {'user': 'root'}}
2022-08-20 17:22:20 {'measurement': 'measName', 'fields': {'measV_HV2': -100.0, 'measI_HV2': -5.116667e-08, 'settV_HV2': -100.0, 'settI_HV2': 0.0}, 'tags': {'user': 'root'}}
2022-08-20 17:22:21 {'measurement': 'measName', 'fields': {'measV_HV2': -100.0, 'measI_HV2': -5.365526e-08, 'settV_HV2': -100.0, 'settI_HV2': 0.0}, 'tags': {'user': 'root'}}
2022-08-20 17:22:21 {'measurement': 'measName', 'fields': {'measV_HV2': -100.0, 'measI_HV2': -5.71381e-08, 'settV_HV2': -100.0, 'settI_HV2': 0.0}, 'tags': {'user': 'root'}}
2022-08-20 17:22:22 {'measurement': 'measName', 'fields': {'measV_HV2': -100.0, 'measI_HV2': -6.244866e-08, 'settV_HV2': -100.0, 'settI_HV2': 0.0}, 'tags': {'user': 'root'}}
2022-08-20 17:22:23 {'measurement': 'measName', 'fields': {'measV_HV2': -100.0, 'measI_HV2': -6.53625e-08, 'settV_HV2': -100.0, 'settI_HV2': 0.0}, 'tags': {'user': 'root'}}
2022-08-20 17:22:23 {'measurement': 'measName', 'fields': {'measV_HV2': -100.0, 'measI_HV2': -6.47346e-08, 'settV_HV2': -100.0, 'settI_HV2': 0.0}, 'tags': {'user': 'root'}}
2022-08-20 17:22:24 {'measurement': 'measName', 'fields': {'measV_HV2': -100.0, 'measI_HV2': -6.050646e-08, 'settV_HV2': -100.0, 'settI_HV2': 0.0}, 'tags': {'user': 'root'}}
2022-08-20 17:22:25 {'measurement': 'measName', 'fields': {'measV_HV2': -100.0, 'measI_HV2': -5.920322e-08, 'settV_HV2': -100.0, 'settI_HV2': 0.0}, 'tags': {'user': 'root'}}
2022-08-20 17:22:26 {'measurement': 'measName', 'fields': {'measV_HV2': -100.0, 'measI_HV2': -6.355293e-08, 'settV_HV2': -100.0, 'settI_HV2': 0.0}, 'tags': {'user': 'root'}}
2022-08-20 17:22:27 {'measurement': 'measName', 'fields': {'measV_HV2': -100.0, 'measI_HV2': -6.427086e-08, 'settV_HV2': -100.0, 'settI_HV2': 0.0}, 'tags': {'user': 'root'}}
2022-08-20 17:22:28 {'measurement': 'measName', 'fields': {'measV_HV2': -100.0, 'measI_HV2': -5.969304e-08, 'settV_HV2': -100.0, 'settI_HV2': 0.0}, 'tags': {'user': 'root'}}
2022-08-20 17:22:28 {'measurement': 'measName', 'fields': {'measV_HV2': -100.0, 'measI_HV2': -5.608388e-08, 'settV_HV2': -100.0, 'settI_HV2': 0.0}, 'tags': {'user': 'root'}}
2022-08-20 17:22:29 {'measurement': 'measName', 'fields': {'measV_HV2': -100.0, 'measI_HV2': -5.293312e-08, 'settV_HV2': -100.0, 'settI_HV2': 0.0}, 'tags': {'user': 'root'}}
2022-08-20 17:22:30 {'measurement': 'measName', 'fields': {'measV_HV2': -100.0, 'measI_HV2': -5.285566e-08, 'settV_HV2': -100.0, 'settI_HV2': 0.0}, 'tags': {'user': 'root'}}
2022-08-20 17:22:30 {'measurement': 'measName', 'fields': {'measV_HV2': -100.0, 'measI_HV2': -5.365557e-08, 'settV_HV2': -100.0, 'settI_HV2': 0.0}, 'tags': {'user': 'root'}}
2022-08-20 17:22:31 {'measurement': 'measName', 'fields': {'measV_HV2': -100.0, 'measI_HV2': -5.234283e-08, 'settV_HV2': -100.0, 'settI_HV2': 0.0}, 'tags': {'user': 'root'}}
2022-08-20 17:22:32 {'measurement': 'measName', 'fields': {'measV_HV2': -100.0, 'measI_HV2': -5.650767e-08, 'settV_HV2': -100.0, 'settI_HV2': 0.0}, 'tags': {'user': 'root'}}
2022-08-20 17:22:32 {'measurement': 'measName', 'fields': {'measV_HV2': -100.0, 'measI_HV2': -5.375383e-08, 'settV_HV2': -100.0, 'settI_HV2': 0.0}, 'tags': {'user': 'root'}}
2022-08-20 17:22:33 {'measurement': 'measName', 'fields': {'measV_HV2': -100.0, 'measI_HV2': -5.833284e-08, 'settV_HV2': -100.0, 'settI_HV2': 0.0}, 'tags': {'user': 'root'}}
2022-08-20 17:22:34 {'measurement': 'measName', 'fields': {'measV_HV2': -100.0, 'measI_HV2': -5.674691e-08, 'settV_HV2': -100.0, 'settI_HV2': 0.0}, 'tags': {'user': 'root'}}
2022-08-20 17:22:34 {'measurement': 'measName', 'fields': {'measV_HV2': -100.0, 'measI_HV2': -5.825908e-08, 'settV_HV2': -100.0, 'settI_HV2': 0.0}, 'tags': {'user': 'root'}}
2022-08-20 17:22:35 {'measurement': 'measName', 'fields': {'measV_HV2': -100.0, 'measI_HV2': -6.293676e-08, 'settV_HV2': -100.0, 'settI_HV2': 0.0}, 'tags': {'user': 'root'}}
2022-08-20 17:22:36 {'measurement': 'measName', 'fields': {'measV_HV2': -100.0, 'measI_HV2': -6.114847e-08, 'settV_HV2': -100.0, 'settI_HV2': 0.0}, 'tags': {'user': 'root'}}
2022-08-20 17:22:37 {'measurement': 'measName', 'fields': {'measV_HV2': -100.0, 'measI_HV2': -6.395857e-08, 'settV_HV2': -100.0, 'settI_HV2': 0.0}, 'tags': {'user': 'root'}}
2022-08-20 17:22:38 {'measurement': 'measName', 'fields': {'measV_HV2': -100.0, 'measI_HV2': -6.514143e-08, 'settV_HV2': -100.0, 'settI_HV2': 0.0}, 'tags': {'user': 'root'}}
2022-08-20 17:22:39 {'measurement': 'measName', 'fields': {'measV_HV2': -100.0, 'measI_HV2': -6.413905e-08, 'settV_HV2': -100.0, 'settI_HV2': 0.0}, 'tags': {'user': 'root'}}
2022-08-20 17:22:39 {'measurement': 'measName', 'fields': {'measV_HV2': -100.0, 'measI_HV2': -6.328256e-08, 'settV_HV2': -100.0, 'settI_HV2': 0.0}, 'tags': {'user': 'root'}}
2022-08-20 17:22:40 {'measurement': 'measName', 'fields': {'measV_HV2': -100.0, 'measI_HV2': -6.619086e-08, 'settV_HV2': -100.0, 'settI_HV2': 0.0}, 'tags': {'user': 'root'}}
2022-08-20 17:22:41 {'measurement': 'measName', 'fields': {'measV_HV2': -100.0, 'measI_HV2': -6.197158e-08, 'settV_HV2': -100.0, 'settI_HV2': 0.0}, 'tags': {'user': 'root'}}
2022-08-20 17:22:41 {'measurement': 'measName', 'fields': {'measV_HV2': -100.0, 'measI_HV2': -6.436132e-08, 'settV_HV2': -100.0, 'settI_HV2': 0.0}, 'tags': {'user': 'root'}}
2022-08-20 17:22:42 {'measurement': 'measName', 'fields': {'measV_HV2': -100.0, 'measI_HV2': -6.084584e-08, 'settV_HV2': -100.0, 'settI_HV2': 0.0}, 'tags': {'user': 'root'}}
2022-08-20 17:22:43 {'measurement': 'measName', 'fields': {'measV_HV2': -100.0, 'measI_HV2': -5.998594e-08, 'settV_HV2': -100.0, 'settI_HV2': 0.0}, 'tags': {'user': 'root'}}
2022-08-20 17:22:43 {'measurement': 'measName', 'fields': {'measV_HV2': -100.0, 'measI_HV2': -5.679393e-08, 'settV_HV2': -100.0, 'settI_HV2': 0.0}, 'tags': {'user': 'root'}}
2022-08-20 17:22:44 {'measurement': 'measName', 'fields': {'measV_HV2': -100.0, 'measI_HV2': -5.399583e-08, 'settV_HV2': -100.0, 'settI_HV2': 0.0}, 'tags': {'user': 'root'}}
2022-08-20 17:22:45 {'measurement': 'measName', 'fields': {'measV_HV2': -100.0, 'measI_HV2': -5.256391e-08, 'settV_HV2': -100.0, 'settI_HV2': 0.0}, 'tags': {'user': 'root'}}
2022-08-20 17:22:45 {'measurement': 'measName', 'fields': {'measV_HV2': -100.0, 'measI_HV2': -5.428847e-08, 'settV_HV2': -100.0, 'settI_HV2': 0.0}, 'tags': {'user': 'root'}}
2022-08-20 17:22:46 {'measurement': 'measName', 'fields': {'measV_HV2': -100.0, 'measI_HV2': -5.930634e-08, 'settV_HV2': -100.0, 'settI_HV2': 0.0}, 'tags': {'user': 'root'}}
2022-08-20 17:22:47 {'measurement': 'measName', 'fields': {'measV_HV2': -100.0, 'measI_HV2': -6.351343e-08, 'settV_HV2': -100.0, 'settI_HV2': 0.0}, 'tags': {'user': 'root'}}
2022-08-20 17:22:47 {'measurement': 'measName', 'fields': {'measV_HV2': -100.0, 'measI_HV2': -6.626387e-08, 'settV_HV2': -100.0, 'settI_HV2': 0.0}, 'tags': {'user': 'root'}}
2022-08-20 17:22:48 {'measurement': 'measName', 'fields': {'measV_HV2': -100.0, 'measI_HV2': -6.432988e-08, 'settV_HV2': -100.0, 'settI_HV2': 0.0}, 'tags': {'user': 'root'}}
2022-08-20 17:22:49 {'measurement': 'measName', 'fields': {'measV_HV2': -100.0, 'measI_HV2': -6.232202e-08, 'settV_HV2': -100.0, 'settI_HV2': 0.0}, 'tags': {'user': 'root'}}
2022-08-20 17:22:50 {'measurement': 'measName', 'fields': {'measV_HV2': -100.0, 'measI_HV2': -5.220189e-08, 'settV_HV2': -100.0, 'settI_HV2': 0.0}, 'tags': {'user': 'root'}}
2022-08-20 17:22:51 {'measurement': 'measName', 'fields': {'measV_HV2': -100.0, 'measI_HV2': -6.051294e-08, 'settV_HV2': -100.0, 'settI_HV2': 0.0}, 'tags': {'user': 'root'}}
2022-08-20 17:22:52 {'measurement': 'measName', 'fields': {'measV_HV2': -100.0, 'measI_HV2': -6.408147e-08, 'settV_HV2': -100.0, 'settI_HV2': 0.0}, 'tags': {'user': 'root'}}
2022-08-20 17:22:52 {'measurement': 'measName', 'fields': {'measV_HV2': -100.0, 'measI_HV2': -5.716513e-08, 'settV_HV2': -100.0, 'settI_HV2': 0.0}, 'tags': {'user': 'root'}}
2022-08-20 17:22:53 {'measurement': 'measName', 'fields': {'measV_HV2': -100.0, 'measI_HV2': -5.223632e-08, 'settV_HV2': -100.0, 'settI_HV2': 0.0}, 'tags': {'user': 'root'}}
2022-08-20 17:22:54 {'measurement': 'measName', 'fields': {'measV_HV2': -100.0, 'measI_HV2': -5.274862e-08, 'settV_HV2': -100.0, 'settI_HV2': 0.0}, 'tags': {'user': 'root'}}
2022-08-20 17:22:54 {'measurement': 'measName', 'fields': {'measV_HV2': -100.0, 'measI_HV2': -6.134211e-08, 'settV_HV2': -100.0, 'settI_HV2': 0.0}, 'tags': {'user': 'root'}}
2022-08-20 17:22:55 {'measurement': 'measName', 'fields': {'measV_HV2': -100.0, 'measI_HV2': -6.398774e-08, 'settV_HV2': -100.0, 'settI_HV2': 0.0}, 'tags': {'user': 'root'}}
2022-08-20 17:22:56 {'measurement': 'measName', 'fields': {'measV_HV2': -100.0, 'measI_HV2': -6.377024e-08, 'settV_HV2': -100.0, 'settI_HV2': 0.0}, 'tags': {'user': 'root'}}
2022-08-20 17:22:56 {'measurement': 'measName', 'fields': {'measV_HV2': -100.0, 'measI_HV2': -5.539182e-08, 'settV_HV2': -100.0, 'settI_HV2': 0.0}, 'tags': {'user': 'root'}}
2022-08-20 17:22:57 {'measurement': 'measName', 'fields': {'measV_HV2': -100.0, 'measI_HV2': -5.166828e-08, 'settV_HV2': -100.0, 'settI_HV2': 0.0}, 'tags': {'user': 'root'}}
2022-08-20 17:22:58 {'measurement': 'measName', 'fields': {'measV_HV2': -100.0, 'measI_HV2': -6.076531e-08, 'settV_HV2': -100.0, 'settI_HV2': 0.0}, 'tags': {'user': 'root'}}
2022-08-20 17:22:58 {'measurement': 'measName', 'fields': {'measV_HV2': -100.0, 'measI_HV2': -6.303735e-08, 'settV_HV2': -100.0, 'settI_HV2': 0.0}, 'tags': {'user': 'root'}}
2022-08-20 17:22:59 {'measurement': 'measName', 'fields': {'measV_HV2': -100.0, 'measI_HV2': -5.631367e-08, 'settV_HV2': -100.0, 'settI_HV2': 0.0}, 'tags': {'user': 'root'}}
2022-08-20 17:23:00 {'measurement': 'measName', 'fields': {'measV_HV2': -100.0, 'measI_HV2': -5.225617e-08, 'settV_HV2': -100.0, 'settI_HV2': 0.0}, 'tags': {'user': 'root'}}
2022-08-20 17:23:01 {'measurement': 'measName', 'fields': {'measV_HV2': -100.0, 'measI_HV2': -5.237179e-08, 'settV_HV2': -100.0, 'settI_HV2': 0.0}, 'tags': {'user': 'root'}}
2022-08-20 17:23:02 {'measurement': 'measName', 'fields': {'measV_HV2': -100.0, 'measI_HV2': -5.300258e-08, 'settV_HV2': -100.0, 'settI_HV2': 0.0}, 'tags': {'user': 'root'}}
2022-08-20 17:23:02 {'measurement': 'measName', 'fields': {'measV_HV2': -100.0, 'measI_HV2': -5.46057e-08, 'settV_HV2': -100.0, 'settI_HV2': 0.0}, 'tags': {'user': 'root'}}
2022-08-20 17:23:03 {'measurement': 'measName', 'fields': {'measV_HV2': -100.0, 'measI_HV2': -6.076569e-08, 'settV_HV2': -100.0, 'settI_HV2': 0.0}, 'tags': {'user': 'root'}}
2022-08-20 17:23:04 {'measurement': 'measName', 'fields': {'measV_HV2': -100.0, 'measI_HV2': -6.353886e-08, 'settV_HV2': -100.0, 'settI_HV2': 0.0}, 'tags': {'user': 'root'}}
2022-08-20 17:23:05 {'measurement': 'measName', 'fields': {'measV_HV2': -100.0, 'measI_HV2': -6.361669e-08, 'settV_HV2': -100.0, 'settI_HV2': 0.0}, 'tags': {'user': 'root'}}
2022-08-20 17:23:05 {'measurement': 'measName', 'fields': {'measV_HV2': -100.0, 'measI_HV2': -5.627706e-08, 'settV_HV2': -100.0, 'settI_HV2': 0.0}, 'tags': {'user': 'root'}}
2022-08-20 17:23:06 {'measurement': 'measName', 'fields': {'measV_HV2': -100.0, 'measI_HV2': -5.279713e-08, 'settV_HV2': -100.0, 'settI_HV2': 0.0}, 'tags': {'user': 'root'}}
2022-08-20 17:23:07 {'measurement': 'measName', 'fields': {'measV_HV2': -100.0, 'measI_HV2': -5.49761e-08, 'settV_HV2': -100.0, 'settI_HV2': 0.0}, 'tags': {'user': 'root'}}
2022-08-20 17:23:07 {'measurement': 'measName', 'fields': {'measV_HV2': -100.0, 'measI_HV2': -5.97255e-08, 'settV_HV2': -100.0, 'settI_HV2': 0.0}, 'tags': {'user': 'root'}}
2022-08-20 17:23:08 {'measurement': 'measName', 'fields': {'measV_HV2': -100.0, 'measI_HV2': -6.359525e-08, 'settV_HV2': -100.0, 'settI_HV2': 0.0}, 'tags': {'user': 'root'}}
2022-08-20 17:23:09 {'measurement': 'measName', 'fields': {'measV_HV2': -100.0, 'measI_HV2': -6.442791e-08, 'settV_HV2': -100.0, 'settI_HV2': 0.0}, 'tags': {'user': 'root'}}
2022-08-20 17:23:09 {'measurement': 'measName', 'fields': {'measV_HV2': -100.0, 'measI_HV2': -5.908164e-08, 'settV_HV2': -100.0, 'settI_HV2': 0.0}, 'tags': {'user': 'root'}}
2022-08-20 17:23:10 {'measurement': 'measName', 'fields': {'measV_HV2': -100.0, 'measI_HV2': -5.454038e-08, 'settV_HV2': -100.0, 'settI_HV2': 0.0}, 'tags': {'user': 'root'}}
2022-08-20 17:23:11 {'measurement': 'measName', 'fields': {'measV_HV2': -100.0, 'measI_HV2': -5.221212e-08, 'settV_HV2': -100.0, 'settI_HV2': 0.0}, 'tags': {'user': 'root'}}
2022-08-20 17:23:11 {'measurement': 'measName', 'fields': {'measV_HV2': -100.0, 'measI_HV2': -5.598875e-08, 'settV_HV2': -100.0, 'settI_HV2': 0.0}, 'tags': {'user': 'root'}}
2022-08-20 17:23:12 {'measurement': 'measName', 'fields': {'measV_HV2': -100.0, 'measI_HV2': -6.23626e-08, 'settV_HV2': -100.0, 'settI_HV2': 0.0}, 'tags': {'user': 'root'}}
2022-08-20 17:23:13 {'measurement': 'measName', 'fields': {'measV_HV2': -100.0, 'measI_HV2': -6.497731e-08, 'settV_HV2': -100.0, 'settI_HV2': 0.0}, 'tags': {'user': 'root'}}
2022-08-20 17:23:14 {'measurement': 'measName', 'fields': {'measV_HV2': -100.0, 'measI_HV2': -6.365936e-08, 'settV_HV2': -100.0, 'settI_HV2': 0.0}, 'tags': {'user': 'root'}}
2022-08-20 17:23:15 {'measurement': 'measName', 'fields': {'measV_HV2': -100.0, 'measI_HV2': -6.577654e-08, 'settV_HV2': -100.0, 'settI_HV2': 0.0}, 'tags': {'user': 'root'}}
2022-08-20 17:23:16 {'measurement': 'measName', 'fields': {'measV_HV2': -100.0, 'measI_HV2': -6.449187e-08, 'settV_HV2': -100.0, 'settI_HV2': 0.0}, 'tags': {'user': 'root'}}
2022-08-20 17:23:16 {'measurement': 'measName', 'fields': {'measV_HV2': -100.0, 'measI_HV2': -6.457518e-08, 'settV_HV2': -100.0, 'settI_HV2': 0.0}, 'tags': {'user': 'root'}}
2022-08-20 17:23:17 {'measurement': 'measName', 'fields': {'measV_HV2': -100.0, 'measI_HV2': -6.007997e-08, 'settV_HV2': -100.0, 'settI_HV2': 0.0}, 'tags': {'user': 'root'}}
2022-08-20 17:23:18 {'measurement': 'measName', 'fields': {'measV_HV2': -100.0, 'measI_HV2': -5.564001e-08, 'settV_HV2': -100.0, 'settI_HV2': 0.0}, 'tags': {'user': 'root'}}
2022-08-20 17:23:18 {'measurement': 'measName', 'fields': {'measV_HV2': -100.0, 'measI_HV2': -5.322771e-08, 'settV_HV2': -100.0, 'settI_HV2': 0.0}, 'tags': {'user': 'root'}}
2022-08-20 17:23:19 {'measurement': 'measName', 'fields': {'measV_HV2': -100.0, 'measI_HV2': -5.426258e-08, 'settV_HV2': -100.0, 'settI_HV2': 0.0}, 'tags': {'user': 'root'}}
2022-08-20 17:23:20 {'measurement': 'measName', 'fields': {'measV_HV2': -100.0, 'measI_HV2': -5.293105e-08, 'settV_HV2': -100.0, 'settI_HV2': 0.0}, 'tags': {'user': 'root'}}
2022-08-20 17:23:20 {'measurement': 'measName', 'fields': {'measV_HV2': -100.0, 'measI_HV2': -5.216272e-08, 'settV_HV2': -100.0, 'settI_HV2': 0.0}, 'tags': {'user': 'root'}}
2022-08-20 17:23:21 {'measurement': 'measName', 'fields': {'measV_HV2': -100.0, 'measI_HV2': -5.664007e-08, 'settV_HV2': -100.0, 'settI_HV2': 0.0}, 'tags': {'user': 'root'}}
2022-08-20 17:23:22 {'measurement': 'measName', 'fields': {'measV_HV2': -100.0, 'measI_HV2': -6.241892e-08, 'settV_HV2': -100.0, 'settI_HV2': 0.0}, 'tags': {'user': 'root'}}
2022-08-20 17:23:22 {'measurement': 'measName', 'fields': {'measV_HV2': -100.0, 'measI_HV2': -6.088684e-08, 'settV_HV2': -100.0, 'settI_HV2': 0.0}, 'tags': {'user': 'root'}}
2022-08-20 17:23:23 {'measurement': 'measName', 'fields': {'measV_HV2': -100.0, 'measI_HV2': -6.421253e-08, 'settV_HV2': -100.0, 'settI_HV2': 0.0}, 'tags': {'user': 'root'}}
2022-08-20 17:23:24 {'measurement': 'measName', 'fields': {'measV_HV2': -100.0, 'measI_HV2': -5.977089e-08, 'settV_HV2': -100.0, 'settI_HV2': 0.0}, 'tags': {'user': 'root'}}
2022-08-20 17:23:25 {'measurement': 'measName', 'fields': {'measV_HV2': -100.0, 'measI_HV2': -5.734712e-08, 'settV_HV2': -100.0, 'settI_HV2': 0.0}, 'tags': {'user': 'root'}}
2022-08-20 17:23:26 {'measurement': 'measName', 'fields': {'measV_HV2': -100.0, 'measI_HV2': -5.065e-08, 'settV_HV2': -100.0, 'settI_HV2': 0.0}, 'tags': {'user': 'root'}}
2022-08-20 17:23:27 {'measurement': 'measName', 'fields': {'measV_HV2': -100.0, 'measI_HV2': -5.264343e-08, 'settV_HV2': -100.0, 'settI_HV2': 0.0}, 'tags': {'user': 'root'}}
2022-08-20 17:23:27 {'measurement': 'measName', 'fields': {'measV_HV2': -100.0, 'measI_HV2': -5.353633e-08, 'settV_HV2': -100.0, 'settI_HV2': 0.0}, 'tags': {'user': 'root'}}
2022-08-20 17:23:28 {'measurement': 'measName', 'fields': {'measV_HV2': -100.0, 'measI_HV2': -5.833487e-08, 'settV_HV2': -100.0, 'settI_HV2': 0.0}, 'tags': {'user': 'root'}}
2022-08-20 17:23:29 {'measurement': 'measName', 'fields': {'measV_HV2': -100.0, 'measI_HV2': -6.542233e-08, 'settV_HV2': -100.0, 'settI_HV2': 0.0}, 'tags': {'user': 'root'}}
2022-08-20 17:23:29 {'measurement': 'measName', 'fields': {'measV_HV2': -100.0, 'measI_HV2': -6.367463e-08, 'settV_HV2': -100.0, 'settI_HV2': 0.0}, 'tags': {'user': 'root'}}
2022-08-20 17:23:30 {'measurement': 'measName', 'fields': {'measV_HV2': -100.0, 'measI_HV2': -5.51207e-08, 'settV_HV2': -100.0, 'settI_HV2': 0.0}, 'tags': {'user': 'root'}}
2022-08-20 17:23:31 {'measurement': 'measName', 'fields': {'measV_HV2': -100.0, 'measI_HV2': -5.237684e-08, 'settV_HV2': -100.0, 'settI_HV2': 0.0}, 'tags': {'user': 'root'}}
2022-08-20 17:23:31 {'measurement': 'measName', 'fields': {'measV_HV2': -100.0, 'measI_HV2': -5.168973e-08, 'settV_HV2': -100.0, 'settI_HV2': 0.0}, 'tags': {'user': 'root'}}
2022-08-20 17:23:32 {'measurement': 'measName', 'fields': {'measV_HV2': -100.0, 'measI_HV2': -5.528657e-08, 'settV_HV2': -100.0, 'settI_HV2': 0.0}, 'tags': {'user': 'root'}}
2022-08-20 17:23:33 {'measurement': 'measName', 'fields': {'measV_HV2': -100.0, 'measI_HV2': -6.146934e-08, 'settV_HV2': -100.0, 'settI_HV2': 0.0}, 'tags': {'user': 'root'}}
2022-08-20 17:23:33 {'measurement': 'measName', 'fields': {'measV_HV2': -100.0, 'measI_HV2': -6.499126e-08, 'settV_HV2': -100.0, 'settI_HV2': 0.0}, 'tags': {'user': 'root'}}
2022-08-20 17:23:34 {'measurement': 'measName', 'fields': {'measV_HV2': -100.0, 'measI_HV2': -6.327528e-08, 'settV_HV2': -100.0, 'settI_HV2': 0.0}, 'tags': {'user': 'root'}}
2022-08-20 17:23:35 {'measurement': 'measName', 'fields': {'measV_HV2': -100.0, 'measI_HV2': -5.913176e-08, 'settV_HV2': -100.0, 'settI_HV2': 0.0}, 'tags': {'user': 'root'}}
2022-08-20 17:23:36 {'measurement': 'measName', 'fields': {'measV_HV2': -100.0, 'measI_HV2': -5.944614e-08, 'settV_HV2': -100.0, 'settI_HV2': 0.0}, 'tags': {'user': 'root'}}
2022-08-20 17:23:36 {'measurement': 'measName', 'fields': {'measV_HV2': -100.0, 'measI_HV2': -5.187635e-08, 'settV_HV2': -100.0, 'settI_HV2': 0.0}, 'tags': {'user': 'root'}}
2022-08-20 17:23:37 {'measurement': 'measName', 'fields': {'measV_HV2': -100.0, 'measI_HV2': -5.62356e-08, 'settV_HV2': -100.0, 'settI_HV2': 0.0}, 'tags': {'user': 'root'}}
2022-08-20 17:23:38 {'measurement': 'measName', 'fields': {'measV_HV2': -100.0, 'measI_HV2': -5.147174e-08, 'settV_HV2': -100.0, 'settI_HV2': 0.0}, 'tags': {'user': 'root'}}
2022-08-20 17:23:39 {'measurement': 'measName', 'fields': {'measV_HV2': -100.0, 'measI_HV2': -5.268656e-08, 'settV_HV2': -100.0, 'settI_HV2': 0.0}, 'tags': {'user': 'root'}}
2022-08-20 17:23:39 {'measurement': 'measName', 'fields': {'measV_HV2': -100.0, 'measI_HV2': -5.725232e-08, 'settV_HV2': -100.0, 'settI_HV2': 0.0}, 'tags': {'user': 'root'}}
2022-08-20 17:23:40 {'measurement': 'measName', 'fields': {'measV_HV2': -100.0, 'measI_HV2': -5.755461e-08, 'settV_HV2': -100.0, 'settI_HV2': 0.0}, 'tags': {'user': 'root'}}
2022-08-20 17:23:41 {'measurement': 'measName', 'fields': {'measV_HV2': -100.0, 'measI_HV2': -6.503818e-08, 'settV_HV2': -100.0, 'settI_HV2': 0.0}, 'tags': {'user': 'root'}}
2022-08-20 17:23:42 {'measurement': 'measName', 'fields': {'measV_HV2': -100.0, 'measI_HV2': -6.35584e-08, 'settV_HV2': -100.0, 'settI_HV2': 0.0}, 'tags': {'user': 'root'}}
2022-08-20 17:23:42 {'measurement': 'measName', 'fields': {'measV_HV2': -100.0, 'measI_HV2': -6.252754e-08, 'settV_HV2': -100.0, 'settI_HV2': 0.0}, 'tags': {'user': 'root'}}
2022-08-20 17:23:43 {'measurement': 'measName', 'fields': {'measV_HV2': -100.0, 'measI_HV2': -5.367133e-08, 'settV_HV2': -100.0, 'settI_HV2': 0.0}, 'tags': {'user': 'root'}}
2022-08-20 17:23:44 {'measurement': 'measName', 'fields': {'measV_HV2': -100.0, 'measI_HV2': -5.354909e-08, 'settV_HV2': -100.0, 'settI_HV2': 0.0}, 'tags': {'user': 'root'}}
2022-08-20 17:23:44 {'measurement': 'measName', 'fields': {'measV_HV2': -100.0, 'measI_HV2': -5.055678e-08, 'settV_HV2': -100.0, 'settI_HV2': 0.0}, 'tags': {'user': 'root'}}
2022-08-20 17:23:45 {'measurement': 'measName', 'fields': {'measV_HV2': -100.0, 'measI_HV2': -5.464339e-08, 'settV_HV2': -100.0, 'settI_HV2': 0.0}, 'tags': {'user': 'root'}}
2022-08-20 17:23:46 {'measurement': 'measName', 'fields': {'measV_HV2': -100.0, 'measI_HV2': -5.893176e-08, 'settV_HV2': -100.0, 'settI_HV2': 0.0}, 'tags': {'user': 'root'}}
2022-08-20 17:23:46 {'measurement': 'measName', 'fields': {'measV_HV2': -100.0, 'measI_HV2': -6.32163e-08, 'settV_HV2': -100.0, 'settI_HV2': 0.0}, 'tags': {'user': 'root'}}
2022-08-20 17:23:47 {'measurement': 'measName', 'fields': {'measV_HV2': -100.0, 'measI_HV2': -6.517656e-08, 'settV_HV2': -100.0, 'settI_HV2': 0.0}, 'tags': {'user': 'root'}}
2022-08-20 17:23:48 {'measurement': 'measName', 'fields': {'measV_HV2': -100.0, 'measI_HV2': -5.411213e-08, 'settV_HV2': -100.0, 'settI_HV2': 0.0}, 'tags': {'user': 'root'}}
2022-08-20 17:23:49 {'measurement': 'measName', 'fields': {'measV_HV2': -100.0, 'measI_HV2': -5.658301e-08, 'settV_HV2': -100.0, 'settI_HV2': 0.0}, 'tags': {'user': 'root'}}
2022-08-20 17:23:50 {'measurement': 'measName', 'fields': {'measV_HV2': -100.0, 'measI_HV2': -6.340428e-08, 'settV_HV2': -100.0, 'settI_HV2': 0.0}, 'tags': {'user': 'root'}}
2022-08-20 17:23:51 {'measurement': 'measName', 'fields': {'measV_HV2': -100.0, 'measI_HV2': -6.581353e-08, 'settV_HV2': -100.0, 'settI_HV2': 0.0}, 'tags': {'user': 'root'}}
2022-08-20 17:23:51 {'measurement': 'measName', 'fields': {'measV_HV2': -100.0, 'measI_HV2': -6.274247e-08, 'settV_HV2': -100.0, 'settI_HV2': 0.0}, 'tags': {'user': 'root'}}
2022-08-20 17:23:52 {'measurement': 'measName', 'fields': {'measV_HV2': -100.0, 'measI_HV2': -5.554964e-08, 'settV_HV2': -100.0, 'settI_HV2': 0.0}, 'tags': {'user': 'root'}}
2022-08-20 17:23:53 {'measurement': 'measName', 'fields': {'measV_HV2': -100.0, 'measI_HV2': -5.448863e-08, 'settV_HV2': -100.0, 'settI_HV2': 0.0}, 'tags': {'user': 'root'}}
2022-08-20 17:23:53 {'measurement': 'measName', 'fields': {'measV_HV2': -100.0, 'measI_HV2': -5.322454e-08, 'settV_HV2': -100.0, 'settI_HV2': 0.0}, 'tags': {'user': 'root'}}
2022-08-20 17:23:54 {'measurement': 'measName', 'fields': {'measV_HV2': -100.0, 'measI_HV2': -5.421303e-08, 'settV_HV2': -100.0, 'settI_HV2': 0.0}, 'tags': {'user': 'root'}}
2022-08-20 17:23:55 {'measurement': 'measName', 'fields': {'measV_HV2': -100.0, 'measI_HV2': -5.395309e-08, 'settV_HV2': -100.0, 'settI_HV2': 0.0}, 'tags': {'user': 'root'}}
2022-08-20 17:23:55 {'measurement': 'measName', 'fields': {'measV_HV2': -100.0, 'measI_HV2': -5.911426e-08, 'settV_HV2': -100.0, 'settI_HV2': 0.0}, 'tags': {'user': 'root'}}
2022-08-20 17:23:56 {'measurement': 'measName', 'fields': {'measV_HV2': -100.0, 'measI_HV2': -6.349439e-08, 'settV_HV2': -100.0, 'settI_HV2': 0.0}, 'tags': {'user': 'root'}}
2022-08-20 17:23:57 {'measurement': 'measName', 'fields': {'measV_HV2': -100.0, 'measI_HV2': -6.454064e-08, 'settV_HV2': -100.0, 'settI_HV2': 0.0}, 'tags': {'user': 'root'}}
2022-08-20 17:23:57 {'measurement': 'measName', 'fields': {'measV_HV2': -100.0, 'measI_HV2': -6.559981e-08, 'settV_HV2': -100.0, 'settI_HV2': 0.0}, 'tags': {'user': 'root'}}
2022-08-20 17:23:58 {'measurement': 'measName', 'fields': {'measV_HV2': -100.0, 'measI_HV2': -6.396046e-08, 'settV_HV2': -100.0, 'settI_HV2': 0.0}, 'tags': {'user': 'root'}}
2022-08-20 17:23:59 {'measurement': 'measName', 'fields': {'measV_HV2': -100.0, 'measI_HV2': -6.559947e-08, 'settV_HV2': -100.0, 'settI_HV2': 0.0}, 'tags': {'user': 'root'}}
2022-08-20 17:24:00 {'measurement': 'measName', 'fields': {'measV_HV2': -100.0, 'measI_HV2': -5.516068e-08, 'settV_HV2': -100.0, 'settI_HV2': 0.0}, 'tags': {'user': 'root'}}
2022-08-20 17:24:01 {'measurement': 'measName', 'fields': {'measV_HV2': -100.0, 'measI_HV2': -5.441066e-08, 'settV_HV2': -100.0, 'settI_HV2': 0.0}, 'tags': {'user': 'root'}}
2022-08-20 17:24:02 {'measurement': 'measName', 'fields': {'measV_HV2': -100.0, 'measI_HV2': -5.271888e-08, 'settV_HV2': -100.0, 'settI_HV2': 0.0}, 'tags': {'user': 'root'}}
2022-08-20 17:24:02 {'measurement': 'measName', 'fields': {'measV_HV2': -100.0, 'measI_HV2': -5.7877e-08, 'settV_HV2': -100.0, 'settI_HV2': 0.0}, 'tags': {'user': 'root'}}
2022-08-20 17:24:03 {'measurement': 'measName', 'fields': {'measV_HV2': -100.0, 'measI_HV2': -6.4022e-08, 'settV_HV2': -100.0, 'settI_HV2': 0.0}, 'tags': {'user': 'root'}}
2022-08-20 17:24:04 {'measurement': 'measName', 'fields': {'measV_HV2': -100.0, 'measI_HV2': -6.028445e-08, 'settV_HV2': -100.0, 'settI_HV2': 0.0}, 'tags': {'user': 'root'}}
2022-08-20 17:24:04 {'measurement': 'measName', 'fields': {'measV_HV2': -100.0, 'measI_HV2': -5.720102e-08, 'settV_HV2': -100.0, 'settI_HV2': 0.0}, 'tags': {'user': 'root'}}
2022-08-20 17:24:05 {'measurement': 'measName', 'fields': {'measV_HV2': -100.0, 'measI_HV2': -5.165201e-08, 'settV_HV2': -100.0, 'settI_HV2': 0.0}, 'tags': {'user': 'root'}}
2022-08-20 17:24:06 {'measurement': 'measName', 'fields': {'measV_HV2': -100.0, 'measI_HV2': -5.505246e-08, 'settV_HV2': -100.0, 'settI_HV2': 0.0}, 'tags': {'user': 'root'}}
2022-08-20 17:24:06 {'measurement': 'measName', 'fields': {'measV_HV2': -100.0, 'measI_HV2': -6.200327e-08, 'settV_HV2': -100.0, 'settI_HV2': 0.0}, 'tags': {'user': 'root'}}
2022-08-20 17:24:07 {'measurement': 'measName', 'fields': {'measV_HV2': -100.0, 'measI_HV2': -6.632528e-08, 'settV_HV2': -100.0, 'settI_HV2': 0.0}, 'tags': {'user': 'root'}}
2022-08-20 17:24:08 {'measurement': 'measName', 'fields': {'measV_HV2': -100.0, 'measI_HV2': -6.445866e-08, 'settV_HV2': -100.0, 'settI_HV2': 0.0}, 'tags': {'user': 'root'}}
2022-08-20 17:24:08 {'measurement': 'measName', 'fields': {'measV_HV2': -100.0, 'measI_HV2': -6.235631e-08, 'settV_HV2': -100.0, 'settI_HV2': 0.0}, 'tags': {'user': 'root'}}
2022-08-20 17:24:09 {'measurement': 'measName', 'fields': {'measV_HV2': -100.0, 'measI_HV2': -5.795837e-08, 'settV_HV2': -100.0, 'settI_HV2': 0.0}, 'tags': {'user': 'root'}}
2022-08-20 17:24:10 {'measurement': 'measName', 'fields': {'measV_HV2': -100.0, 'measI_HV2': -5.720229e-08, 'settV_HV2': -100.0, 'settI_HV2': 0.0}, 'tags': {'user': 'root'}}
2022-08-20 17:24:10 {'measurement': 'measName', 'fields': {'measV_HV2': -100.0, 'measI_HV2': -5.553355e-08, 'settV_HV2': -100.0, 'settI_HV2': 0.0}, 'tags': {'user': 'root'}}
2022-08-20 17:24:11 {'measurement': 'measName', 'fields': {'measV_HV2': -100.0, 'measI_HV2': -5.518604e-08, 'settV_HV2': -100.0, 'settI_HV2': 0.0}, 'tags': {'user': 'root'}}
2022-08-20 17:24:12 {'measurement': 'measName', 'fields': {'measV_HV2': -100.0, 'measI_HV2': -6.377622e-08, 'settV_HV2': -100.0, 'settI_HV2': 0.0}, 'tags': {'user': 'root'}}
2022-08-20 17:24:13 {'measurement': 'measName', 'fields': {'measV_HV2': -100.0, 'measI_HV2': -6.555539e-08, 'settV_HV2': -100.0, 'settI_HV2': 0.0}, 'tags': {'user': 'root'}}
2022-08-20 17:24:14 {'measurement': 'measName', 'fields': {'measV_HV2': -100.0, 'measI_HV2': -6.319385e-08, 'settV_HV2': -100.0, 'settI_HV2': 0.0}, 'tags': {'user': 'root'}}
2022-08-20 17:24:15 {'measurement': 'measName', 'fields': {'measV_HV2': -100.0, 'measI_HV2': -5.744912e-08, 'settV_HV2': -100.0, 'settI_HV2': 0.0}, 'tags': {'user': 'root'}}
2022-08-20 17:24:15 {'measurement': 'measName', 'fields': {'measV_HV2': -100.0, 'measI_HV2': -5.319185e-08, 'settV_HV2': -100.0, 'settI_HV2': 0.0}, 'tags': {'user': 'root'}}
2022-08-20 17:24:16 {'measurement': 'measName', 'fields': {'measV_HV2': -100.0, 'measI_HV2': -5.270943e-08, 'settV_HV2': -100.0, 'settI_HV2': 0.0}, 'tags': {'user': 'root'}}
2022-08-20 17:24:17 {'measurement': 'measName', 'fields': {'measV_HV2': -100.0, 'measI_HV2': -5.30327e-08, 'settV_HV2': -100.0, 'settI_HV2': 0.0}, 'tags': {'user': 'root'}}
2022-08-20 17:24:17 {'measurement': 'measName', 'fields': {'measV_HV2': -100.0, 'measI_HV2': -5.760769e-08, 'settV_HV2': -100.0, 'settI_HV2': 0.0}, 'tags': {'user': 'root'}}
2022-08-20 17:24:18 {'measurement': 'measName', 'fields': {'measV_HV2': -100.0, 'measI_HV2': -5.670158e-08, 'settV_HV2': -100.0, 'settI_HV2': 0.0}, 'tags': {'user': 'root'}}
2022-08-20 17:24:19 {'measurement': 'measName', 'fields': {'measV_HV2': -100.0, 'measI_HV2': -5.876549e-08, 'settV_HV2': -100.0, 'settI_HV2': 0.0}, 'tags': {'user': 'root'}}
2022-08-20 17:24:19 {'measurement': 'measName', 'fields': {'measV_HV2': -100.0, 'measI_HV2': -6.186805e-08, 'settV_HV2': -100.0, 'settI_HV2': 0.0}, 'tags': {'user': 'root'}}
2022-08-20 17:24:20 {'measurement': 'measName', 'fields': {'measV_HV2': -100.0, 'measI_HV2': -6.503365e-08, 'settV_HV2': -100.0, 'settI_HV2': 0.0}, 'tags': {'user': 'root'}}
2022-08-20 17:24:21 {'measurement': 'measName', 'fields': {'measV_HV2': -100.0, 'measI_HV2': -5.936167e-08, 'settV_HV2': -100.0, 'settI_HV2': 0.0}, 'tags': {'user': 'root'}}
2022-08-20 17:24:21 {'measurement': 'measName', 'fields': {'measV_HV2': -100.0, 'measI_HV2': -6.216418e-08, 'settV_HV2': -100.0, 'settI_HV2': 0.0}, 'tags': {'user': 'root'}}
