{
    "Data": [0.0, 0.0, 0.0, 0.0, 56986.0, 0.0, 0.0, 0.0, 0.0, 0.0, 0.0, 0.0, 0.0, 2340.0, 0.0, 0.0, 0.0, 1442.0, 0.0, 0.0, 1103.0, 0.0, 882.0, 8.0, 675.0, 30.0, 608.0, 18.0, 557.0, 508.0, 504.0, 18.0, 472.0, 408.0, 396.0, 392.0, 380.0, 317.0, 357.0, 296.0, 596.0, 288.0, 513.0, 277.0, 512.0, 455.0, 700.0, 647.0, 657.0, 1058.0, 1696.0, 86.0, 85.0, 55.0, 62.0, 55.0, 26.0, 43.0, 38.0, 32.0, 35.0, 22.0, 32.0, 35.0, 13.0, 15.0, 14.0, 11.0, 8.0, 9.0, 5.0, 7.0, 4.0, 3.0, 2.0, 1.0, 0.0, 1.0, 0.0, 0.0, 1.0, 0.0, 0.0, 0.0, 0.0, 1.0, 0.0, 0.0, 0.0, 0.0, 0.0, 0.0, 0.0, 0.0, 0.0, 0.0, 0.0, 0.0, 0.0, 0.0, 1.0],
    "Name": "SigmaTotDist-0",
    "Overflow": 2.0,
    "Type": "Histo1d",
    "Underflow": 0.0,
    "x": {
        "AxisTitle": "Sigma ToT [BC]",
        "Bins": 101,
        "High": 1.0499999523162842,
        "Low": -0.05000000074505806
    },
    "y": {
        "AxisTitle": "Number of Pixels"
    },
    "z": {
        "AxisTitle": "z"
    }
}