{
    "Data": [2.0, 26.0, 176.0, 1049.0, 3089.0, 5928.0, 6575.0, 4905.0, 2566.0, 1095.0, 454.0, 136.0, 52.0, 16.0, 9.0, 0.0],
    "Name": "MeanTotDist-0",
    "Overflow": 0.0,
    "Type": "Histo1d",
    "Underflow": 50722.0,
    "x": {
        "AxisTitle": "Mean ToT [BC]",
        "Bins": 16,
        "High": 16.5,
        "Low": 0.5
    },
    "y": {
        "AxisTitle": "Number of Pixels"
    },
    "z": {
        "AxisTitle": "z"
    }
}