{
    "Data": [0.0, 0.0, 0.0, 0.0, 56940.0, 0.0, 0.0, 0.0, 0.0, 0.0, 0.0, 0.0, 0.0, 2433.0, 0.0, 0.0, 0.0, 1540.0, 0.0, 0.0, 1136.0, 0.0, 895.0, 12.0, 692.0, 34.0, 621.0, 21.0, 550.0, 478.0, 485.0, 14.0, 433.0, 400.0, 397.0, 360.0, 330.0, 322.0, 335.0, 325.0, 633.0, 273.0, 537.0, 280.0, 503.0, 500.0, 681.0, 669.0, 642.0, 1036.0, 1712.0, 54.0, 85.0, 43.0, 55.0, 47.0, 32.0, 36.0, 24.0, 22.0, 25.0, 25.0, 27.0, 29.0, 13.0, 13.0, 12.0, 10.0, 8.0, 6.0, 2.0, 1.0, 1.0, 1.0, 0.0, 1.0, 0.0, 0.0, 0.0, 0.0, 0.0, 0.0, 1.0, 1.0, 1.0, 0.0, 0.0, 0.0, 1.0, 0.0, 1.0, 0.0, 0.0, 0.0, 0.0, 0.0, 0.0, 1.0, 0.0, 0.0, 0.0],
    "Name": "SigmaTotDist-0",
    "Overflow": 3.0,
    "Type": "Histo1d",
    "Underflow": 0.0,
    "x": {
        "AxisTitle": "Sigma ToT [BC]",
        "Bins": 101,
        "High": 1.0499999523162842,
        "Low": -0.05000000074505806
    },
    "y": {
        "AxisTitle": "Number of Pixels"
    },
    "z": {
        "AxisTitle": "z"
    }
}