{
    "Data": [0.0, 0.0, 0.0, 0.0, 56008.0, 0.0, 0.0, 0.0, 0.0, 0.0, 0.0, 0.0, 0.0, 2236.0, 0.0, 0.0, 0.0, 1454.0, 0.0, 0.0, 1158.0, 0.0, 926.0, 18.0, 681.0, 52.0, 632.0, 24.0, 614.0, 499.0, 524.0, 30.0, 505.0, 454.0, 420.0, 375.0, 376.0, 387.0, 359.0, 358.0, 613.0, 324.0, 580.0, 305.0, 545.0, 525.0, 720.0, 729.0, 714.0, 1131.0, 1714.0, 93.0, 111.0, 59.0, 53.0, 65.0, 44.0, 53.0, 39.0, 27.0, 43.0, 21.0, 31.0, 14.0, 20.0, 25.0, 14.0, 16.0, 10.0, 16.0, 4.0, 4.0, 3.0, 4.0, 2.0, 2.0, 1.0, 1.0, 1.0, 0.0, 0.0, 0.0, 0.0, 2.0, 0.0, 1.0, 0.0, 1.0, 0.0, 1.0, 2.0, 1.0, 0.0, 1.0, 1.0, 1.0, 0.0, 0.0, 0.0, 0.0, 0.0],
    "Name": "SigmaTotDist-0",
    "Overflow": 23.0,
    "Type": "Histo1d",
    "Underflow": 0.0,
    "x": {
        "AxisTitle": "Sigma ToT [BC]",
        "Bins": 101,
        "High": 1.0499999523162842,
        "Low": -0.05000000074505806
    },
    "y": {
        "AxisTitle": "Number of Pixels"
    },
    "z": {
        "AxisTitle": "z"
    }
}