{
	"Module": {
		"ModuleID": "ThinQ8",
		"FolderPath": {
			"Stage1": "/eos/atlas/atlascerngroupdisk/det-itk/general/pixels/systemtest/lls-prototype-rd53a-ob/moduledata/CERN_Thin_Q8_20UPGM20025078/1-ReceptionTestCERN/BeforePotting",
			"Stage2": "/eos/atlas/atlascerngroupdisk/det-itk/general/pixels/systemtest/lls-prototype-rd53a-ob/moduledata/CERN_Thin_Q8_20UPGM20025078/2-AfterLoading/CERNQ8_AfterLoading",
			"Stage3": "/eos/atlas/atlascerngroupdisk/det-itk/general/pixels/systemtest/lls-prototype-rd53a-ob/moduledata/CERN_Thin_Q8_20UPGM20025078/2-AfterLoading/XplusTop",
			"Stage4": "/home/itkpix/YARRs/YARR_FELIX_MASTER/data/M12Demonstrator",
			"Stage5": "",
			"Stage6": ""
		},
		"FWB": {
			"Stage1": "/eos/atlas/atlascerngroupdisk/det-itk/general/pixels/systemtest/lls-prototype-rd53a-ob/moduledata/CERN_Thin_Q8_20UPGM20025078/1-ReceptionTestCERN/BeforePotting/fwb",
			"Stage2": "/eos/atlas/atlascerngroupdisk/det-itk/general/pixels/systemtest/lls-prototype-rd53a-ob/moduledata/CERN_Thin_Q8_20UPGM20025078/2-AfterLoading/CERNQ8_AfterLoading/fwb",
			"Stage3": "",
			"Stage4": "",
			"Stage5": "",
			"Stage6": ""
		},
		"Temperature": {
			"Stage1": 298.2,
			"Stage2": 302.25,
			"Stage3": 293.85,
			"Stage4": 295.65,
			"Stage5": 1,
			"Stage6": 1
		},
		"Type": [
			"diff",
			"lin",
			"syn"
		],
		"FE1": "20UPGFC0009350",
		"FE2": "20UPGFC0009334",
		"FE3": "20UPGFC0009302",
		"FE4": "20UPGFC0009318"
	},
	"PlotConfig": "./PlotConfig.json",
	"OutputFormat": [
		".png",
		".pdf"
	]
}