{
	"Module": {
		"ModuleID": "Liv5",
		"FolderPath": {
			"Stage1": "/eos/atlas/atlascerngroupdisk/det-itk/general/pixels/systemtest/lls-prototype-rd53a-ob/moduledata/Liv5/Initial-ModuleQCAtXY/BeforeParylene",
			"Stage2": "/eos/atlas/atlascerngroupdisk/det-itk/general/pixels/systemtest/lls-prototype-rd53a-ob/moduledata/Liv5/1-ReceptionTestCERN/AfterPotting",
			"Stage3": "/eos/atlas/atlascerngroupdisk/det-itk/general/pixels/systemtest/lls-prototype-rd53a-ob/moduledata/Liv5/1-ReceptionTestCERN/AfterTabCutting",
			"Stage4": "/home/itkpix/YARRs/YARR_FELIX_MASTER/data/M12Demonstrator",
			"Stage5": "",
			"Stage6": ""
		},
		"FWB": {
			"Stage1": "/eos/atlas/atlascerngroupdisk/det-itk/general/pixels/systemtest/lls-prototype-rd53a-ob/moduledata/Liv5/Initial-ModuleQCAtXY/BeforeParylene/fwb",
			"Stage2": "/eos/atlas/atlascerngroupdisk/det-itk/general/pixels/systemtest/lls-prototype-rd53a-ob/moduledata/Liv5/1-ReceptionTestCERN/AfterPotting/fwb",
			"Stage3": "",
			"Stage4": "",
			"Stage5": "",
			"Stage6": ""
		},
		"Temperature": {
			"Stage1": 1,
			"Stage2": 298.65,
			"Stage3": 289.15,
			"Stage4": 1,
			"Stage5": 1,
			"Stage6": 1
		},
		"Type": [
			"diff",
			"lin",
			"syn"
		],
		"FE1": "20UPGFC0012888",
		"FE2": "20UPGFC0012904",
		"FE3": "20UPGFC0012920",
		"FE4": "20UPGFC0012936"
	},
	"PlotConfig": "./PlotConfig.json",
	"OutputFormat": [
		".png",
		".pdf"
	]
}