{
	"Module": {
		"ModuleID": "Paris7",
		"FolderPath": {
			"Stage1": "/eos/atlas/atlascerngroupdisk/det-itk/general/pixels/systemtest/lls-prototype-rd53a-ob/moduledata/Paris7/1-ReceptionTestCERN/BeforePotting",
			"Stage2": "/eos/atlas/atlascerngroupdisk/det-itk/general/pixels/systemtest/lls-prototype-rd53a-ob/moduledata/Paris7/3-ReceptionAfterLoading",
			"Stage3": "/eos/atlas/atlascerngroupdisk/det-itk/general/pixels/systemtest/lls-prototype-rd53a-ob/moduledata/Paris7/2-AfterLoading/Xminusbottom",
			"Stage4": "/home/itkpix/YARRs/YARR_FELIX_MASTER/data/M12Demonstrator",
			"Stage5": "",
			"Stage6": ""
		},
		"FWB": {
			"Stage1": "",
			"Stage2": "",
			"Stage3": "",
			"Stage4": "",
			"Stage5": "",
			"Stage6": ""
		},
		"Temperature": {
			"Stage1": 287.2,
			"Stage2": 293.65,
			"Stage3": 293.65,
			"Stage4": 294.35,
			"Stage5": 1,
			"Stage6": 1
		},
		"Type": [
			"diff",
			"lin",
			"syn"
		],
		"FE1": "20UPGFC0008809",
		"FE2": "20UPGFC0008825",
		"FE3": "20UPGFC0008746",
		"FE4": "20UPGFC0008841"
	},
	"PlotConfig": "./PlotConfig.json",
	"OutputFormat": [
		".png",
		".pdf"
	]
}