{
	"Module": {
		"ModuleID": "Paris9",
		"FolderPath": {
			"Stage1": "/eos/atlas/atlascerngroupdisk/det-itk/general/pixels/systemtest/lls-prototype-rd53a-ob/moduledata/Paris9/1-ReceptionTestCERN/BeforePotting",
			"Stage2": "/eos/atlas/atlascerngroupdisk/det-itk/general/pixels/systemtest/lls-prototype-rd53a-ob/moduledata/Paris9/2-AfterLoading/Paris9_AfterLoading",
			"Stage3": "/eos/atlas/atlascerngroupdisk/det-itk/general/pixels/systemtest/lls-prototype-rd53a-ob/moduledata/Paris9/2-AfterLoading/XminusBottom",
			"Stage4": "/home/itkpix/YARRs/YARR_FELIX_MASTER/data/M12Demonstrator",
			"Stage5": "",
			"Stage6": ""
		},
		"FWB": {
			"Stage1": "/eos/atlas/atlascerngroupdisk/det-itk/general/pixels/systemtest/lls-prototype-rd53a-ob/moduledata/Paris9/1-ReceptionTestCERN/BeforePotting/fwb",
			"Stage2": "/eos/atlas/atlascerngroupdisk/det-itk/general/pixels/systemtest/lls-prototype-rd53a-ob/moduledata/Paris9/2-AfterLoading/Paris9_AfterLoading/fwb",
			"Stage3": "",
			"Stage4": "",
			"Stage5": "",
			"Stage6": ""
		},
		"Temperature": {
			"Stage1": 293.15,
			"Stage2": 289.2,
			"Stage3": 293.55,
			"Stage4": 298.75,
			"Stage5": 1,
			"Stage6": 1
		},
		"Type": [
			"diff",
			"lin",
			"syn"
		],
		"FE1": "20UPGFC0010089",
		"FE2": "20UPGFC0010073",
		"FE3": "20UPGFC0010152",
		"FE4": "20UPGFC0010057"
	},
	"PlotConfig": "./PlotConfig.json",
	"OutputFormat": [
		".png",
		".pdf"
	]
}