{
    "Data": [0.0, 0.0, 0.0, 0.0, 421.0, 6535.0, 10199.0, 5058.0, 1662.0, 498.0, 136.0, 40.0, 20.0, 4.0, 4.0, 0.0],
    "Name": "MeanTotDist-0",
    "Overflow": 0.0,
    "Type": "Histo1d",
    "Underflow": 52223.0,
    "x": {
        "AxisTitle": "Mean ToT [BC]",
        "Bins": 16,
        "High": 16.5,
        "Low": 0.5
    },
    "y": {
        "AxisTitle": "Number of Pixels"
    },
    "z": {
        "AxisTitle": "z"
    }
}