{
    "Data": [0.0, 0.0, 0.0, 0.0, 64638.0, 0.0, 0.0, 0.0, 0.0, 0.0, 0.0, 0.0, 0.0, 1735.0, 0.0, 0.0, 0.0, 981.0, 0.0, 0.0, 724.0, 0.0, 610.0, 1.0, 442.0, 10.0, 412.0, 0.0, 367.0, 329.0, 284.0, 7.0, 282.0, 245.0, 240.0, 223.0, 199.0, 207.0, 211.0, 202.0, 351.0, 149.0, 317.0, 157.0, 285.0, 280.0, 411.0, 404.0, 386.0, 614.0, 1035.0, 20.0, 25.0, 1.0, 4.0, 0.0, 0.0, 0.0, 0.0, 0.0, 0.0, 0.0, 0.0, 0.0, 0.0, 0.0, 0.0, 0.0, 0.0, 0.0, 0.0, 0.0, 0.0, 0.0, 0.0, 0.0, 0.0, 0.0, 0.0, 0.0, 0.0, 0.0, 0.0, 0.0, 0.0, 0.0, 0.0, 0.0, 0.0, 0.0, 0.0, 0.0, 0.0, 0.0, 0.0, 0.0, 0.0, 0.0, 0.0, 0.0, 0.0],
    "Name": "SigmaTotDist-0",
    "Overflow": 12.0,
    "Type": "Histo1d",
    "Underflow": 0.0,
    "x": {
        "AxisTitle": "Sigma ToT [BC]",
        "Bins": 101,
        "High": 1.0499999523162842,
        "Low": -0.05000000074505806
    },
    "y": {
        "AxisTitle": "Number of Pixels"
    },
    "z": {
        "AxisTitle": "z"
    }
}