{
    "Data": [0.0, 0.0, 0.0, 1.0, 558.0, 6730.0, 9640.0, 5040.0, 1810.0, 520.0, 167.0, 60.0, 31.0, 7.0, 12.0, 0.0],
    "Name": "MeanTotDist-0",
    "Overflow": 0.0,
    "Type": "Histo1d",
    "Underflow": 52224.0,
    "x": {
        "AxisTitle": "Mean ToT [BC]",
        "Bins": 16,
        "High": 16.5,
        "Low": 0.5
    },
    "y": {
        "AxisTitle": "Number of Pixels"
    },
    "z": {
        "AxisTitle": "z"
    }
}