{
    "Data": [13.0, 22.0, 9.0, 11.0, 17.0, 19.0, 25594.0, 2432026.0, 12.0, 15.0, 15.0, 9.0, 6.0, 20.0, 20.0, 5.0],
    "Name": "L1Dist",
    "Overflow": 0.0,
    "Type": "Histo1d",
    "Underflow": 0.0,
    "x": {
        "AxisTitle": "L1Id",
        "Bins": 16,
        "High": 15.5,
        "Low": -0.5
    },
    "y": {
        "AxisTitle": "Hits"
    },
    "z": {
        "AxisTitle": "z"
    }
}