{
    "Data": [0.0, 0.0, 0.0, 0.0, 64227.0, 0.0, 0.0, 0.0, 0.0, 0.0, 0.0, 0.0, 0.0, 1792.0, 0.0, 0.0, 0.0, 1000.0, 0.0, 0.0, 708.0, 0.0, 546.0, 0.0, 529.0, 1.0, 401.0, 0.0, 393.0, 336.0, 293.0, 2.0, 289.0, 268.0, 259.0, 234.0, 217.0, 228.0, 224.0, 185.0, 394.0, 175.0, 341.0, 168.0, 326.0, 335.0, 441.0, 385.0, 407.0, 648.0, 1044.0, 2.0, 1.0, 0.0, 0.0, 0.0, 0.0, 0.0, 0.0, 0.0, 0.0, 0.0, 0.0, 0.0, 0.0, 0.0, 0.0, 0.0, 0.0, 0.0, 0.0, 0.0, 0.0, 0.0, 0.0, 0.0, 0.0, 0.0, 0.0, 0.0, 0.0, 0.0, 0.0, 0.0, 0.0, 0.0, 0.0, 0.0, 0.0, 0.0, 0.0, 0.0, 0.0, 0.0, 0.0, 0.0, 0.0, 0.0, 0.0, 0.0, 0.0],
    "Name": "SigmaTotDist-0",
    "Overflow": 1.0,
    "Type": "Histo1d",
    "Underflow": 0.0,
    "x": {
        "AxisTitle": "Sigma ToT [BC]",
        "Bins": 101,
        "High": 1.0499999523162842,
        "Low": -0.05000000074505806
    },
    "y": {
        "AxisTitle": "Number of Pixels"
    },
    "z": {
        "AxisTitle": "z"
    }
}