{
    "Data": [2870.0, 478.0, 2.0, 478.0, 2.0, 480.0, 32470.0, 7643220.0, 0.0, 0.0, 0.0, 0.0, 0.0, 0.0, 0.0, 0.0],
    "Name": "L1Dist",
    "Overflow": 0.0,
    "Type": "Histo1d",
    "Underflow": 0.0,
    "x": {
        "AxisTitle": "L1Id",
        "Bins": 16,
        "High": 15.5,
        "Low": -0.5
    },
    "y": {
        "AxisTitle": "Hits"
    },
    "z": {
        "AxisTitle": "z"
    }
}