{
    "Data": [0.0, 0.0, 0.0, 0.0, 0.0, 0.0, 0.0, 0.0, 0.0, 0.0, 0.0, 0.0, 0.0, 0.0, 0.0, 0.0, 4.0, 0.0, 0.0, 2.0, 26.0, 48.0, 21.0, 10.0, 11.0, 66.0, 184.0, 240.0, 153.0, 105.0, 316.0, 571.0, 488.0, 353.0, 324.0, 729.0, 875.0, 665.0, 521.0, 665.0, 1945.0, 1871.0, 1256.0, 721.0, 694.0, 1078.0, 989.0, 791.0, 601.0, 800.0, 1020.0, 850.0, 679.0, 453.0, 467.0, 439.0, 389.0, 357.0, 318.0, 338.0, 322.0, 252.0, 212.0, 204.0, 166.0, 176.0, 150.0, 123.0, 133.0, 118.0, 109.0, 106.0, 91.0, 88.0, 71.0, 83.0, 58.0, 57.0, 66.0, 68.0, 53.0, 56.0, 41.0, 41.0, 35.0, 30.0, 32.0, 42.0, 37.0, 32.0, 28.0, 36.0, 24.0, 18.0, 16.0, 21.0, 21.0, 19.0, 17.0, 12.0, 20.0, 13.0, 12.0, 8.0, 18.0, 5.0, 7.0, 9.0, 1.0, 9.0, 7.0, 6.0, 6.0, 13.0, 5.0, 6.0, 5.0, 17.0, 10.0, 1.0, 5.0, 7.0, 7.0, 4.0, 2.0, 4.0, 0.0, 3.0, 5.0, 2.0, 5.0, 3.0, 3.0, 2.0, 3.0, 3.0, 3.0, 2.0, 3.0, 1.0, 4.0, 3.0, 0.0, 5.0, 3.0, 1.0, 1.0, 1.0, 3.0, 0.0, 1.0, 5.0, 0.0, 1.0, 0.0, 2.0, 2.0, 2.0, 1.0, 3.0, 1.0, 0.0, 1.0, 2.0, 0.0, 2.0, 1.0, 2.0, 0.0, 1.0, 0.0, 0.0, 0.0, 0.0, 1.0, 0.0, 1.0, 0.0, 0.0, 2.0, 1.0, 2.0, 1.0, 1.0, 1.0, 0.0, 2.0, 2.0, 0.0, 1.0, 0.0, 1.0, 1.0, 0.0, 1.0, 1.0, 0.0, 0.0, 1.0, 1.0, 1.0],
    "Name": "TimePerFitDist-0",
    "Overflow": 33.0,
    "Type": "Histo1d",
    "Underflow": 0.0,
    "x": {
        "AxisTitle": "Fit Time [us]",
        "Bins": 201,
        "High": 401.0,
        "Low": -1.0
    },
    "y": {
        "AxisTitle": "Number of Pixels"
    },
    "z": {
        "AxisTitle": "z"
    }
}