{
    "Data": [0.0, 1.0, 1.0, 3.0, 0.0, 1.0, 5.0, 5.0, 1.0, 5.0, 1.0, 4.0, 3.0, 5.0, 7.0, 14.0, 10.0, 17.0, 13.0, 16.0, 20.0, 23.0, 25.0, 27.0, 26.0, 43.0, 45.0, 61.0, 80.0, 72.0, 87.0, 108.0, 123.0, 207.0, 216.0, 282.0, 389.0, 522.0, 748.0, 1031.0, 1222.0, 1667.0, 1919.0, 2172.0, 2211.0, 1998.0, 1826.0, 1433.0, 1224.0, 884.0, 781.0, 625.0, 519.0, 438.0, 402.0, 306.0, 296.0, 267.0, 192.0, 161.0, 180.0, 141.0, 111.0, 84.0, 92.0, 65.0, 59.0, 46.0, 46.0, 36.0, 40.0, 31.0, 20.0, 12.0, 19.0, 10.0, 17.0, 9.0, 9.0, 8.0, 5.0, 4.0, 8.0, 7.0, 5.0, 7.0, 8.0, 4.0, 7.0, 4.0, 5.0],
    "Name": "ThresholdDist-0",
    "Overflow": 141.0,
    "Type": "Histo1d",
    "Underflow": 15.0,
    "x": {
        "AxisTitle": "Threshold [e]",
        "Bins": 91,
        "High": 1865.0,
        "Low": 955.0
    },
    "y": {
        "AxisTitle": "Number of Pixels"
    },
    "z": {
        "AxisTitle": "z"
    }
}