{
    "Data": [0.0, 0.0, 2.0, 0.0, 0.0, 0.0, 0.0, 0.0, 1.0, 1.0, 1.0, 0.0, 0.0, 0.0, 1.0, 0.0, 0.0, 1.0, 0.0, 2.0, 0.0, 2.0, 0.0, 3.0, 0.0, 3.0, 2.0, 1.0, 1.0, 2.0, 3.0, 5.0, 4.0, 2.0, 9.0, 7.0, 8.0, 9.0, 13.0, 14.0, 11.0, 18.0, 23.0, 22.0, 26.0, 32.0, 40.0, 34.0, 52.0, 59.0, 82.0, 95.0, 106.0, 138.0, 163.0, 226.0, 291.0, 333.0, 439.0, 585.0, 774.0, 1031.0, 1194.0, 1336.0, 1438.0, 1478.0, 1520.0, 1459.0, 1284.0, 1125.0, 1032.0, 893.0, 813.0, 660.0, 662.0, 598.0, 525.0, 462.0, 401.0, 355.0, 376.0, 313.0, 279.0, 226.0, 258.0, 215.0, 205.0, 177.0, 165.0, 177.0, 148.0, 118.0, 91.0, 88.0, 77.0, 77.0, 76.0, 57.0, 67.0, 54.0, 51.0, 46.0, 43.0, 35.0, 32.0, 30.0, 28.0, 25.0, 20.0, 19.0, 12.0, 22.0, 14.0, 14.0, 12.0, 13.0, 12.0, 18.0, 9.0, 8.0, 6.0, 8.0, 14.0, 7.0, 10.0, 4.0, 13.0, 10.0, 12.0, 8.0, 7.0, 7.0, 8.0, 4.0, 4.0, 4.0, 3.0, 10.0, 6.0, 5.0, 1.0],
    "Name": "ThresholdDist-0",
    "Overflow": 170.0,
    "Type": "Histo1d",
    "Underflow": 0.0,
    "x": {
        "AxisTitle": "Threshold [e]",
        "Bins": 141,
        "High": 2205.0,
        "Low": 795.0
    },
    "y": {
        "AxisTitle": "Number of Pixels"
    },
    "z": {
        "AxisTitle": "z"
    }
}