{
    "Data": [815.0, 9436.0, 6526.0, 3160.0, 1808.0, 1189.0, 798.0, 507.0, 369.0, 259.0, 206.0, 142.0, 108.0, 94.0, 74.0, 62.0, 59.0, 53.0, 53.0, 36.0, 27.0, 32.0, 19.0, 16.0, 19.0, 19.0, 13.0, 17.0, 11.0, 9.0, 4.0, 12.0, 8.0, 5.0, 4.0, 4.0, 6.0, 2.0, 1.0, 0.0, 0.0, 1.0, 1.0, 2.0, 0.0, 0.0, 0.0, 0.0, 0.0, 2.0, 1.0],
    "Name": "Chi2Dist-0",
    "Overflow": 0.0,
    "Type": "Histo1d",
    "Underflow": 0.0,
    "x": {
        "AxisTitle": "Fit Chi/ndf",
        "Bins": 51,
        "High": 2.5250000953674318,
        "Low": -0.02500000037252903
    },
    "y": {
        "AxisTitle": "Number of Pixels"
    },
    "z": {
        "AxisTitle": "z"
    }
}