{
    "Data": [4.0, 1.0, 4.0, 4.0, 6.0, 2.0, 3.0, 3.0, 6.0, 9.0, 12.0, 9.0, 8.0, 17.0, 20.0, 14.0, 24.0, 24.0, 33.0, 43.0, 39.0, 61.0, 69.0, 59.0, 70.0, 94.0, 108.0, 155.0, 171.0, 228.0, 279.0, 338.0, 463.0, 571.0, 745.0, 977.0, 1292.0, 1608.0, 1990.0, 2117.0, 2280.0, 2198.0, 1937.0, 1615.0, 1214.0, 982.0, 740.0, 621.0, 506.0, 418.0, 353.0, 251.0, 212.0, 155.0, 144.0, 90.0, 95.0, 66.0, 57.0, 48.0, 45.0, 39.0, 24.0, 20.0, 16.0, 12.0, 14.0, 11.0, 11.0, 10.0, 9.0, 3.0, 8.0, 5.0, 4.0, 5.0, 3.0, 3.0, 2.0, 2.0, 3.0],
    "Name": "ThresholdDist-0",
    "Overflow": 120.0,
    "Type": "Histo1d",
    "Underflow": 11.0,
    "x": {
        "AxisTitle": "Threshold [e]",
        "Bins": 81,
        "High": 1795.0,
        "Low": 985.0
    },
    "y": {
        "AxisTitle": "Number of Pixels"
    },
    "z": {
        "AxisTitle": "z"
    }
}