{
    "Data": [4.0, 26.0, 16.0, 20.0, 55.0, 114.0, 278.0, 752.0, 1777.0, 2955.0, 3674.0, 3262.0, 2541.0, 1796.0, 1246.0, 1016.0, 827.0, 704.0, 565.0, 542.0, 432.0, 392.0, 341.0, 322.0, 263.0, 245.0, 195.0, 162.0, 139.0, 153.0, 117.0, 107.0, 107.0, 93.0, 72.0, 59.0, 52.0, 70.0, 48.0, 47.0, 27.0, 35.0, 31.0, 27.0, 34.0, 16.0, 23.0, 22.0, 15.0, 13.0, 17.0, 20.0, 12.0, 9.0, 7.0],
    "Name": "NoiseDist-0",
    "Overflow": 148.0,
    "Type": "Histo1d",
    "Underflow": 0.0,
    "x": {
        "AxisTitle": "Noise [e]",
        "Bins": 55,
        "High": 276.0,
        "Low": -2.0
    },
    "y": {
        "AxisTitle": "Number of Pixels"
    },
    "z": {
        "AxisTitle": "z"
    }
}