{
	"Modules": [
		"ThinQ10",
		"Paris10",
		"Paris12",
		"SiegenQ1",
		"SiegenQ2"
	],
	"ModulesNames": [
		"ThinQ10",
		"Paris10",
		"Paris12",
		"SiegenQ1",
		"SiegenQ2"
	],
	"FEs": [
		"FE2",
		"FE4"
	],
	"Ignore": {
		"Paris10": ["FE4"],
		"Paris12": ["FE4"]
	},
	"Stages": {
		"Stage1": {
			"Name": "At reception"
		},
		"Stage2": {
			"Name": "After Cell Loading"
		},
		"Stage3": {
			"Name": "After Pigtail Assembly"
		},
		"Stage4": {
			"Name": "After Cell Integration"
		}
	},
	"Path": "/home/itkpix/module-dossier/Figure/M6Demonstrator_TemperatureComparison",
	"Plots": {
		"NoiseDist": {
			"Title": "Noise",
			"ytitle": "Noise [e]",
			"Data": "Noise[e]",
			"Error": "Stdev[e]",
			"Scan": "",
			"Limits": [
				200,
				130,
				130
			]
		},
		"ThresholdDist": {
			"Title": "Threshold",
			"ytitle": "Threshold [e]",
			"Data": "Threshold[e]",
			"Error": "Stdev[e]",
			"Scan": ""
		},
		"discbumpscan": {
			"Title": "discbumpscan Occupancy = 0",
			"ytitle": "# of 0 hits",
			"Data": "#pixels_mask",
			"Error": "",
			"Scan": "",
			"Limits": [
				200,
				100,
				500
			],
			"Comment_nm": [
				600,
				600,
				500
			]
		},
		"FE_counter": {
			"Data": "#FEs",
			"Error": "",
			"Scan": "thresholdscan",
			"Limits": 6
		},
		"IV": {
			"Data": "IC",
			"Error": "IC_e",
			"Scan": "Voltage",
			"Limits": 2
		}
	}
}