{
    "Module": {
	"ModuleID": "SiegenQ1",
	"FolderPath": {
	    "Stage1": "/eos/atlas/atlascerngroupdisk/det-itk/general/pixels/systemtest/lls-prototype-rd53a-ob/moduledata/SiegenQ1/Initial-ModuleQCAtSiegen",
	    "Stage2": ".",
            "Stage3": "/eos/atlas/atlascerngroupdisk/det-itk/general/pixels/systemtest/lls-prototype-rd53a-ob/moduledata/SiegenQ1/1-ReceptionTestCERN/AfterPotting",
	    "Stage4": "/eos/atlas/atlascerngroupdisk/det-itk/general/pixels/systemtest/lls-prototype-rd53a-ob/moduledata/SiegenQ1/2-AfterLoading/AfterLoading",
	    "Stage5": "/eos/atlas/atlascerngroupdisk/det-itk/general/pixels/systemtest/lls-prototype-rd53a-ob/moduledata/SiegenQ1/2-AfterLoading/XplusTopPigtail",
            "Stage6": "."
	},
	"IV": {
	    "Stage1": "/eos/atlas/atlascerngroupdisk/det-itk/general/pixels/systemtest/lls-prototype-rd53a-ob/moduledata/SiegenQ1/Initial-ModuleQCAtSiegen",
	    "Stage2": ".",
            "Stage3": "/eos/atlas/atlascerngroupdisk/det-itk/general/pixels/systemtest/lls-prototype-rd53a-ob/moduledata/SiegenQ1/1-ReceptionTestCERN/AfterPotting",
	    "Stage4": "/eos/atlas/atlascerngroupdisk/det-itk/general/pixels/systemtest/lls-prototype-rd53a-ob/moduledata/SiegenQ1/2-AfterLoading/AfterLoading",
	    "Stage5": "/eos/atlas/atlascerngroupdisk/det-itk/general/pixels/systemtest/lls-prototype-rd53a-ob/moduledata/SiegenQ1/2-AfterLoading/XplusTopPigtail",
            "Stage6": "."
	},
	"FWB": {
	    "Stage1": "/eos/atlas/atlascerngroupdisk/det-itk/general/pixels/systemtest/lls-prototype-rd53a-ob/moduledata/SiegenQ1/Initial-ModuleQCAtSiegen",
	    "Stage2": ".",
            "Stage3": "/eos/atlas/atlascerngroupdisk/det-itk/general/pixels/systemtest/lls-prototype-rd53a-ob/moduledata/SiegenQ1/1-ReceptionTestCERN/AfterPotting",
	    "Stage4": "/eos/atlas/atlascerngroupdisk/det-itk/general/pixels/systemtest/lls-prototype-rd53a-ob/moduledata/SiegenQ1/2-AfterLoading/AfterLoading",
	    "Stage5": "/eos/atlas/atlascerngroupdisk/det-itk/general/pixels/systemtest/lls-prototype-rd53a-ob/moduledata/SiegenQ1/2-AfterLoading/XplusTopPigtail",
            "Stage6": "."
	}, 
	"Temperature": {
	    "Stage1": 293.15,
	    "Stage2": 1,
	    "Stage3": 298.15,
	    "Stage4": 293.15,
	    "Stage5": 293.35,
	    "Stage6": 1 
	},
	"Type": [ "diff", "lin", "syn" ],
	"FE1": "20UPGFC0012435",
	"FE2": "20UPGFC0012405",
	"FE3": "20UPGFC0012340",
	"FE4": "20UPGFC0012420"
    },
    "PlotConfig": "./PlotConfig.json",
    "OutputFormat": [ ".png", ".pdf" ]
}
