{
	"Modules": [
		"KEKQ22",
		"KEKQ24",
		"KEKQ25",
		"Liv8",
		"KEKQ19",
		"Paris6",
		"Goe5",
		"Paris16",
		"Paris11",
		"Goe7",
		"Paris8"
	],
	"Stages": {
		"Stage1": {
			"Name": "Type-0 Pigatil"
		},
		"Stage2": {
			"Name": "Felix-SW"
		},
		"Stage3": {
			"Name": "YARR"
		},
		"Stage4": {
			"Name": "VakYARR"
		}
	},
	"Path": "/eos/home-d/dharada/Documents/Figure_LS3",
	"Plots": {
		"IV": {
			"Data": "IC",
			"Error": "IC_e",
			"Scan": "Voltage",
			"Limits": 100
		},
		"NoiseDist": {
			"Data": "Noise[e]",
			"Error": "Stdev[e]",
			"Scan": "",
			"Limits": [
				300,
				200,
				150
			]
		},
		"ThresholdDist": {
			"Data": "Threshold[e]",
			"Error": "Stdev[e]",
			"Scan": "",
			"Limits": [
				3500,
				2500,
				2500
			]
		},
		"discbumpscan": {
			"Data": "#pixels_mask",
			"Error": "",
			"Scan": "",
			"Limits": [
				600,
				600,
				300
			]
		},
		"FE_counter": {
			"Data": "#FEs",
			"Error": "",
			"Scan": "Scan",
			"Limits": 6
		}
	}
}
