{
    "connectivity": [{
            "chipType": "RD53A",
            "chips": [{
                    "config": "configs/CERNQ7/20UPGFC0012613.json",
                    "enable": 1,
                    "locked": 0,
                    "rx": 4,
                    "tx": 1
                }, {
                    "config": "configs/CERNQ7/20UPGFC0012645.json",
                    "enable": 1,
                    "locked": 0,
                    "rx": 5,
                    "tx": 1
                }, {
                    "config": "configs/CERNQ7/20UPGFC0012661.json",
                    "enable": 1,
                    "locked": 0,
                    "rx": 6,
                    "tx": 1
                }, {
                    "config": "configs/CERNQ7/20UPGFC0012629.json",
                    "enable": 1,
                    "locked": 0,
                    "rx": 7,
                    "tx": 1
                }]
        }],
    "ctrlCfg": {
        "ctrlCfg": {
            "cfg": {
                "cmdPeriod": 6.250000073038109e-9,
                "idle": {
                    "word": 1768515945
                },
                "pulse": {
                    "interval": 500,
                    "word": 1549575846
                },
                "rxActiveLanes": 1,
                "rxPolarity": 0,
                "specNum": 0,
                "spiConfig": 541200,
                "sync": {
                    "interval": 32,
                    "word": 2172551550
                },
                "trigConfig": null,
                "txPolarity": 0
            },
            "type": "spec"
        }
    },
    "ctrlStatus": {
        "channel_configuration": "16x1",
        "fe_chip_type": "RD53A/B",
        "firmware_identifier": "0x4030232",
        "firmware_version": "0x4d9ff6d",
        "fmc_card_type": "Ohio Card (Display Port)",
        "fpga_card": "PLDA XpressK7 325",
        "rx_speed": "640Mbps"
    },
    "exec": "-r configs/controller/specCfg-rd53a-16x1.json -c configs/CERNQ7/example_rd53a_setup.json -s configs/scans/rd53a/reg_readtemp.json -p ",
    "finishTime": 1661253989,
    "runNumber": 1628,
    "startTime": 1661253987,
    "stopwatch": {
        "analysis": 800,
        "config": 128,
        "processing": 0,
        "scan": 208
    },
    "targetCharge": -1,
    "targetTot": -1,
    "testType": "reg_readtemp",
    "timestamp": "2022-08-23_13:26:27"
}