{
    "Data": [0.0, 4.0, 246.0, 1382.0, 3403.0, 4416.0, 4334.0, 3482.0, 2524.0, 1723.0, 1184.0, 713.0, 382.0, 238.0, 137.0, 100.0, 37.0, 26.0, 19.0, 13.0, 9.0, 4.0, 2.0, 0.0, 1.0, 1.0, 0.0, 0.0, 0.0, 0.0, 1.0, 1.0, 2.0, 0.0, 2.0, 1.0, 0.0, 1.0, 4.0, 5.0, 0.0, 6.0, 2.0, 24.0, 0.0, 2.0, 1.0, 1.0, 37.0, 2.0, 0.0],
    "Name": "Chi2Dist-0",
    "Overflow": 0.0,
    "Type": "Histo1d",
    "Underflow": 0.0,
    "x": {
        "AxisTitle": "Fit Chi/ndf",
        "Bins": 51,
        "High": 2.5250000953674318,
        "Low": -0.02500000037252903
    },
    "y": {
        "AxisTitle": "Number of Pixels"
    },
    "z": {
        "AxisTitle": "z"
    }
}