{
    "Data": [0.0, 0.0, 0.0, 0.0, 0.0, 0.0, 0.0, 0.0, 1.0, 2.0, 1.0, 2.0, 3.0, 1.0, 2.0, 4.0, 5.0, 4.0, 7.0, 11.0, 9.0, 10.0, 14.0, 16.0, 15.0, 22.0, 31.0, 31.0, 32.0, 57.0, 65.0, 67.0, 62.0, 74.0, 89.0, 106.0, 128.0, 132.0, 149.0, 172.0, 170.0, 213.0, 240.0, 254.0, 268.0, 303.0, 357.0, 374.0, 393.0, 424.0, 452.0, 557.0, 528.0, 597.0, 598.0, 702.0, 707.0, 789.0, 770.0, 826.0, 772.0, 784.0, 863.0, 803.0, 825.0, 827.0, 788.0, 713.0, 679.0, 664.0, 639.0, 594.0, 561.0, 473.0, 459.0, 435.0, 376.0, 382.0, 292.0, 273.0, 219.0, 195.0, 173.0, 129.0, 122.0, 117.0, 91.0, 74.0, 62.0, 46.0, 34.0, 22.0, 23.0, 20.0, 16.0, 21.0, 13.0, 7.0, 4.0, 8.0, 1.0, 6.0, 3.0, 2.0, 2.0, 1.0, 0.0, 2.0, 3.0, 1.0, 2.0, 0.0, 0.0, 0.0, 1.0, 0.0, 0.0, 0.0, 1.0, 0.0, 1.0],
    "Name": "ThresholdDist-0",
    "Overflow": 2.0,
    "Type": "Histo1d",
    "Underflow": 0.0,
    "x": {
        "AxisTitle": "Threshold [e]",
        "Bins": 121,
        "High": 3005.0,
        "Low": 1795.0
    },
    "y": {
        "AxisTitle": "Number of Pixels"
    },
    "z": {
        "AxisTitle": "z"
    }
}