{
    "Data": [0.0, 0.0, 0.0, 0.0, 0.0, 0.0, 0.0, 0.0, 0.0, 0.0, 0.0, 0.0, 0.0, 0.0, 0.0, 0.0, 7.0, 2.0, 1.0, 0.0, 7.0, 57.0, 38.0, 12.0, 5.0, 80.0, 350.0, 314.0, 135.0, 112.0, 584.0, 1136.0, 914.0, 468.0, 485.0, 1121.0, 1295.0, 1037.0, 676.0, 1022.0, 1436.0, 992.0, 634.0, 668.0, 879.0, 842.0, 578.0, 395.0, 591.0, 603.0, 491.0, 391.0, 305.0, 283.0, 326.0, 330.0, 301.0, 288.0, 221.0, 198.0, 170.0, 162.0, 128.0, 150.0, 155.0, 120.0, 155.0, 137.0, 110.0, 94.0, 100.0, 109.0, 105.0, 83.0, 92.0, 73.0, 81.0, 72.0, 87.0, 57.0, 71.0, 79.0, 61.0, 52.0, 46.0, 43.0, 39.0, 56.0, 66.0, 54.0, 43.0, 38.0, 24.0, 16.0, 19.0, 36.0, 43.0, 31.0, 40.0, 32.0, 28.0, 21.0, 23.0, 19.0, 15.0, 19.0, 15.0, 22.0, 23.0, 22.0, 20.0, 29.0, 14.0, 12.0, 11.0, 13.0, 9.0, 11.0, 5.0, 8.0, 16.0, 9.0, 13.0, 10.0, 5.0, 5.0, 4.0, 11.0, 15.0, 6.0, 5.0, 6.0, 3.0, 5.0, 10.0, 13.0, 6.0, 5.0, 3.0, 3.0, 4.0, 2.0, 5.0, 7.0, 2.0, 8.0, 6.0, 6.0, 3.0, 3.0, 5.0, 2.0, 6.0, 6.0, 3.0, 8.0, 2.0, 3.0, 1.0, 2.0, 4.0, 2.0, 2.0, 6.0, 1.0, 7.0, 2.0, 5.0, 1.0, 1.0, 1.0, 1.0, 0.0, 2.0, 1.0, 0.0, 0.0, 2.0, 2.0, 2.0, 1.0, 4.0, 3.0, 0.0, 0.0, 0.0, 4.0, 0.0, 1.0, 1.0, 1.0, 2.0, 0.0, 3.0, 2.0, 0.0, 0.0, 4.0, 0.0, 1.0, 0.0],
    "Name": "TimePerFitDist-0",
    "Overflow": 88.0,
    "Type": "Histo1d",
    "Underflow": 0.0,
    "x": {
        "AxisTitle": "Fit Time [us]",
        "Bins": 201,
        "High": 401.0,
        "Low": -1.0
    },
    "y": {
        "AxisTitle": "Number of Pixels"
    },
    "z": {
        "AxisTitle": "z"
    }
}