{
    "connectivity": [{
            "chipType": "RD53A",
            "chips": [{
                    "chipId": 1,
                    "config": "configs/KEKQ21/20UPGFC0005752.json",
                    "enable": 1,
                    "name": "20UPGFC0005752",
                    "rx": 0,
                    "tx": 0
                }, {
                    "chipId": 2,
                    "config": "configs/KEKQ21/20UPGFC0005768.json",
                    "enable": 1,
                    "name": "20UPGFC0005768",
                    "rx": 1,
                    "tx": 0
                }, {
                    "chipId": 3,
                    "config": "configs/KEKQ21/20UPGFC0005800.json",
                    "enable": 1,
                    "name": "20UPGFC0005800",
                    "rx": 2,
                    "tx": 0
                }, {
                    "chipId": 4,
                    "config": "configs/KEKQ21/20UPGFC0005784.json",
                    "enable": 1,
                    "name": "20UPGFC0005784",
                    "rx": 3,
                    "tx": 0
                }],
            "module": {
                "componentType": "module",
                "serialNumber": "20UPGM20024009"
            },
            "stage": "Testing"
        }],
    "ctrlCfg": {
        "ctrlCfg": {
            "cfg": {
                "cmdPeriod": 6.250000073038109e-9,
                "idle": {
                    "word": 1768515945
                },
                "pulse": {
                    "interval": 500,
                    "word": 1549575846
                },
                "rxActiveLanes": 7,
                "rxPolarity": 0,
                "specNum": 0,
                "spiConfig": 541200,
                "sync": {
                    "interval": 32,
                    "word": 2172551550
                },
                "trigConfig": null,
                "txPolarity": 0
            },
            "type": "spec"
        }
    },
    "ctrlStatus": {
        "channel_configuration": "4x4",
        "fe_chip_type": "RD53A/B",
        "firmware_identifier": "0x4030231",
        "firmware_version": "0x1493b73",
        "fmc_card_type": "Ohio Card (Display Port)",
        "fpga_card": "PLDA XpressK7 325",
        "rx_speed": "640Mbps"
    },
    "exec": "-r configs/controller/specCfg-rd53a-4x3.json -c configs/KEKQ21/connectivity.json -s configs/scans/rd53a/syn_thresholdscan.json -p ",
    "finishTime": 1657544545,
    "runNumber": 7888,
    "startTime": 1657544412,
    "stopwatch": {
        "analysis": 709,
        "config": 167,
        "processing": 17,
        "scan": 131381
    },
    "targetCharge": -1,
    "targetTot": -1,
    "testType": "syn_thresholdscan",
    "timestamp": "2022-07-11_15:00:12"
}