{
    "Data": [0.0, 0.0, 0.0, 0.0, 63619.0, 0.0, 0.0, 0.0, 0.0, 0.0, 0.0, 0.0, 0.0, 1887.0, 0.0, 0.0, 0.0, 1059.0, 0.0, 0.0, 788.0, 0.0, 567.0, 0.0, 470.0, 1.0, 418.0, 1.0, 386.0, 359.0, 313.0, 0.0, 299.0, 312.0, 239.0, 218.0, 253.0, 204.0, 219.0, 184.0, 389.0, 176.0, 364.0, 170.0, 357.0, 308.0, 490.0, 478.0, 416.0, 746.0, 1107.0, 0.0, 0.0, 0.0, 0.0, 0.0, 0.0, 0.0, 0.0, 0.0, 0.0, 0.0, 0.0, 0.0, 0.0, 0.0, 0.0, 0.0, 0.0, 0.0, 0.0, 0.0, 0.0, 0.0, 0.0, 0.0, 0.0, 0.0, 0.0, 0.0, 0.0, 0.0, 0.0, 0.0, 0.0, 1.0, 0.0, 0.0, 0.0, 0.0, 0.0, 0.0, 0.0, 0.0, 0.0, 0.0, 0.0, 0.0, 0.0, 0.0, 0.0],
    "Name": "SigmaTotDist-0",
    "Overflow": 2.0,
    "Type": "Histo1d",
    "Underflow": 0.0,
    "x": {
        "AxisTitle": "Sigma ToT [BC]",
        "Bins": 101,
        "High": 1.0499999523162842,
        "Low": -0.05000000074505806
    },
    "y": {
        "AxisTitle": "Number of Pixels"
    },
    "z": {
        "AxisTitle": "z"
    }
}