{
    "Data": [0.0, 0.0, 0.0, 107.0, 2360.0, 7888.0, 8740.0, 4654.0, 1664.0, 470.0, 147.0, 46.0, 17.0, 9.0, 2.0, 0.0],
    "Name": "MeanTotDist-0",
    "Overflow": 0.0,
    "Type": "Histo1d",
    "Underflow": 50696.0,
    "x": {
        "AxisTitle": "Mean ToT [BC]",
        "Bins": 16,
        "High": 16.5,
        "Low": 0.5
    },
    "y": {
        "AxisTitle": "Number of Pixels"
    },
    "z": {
        "AxisTitle": "z"
    }
}