{
    "Data": [0.0, 1.0, 1.0, 432.0, 4934.0, 9962.0, 7085.0, 2599.0, 797.0, 222.0, 43.0, 22.0, 4.0, 1.0, 2.0, 0.0],
    "Name": "MeanTotDist-0",
    "Overflow": 0.0,
    "Type": "Histo1d",
    "Underflow": 50695.0,
    "x": {
        "AxisTitle": "Mean ToT [BC]",
        "Bins": 16,
        "High": 16.5,
        "Low": 0.5
    },
    "y": {
        "AxisTitle": "Number of Pixels"
    },
    "z": {
        "AxisTitle": "z"
    }
}