{
    "connectivity": [{
            "chipType": "RD53A",
            "chips": [{
                    "chipId": 1,
                    "config": "configs/Goe4/20UPGFC0012354.json",
                    "enable": 1,
                    "locked": 0,
                    "name": "20UPGFC0012354",
                    "rx": 0,
                    "tx": 0
                }, {
                    "chipId": 2,
                    "config": "configs/Goe4/20UPGFC0012370.json",
                    "enable": 1,
                    "locked": 0,
                    "name": "20UPGFC0012370",
                    "rx": 1,
                    "tx": 0
                }, {
                    "chipId": 3,
                    "config": "configs/Goe4/20UPGFC0012386.json",
                    "enable": 1,
                    "locked": 0,
                    "name": "20UPGFC0012386",
                    "rx": 2,
                    "tx": 0
                }, {
                    "chipId": 4,
                    "config": "configs/Goe4/20UPGFC0012339.json",
                    "enable": 1,
                    "locked": 0,
                    "name": "20UPGFC0012339",
                    "rx": 3,
                    "tx": 0
                }],
            "module": {
                "componentType": "module",
                "serialNumber": "20UPGR90021053"
            },
            "stage": "Testing"
        }],
    "ctrlCfg": {
        "ctrlCfg": {
            "cfg": {
                "cmdPeriod": 6.250000073038109e-9,
                "idle": {
                    "word": 1768515945
                },
                "pulse": {
                    "interval": 500,
                    "word": 1549575846
                },
                "rxActiveLanes": 7,
                "rxPolarity": 0,
                "specNum": 0,
                "spiConfig": 541200,
                "sync": {
                    "interval": 32,
                    "word": 2172551550
                },
                "trigConfig": null,
                "txPolarity": 0
            },
            "type": "spec"
        }
    },
    "ctrlStatus": {
        "channel_configuration": "4x4",
        "fe_chip_type": "RD53A/B",
        "firmware_identifier": "0x4030231",
        "firmware_version": "0x1493b73",
        "fmc_card_type": "Ohio Card (Display Port)",
        "fpga_card": "PLDA XpressK7 325",
        "rx_speed": "640Mbps"
    },
    "exec": "-r configs/controller/specCfg-rd53a-4x3.json -c configs/Goe4/connectivity.json -s configs/scans/rd53a/lin_totscan.json -p -t 10000 ",
    "finishTime": 1657285870,
    "runNumber": 7804,
    "startTime": 1657285867,
    "stopwatch": {
        "analysis": 597,
        "config": 121,
        "processing": 3,
        "scan": 2055
    },
    "targetCharge": 10000,
    "targetTot": -1,
    "testType": "lin_totscan",
    "timestamp": "2022-07-08_15:11:07"
}