ModuleID,Stage,Voltage,IC,IC_e
CERNQ10,Stage1,50.0,3.90515936032898e-07,3.508763768422796e-08
CERNQ10,Stage1,100.0,7.913717467999959e-07,7.03049209960227e-08
CERNQ10,Stage2,50.0,3.8348261455212196e-07,3.4326333775425155e-08
CERNQ10,Stage2,100.0,7.302397193598154e-07,6.485501558017859e-08
CERNQ10,Stage3,50.0,4.363730568002211e-07,3.909651979938644e-08
CERNQ10,Stage3,100.0,7.376036137429764e-07,6.542588693037032e-08
CERNQ10,Stage4,50.0,4.2524990817582875e-07,3.802728087975993e-08
CERNQ10,Stage4,100.0,7.185585673141759e-07,6.375157113325258e-08
