ModuleID,Chip,ChipID,FE,Stage,Noise[e],Stdev[e]
CERNQ10,FE4,20UPGFC0013716,syn,Stage1,110.2,14.1
CERNQ10,FE4,20UPGFC0013716,syn,Stage2,105.7,15.0
CERNQ10,FE4,20UPGFC0013716,syn,Stage3,106.4,12.6
CERNQ10,FE4,20UPGFC0013716,syn,Stage4,106.0,13.7
CERNQ10,FE4,20UPGFC0013716,lin,Stage1,67.5,10.6
CERNQ10,FE4,20UPGFC0013716,lin,Stage2,67.4,10.4
CERNQ10,FE4,20UPGFC0013716,lin,Stage3,67.1,10.5
CERNQ10,FE4,20UPGFC0013716,lin,Stage4,67.0,10.6
CERNQ10,FE4,20UPGFC0013716,diff,Stage1,49.1,11.1
CERNQ10,FE4,20UPGFC0013716,diff,Stage2,48.7,11.1
CERNQ10,FE4,20UPGFC0013716,diff,Stage3,48.4,11.4
CERNQ10,FE4,20UPGFC0013716,diff,Stage4,48.3,11.1
CERNQ10,FE2,20UPGFC0013668,syn,Stage1,122.8,16.9
CERNQ10,FE2,20UPGFC0013668,syn,Stage2,119.1,16.1
CERNQ10,FE2,20UPGFC0013668,syn,Stage3,118.5,16.2
CERNQ10,FE2,20UPGFC0013668,lin,Stage1,70.0,10.9
CERNQ10,FE2,20UPGFC0013668,lin,Stage2,69.7,11.1
CERNQ10,FE2,20UPGFC0013668,lin,Stage3,69.7,10.5
CERNQ10,FE2,20UPGFC0013668,diff,Stage1,50.7,10.5
CERNQ10,FE2,20UPGFC0013668,diff,Stage2,50.3,10.7
CERNQ10,FE2,20UPGFC0013668,diff,Stage3,50.0,10.4
CERNQ10,FE3,20UPGFC0013653,syn,Stage1,123.5,19.5
CERNQ10,FE3,20UPGFC0013653,lin,Stage1,67.3,10.8
CERNQ10,FE3,20UPGFC0013653,diff,Stage1,47.6,11.2
