ModuleID,Chip,ChipID,FE,Stage,Threshold[e],Stdev[e]
CERNQ10,FE4,20UPGFC0013716,syn,Stage1,2395.8,123.5
CERNQ10,FE4,20UPGFC0013716,syn,Stage2,2371.9,124.6
CERNQ10,FE4,20UPGFC0013716,syn,Stage3,2368.7,125.2
CERNQ10,FE4,20UPGFC0013716,syn,Stage4,2368.7,129.1
CERNQ10,FE4,20UPGFC0013716,lin,Stage1,1365.7,45.1
CERNQ10,FE4,20UPGFC0013716,lin,Stage2,1374.7,66.4
CERNQ10,FE4,20UPGFC0013716,lin,Stage3,1370.4,67.8
CERNQ10,FE4,20UPGFC0013716,lin,Stage4,1367.8,68.1
CERNQ10,FE4,20UPGFC0013716,diff,Stage1,1395.8,31.9
CERNQ10,FE4,20UPGFC0013716,diff,Stage2,1393.9,32.1
CERNQ10,FE4,20UPGFC0013716,diff,Stage3,1389.6,31.6
CERNQ10,FE4,20UPGFC0013716,diff,Stage4,1388.8,33.2
CERNQ10,FE2,20UPGFC0013668,syn,Stage1,2425.5,119.0
CERNQ10,FE2,20UPGFC0013668,syn,Stage2,2418.4,119.6
CERNQ10,FE2,20UPGFC0013668,syn,Stage3,2413.4,122.2
CERNQ10,FE2,20UPGFC0013668,lin,Stage1,1426.4,52.6
CERNQ10,FE2,20UPGFC0013668,lin,Stage2,1452.8,60.6
CERNQ10,FE2,20UPGFC0013668,lin,Stage3,1455.9,62.4
CERNQ10,FE2,20UPGFC0013668,diff,Stage1,1431.5,43.1
CERNQ10,FE2,20UPGFC0013668,diff,Stage2,1428.4,46.2
CERNQ10,FE2,20UPGFC0013668,diff,Stage3,1425.1,47.7
CERNQ10,FE3,20UPGFC0013653,syn,Stage1,2388.4,121.4
CERNQ10,FE3,20UPGFC0013653,lin,Stage1,1379.1,42.0
CERNQ10,FE3,20UPGFC0013653,diff,Stage1,1394.8,30.9
