
ot@jollyroger Yarr]# ./bin/scanConsole -r configs/controller/specCfg-rd53a-16x1.json  -c configs/CERNQ3/connectivity.json -s configs/scans/rd53a/reg_readtemp.json -p
[18:50:25:607][  info  ][               ]: #####################################
[18:50:25:607][  info  ][               ]: # Welcome to the YARR Scan Console! #
[18:50:25:607][  info  ][               ]: #####################################
[18:50:25:607][  info  ][               ]: -> Parsing command line parameters ...
[18:50:25:607][  info  ][               ]: Configuring logger ...
[18:50:25:609][  info  ][  scanConsole  ]: Scan Type/Config configs/scans/rd53a/reg_readtemp.json
[18:50:25:609][  info  ][  scanConsole  ]: Connectivity:
[18:50:25:609][  info  ][  scanConsole  ]:     configs/CERNQ3/connectivity.json
[18:50:25:609][  info  ][  scanConsole  ]: Target ToT: -1
[18:50:25:609][  info  ][  scanConsole  ]: Target Charge: -1
[18:50:25:609][  info  ][  scanConsole  ]: Output Plots: true
[18:50:25:609][  info  ][  scanConsole  ]: Output Directory: ./data/001604_reg_readtemp/
[18:50:25:614][  info  ][  scanConsole  ]: Timestamp: 2022-08-22_18:50:25
[18:50:25:614][  info  ][  scanConsole  ]: Run Number: 1604
[18:50:25:614][  info  ][  scanConsole  ]: #################
[18:50:25:614][  info  ][  scanConsole  ]: # Init Hardware #
[18:50:25:614][  info  ][  scanConsole  ]: #################
[18:50:25:614][  info  ][  scanConsole  ]: -> Opening controller config: configs/controller/specCfg-rd53a-16x1.json
[18:50:25:614][  info  ][  ScanHelper   ]: Loading controller ...
[18:50:25:614][  info  ][  ScanHelper   ]: Found controller of type: spec
[18:50:25:614][  info  ][  ScanHelper   ]: ... loading controler config:
[18:50:25:614][  info  ][  ScanHelper   ]: ~~~ {
[18:50:25:614][  info  ][  ScanHelper   ]: ~~~     "cmdPeriod": 6.250000073038109e-9,
[18:50:25:614][  info  ][  ScanHelper   ]: ~~~     "idle": {
[18:50:25:614][  info  ][  ScanHelper   ]: ~~~         "word": 1768515945
[18:50:25:614][  info  ][  ScanHelper   ]: ~~~     },
[18:50:25:614][  info  ][  ScanHelper   ]: ~~~     "pulse": {
[18:50:25:614][  info  ][  ScanHelper   ]: ~~~         "interval": 500,
[18:50:25:614][  info  ][  ScanHelper   ]: ~~~         "word": 1549575846
[18:50:25:614][  info  ][  ScanHelper   ]: ~~~     },
[18:50:25:614][  info  ][  ScanHelper   ]: ~~~     "rxActiveLanes": 1,
[18:50:25:614][  info  ][  ScanHelper   ]: ~~~     "rxPolarity": 0,
[18:50:25:614][  info  ][  ScanHelper   ]: ~~~     "specNum": 0,
[18:50:25:614][  info  ][  ScanHelper   ]: ~~~     "spiConfig": 541200,
[18:50:25:614][  info  ][  ScanHelper   ]: ~~~     "sync": {
[18:50:25:614][  info  ][  ScanHelper   ]: ~~~         "interval": 32,
[18:50:25:614][  info  ][  ScanHelper   ]: ~~~         "word": 2172551550
[18:50:25:614][  info  ][  ScanHelper   ]: ~~~     },
[18:50:25:614][  info  ][  ScanHelper   ]: ~~~     "txPolarity": 0
[18:50:25:614][  info  ][  ScanHelper   ]: ~~~ }
[18:50:25:614][  info  ][    SpecCom    ]: Opening SPEC with id #0
[18:50:25:614][  info  ][    SpecCom    ]: Mapping BARs ...
[18:50:25:614][  info  ][    SpecCom    ]: ... Mapped BAR0 at 0x7f9184cc6000 with size 1048576
[18:50:25:614][warning ][    SpecCom    ]: ... BAR4 not mapped (Mmap failed)
[18:50:25:614][  info  ][    SpecCom    ]: ~~~~~~~~~~~~~~~~~~~~~~~~~~~
[18:50:25:614][  info  ][    SpecCom    ]: Firmware Version: 0x4d9ff6d
[18:50:25:614][  info  ][    SpecCom    ]: Firmware Identifier: 0x4030232
[18:50:25:614][  info  ][    SpecCom    ]: FPGA card: PLDA XpressK7 325
[18:50:25:614][  info  ][    SpecCom    ]: FE Chip Type: RD53A/B
[18:50:25:614][  info  ][    SpecCom    ]: FMC Card Type: Ohio Card (Display Port)
[18:50:25:614][  info  ][    SpecCom    ]: RX Speed: 640Mbps
[18:50:25:614][  info  ][    SpecCom    ]: Channel Configuration: 16x1
[18:50:25:614][  info  ][    SpecCom    ]: ~~~~~~~~~~~~~~~~~~~~~~~~~~~
[18:50:25:614][  info  ][    SpecCom    ]: Flushing buffers ...
[18:50:25:614][  info  ][    SpecCom    ]: Init success!
[18:50:25:614][  info  ][  scanConsole  ]: #######################
[18:50:25:614][  info  ][  scanConsole  ]: ##  Loading Configs  ##
[18:50:25:614][  info  ][  scanConsole  ]: #######################
[18:50:25:614][  info  ][  scanConsole  ]: Opening global config: configs/CERNQ3/connectivity.json
[18:50:25:614][  info  ][  ScanHelper   ]: Chip type: RD53A
[18:50:25:614][  info  ][  ScanHelper   ]: Chip count 4
[18:50:25:614][  info  ][  ScanHelper   ]: Loading chip #0
[18:50:25:615][  info  ][  Bookkeeper   ]: Added FE: Tx(1), Rx(4)
[18:50:25:615][  info  ][  ScanHelper   ]: Loading config file: configs/CERNQ3/20UPGFC0012890.json
[18:50:25:790][  info  ][  ScanHelper   ]: Loading chip #1
[18:50:25:791][  info  ][  Bookkeeper   ]: Added FE: Tx(1), Rx(5)
[18:50:25:791][  info  ][  ScanHelper   ]: Loading config file: configs/CERNQ3/20UPGFC0012922.json
[18:50:25:962][  info  ][  ScanHelper   ]: Loading chip #2
[18:50:25:963][  info  ][  Bookkeeper   ]: Added FE: Tx(1), Rx(6)
[18:50:25:963][  info  ][  ScanHelper   ]: Loading config file: configs/CERNQ3/20UPGFC0012954.json
[18:50:26:132][  info  ][  ScanHelper   ]: Loading chip #3
[18:50:26:133][  info  ][  Bookkeeper   ]: Added FE: Tx(1), Rx(7)
[18:50:26:133][  info  ][  ScanHelper   ]: Loading config file: configs/CERNQ3/20UPGFC0012906.json
[18:50:26:310][  info  ][  scanConsole  ]: #################
[18:50:26:310][  info  ][  scanConsole  ]: # Configure FEs #
[18:50:26:310][  info  ][  scanConsole  ]: #################
[18:50:26:310][  info  ][  scanConsole  ]: Configuring 20UPGFC0012890
[18:50:26:341][  info  ][  scanConsole  ]: Configuring 20UPGFC0012922
[18:50:26:371][  info  ][  scanConsole  ]: Configuring 20UPGFC0012954
[18:50:26:401][  info  ][  scanConsole  ]: Configuring 20UPGFC0012906
[18:50:26:450][  info  ][  scanConsole  ]: Sent configuration to all FEs in 139 ms!
[18:50:26:451][  info  ][  scanConsole  ]: Checking com 20UPGFC0012890
[18:50:26:451][  info  ][    SpecRx     ]: Active Rx channels: 0x10
[18:50:26:451][  info  ][    SpecRx     ]: Active Rx lanes: 0x1
[18:50:26:451][  info  ][    SpecRx     ]: Rx Status 0xf0
[18:50:26:451][  info  ][    SpecRx     ]: Number of lanes: 1
[18:50:26:451][  info  ][    SpecRx     ]: Channel 4 Lane 0 synchronized!
[18:50:26:462][  info  ][  scanConsole  ]: ... success!
[18:50:26:462][  info  ][  scanConsole  ]: Checking com 20UPGFC0012922
[18:50:26:462][  info  ][    SpecRx     ]: Active Rx channels: 0x20
[18:50:26:462][  info  ][    SpecRx     ]: Active Rx lanes: 0x1
[18:50:26:462][  info  ][    SpecRx     ]: Rx Status 0xf0
[18:50:26:462][  info  ][    SpecRx     ]: Number of lanes: 1
[18:50:26:462][  info  ][    SpecRx     ]: Channel 5 Lane 0 synchronized!
[18:50:26:472][  info  ][  scanConsole  ]: ... success!
[18:50:26:473][  info  ][  scanConsole  ]: Checking com 20UPGFC0012954
[18:50:26:473][  info  ][    SpecRx     ]: Active Rx channels: 0x40
[18:50:26:473][  info  ][    SpecRx     ]: Active Rx lanes: 0x1
[18:50:26:473][  info  ][    SpecRx     ]: Rx Status 0xf0
[18:50:26:473][  info  ][    SpecRx     ]: Number of lanes: 1
[18:50:26:473][  info  ][    SpecRx     ]: Channel 6 Lane 0 synchronized!
[18:50:26:483][  info  ][  scanConsole  ]: ... success!
[18:50:26:483][  info  ][  scanConsole  ]: Checking com 20UPGFC0012906
[18:50:26:483][  info  ][    SpecRx     ]: Active Rx channels: 0x80
[18:50:26:483][  info  ][    SpecRx     ]: Active Rx lanes: 0x1
[18:50:26:483][  info  ][    SpecRx     ]: Rx Status 0xf0
[18:50:26:483][  info  ][    SpecRx     ]: Number of lanes: 1
[18:50:26:483][  info  ][    SpecRx     ]: Channel 7 Lane 0 synchronized!
[18:50:26:494][  info  ][  scanConsole  ]: ... success!
[18:50:26:494][  info  ][  scanConsole  ]: Enabling Tx channels
[18:50:26:494][  info  ][  scanConsole  ]: Enabling Tx channel 1
[18:50:26:494][  info  ][  scanConsole  ]: Enabling Tx channel 1
[18:50:26:494][  info  ][  scanConsole  ]: Enabling Tx channel 1
[18:50:26:494][  info  ][  scanConsole  ]: Enabling Tx channel 1
[18:50:26:494][  info  ][  scanConsole  ]: Enabling Rx channels
[18:50:26:494][  info  ][  scanConsole  ]: Enabling Rx channel 4
[18:50:26:494][  info  ][  scanConsole  ]: Enabling Rx channel 5
[18:50:26:494][  info  ][  scanConsole  ]: Enabling Rx channel 6
[18:50:26:494][  info  ][  scanConsole  ]: Enabling Rx channel 7
[18:50:26:494][  info  ][  scanConsole  ]: ##############
[18:50:26:494][  info  ][  scanConsole  ]: # Setup Scan #
[18:50:26:494][  info  ][  scanConsole  ]: ##############
[18:50:26:495][  info  ][  scanConsole  ]: Found Scan config, constructing scan ...
[18:50:26:495][  info  ][  ScanFactory  ]: Loading Scan:
[18:50:26:495][  info  ][  ScanFactory  ]:   Name: AnalogScan
[18:50:26:495][  info  ][  ScanFactory  ]:   Number of Loops: 3
[18:50:26:495][  info  ][  ScanFactory  ]:   Loading Loop #0
[18:50:26:495][  info  ][  ScanFactory  ]:    Type: Rd53aReadRegLoop
[18:50:26:495][  info  ][  ScanFactory  ]:    Loading loop config ... 
[18:50:26:495][  info  ][  ScanFactory  ]: ~~~ {
[18:50:26:495][  info  ][  ScanFactory  ]: ~~~     "CurMux": [],
[18:50:26:495][  info  ][  ScanFactory  ]: ~~~     "EnblRingOsc": 0,
[18:50:26:495][  info  ][  ScanFactory  ]: ~~~     "Registers": [],
[18:50:26:495][  info  ][  ScanFactory  ]: ~~~     "RingOscDur": 9,
[18:50:26:495][  info  ][  ScanFactory  ]: ~~~     "RingOscRep": 10,
[18:50:26:495][  info  ][  ScanFactory  ]: ~~~     "VoltMux": [3, 5, 7, 15]
[18:50:26:495][  info  ][  ScanFactory  ]: ~~~ }
[18:50:26:495][  info  ][  ScanFactory  ]:   Loading Loop #1
[18:50:26:495][  info  ][  ScanFactory  ]:    Type: Rd53aTriggerLoop
[18:50:26:495][  info  ][  ScanFactory  ]:    Loading loop config ... 
[18:50:26:496][  info  ][  ScanFactory  ]: ~~~ {
[18:50:26:496][  info  ][  ScanFactory  ]: ~~~     "count": 1,
[18:50:26:496][  info  ][  ScanFactory  ]: ~~~     "delay": 48,
[18:50:26:496][  info  ][  ScanFactory  ]: ~~~     "extTrig": false,
[18:50:26:496][  info  ][  ScanFactory  ]: ~~~     "frequency": 30000.0,
[18:50:26:496][  info  ][  ScanFactory  ]: ~~~     "noInject": false,
[18:50:26:496][  info  ][  ScanFactory  ]: ~~~     "sendEcr": false,
[18:50:26:496][  info  ][  ScanFactory  ]: ~~~     "time": 0.0,
[18:50:26:496][  info  ][  ScanFactory  ]: ~~~     "trigMultiplier": 16
[18:50:26:496][  info  ][  ScanFactory  ]: ~~~ }
[18:50:26:496][  info  ][  ScanFactory  ]:   Loading Loop #2
[18:50:26:496][  info  ][  ScanFactory  ]:    Type: StdDataLoop
[18:50:26:496][warning ][  ScanFactory  ]: ~~~ Config empty.
[18:50:26:496][  info  ][ScanBuildHistogrammers]: Loading histogrammer ...
[18:50:26:496][  info  ][ScanBuildHistogrammers]: ... done!
[18:50:26:496][  info  ][ScanBuildAnalyses]: Loading analyses ...
[18:50:26:497][  info  ][  scanConsole  ]: Running pre scan!
[18:50:26:497][  info  ][  ScanFactory  ]: Entering pre scan phase ...
[18:50:26:497][  info  ][     Rd53a     ]: Write named register: GlobalPulseRt -> 16384
[18:50:26:497][  info  ][     Rd53a     ]: Write named register: InjEnDig -> 0
[18:50:26:497][  info  ][     Rd53a     ]: Write named register: InjVcalDiff -> 0
[18:50:26:497][  info  ][     Rd53a     ]: Write named register: InjVcalHigh -> 3500
[18:50:26:497][  info  ][     Rd53a     ]: Write named register: InjVcalMed -> 500
[18:50:26:497][  info  ][     Rd53a     ]: Write named register: LatencyConfig -> 48
[18:50:26:497][  info  ][  scanConsole  ]: Starting histogrammer and analysis threads:
[18:50:26:497][  info  ][  scanConsole  ]:  .. started threads of Fe 4
[18:50:26:497][  info  ][  scanConsole  ]:  .. started threads of Fe 5
[18:50:26:497][  info  ][  scanConsole  ]:  .. started threads of Fe 6
[18:50:26:497][  info  ][  scanConsole  ]:  .. started threads of Fe 7
[18:50:26:498][  info  ][Rd53aDataProcessor]:   -> Processor thread #0 started!
[18:50:26:498][  info  ][Rd53aDataProcessor]:   -> Processor thread #1 started!
[18:50:26:498][  info  ][Rd53aDataProcessor]:   -> Processor thread #2 started!
[18:50:26:498][  info  ][Rd53aDataProcessor]:   -> Processor thread #3 started!
[18:50:26:498][  info  ][  scanConsole  ]: ########
[18:50:26:498][  info  ][  scanConsole  ]: # Scan #
[18:50:26:498][  info  ][  scanConsole  ]: ########
[18:50:26:498][  info  ][  scanConsole  ]: Starting scan!
[18:50:26:498][  info  ][Rd53aReadRegLoop]: Measuring for FE 20UPGFC0012890 on Rx 4
[18:50:26:503][  info  ][Rd53aReadRegLoop]: [4][20UPGFC0012890] MON MUX_V: 3 Bias 0 1284 -> 0.270489 V Bias 1 1668 -> 0.347624 V, Temperature 0.0771354 -> -6.37268 C
[18:50:26:507][  info  ][Rd53aReadRegLoop]: [4][20UPGFC0012890] MON MUX_V: 5 Bias 0 1223 -> 0.258236 V Bias 1 1615 -> 0.336978 V, Temperature 0.0787423 -> -31.4431 C
[18:50:26:511][  info  ][Rd53aReadRegLoop]: [4][20UPGFC0012890] MON MUX_V: 7 Bias 0 1220 -> 0.257633 V Bias 1 1619 -> 0.337782 V, Temperature 0.0801485 -> -29.1267 C
[18:50:26:516][  info  ][Rd53aReadRegLoop]: [4][20UPGFC0012890] MON MUX_V: 15 Bias 0 1205 -> 0.25462 V Bias 1 1599 -> 0.333764 V, Temperature 0.0791441 -> -37.623 C
[18:50:26:551][  info  ][Rd53aReadRegLoop]: Measuring for FE 20UPGFC0012922 on Rx 5
[18:50:26:555][  info  ][Rd53aReadRegLoop]: [5][20UPGFC0012922] MON MUX_V: 3 Bias 0 1272 -> 0.2664 V Bias 1 1660 -> 0.344 V, Temperature 0.0776 -> -3.38809 C
[18:50:26:559][  info  ][Rd53aReadRegLoop]: [5][20UPGFC0012922] MON MUX_V: 5 Bias 0 1226 -> 0.2572 V Bias 1 1625 -> 0.337 V, Temperature 0.0798 -> -20.3444 C
[18:50:26:563][  info  ][Rd53aReadRegLoop]: [5][20UPGFC0012922] MON MUX_V: 7 Bias 0 1222 -> 0.2564 V Bias 1 1618 -> 0.3356 V, Temperature 0.0792 -> -26.2059 C
[18:50:26:568][  info  ][Rd53aReadRegLoop]: [5][20UPGFC0012922] MON MUX_V: 15 Bias 0 1214 -> 0.2548 V Bias 1 1615 -> 0.335 V, Temperature 0.0802 -> -23.5234 C
[18:50:26:603][  info  ][Rd53aReadRegLoop]: Measuring for FE 20UPGFC0012954 on Rx 6
[18:50:26:607][  info  ][Rd53aReadRegLoop]: [6][20UPGFC0012954] MON MUX_V: 3 Bias 0 1277 -> 0.266432 V Bias 1 1661 -> 0.343951 V, Temperature 0.0775189 -> -9.72855 C
[18:50:26:611][  info  ][Rd53aReadRegLoop]: [6][20UPGFC0012954] MON MUX_V: 5 Bias 0 1239 -> 0.258761 V Bias 1 1623 -> 0.33628 V, Temperature 0.0775189 -> -31.1533 C
[18:50:26:616][  info  ][Rd53aReadRegLoop]: [6][20UPGFC0012954] MON MUX_V: 7 Bias 0 1213 -> 0.253512 V Bias 1 1610 -> 0.333656 V, Temperature 0.0801432 -> -22.8777 C
[18:50:26:620][  info  ][Rd53aReadRegLoop]: [6][20UPGFC0012954] MON MUX_V: 15 Bias 0 1217 -> 0.25432 V Bias 1 1610 -> 0.333656 V, Temperature 0.0793357 -> -32.1667 C
[18:50:26:655][  info  ][Rd53aReadRegLoop]: Measuring for FE 20UPGFC0012906 on Rx 7
[18:50:26:659][  info  ][Rd53aReadRegLoop]: [7][20UPGFC0012906] MON MUX_V: 3 Bias 0 1267 -> 0.26653 V Bias 1 1648 -> 0.344234 V, Temperature 0.0777044 -> -4.88467 C
[18:50:26:663][  info  ][Rd53aReadRegLoop]: [7][20UPGFC0012906] MON MUX_V: 5 Bias 0 1227 -> 0.258372 V Bias 1 1606 -> 0.335668 V, Temperature 0.0772965 -> -14.6637 C
[18:50:26:667][  info  ][Rd53aReadRegLoop]: [7][20UPGFC0012906] MON MUX_V: 7 Bias 0 1229 -> 0.25878 V Bias 1 1613 -> 0.337096 V, Temperature 0.0783162 -> -18.1183 C
[18:50:26:672][  info  ][Rd53aReadRegLoop]: [7][20UPGFC0012906] MON MUX_V: 15 Bias 0 1202 -> 0.253273 V Bias 1 1593 -> 0.333017 V, Temperature 0.0797439 -> -18.4143 C
[18:50:26:708][  info  ][  scanConsole  ]: Scan done!
[18:50:26:708][  info  ][  scanConsole  ]: Waiting for processors to finish ...
[18:50:26:709][  info  ][  scanConsole  ]: Processor done, waiting for histogrammer ...
[18:50:27:108][  info  ][HistogramAlgorithm]: Histogrammer done!
[18:50:27:108][  info  ][HistogramAlgorithm]: Histogrammer done!
[18:50:27:108][  info  ][HistogramAlgorithm]: Histogrammer done!
[18:50:27:108][  info  ][HistogramAlgorithm]: Histogrammer done!
[18:50:27:109][  info  ][  scanConsole  ]: Processor done, waiting for analysis ...
[18:50:27:509][  info  ][AnalysisAlgorithm]: Analysis done!
[18:50:27:509][  info  ][AnalysisAlgorithm]: Analysis done!
[18:50:27:509][  info  ][AnalysisAlgorithm]: Analysis done!
[18:50:27:509][  info  ][AnalysisAlgorithm]: Analysis done!
[18:50:27:509][  info  ][  scanConsole  ]: All done!
[18:50:27:509][  info  ][  scanConsole  ]: ##########
[18:50:27:509][  info  ][  scanConsole  ]: # Timing #
[18:50:27:509][  info  ][  scanConsole  ]: ##########
[18:50:27:509][  info  ][  scanConsole  ]: -> Configuration: 139 ms
[18:50:27:509][  info  ][  scanConsole  ]: -> Scan:          209 ms
[18:50:27:509][  info  ][  scanConsole  ]: -> Processing:    0 ms
[18:50:27:509][  info  ][  scanConsole  ]: -> Analysis:      800 ms
[18:50:27:509][  info  ][  scanConsole  ]: ###########
[18:50:27:509][  info  ][  scanConsole  ]: # Cleanup #
[18:50:27:509][  info  ][  scanConsole  ]: ###########
[18:50:27:517][  info  ][  scanConsole  ]: Saving config of FE 20UPGFC0012890 to configs/CERNQ3/20UPGFC0012890.json
[18:50:27:684][  info  ][  scanConsole  ]: -> Storing output results of FE 4
[18:50:27:684][warning ][  scanConsole  ]: There were no results for chip 20UPGFC0012890, this usually means that the chip did not send any data at all.
[18:50:27:685][  info  ][  scanConsole  ]: Saving config of FE 20UPGFC0012922 to configs/CERNQ3/20UPGFC0012922.json
[18:50:27:847][  info  ][  scanConsole  ]: -> Storing output results of FE 5
[18:50:27:847][warning ][  scanConsole  ]: There were no results for chip 20UPGFC0012922, this usually means that the chip did not send any data at all.
[18:50:27:849][  info  ][  scanConsole  ]: Saving config of FE 20UPGFC0012954 to configs/CERNQ3/20UPGFC0012954.json
[18:50:28:012][  info  ][  scanConsole  ]: -> Storing output results of FE 6
[18:50:28:012][warning ][  scanConsole  ]: There were no results for chip 20UPGFC0012954, this usually means that the chip did not send any data at all.
[18:50:28:013][  info  ][  scanConsole  ]: Saving config of FE 20UPGFC0012906 to configs/CERNQ3/20UPGFC0012906.json
[18:50:28:178][  info  ][  scanConsole  ]: -> Storing output results of FE 7
[18:50:28:178][warning ][  scanConsole  ]: There were no results for chip 20UPGFC0012906, this usually means that the chip did not send any data at all.
[18:50:28:180][  info  ][  scanConsole  ]: Finishing run: 1604
20UPGFC0012890.json.after
20UPGFC0012890.json.before
20UPGFC0012906.json.after
20UPGFC0012906.json.before
20UPGFC0012922.json.after
20UPGFC0012922.json.before
20UPGFC0012954.json.after
20UPGFC0012954.json.before
reg_readtemp.json
scanLog.json

