{
    "Data": [344.0, 190.0, 148.0, 165.0, 25887.0, 2607852.0, 1093595.0, 855971.0, 593752.0, 41457.0, 0.0, 0.0, 0.0, 0.0, 4.0, 0.0],
    "Name": "L1Dist",
    "Overflow": 33.0,
    "Type": "Histo1d",
    "Underflow": 0.0,
    "x": {
        "AxisTitle": "L1Id",
        "Bins": 16,
        "High": 15.5,
        "Low": -0.5
    },
    "y": {
        "AxisTitle": "Hits"
    },
    "z": {
        "AxisTitle": "z"
    }
}