{
    "unit": {
        "Time": "s",
        "Voltage": "V",
        "Current": "A"
    },
    "V_step": -5,
    "Step_duration": 2,
    "N_measurements_per_step": 10,
    "A_Compliance": 1e-05,
    "Sensor_IV": [
        {
            "Time": 20.297120809555054,
            "Voltage": 0.0,
            "Current_mean": 1.2249565999999997e-07,
            "Current_sigma": 1.4121746408160712e-08
        },
        {
            "Time": 26.290812969207764,
            "Voltage": -5.0,
            "Current_mean": -3.7810537e-07,
            "Current_sigma": 2.1334525806356704e-08
        },
        {
            "Time": 32.28409671783447,
            "Voltage": -10.0,
            "Current_mean": -6.2952608e-07,
            "Current_sigma": 9.272706797564564e-09
        },
        {
            "Time": 38.27769112586975,
            "Voltage": -15.0,
            "Current_mean": -7.898432200000001e-07,
            "Current_sigma": 9.523980893806964e-09
        },
        {
            "Time": 44.27102971076965,
            "Voltage": -20.0,
            "Current_mean": -8.444356399999999e-07,
            "Current_sigma": 7.1203586195078714e-09
        },
        {
            "Time": 50.26439929008484,
            "Voltage": -25.0,
            "Current_mean": -8.6348848e-07,
            "Current_sigma": 6.318860270301918e-09
        },
        {
            "Time": 56.25793147087097,
            "Voltage": -30.0,
            "Current_mean": -8.7640994e-07,
            "Current_sigma": 7.469719727566752e-09
        },
        {
            "Time": 62.25138759613037,
            "Voltage": -35.0,
            "Current_mean": -8.854638e-07,
            "Current_sigma": 6.1463623874613645e-09
        },
        {
            "Time": 68.24471974372864,
            "Voltage": -40.0,
            "Current_mean": -9.1380106e-07,
            "Current_sigma": 7.3722779836628445e-09
        },
        {
            "Time": 74.23820185661316,
            "Voltage": -45.0,
            "Current_mean": -1.0035468599999997e-06,
            "Current_sigma": 6.450356006485208e-09
        },
        {
            "Time": 80.23166298866272,
            "Voltage": -50.0,
            "Current_mean": -1.1699271e-06,
            "Current_sigma": 7.48576886431846e-09
        },
        {
            "Time": 86.22526574134827,
            "Voltage": -55.0,
            "Current_mean": -1.4037953e-06,
            "Current_sigma": 8.094506211622791e-09
        },
        {
            "Time": 92.21879935264587,
            "Voltage": -60.0,
            "Current_mean": -1.6935812000000002e-06,
            "Current_sigma": 5.287627800819594e-09
        },
        {
            "Time": 98.21220374107361,
            "Voltage": -65.0,
            "Current_mean": -2.0280214e-06,
            "Current_sigma": 6.136863925491543e-09
        },
        {
            "Time": 104.20575380325317,
            "Voltage": -70.0,
            "Current_mean": -2.4055476e-06,
            "Current_sigma": 5.699883423369182e-09
        },
        {
            "Time": 110.1991765499115,
            "Voltage": -75.0,
            "Current_mean": -2.8222017e-06,
            "Current_sigma": 7.643495104335434e-09
        },
        {
            "Time": 116.19354248046875,
            "Voltage": -80.0,
            "Current_mean": -3.2721653e-06,
            "Current_sigma": 7.82840080795562e-09
        },
        {
            "Time": 122.1864960193634,
            "Voltage": -85.0,
            "Current_mean": -3.7625002e-06,
            "Current_sigma": 6.2593147196797495e-09
        },
        {
            "Time": 128.18008041381836,
            "Voltage": -90.0,
            "Current_mean": -4.282709600000001e-06,
            "Current_sigma": 6.200508240458999e-09
        },
        {
            "Time": 134.17345643043518,
            "Voltage": -95.0,
            "Current_mean": -4.835626e-06,
            "Current_sigma": 7.550114674625674e-09
        },
        {
            "Time": 140.16700434684753,
            "Voltage": -100.0,
            "Current_mean": -5.4371114e-06,
            "Current_sigma": 6.427220895534751e-09
        }
    ]
}