{
    "unit": {
        "Time": "s",
        "Voltage": "V",
        "Current": "A"
    },
    "V_step": -5,
    "Step_duration": 2,
    "N_measurements_per_step": 10,
    "A_Compliance": 1e-05,
    "Sensor_IV": [
        {
            "Time": 6.104609727859497,
            "Voltage": 0.0,
            "Current_mean": 5.7840714999999993e-08,
            "Current_sigma": 1.3442110394979839e-08
        },
        {
            "Time": 12.098339796066284,
            "Voltage": -5.0,
            "Current_mean": -4.6121335999999994e-07,
            "Current_sigma": 1.5808480374229528e-08
        },
        {
            "Time": 18.0917010307312,
            "Voltage": -10.0,
            "Current_mean": -5.285086399999999e-07,
            "Current_sigma": 1.1229217386015821e-08
        },
        {
            "Time": 24.085169553756714,
            "Voltage": -15.0,
            "Current_mean": -5.344278600000001e-07,
            "Current_sigma": 8.122707844949246e-09
        },
        {
            "Time": 30.078557014465332,
            "Voltage": -20.0,
            "Current_mean": -5.3398993e-07,
            "Current_sigma": 7.872244395221743e-09
        },
        {
            "Time": 36.07212948799133,
            "Voltage": -25.0,
            "Current_mean": -5.3809807e-07,
            "Current_sigma": 7.203394939478189e-09
        },
        {
            "Time": 42.065637826919556,
            "Voltage": -30.0,
            "Current_mean": -5.387950200000001e-07,
            "Current_sigma": 7.522805501779244e-09
        },
        {
            "Time": 48.05916714668274,
            "Voltage": -35.0,
            "Current_mean": -5.4637186e-07,
            "Current_sigma": 7.261876917877356e-09
        },
        {
            "Time": 54.05259680747986,
            "Voltage": -40.0,
            "Current_mean": -5.4689556e-07,
            "Current_sigma": 7.29641728209125e-09
        },
        {
            "Time": 60.0462212562561,
            "Voltage": -45.0,
            "Current_mean": -5.4836399e-07,
            "Current_sigma": 6.99154738372699e-09
        },
        {
            "Time": 66.0395519733429,
            "Voltage": -50.0,
            "Current_mean": -5.5033465e-07,
            "Current_sigma": 7.058694202223255e-09
        },
        {
            "Time": 72.03288459777832,
            "Voltage": -55.0,
            "Current_mean": -5.529191800000002e-07,
            "Current_sigma": 6.302144500057115e-09
        },
        {
            "Time": 78.02641367912292,
            "Voltage": -60.0,
            "Current_mean": -5.535646999999999e-07,
            "Current_sigma": 5.173441620816843e-09
        },
        {
            "Time": 84.01975154876709,
            "Voltage": -65.0,
            "Current_mean": -5.583051500000001e-07,
            "Current_sigma": 7.019850272085598e-09
        },
        {
            "Time": 90.01334476470947,
            "Voltage": -70.0,
            "Current_mean": -5.654389500000001e-07,
            "Current_sigma": 7.406114657261251e-09
        },
        {
            "Time": 96.00677585601807,
            "Voltage": -75.0,
            "Current_mean": -5.653243e-07,
            "Current_sigma": 6.670915906830196e-09
        },
        {
            "Time": 102.00070190429688,
            "Voltage": -80.0,
            "Current_mean": -5.6882401e-07,
            "Current_sigma": 7.128306618748959e-09
        },
        {
            "Time": 107.99426245689392,
            "Voltage": -85.0,
            "Current_mean": -5.7034133e-07,
            "Current_sigma": 5.7080424825065925e-09
        },
        {
            "Time": 113.98796606063843,
            "Voltage": -90.0,
            "Current_mean": -5.7633926e-07,
            "Current_sigma": 5.106240549014505e-09
        },
        {
            "Time": 119.98143649101257,
            "Voltage": -95.0,
            "Current_mean": -5.8137547e-07,
            "Current_sigma": 7.1042860512580644e-09
        },
        {
            "Time": 125.97504711151123,
            "Voltage": -100.0,
            "Current_mean": -5.8685117e-07,
            "Current_sigma": 6.225340141237263e-09
        },
        {
            "Time": 131.9683723449707,
            "Voltage": -105.0,
            "Current_mean": -5.929511600000002e-07,
            "Current_sigma": 5.326195134840622e-09
        },
        {
            "Time": 137.96190524101257,
            "Voltage": -110.0,
            "Current_mean": -5.9774602e-07,
            "Current_sigma": 6.161847201903034e-09
        },
        {
            "Time": 143.95532846450806,
            "Voltage": -115.0,
            "Current_mean": -6.0215151e-07,
            "Current_sigma": 5.568079466826959e-09
        },
        {
            "Time": 149.94858169555664,
            "Voltage": -120.0,
            "Current_mean": -6.0693869e-07,
            "Current_sigma": 6.171956975295586e-09
        },
        {
            "Time": 155.94194197654724,
            "Voltage": -125.0,
            "Current_mean": -6.125270600000001e-07,
            "Current_sigma": 4.8214286503483555e-09
        },
        {
            "Time": 161.93540453910828,
            "Voltage": -130.0,
            "Current_mean": -6.201446999999999e-07,
            "Current_sigma": 5.077022579228894e-09
        },
        {
            "Time": 167.92903804779053,
            "Voltage": -135.0,
            "Current_mean": -6.2643776e-07,
            "Current_sigma": 4.8683274021371984e-09
        },
        {
            "Time": 173.92256903648376,
            "Voltage": -140.0,
            "Current_mean": -6.3177314e-07,
            "Current_sigma": 3.618652416356128e-09
        },
        {
            "Time": 179.91616082191467,
            "Voltage": -145.0,
            "Current_mean": -6.4282474e-07,
            "Current_sigma": 5.18346589767888e-09
        },
        {
            "Time": 185.90925693511963,
            "Voltage": -150.0,
            "Current_mean": -6.529773900000001e-07,
            "Current_sigma": 4.629118955146857e-09
        },
        {
            "Time": 191.90284538269043,
            "Voltage": -155.0,
            "Current_mean": -6.607007500000001e-07,
            "Current_sigma": 4.591485262798958e-09
        },
        {
            "Time": 197.89634823799133,
            "Voltage": -160.0,
            "Current_mean": -6.681675600000001e-07,
            "Current_sigma": 4.624474773031002e-09
        },
        {
            "Time": 203.8898241519928,
            "Voltage": -165.0,
            "Current_mean": -6.767771300000001e-07,
            "Current_sigma": 5.183584962947936e-09
        },
        {
            "Time": 209.88344836235046,
            "Voltage": -170.0,
            "Current_mean": -6.8820584e-07,
            "Current_sigma": 4.199023751349823e-09
        },
        {
            "Time": 215.8768916130066,
            "Voltage": -175.0,
            "Current_mean": -6.972913700000001e-07,
            "Current_sigma": 4.960732406217856e-09
        },
        {
            "Time": 221.88649368286133,
            "Voltage": -180.0,
            "Current_mean": -7.102408e-07,
            "Current_sigma": 5.488534275742468e-09
        },
        {
            "Time": 227.87995672225952,
            "Voltage": -185.0,
            "Current_mean": -7.2020685e-07,
            "Current_sigma": 4.753596972872227e-09
        },
        {
            "Time": 233.87341833114624,
            "Voltage": -190.0,
            "Current_mean": -7.3062269e-07,
            "Current_sigma": 4.256141755028847e-09
        },
        {
            "Time": 239.86686635017395,
            "Voltage": -195.0,
            "Current_mean": -7.4504389e-07,
            "Current_sigma": 5.1929372252031034e-09
        },
        {
            "Time": 245.8605215549469,
            "Voltage": -200.0,
            "Current_mean": -7.592412900000001e-07,
            "Current_sigma": 4.6403901597710586e-09
        }
    ]
}