{
    "unit": {
        "Time": "s",
        "Voltage": "V",
        "Current": "A"
    },
    "V_step": -5,
    "Step_duration": 2,
    "N_measurements_per_step": 10,
    "A_Compliance": 1e-05,
    "Sensor_IV": [
        {
            "Time": 6.105327129364014,
            "Voltage": 0.0,
            "Current_mean": -2.9516120900000005e-08,
            "Current_sigma": 1.6010306500352305e-08
        },
        {
            "Time": 12.099469661712646,
            "Voltage": -5.0,
            "Current_mean": -2.7702605e-07,
            "Current_sigma": 1.7800554971306367e-08
        },
        {
            "Time": 18.09363842010498,
            "Voltage": -10.0,
            "Current_mean": -3.0873632999999997e-07,
            "Current_sigma": 9.832154183804273e-09
        },
        {
            "Time": 24.08791160583496,
            "Voltage": -15.0,
            "Current_mean": -3.1682196e-07,
            "Current_sigma": 7.838855799566662e-09
        },
        {
            "Time": 30.08203363418579,
            "Voltage": -20.0,
            "Current_mean": -3.1692776e-07,
            "Current_sigma": 7.425477850239673e-09
        },
        {
            "Time": 36.07630896568298,
            "Voltage": -25.0,
            "Current_mean": -3.2122174e-07,
            "Current_sigma": 7.347679835049975e-09
        },
        {
            "Time": 42.070388317108154,
            "Voltage": -30.0,
            "Current_mean": -3.1888443e-07,
            "Current_sigma": 7.440737688166407e-09
        },
        {
            "Time": 48.064619064331055,
            "Voltage": -35.0,
            "Current_mean": -3.2178404000000006e-07,
            "Current_sigma": 7.301684608937866e-09
        },
        {
            "Time": 54.05881714820862,
            "Voltage": -40.0,
            "Current_mean": -3.2129733e-07,
            "Current_sigma": 6.637320053312178e-09
        },
        {
            "Time": 60.05302906036377,
            "Voltage": -45.0,
            "Current_mean": -3.2189745e-07,
            "Current_sigma": 6.749169210688075e-09
        },
        {
            "Time": 66.0471420288086,
            "Voltage": -50.0,
            "Current_mean": -3.2361301000000004e-07,
            "Current_sigma": 6.908354636011388e-09
        },
        {
            "Time": 72.04139232635498,
            "Voltage": -55.0,
            "Current_mean": -3.2542233000000005e-07,
            "Current_sigma": 5.8519945088918185e-09
        },
        {
            "Time": 78.03558540344238,
            "Voltage": -60.0,
            "Current_mean": -3.29113e-07,
            "Current_sigma": 6.296753706950906e-09
        },
        {
            "Time": 84.02973937988281,
            "Voltage": -65.0,
            "Current_mean": -3.3379965e-07,
            "Current_sigma": 6.568845721928626e-09
        },
        {
            "Time": 90.02385520935059,
            "Voltage": -70.0,
            "Current_mean": -3.4088266999999996e-07,
            "Current_sigma": 6.481138380261607e-09
        },
        {
            "Time": 96.01801133155823,
            "Voltage": -75.0,
            "Current_mean": -3.4973264e-07,
            "Current_sigma": 6.685587690726967e-09
        },
        {
            "Time": 102.01217246055603,
            "Voltage": -80.0,
            "Current_mean": -3.5952354e-07,
            "Current_sigma": 5.525694613023773e-09
        },
        {
            "Time": 108.00642538070679,
            "Voltage": -85.0,
            "Current_mean": -3.7188714e-07,
            "Current_sigma": 5.943084477306382e-09
        },
        {
            "Time": 114.00082588195801,
            "Voltage": -90.0,
            "Current_mean": -3.8636386e-07,
            "Current_sigma": 5.837214072003861e-09
        },
        {
            "Time": 119.99511861801147,
            "Voltage": -95.0,
            "Current_mean": -4.0137131999999997e-07,
            "Current_sigma": 5.5433804269236255e-09
        },
        {
            "Time": 125.9893627166748,
            "Voltage": -100.0,
            "Current_mean": -4.2011791999999995e-07,
            "Current_sigma": 5.950290237761518e-09
        },
        {
            "Time": 131.98350477218628,
            "Voltage": -105.0,
            "Current_mean": -4.4147935000000003e-07,
            "Current_sigma": 5.310816067658519e-09
        },
        {
            "Time": 137.97771382331848,
            "Voltage": -110.0,
            "Current_mean": -4.6309814999999997e-07,
            "Current_sigma": 5.4547181964332495e-09
        },
        {
            "Time": 143.97202062606812,
            "Voltage": -115.0,
            "Current_mean": -4.8778879e-07,
            "Current_sigma": 5.507777667707718e-09
        },
        {
            "Time": 149.9661726951599,
            "Voltage": -120.0,
            "Current_mean": -5.154902000000001e-07,
            "Current_sigma": 5.147927302322736e-09
        },
        {
            "Time": 155.96035766601562,
            "Voltage": -125.0,
            "Current_mean": -5.4214618e-07,
            "Current_sigma": 5.192933528517393e-09
        },
        {
            "Time": 161.9546618461609,
            "Voltage": -130.0,
            "Current_mean": -5.6927658e-07,
            "Current_sigma": 5.52731976527504e-09
        },
        {
            "Time": 167.94893288612366,
            "Voltage": -135.0,
            "Current_mean": -5.956982699999999e-07,
            "Current_sigma": 5.278603676740654e-09
        },
        {
            "Time": 173.9430742263794,
            "Voltage": -140.0,
            "Current_mean": -6.2296527e-07,
            "Current_sigma": 5.362547736113887e-09
        },
        {
            "Time": 179.9374361038208,
            "Voltage": -145.0,
            "Current_mean": -6.5139622e-07,
            "Current_sigma": 4.726382900866153e-09
        },
        {
            "Time": 185.9316589832306,
            "Voltage": -150.0,
            "Current_mean": -6.8282835e-07,
            "Current_sigma": 5.071848054752833e-09
        },
        {
            "Time": 191.92574620246887,
            "Voltage": -155.0,
            "Current_mean": -7.099369e-07,
            "Current_sigma": 5.135283670061472e-09
        },
        {
            "Time": 197.9200210571289,
            "Voltage": -160.0,
            "Current_mean": -7.398973900000001e-07,
            "Current_sigma": 5.538392236281218e-09
        },
        {
            "Time": 203.91424465179443,
            "Voltage": -165.0,
            "Current_mean": -7.702712299999999e-07,
            "Current_sigma": 4.7351528129618075e-09
        },
        {
            "Time": 209.90838098526,
            "Voltage": -170.0,
            "Current_mean": -8.0126002e-07,
            "Current_sigma": 4.263141572314949e-09
        },
        {
            "Time": 215.90249395370483,
            "Voltage": -175.0,
            "Current_mean": -8.325067200000001e-07,
            "Current_sigma": 4.362380674310768e-09
        },
        {
            "Time": 221.89668560028076,
            "Voltage": -180.0,
            "Current_mean": -8.636416900000001e-07,
            "Current_sigma": 4.4896302240719025e-09
        },
        {
            "Time": 227.8908886909485,
            "Voltage": -185.0,
            "Current_mean": -8.924729299999999e-07,
            "Current_sigma": 4.861453417867964e-09
        },
        {
            "Time": 233.88502955436707,
            "Voltage": -190.0,
            "Current_mean": -9.212884099999999e-07,
            "Current_sigma": 3.6923688587273975e-09
        },
        {
            "Time": 239.87939357757568,
            "Voltage": -195.0,
            "Current_mean": -9.5300476e-07,
            "Current_sigma": 3.932683862758352e-09
        },
        {
            "Time": 245.87354278564453,
            "Voltage": -200.0,
            "Current_mean": -9.856739899999998e-07,
            "Current_sigma": 3.9563025835873425e-09
        }
    ]
}