{
    "unit": {
        "Time": "s",
        "Voltage": "V",
        "Current": "A"
    },
    "V_step": -5,
    "Step_duration": 2,
    "N_measurements_per_step": 10,
    "A_Compliance": 1e-05,
    "Sensor_IV": [
        {
            "Time": 6.105273485183716,
            "Voltage": 0.0,
            "Current_mean": 7.065050900000001e-08,
            "Current_sigma": 1.3894038245987701e-08
        },
        {
            "Time": 12.098759174346924,
            "Voltage": -5.0,
            "Current_mean": -2.9731536e-07,
            "Current_sigma": 1.7681785895728974e-08
        },
        {
            "Time": 18.092490196228027,
            "Voltage": -10.0,
            "Current_mean": -3.3053394000000003e-07,
            "Current_sigma": 1.0523045790853519e-08
        },
        {
            "Time": 24.086052656173706,
            "Voltage": -15.0,
            "Current_mean": -3.3236474e-07,
            "Current_sigma": 8.18124765634192e-09
        },
        {
            "Time": 30.079627990722656,
            "Voltage": -20.0,
            "Current_mean": -3.3637047e-07,
            "Current_sigma": 8.869154370631954e-09
        },
        {
            "Time": 36.07319688796997,
            "Voltage": -25.0,
            "Current_mean": -3.4015899999999997e-07,
            "Current_sigma": 7.317871613249305e-09
        },
        {
            "Time": 42.066845655441284,
            "Voltage": -30.0,
            "Current_mean": -3.3699836e-07,
            "Current_sigma": 7.78146726500857e-09
        },
        {
            "Time": 48.06052088737488,
            "Voltage": -35.0,
            "Current_mean": -3.4091148e-07,
            "Current_sigma": 7.190712221442325e-09
        },
        {
            "Time": 54.054009437561035,
            "Voltage": -40.0,
            "Current_mean": -3.4333930999999993e-07,
            "Current_sigma": 8.122372591607703e-09
        },
        {
            "Time": 60.04768395423889,
            "Voltage": -45.0,
            "Current_mean": -3.4127863999999993e-07,
            "Current_sigma": 8.189836949683434e-09
        },
        {
            "Time": 66.04111623764038,
            "Voltage": -50.0,
            "Current_mean": -3.4153255e-07,
            "Current_sigma": 6.916318701917947e-09
        },
        {
            "Time": 72.03475737571716,
            "Voltage": -55.0,
            "Current_mean": -3.4314598000000003e-07,
            "Current_sigma": 6.9868930037320575e-09
        },
        {
            "Time": 78.02847981452942,
            "Voltage": -60.0,
            "Current_mean": -3.4413378e-07,
            "Current_sigma": 6.787752284342733e-09
        },
        {
            "Time": 84.02210330963135,
            "Voltage": -65.0,
            "Current_mean": -3.4469675e-07,
            "Current_sigma": 8.475348999569274e-09
        },
        {
            "Time": 90.01561403274536,
            "Voltage": -70.0,
            "Current_mean": -3.3945069e-07,
            "Current_sigma": 4.36890377885575e-09
        },
        {
            "Time": 96.00916147232056,
            "Voltage": -75.0,
            "Current_mean": -3.4566553e-07,
            "Current_sigma": 7.853396700033691e-09
        },
        {
            "Time": 102.00272822380066,
            "Voltage": -80.0,
            "Current_mean": -3.5408356999999993e-07,
            "Current_sigma": 8.261463446272698e-09
        },
        {
            "Time": 107.9963026046753,
            "Voltage": -85.0,
            "Current_mean": -3.6032322999999995e-07,
            "Current_sigma": 8.147779675353274e-09
        },
        {
            "Time": 113.98993349075317,
            "Voltage": -90.0,
            "Current_mean": -3.658114e-07,
            "Current_sigma": 4.911770174794415e-09
        },
        {
            "Time": 119.98340702056885,
            "Voltage": -95.0,
            "Current_mean": -3.829024e-07,
            "Current_sigma": 6.721351794244962e-09
        },
        {
            "Time": 125.97697854042053,
            "Voltage": -100.0,
            "Current_mean": -4.007266e-07,
            "Current_sigma": 7.514811600299771e-09
        },
        {
            "Time": 131.97056913375854,
            "Voltage": -105.0,
            "Current_mean": -4.2842744e-07,
            "Current_sigma": 3.21911757511278e-09
        },
        {
            "Time": 137.96428632736206,
            "Voltage": -110.0,
            "Current_mean": -4.5894024999999996e-07,
            "Current_sigma": 5.991762548240718e-09
        },
        {
            "Time": 143.95795273780823,
            "Voltage": -115.0,
            "Current_mean": -4.9181245e-07,
            "Current_sigma": 6.8576211321784285e-09
        },
        {
            "Time": 149.9515016078949,
            "Voltage": -120.0,
            "Current_mean": -5.2777781e-07,
            "Current_sigma": 5.317554819360118e-09
        },
        {
            "Time": 155.9450376033783,
            "Voltage": -125.0,
            "Current_mean": -5.534186299999999e-07,
            "Current_sigma": 5.428015698033668e-09
        },
        {
            "Time": 161.9388084411621,
            "Voltage": -130.0,
            "Current_mean": -5.8834451e-07,
            "Current_sigma": 5.951994620704888e-09
        },
        {
            "Time": 167.9322850704193,
            "Voltage": -135.0,
            "Current_mean": -6.2753928e-07,
            "Current_sigma": 3.5654908735824773e-09
        },
        {
            "Time": 173.92595958709717,
            "Voltage": -140.0,
            "Current_mean": -6.5522034e-07,
            "Current_sigma": 5.3804637443625646e-09
        },
        {
            "Time": 179.91949915885925,
            "Voltage": -145.0,
            "Current_mean": -6.894464599999999e-07,
            "Current_sigma": 5.689669133121901e-09
        },
        {
            "Time": 185.91300010681152,
            "Voltage": -150.0,
            "Current_mean": -7.305847400000001e-07,
            "Current_sigma": 5.2735225726642944e-09
        },
        {
            "Time": 191.90671706199646,
            "Voltage": -155.0,
            "Current_mean": -7.6526791e-07,
            "Current_sigma": 4.2446765399615375e-09
        },
        {
            "Time": 197.90034556388855,
            "Voltage": -160.0,
            "Current_mean": -8.0630304e-07,
            "Current_sigma": 3.355522629993723e-09
        },
        {
            "Time": 203.89398908615112,
            "Voltage": -165.0,
            "Current_mean": -8.4609567e-07,
            "Current_sigma": 5.0357769519806935e-09
        },
        {
            "Time": 209.8873324394226,
            "Voltage": -170.0,
            "Current_mean": -8.865551200000002e-07,
            "Current_sigma": 2.993623785915664e-09
        },
        {
            "Time": 215.8811252117157,
            "Voltage": -175.0,
            "Current_mean": -9.2494244e-07,
            "Current_sigma": 5.444166714052773e-09
        },
        {
            "Time": 221.8747365474701,
            "Voltage": -180.0,
            "Current_mean": -9.6886754e-07,
            "Current_sigma": 4.674937211385817e-09
        },
        {
            "Time": 227.8684811592102,
            "Voltage": -185.0,
            "Current_mean": -1.0073121000000001e-06,
            "Current_sigma": 3.4082116556927693e-09
        },
        {
            "Time": 233.8619966506958,
            "Voltage": -190.0,
            "Current_mean": -1.0525855e-06,
            "Current_sigma": 4.686067183683974e-09
        },
        {
            "Time": 239.8552758693695,
            "Voltage": -195.0,
            "Current_mean": -1.1003744e-06,
            "Current_sigma": 4.228029072747694e-09
        },
        {
            "Time": 245.84889793395996,
            "Voltage": -200.0,
            "Current_mean": -1.1456839e-06,
            "Current_sigma": 4.734151865962911e-09
        }
    ]
}