ModuleID,Chip,ChipID,FE,Stage,Threshold[e],Stdev[e]
Goe4,FE1,20UPGFC0012354,syn,Stage1,2382.6,116.0
Goe4,FE1,20UPGFC0012354,syn,Stage2,2376.2,117.2
Goe4,FE1,20UPGFC0012354,syn,Stage3,2355.3,118.1
Goe4,FE1,20UPGFC0012354,lin,Stage1,1346.9,61.1
Goe4,FE1,20UPGFC0012354,lin,Stage2,1295.6,66.9
Goe4,FE1,20UPGFC0012354,lin,Stage3,1307.6,85.6
Goe4,FE1,20UPGFC0012354,diff,Stage1,1391.2,28.6
Goe4,FE1,20UPGFC0012354,diff,Stage2,1380.9,34.7
Goe4,FE1,20UPGFC0012354,diff,Stage3,1379.7,39.4
Goe4,FE4,20UPGFC0012339,syn,Stage1,2377.9,98.0
Goe4,FE4,20UPGFC0012339,syn,Stage2,2381.7,98.7
Goe4,FE4,20UPGFC0012339,syn,Stage3,2375.5,101.0
Goe4,FE4,20UPGFC0012339,lin,Stage1,1372.7,55.2
Goe4,FE4,20UPGFC0012339,lin,Stage2,1336.8,87.4
Goe4,FE4,20UPGFC0012339,lin,Stage3,1400.0,122.2
Goe4,FE4,20UPGFC0012339,diff,Stage1,1378.9,30.8
Goe4,FE4,20UPGFC0012339,diff,Stage2,1377.7,33.0
Goe4,FE4,20UPGFC0012339,diff,Stage3,1419.5,46.0
Goe4,FE2,20UPGFC0012370,syn,Stage1,2366.7,101.8
Goe4,FE2,20UPGFC0012370,syn,Stage2,2367.2,103.3
Goe4,FE2,20UPGFC0012370,syn,Stage3,2362.8,105.6
Goe4,FE2,20UPGFC0012370,lin,Stage1,1342.2,67.3
Goe4,FE2,20UPGFC0012370,lin,Stage2,1250.8,80.0
Goe4,FE2,20UPGFC0012370,lin,Stage3,1281.9,105.5
Goe4,FE2,20UPGFC0012370,diff,Stage1,1367.5,30.8
Goe4,FE2,20UPGFC0012370,diff,Stage2,1365.6,33.1
Goe4,FE2,20UPGFC0012370,diff,Stage3,1389.2,41.6
Goe4,FE3,20UPGFC0012386,syn,Stage1,2411.9,123.1
Goe4,FE3,20UPGFC0012386,syn,Stage2,2405.0,122.6
Goe4,FE3,20UPGFC0012386,syn,Stage3,2412.0,122.5
Goe4,FE3,20UPGFC0012386,lin,Stage1,1384.5,59.2
Goe4,FE3,20UPGFC0012386,lin,Stage2,1287.7,88.0
Goe4,FE3,20UPGFC0012386,lin,Stage3,1307.4,132.1
Goe4,FE3,20UPGFC0012386,diff,Stage1,1421.0,35.5
Goe4,FE3,20UPGFC0012386,diff,Stage2,1418.0,38.3
Goe4,FE3,20UPGFC0012386,diff,Stage3,1444.6,52.7
