{'measurement': 'measName', 'fields': {'measV_HV2': -150.0, 'measI_HV2': -6.067477e-08, 'settV_HV2': -150.0, 'settI_HV2': 0.0}, 'tags': {'user': 'root'}}
{'measurement': 'measName', 'fields': {'measV_HV2': -150.0, 'measI_HV2': -4.789511e-08, 'settV_HV2': -150.0, 'settI_HV2': 0.0}, 'tags': {'user': 'root'}}
{'measurement': 'measName', 'fields': {'measV_HV2': -150.0, 'measI_HV2': -5.889575e-08, 'settV_HV2': -150.0, 'settI_HV2': 0.0}, 'tags': {'user': 'root'}}
{'measurement': 'measName', 'fields': {'measV_HV2': -150.0, 'measI_HV2': -5.077958e-08, 'settV_HV2': -150.0, 'settI_HV2': 0.0}, 'tags': {'user': 'root'}}
{'measurement': 'measName', 'fields': {'measV_HV2': -150.0, 'measI_HV2': -5.384196e-08, 'settV_HV2': -150.0, 'settI_HV2': 0.0}, 'tags': {'user': 'root'}}
{'measurement': 'measName', 'fields': {'measV_HV2': -150.0, 'measI_HV2': -5.916679e-08, 'settV_HV2': -150.0, 'settI_HV2': 0.0}, 'tags': {'user': 'root'}}
{'measurement': 'measName', 'fields': {'measV_HV2': -150.0, 'measI_HV2': -4.81442e-08, 'settV_HV2': -150.0, 'settI_HV2': 0.0}, 'tags': {'user': 'root'}}
{'measurement': 'measName', 'fields': {'measV_HV2': -150.0, 'measI_HV2': -5.627231e-08, 'settV_HV2': -150.0, 'settI_HV2': 0.0}, 'tags': {'user': 'root'}}
{'measurement': 'measName', 'fields': {'measV_HV2': -150.0, 'measI_HV2': -5.534629e-08, 'settV_HV2': -150.0, 'settI_HV2': 0.0}, 'tags': {'user': 'root'}}
{'measurement': 'measName', 'fields': {'measV_HV2': -150.0, 'measI_HV2': -5.157118e-08, 'settV_HV2': -150.0, 'settI_HV2': 0.0}, 'tags': {'user': 'root'}}
{'measurement': 'measName', 'fields': {'measV_HV2': -150.0, 'measI_HV2': -6.051426e-08, 'settV_HV2': -150.0, 'settI_HV2': 0.0}, 'tags': {'user': 'root'}}
{'measurement': 'measName', 'fields': {'measV_HV2': -150.0, 'measI_HV2': -4.849775e-08, 'settV_HV2': -150.0, 'settI_HV2': 0.0}, 'tags': {'user': 'root'}}
{'measurement': 'measName', 'fields': {'measV_HV2': -150.0, 'measI_HV2': -5.750664e-08, 'settV_HV2': -150.0, 'settI_HV2': 0.0}, 'tags': {'user': 'root'}}
{'measurement': 'measName', 'fields': {'measV_HV2': -150.0, 'measI_HV2': -5.706196e-08, 'settV_HV2': -150.0, 'settI_HV2': 0.0}, 'tags': {'user': 'root'}}
{'measurement': 'measName', 'fields': {'measV_HV2': -150.0, 'measI_HV2': -4.851084e-08, 'settV_HV2': -150.0, 'settI_HV2': 0.0}, 'tags': {'user': 'root'}}
{'measurement': 'measName', 'fields': {'measV_HV2': -150.0, 'measI_HV2': -5.962509e-08, 'settV_HV2': -150.0, 'settI_HV2': 0.0}, 'tags': {'user': 'root'}}
{'measurement': 'measName', 'fields': {'measV_HV2': -150.0, 'measI_HV2': -5.129487e-08, 'settV_HV2': -150.0, 'settI_HV2': 0.0}, 'tags': {'user': 'root'}}
{'measurement': 'measName', 'fields': {'measV_HV2': -150.0, 'measI_HV2': -5.125419e-08, 'settV_HV2': -150.0, 'settI_HV2': 0.0}, 'tags': {'user': 'root'}}
{'measurement': 'measName', 'fields': {'measV_HV2': -150.0, 'measI_HV2': -5.96595e-08, 'settV_HV2': -150.0, 'settI_HV2': 0.0}, 'tags': {'user': 'root'}}
{'measurement': 'measName', 'fields': {'measV_HV2': -150.0, 'measI_HV2': -4.941949e-08, 'settV_HV2': -150.0, 'settI_HV2': 0.0}, 'tags': {'user': 'root'}}
{'measurement': 'measName', 'fields': {'measV_HV2': -150.0, 'measI_HV2': -5.451551e-08, 'settV_HV2': -150.0, 'settI_HV2': 0.0}, 'tags': {'user': 'root'}}
{'measurement': 'measName', 'fields': {'measV_HV2': -150.0, 'measI_HV2': -5.849925e-08, 'settV_HV2': -150.0, 'settI_HV2': 0.0}, 'tags': {'user': 'root'}}
{'measurement': 'measName', 'fields': {'measV_HV2': -150.0, 'measI_HV2': -4.683643e-08, 'settV_HV2': -150.0, 'settI_HV2': 0.0}, 'tags': {'user': 'root'}}
{'measurement': 'measName', 'fields': {'measV_HV2': -150.0, 'measI_HV2': -5.702234e-08, 'settV_HV2': -150.0, 'settI_HV2': 0.0}, 'tags': {'user': 'root'}}
{'measurement': 'measName', 'fields': {'measV_HV2': -150.0, 'measI_HV2': -5.684922e-08, 'settV_HV2': -150.0, 'settI_HV2': 0.0}, 'tags': {'user': 'root'}}
{'measurement': 'measName', 'fields': {'measV_HV2': -150.0, 'measI_HV2': -4.897237e-08, 'settV_HV2': -150.0, 'settI_HV2': 0.0}, 'tags': {'user': 'root'}}
{'measurement': 'measName', 'fields': {'measV_HV2': -150.0, 'measI_HV2': -5.945797e-08, 'settV_HV2': -150.0, 'settI_HV2': 0.0}, 'tags': {'user': 'root'}}
{'measurement': 'measName', 'fields': {'measV_HV2': -150.0, 'measI_HV2': -5.401066e-08, 'settV_HV2': -150.0, 'settI_HV2': 0.0}, 'tags': {'user': 'root'}}
{'measurement': 'measName', 'fields': {'measV_HV2': -150.0, 'measI_HV2': -4.935685e-08, 'settV_HV2': -150.0, 'settI_HV2': 0.0}, 'tags': {'user': 'root'}}
{'measurement': 'measName', 'fields': {'measV_HV2': -150.0, 'measI_HV2': -5.975734e-08, 'settV_HV2': -150.0, 'settI_HV2': 0.0}, 'tags': {'user': 'root'}}
{'measurement': 'measName', 'fields': {'measV_HV2': -150.0, 'measI_HV2': -4.961863e-08, 'settV_HV2': -150.0, 'settI_HV2': 0.0}, 'tags': {'user': 'root'}}
{'measurement': 'measName', 'fields': {'measV_HV2': -150.0, 'measI_HV2': -5.244149e-08, 'settV_HV2': -150.0, 'settI_HV2': 0.0}, 'tags': {'user': 'root'}}
{'measurement': 'measName', 'fields': {'measV_HV2': -150.0, 'measI_HV2': -5.990702e-08, 'settV_HV2': -150.0, 'settI_HV2': 0.0}, 'tags': {'user': 'root'}}
{'measurement': 'measName', 'fields': {'measV_HV2': -150.0, 'measI_HV2': -4.838668e-08, 'settV_HV2': -150.0, 'settI_HV2': 0.0}, 'tags': {'user': 'root'}}
{'measurement': 'measName', 'fields': {'measV_HV2': -150.0, 'measI_HV2': -5.519021e-08, 'settV_HV2': -150.0, 'settI_HV2': 0.0}, 'tags': {'user': 'root'}}
{'measurement': 'measName', 'fields': {'measV_HV2': -150.0, 'measI_HV2': -5.721587e-08, 'settV_HV2': -150.0, 'settI_HV2': 0.0}, 'tags': {'user': 'root'}}
{'measurement': 'measName', 'fields': {'measV_HV2': -150.0, 'measI_HV2': -4.887785e-08, 'settV_HV2': -150.0, 'settI_HV2': 0.0}, 'tags': {'user': 'root'}}
{'measurement': 'measName', 'fields': {'measV_HV2': -150.0, 'measI_HV2': -6.003387e-08, 'settV_HV2': -150.0, 'settI_HV2': 0.0}, 'tags': {'user': 'root'}}
{'measurement': 'measName', 'fields': {'measV_HV2': -150.0, 'measI_HV2': -4.991296e-08, 'settV_HV2': -150.0, 'settI_HV2': 0.0}, 'tags': {'user': 'root'}}
{'measurement': 'measName', 'fields': {'measV_HV2': -150.0, 'measI_HV2': -5.536078e-08, 'settV_HV2': -150.0, 'settI_HV2': 0.0}, 'tags': {'user': 'root'}}
{'measurement': 'measName', 'fields': {'measV_HV2': -150.0, 'measI_HV2': -5.404498e-08, 'settV_HV2': -150.0, 'settI_HV2': 0.0}, 'tags': {'user': 'root'}}
{'measurement': 'measName', 'fields': {'measV_HV2': -150.0, 'measI_HV2': -4.972938e-08, 'settV_HV2': -150.0, 'settI_HV2': 0.0}, 'tags': {'user': 'root'}}
{'measurement': 'measName', 'fields': {'measV_HV2': -150.0, 'measI_HV2': -5.959598e-08, 'settV_HV2': -150.0, 'settI_HV2': 0.0}, 'tags': {'user': 'root'}}
{'measurement': 'measName', 'fields': {'measV_HV2': -150.0, 'measI_HV2': -4.875019e-08, 'settV_HV2': -150.0, 'settI_HV2': 0.0}, 'tags': {'user': 'root'}}
{'measurement': 'measName', 'fields': {'measV_HV2': -150.0, 'measI_HV2': -5.465458e-08, 'settV_HV2': -150.0, 'settI_HV2': 0.0}, 'tags': {'user': 'root'}}
{'measurement': 'measName', 'fields': {'measV_HV2': -150.0, 'measI_HV2': -5.947309e-08, 'settV_HV2': -150.0, 'settI_HV2': 0.0}, 'tags': {'user': 'root'}}
{'measurement': 'measName', 'fields': {'measV_HV2': -150.0, 'measI_HV2': -4.840148e-08, 'settV_HV2': -150.0, 'settI_HV2': 0.0}, 'tags': {'user': 'root'}}
{'measurement': 'measName', 'fields': {'measV_HV2': -150.0, 'measI_HV2': -5.670029e-08, 'settV_HV2': -150.0, 'settI_HV2': 0.0}, 'tags': {'user': 'root'}}
{'measurement': 'measName', 'fields': {'measV_HV2': -150.0, 'measI_HV2': -5.747265e-08, 'settV_HV2': -150.0, 'settI_HV2': 0.0}, 'tags': {'user': 'root'}}
{'measurement': 'measName', 'fields': {'measV_HV2': -150.0, 'measI_HV2': -4.750978e-08, 'settV_HV2': -150.0, 'settI_HV2': 0.0}, 'tags': {'user': 'root'}}
{'measurement': 'measName', 'fields': {'measV_HV2': -150.0, 'measI_HV2': -5.835689e-08, 'settV_HV2': -150.0, 'settI_HV2': 0.0}, 'tags': {'user': 'root'}}
{'measurement': 'measName', 'fields': {'measV_HV2': -150.0, 'measI_HV2': -5.445142e-08, 'settV_HV2': -150.0, 'settI_HV2': 0.0}, 'tags': {'user': 'root'}}
{'measurement': 'measName', 'fields': {'measV_HV2': -150.0, 'measI_HV2': -5.072182e-08, 'settV_HV2': -150.0, 'settI_HV2': 0.0}, 'tags': {'user': 'root'}}
{'measurement': 'measName', 'fields': {'measV_HV2': -150.0, 'measI_HV2': -5.99951e-08, 'settV_HV2': -150.0, 'settI_HV2': 0.0}, 'tags': {'user': 'root'}}
{'measurement': 'measName', 'fields': {'measV_HV2': -150.0, 'measI_HV2': -4.765826e-08, 'settV_HV2': -150.0, 'settI_HV2': 0.0}, 'tags': {'user': 'root'}}

