{
    "Data": [0.0, 0.0, 0.0, 0.0, 57238.0, 0.0, 0.0, 0.0, 0.0, 0.0, 0.0, 0.0, 0.0, 2339.0, 0.0, 0.0, 0.0, 1442.0, 0.0, 0.0, 1049.0, 0.0, 855.0, 12.0, 696.0, 28.0, 620.0, 14.0, 555.0, 459.0, 456.0, 21.0, 426.0, 384.0, 404.0, 385.0, 374.0, 329.0, 347.0, 296.0, 608.0, 280.0, 539.0, 290.0, 523.0, 514.0, 608.0, 675.0, 639.0, 1064.0, 1605.0, 63.0, 104.0, 57.0, 73.0, 62.0, 23.0, 47.0, 48.0, 26.0, 29.0, 32.0, 30.0, 24.0, 15.0, 16.0, 18.0, 13.0, 5.0, 8.0, 5.0, 5.0, 5.0, 0.0, 1.0, 1.0, 0.0, 1.0, 0.0, 1.0, 1.0, 0.0, 0.0, 1.0, 1.0, 2.0, 0.0, 0.0, 0.0, 0.0, 1.0, 2.0, 0.0, 0.0, 0.0, 0.0, 1.0, 0.0, 0.0, 0.0, 0.0],
    "Name": "SigmaTotDist-0",
    "Overflow": 5.0,
    "Type": "Histo1d",
    "Underflow": 0.0,
    "x": {
        "AxisTitle": "Sigma ToT [BC]",
        "Bins": 101,
        "High": 1.0499999523162842,
        "Low": -0.05000000074505806
    },
    "y": {
        "AxisTitle": "Number of Pixels"
    },
    "z": {
        "AxisTitle": "z"
    }
}