{
    "Data": [0.0, 0.0, 0.0, 0.0, 56570.0, 0.0, 0.0, 0.0, 0.0, 0.0, 0.0, 0.0, 0.0, 2478.0, 0.0, 0.0, 0.0, 1540.0, 0.0, 0.0, 1119.0, 0.0, 847.0, 13.0, 742.0, 40.0, 623.0, 13.0, 606.0, 472.0, 509.0, 16.0, 484.0, 419.0, 395.0, 400.0, 355.0, 388.0, 353.0, 327.0, 573.0, 319.0, 523.0, 296.0, 546.0, 482.0, 693.0, 650.0, 676.0, 1068.0, 1665.0, 60.0, 90.0, 41.0, 52.0, 46.0, 36.0, 42.0, 28.0, 30.0, 33.0, 23.0, 26.0, 25.0, 11.0, 10.0, 10.0, 11.0, 7.0, 6.0, 1.0, 1.0, 2.0, 1.0, 0.0, 0.0, 3.0, 2.0, 1.0, 0.0, 0.0, 0.0, 0.0, 1.0, 0.0, 0.0, 0.0, 0.0, 0.0, 0.0, 0.0, 0.0, 0.0, 0.0, 0.0, 0.0, 0.0, 0.0, 0.0, 0.0, 0.0],
    "Name": "SigmaTotDist-0",
    "Overflow": 1.0,
    "Type": "Histo1d",
    "Underflow": 0.0,
    "x": {
        "AxisTitle": "Sigma ToT [BC]",
        "Bins": 101,
        "High": 1.0499999523162842,
        "Low": -0.05000000074505806
    },
    "y": {
        "AxisTitle": "Number of Pixels"
    },
    "z": {
        "AxisTitle": "z"
    }
}