{
    "Data": [414.0, 259.0, 288.0, 88.0, 157.0, 44.0, 279.0, 13114.0, 1082947.0, 659491.0, 747728.0, 106584.0, 20.0, 23.0, 21.0, 6.0],
    "Name": "L1Dist",
    "Overflow": 0.0,
    "Type": "Histo1d",
    "Underflow": 0.0,
    "x": {
        "AxisTitle": "L1Id",
        "Bins": 16,
        "High": 15.5,
        "Low": -0.5
    },
    "y": {
        "AxisTitle": "Hits"
    },
    "z": {
        "AxisTitle": "z"
    }
}