{
    "Data": [5.0, 33.0, 205.0, 986.0, 3366.0, 6928.0, 7138.0, 4629.0, 1880.0, 683.0, 197.0, 48.0, 13.0, 3.0, 2.0, 0.0],
    "Name": "MeanTotDist-0",
    "Overflow": 0.0,
    "Type": "Histo1d",
    "Underflow": 50684.0,
    "x": {
        "AxisTitle": "Mean ToT [BC]",
        "Bins": 16,
        "High": 16.5,
        "Low": 0.5
    },
    "y": {
        "AxisTitle": "Number of Pixels"
    },
    "z": {
        "AxisTitle": "z"
    }
}