{
  "scan": {
    "analysis": {
      "0": {
        "algorithm": "OccupancyAnalysis",
        "config": {
          "createMask": true
        }
      },
      "1": {
        "algorithm": "L1Analysis"
      },
      "n_count": 2
    },
    "histogrammer": {
      "0": {
        "algorithm": "OccupancyMap",
        "config": {}
      },
      "1": {
        "algorithm": "TotMap",
        "config": {}
      },
      "2": {
        "algorithm": "Tot2Map",
        "config": {}
      },
      "3": {
        "algorithm": "L1Dist",
        "config": {}
      },
      "4": {
        "algorithm": "HitsPerEvent",
        "config": {}
      },
      "5": {
        "algorithm": "DataArchiver",
        "config": {}
      },
      "n_count": 5
    },
    "loops": [
      {
        "config": {
          "max": 64,
          "min": 0,
          "step": 1
        },
        "loopAction": "Rd53aMaskLoop"
      },
      {
        "config": {
          "max": 50,
          "min": 0,
          "step": 1,
          "nSteps": 5
        },
        "loopAction": "Rd53aCoreColLoop"
      },
      {
        "config": {
          "count": 100,
          "delay": 56,
          "extTrigger": false,
          "frequency": 30000,
          "noInject": false,
          "time": 0,
          "edgeMode": true
        },
        "loopAction": "Rd53aTriggerLoop"
      },
      {
        "loopAction": "StdDataLoop"
      }
    ],
    "name": "DigitalScan",
    "prescan": {
        "InjEnDig": 1,
        "InjAnaMode": 0,
        "LatencyConfig": 58,
        "GlobalPulseRt": 16384,
        "SyncVth": 500,
        "LinVth" : 500,
        "DiffVth1": 500
    }
  }
}

