{
    "Data": [0.0, 0.0, 0.0, 0.0, 2.0, 3.0, 8.0, 10.0, 37.0, 76.0, 151.0, 284.0, 461.0, 745.0, 1022.0, 1224.0, 1350.0, 1520.0, 1620.0, 1912.0, 2139.0, 2338.0, 2265.0, 2059.0, 1583.0, 1250.0, 870.0, 502.0, 326.0, 172.0, 110.0, 78.0, 50.0, 39.0, 36.0, 38.0, 32.0, 41.0, 28.0, 32.0, 34.0],
    "Name": "NoiseDist-0",
    "Overflow": 129.0,
    "Type": "Histo1d",
    "Underflow": 0.0,
    "x": {
        "AxisTitle": "Noise [e]",
        "Bins": 41,
        "High": 232.0,
        "Low": 27.0
    },
    "y": {
        "AxisTitle": "Number of Pixels"
    },
    "z": {
        "AxisTitle": "z"
    }
}