{
    "Data": [0.0, 0.0, 0.0, 0.0, 0.0, 0.0, 0.0, 0.0, 0.0, 0.0, 0.0, 0.0, 0.0, 0.0, 0.0, 0.0, 2.0, 1.0, 0.0, 0.0, 4.0, 32.0, 53.0, 12.0, 12.0, 40.0, 234.0, 451.0, 281.0, 114.0, 276.0, 870.0, 1339.0, 894.0, 500.0, 782.0, 1285.0, 1349.0, 939.0, 842.0, 1043.0, 1058.0, 873.0, 673.0, 734.0, 757.0, 700.0, 495.0, 461.0, 547.0, 627.0, 539.0, 355.0, 278.0, 306.0, 320.0, 301.0, 303.0, 288.0, 249.0, 194.0, 164.0, 147.0, 133.0, 161.0, 157.0, 161.0, 135.0, 119.0, 141.0, 116.0, 90.0, 97.0, 70.0, 82.0, 78.0, 87.0, 65.0, 61.0, 73.0, 58.0, 49.0, 49.0, 38.0, 46.0, 37.0, 36.0, 30.0, 42.0, 28.0, 30.0, 22.0, 20.0, 39.0, 20.0, 17.0, 20.0, 23.0, 20.0, 23.0, 10.0, 13.0, 16.0, 14.0, 14.0, 15.0, 4.0, 9.0, 11.0, 7.0, 10.0, 11.0, 13.0, 9.0, 14.0, 7.0, 6.0, 11.0, 2.0, 1.0, 3.0, 8.0, 6.0, 6.0, 5.0, 5.0, 4.0, 1.0, 5.0, 2.0, 2.0, 5.0, 2.0, 7.0, 4.0, 1.0, 1.0, 3.0, 2.0, 2.0, 2.0, 0.0, 2.0, 3.0, 3.0, 2.0, 2.0, 2.0, 0.0, 0.0, 1.0, 1.0, 0.0, 0.0, 1.0, 1.0, 2.0, 1.0, 1.0, 2.0, 3.0, 0.0, 2.0, 1.0, 0.0, 1.0, 2.0, 3.0, 1.0, 0.0, 0.0, 2.0, 3.0, 0.0, 0.0, 0.0, 1.0, 1.0, 0.0, 2.0, 1.0, 4.0, 2.0, 1.0, 0.0, 1.0, 1.0, 0.0, 2.0, 0.0, 0.0, 1.0, 0.0, 1.0, 0.0, 0.0, 0.0, 0.0, 0.0, 0.0, 0.0],
    "Name": "TimePerFitDist-0",
    "Overflow": 46.0,
    "Type": "Histo1d",
    "Underflow": 0.0,
    "x": {
        "AxisTitle": "Fit Time [us]",
        "Bins": 201,
        "High": 401.0,
        "Low": -1.0
    },
    "y": {
        "AxisTitle": "Number of Pixels"
    },
    "z": {
        "AxisTitle": "z"
    }
}