{
    "Data": [0.0, 0.0, 0.0, 0.0, 0.0, 0.0, 1.0, 0.0, 2.0, 1.0, 0.0, 0.0, 1.0, 5.0, 3.0, 1.0, 8.0, 3.0, 4.0, 8.0, 12.0, 15.0, 11.0, 12.0, 17.0, 21.0, 28.0, 31.0, 48.0, 35.0, 67.0, 71.0, 90.0, 137.0, 148.0, 152.0, 165.0, 239.0, 250.0, 271.0, 373.0, 446.0, 439.0, 486.0, 567.0, 609.0, 656.0, 731.0, 726.0, 756.0, 795.0, 786.0, 836.0, 874.0, 869.0, 848.0, 869.0, 837.0, 807.0, 785.0, 750.0, 745.0, 715.0, 631.0, 598.0, 589.0, 556.0, 491.0, 387.0, 409.0, 353.0, 343.0, 301.0, 218.0, 215.0, 186.0, 184.0, 142.0, 130.0, 98.0, 97.0, 67.0, 79.0, 43.0, 46.0, 39.0, 25.0, 36.0, 18.0, 30.0, 14.0, 21.0, 13.0, 9.0, 4.0, 6.0, 5.0, 4.0, 0.0, 7.0, 2.0, 3.0, 3.0, 2.0, 0.0, 2.0, 1.0, 1.0, 0.0, 0.0, 0.0],
    "Name": "ThresholdDist-0",
    "Overflow": 5.0,
    "Type": "Histo1d",
    "Underflow": 1.0,
    "x": {
        "AxisTitle": "Threshold [e]",
        "Bins": 111,
        "High": 2925.0,
        "Low": 1815.0
    },
    "y": {
        "AxisTitle": "Number of Pixels"
    },
    "z": {
        "AxisTitle": "z"
    }
}