{
    "Data": [0.0, 3.0, 242.0, 1277.0, 3101.0, 4296.0, 4297.0, 3556.0, 2740.0, 1946.0, 1259.0, 778.0, 466.0, 247.0, 155.0, 92.0, 33.0, 29.0, 27.0, 11.0, 6.0, 6.0, 3.0, 5.0, 0.0, 0.0, 0.0, 0.0, 0.0, 0.0, 1.0, 0.0, 0.0, 0.0, 0.0, 0.0, 0.0, 0.0, 0.0, 0.0, 0.0, 0.0, 0.0, 0.0, 0.0, 0.0, 0.0, 0.0, 0.0, 0.0, 0.0],
    "Name": "Chi2Dist-0",
    "Overflow": 0.0,
    "Type": "Histo1d",
    "Underflow": 0.0,
    "x": {
        "AxisTitle": "Fit Chi/ndf",
        "Bins": 51,
        "High": 2.5250000953674318,
        "Low": -0.02500000037252903
    },
    "y": {
        "AxisTitle": "Number of Pixels"
    },
    "z": {
        "AxisTitle": "z"
    }
}