{
    "Data": [0.0, 0.0, 0.0, 0.0, 0.0, 0.0, 0.0, 0.0, 0.0, 0.0, 0.0, 0.0, 0.0, 0.0, 0.0, 0.0, 13.0, 2.0, 1.0, 0.0, 11.0, 105.0, 129.0, 22.0, 22.0, 92.0, 496.0, 637.0, 266.0, 183.0, 558.0, 1299.0, 1399.0, 628.0, 535.0, 975.0, 1397.0, 1088.0, 681.0, 882.0, 1167.0, 1039.0, 737.0, 715.0, 761.0, 707.0, 514.0, 398.0, 501.0, 604.0, 554.0, 377.0, 236.0, 233.0, 286.0, 314.0, 333.0, 257.0, 234.0, 184.0, 161.0, 155.0, 151.0, 133.0, 116.0, 117.0, 132.0, 99.0, 122.0, 101.0, 103.0, 78.0, 78.0, 60.0, 53.0, 70.0, 55.0, 60.0, 61.0, 60.0, 57.0, 48.0, 37.0, 38.0, 26.0, 30.0, 32.0, 30.0, 37.0, 46.0, 37.0, 21.0, 15.0, 9.0, 9.0, 17.0, 20.0, 18.0, 15.0, 38.0, 28.0, 17.0, 15.0, 15.0, 4.0, 10.0, 11.0, 7.0, 12.0, 6.0, 13.0, 8.0, 11.0, 5.0, 7.0, 8.0, 3.0, 8.0, 4.0, 7.0, 8.0, 4.0, 6.0, 6.0, 3.0, 11.0, 5.0, 5.0, 2.0, 5.0, 6.0, 4.0, 6.0, 5.0, 3.0, 2.0, 6.0, 3.0, 1.0, 2.0, 2.0, 1.0, 1.0, 2.0, 1.0, 1.0, 5.0, 3.0, 5.0, 4.0, 5.0, 3.0, 2.0, 1.0, 3.0, 1.0, 3.0, 3.0, 2.0, 2.0, 2.0, 3.0, 0.0, 1.0, 2.0, 2.0, 3.0, 3.0, 3.0, 0.0, 0.0, 2.0, 2.0, 3.0, 2.0, 1.0, 1.0, 3.0, 1.0, 1.0, 0.0, 0.0, 0.0, 0.0, 0.0, 0.0, 0.0, 0.0, 0.0, 1.0, 1.0, 0.0, 1.0, 1.0, 1.0, 1.0, 3.0, 1.0, 0.0, 1.0, 1.0],
    "Name": "TimePerFitDist-0",
    "Overflow": 70.0,
    "Type": "Histo1d",
    "Underflow": 0.0,
    "x": {
        "AxisTitle": "Fit Time [us]",
        "Bins": 201,
        "High": 401.0,
        "Low": -1.0
    },
    "y": {
        "AxisTitle": "Number of Pixels"
    },
    "z": {
        "AxisTitle": "z"
    }
}