{
    "Data": [0.0, 0.0, 0.0, 0.0, 0.0, 0.0, 0.0, 2.0, 0.0, 3.0, 1.0, 2.0, 4.0, 3.0, 1.0, 2.0, 6.0, 3.0, 7.0, 6.0, 5.0, 12.0, 13.0, 14.0, 10.0, 15.0, 25.0, 28.0, 25.0, 36.0, 59.0, 76.0, 81.0, 110.0, 106.0, 136.0, 179.0, 209.0, 226.0, 294.0, 339.0, 407.0, 425.0, 454.0, 541.0, 627.0, 699.0, 691.0, 759.0, 812.0, 898.0, 888.0, 877.0, 867.0, 928.0, 890.0, 882.0, 939.0, 930.0, 824.0, 801.0, 719.0, 710.0, 630.0, 593.0, 558.0, 503.0, 448.0, 420.0, 381.0, 325.0, 296.0, 253.0, 240.0, 201.0, 159.0, 140.0, 110.0, 103.0, 104.0, 87.0, 63.0, 63.0, 40.0, 34.0, 42.0, 27.0, 27.0, 24.0, 18.0, 11.0, 9.0, 11.0, 14.0, 7.0, 4.0, 2.0, 4.0, 5.0, 0.0, 0.0, 2.0, 2.0, 0.0, 2.0, 0.0, 2.0, 0.0, 0.0, 0.0, 0.0],
    "Name": "ThresholdDist-0",
    "Overflow": 6.0,
    "Type": "Histo1d",
    "Underflow": 0.0,
    "x": {
        "AxisTitle": "Threshold [e]",
        "Bins": 111,
        "High": 2935.0,
        "Low": 1825.0
    },
    "y": {
        "AxisTitle": "Number of Pixels"
    },
    "z": {
        "AxisTitle": "z"
    }
}