{
    "Data": [0.0, 0.0, 0.0, 0.0, 0.0, 0.0, 0.0, 1.0, 7.0, 13.0, 32.0, 63.0, 146.0, 282.0, 639.0, 1026.0, 1739.0, 2322.0, 2730.0, 2958.0, 2579.0, 2188.0, 1717.0, 1298.0, 1056.0, 913.0, 741.0, 591.0, 487.0, 321.0, 223.0, 189.0, 92.0, 68.0, 52.0, 37.0, 16.0, 10.0, 10.0, 5.0, 1.0],
    "Name": "NoiseDist-0",
    "Overflow": 23.0,
    "Type": "Histo1d",
    "Underflow": 0.0,
    "x": {
        "AxisTitle": "Noise [e]",
        "Bins": 41,
        "High": 222.0,
        "Low": 17.0
    },
    "y": {
        "AxisTitle": "Number of Pixels"
    },
    "z": {
        "AxisTitle": "z"
    }
}