\relax 
\providecommand\hyper@newdestlabel[2]{}
\citation{darkmatter}
\citation{darkmatter2}
\@writefile{toc}{\contentsline {chapter}{\numberline {1}The ATLAS experiment}{9}{chapter.1}\protected@file@percent }
\@writefile{lof}{\addvspace {10\p@ }}
\@writefile{lot}{\addvspace {10\p@ }}
\newlabel{chap:ATLAS}{{1}{9}{The ATLAS experiment}{chapter.1}{}}
\@writefile{toc}{\contentsline {section}{\numberline {1.1}The Standard Model}{9}{section.1.1}\protected@file@percent }
\@writefile{lof}{\contentsline {figure}{\numberline {1.1}{\ignorespaces Fundamental particles in the Standard Model.}}{9}{figure.caption.9}\protected@file@percent }
\providecommand*\caption@xref[2]{\@setref\relax\@undefined{#1}}
\newlabel{fig:particlesofSM}{{1.1}{9}{Fundamental particles in the Standard Model}{figure.caption.9}{}}
\newlabel{fig:eediagram}{{1.2a}{10}{\relax }{figure.caption.10}{}}
\newlabel{sub@fig:eediagram}{{a}{10}{\relax }{figure.caption.10}{}}
\newlabel{fig:pidacaydiagram}{{1.2b}{10}{\relax }{figure.caption.10}{}}
\newlabel{sub@fig:pidacaydiagram}{{b}{10}{\relax }{figure.caption.10}{}}
\newlabel{fig:gluondiagram}{{1.2c}{10}{\relax }{figure.caption.10}{}}
\newlabel{sub@fig:gluondiagram}{{c}{10}{\relax }{figure.caption.10}{}}
\@writefile{lof}{\contentsline {figure}{\numberline {1.2}{\ignorespaces Feynman diagram of various fundamental processes.}}{10}{figure.caption.10}\protected@file@percent }
\newlabel{fig:diagrams}{{1.2}{10}{Feynman diagram of various fundamental processes}{figure.caption.10}{}}
\citation{ALICE}
\citation{ATLAS}
\citation{CMS}
\citation{LHCb}
\citation{acceleratotcomplex}
\citation{acceleratotcomplex}
\@writefile{toc}{\contentsline {section}{\numberline {1.2}The Large Hadron Collider (LHC)}{11}{section.1.2}\protected@file@percent }
\newlabel{sect:LHC}{{1.2}{11}{The Large Hadron Collider (LHC)}{section.1.2}{}}
\@writefile{toc}{\contentsline {subsection}{\numberline {1.2.1}What is an Accelerator}{11}{subsection.1.2.1}\protected@file@percent }
\@writefile{toc}{\contentsline {subsection}{\numberline {1.2.2}Energy}{11}{subsection.1.2.2}\protected@file@percent }
\newlabel{equation:energy_2}{{1.3}{11}{Energy}{equation.1.2.3}{}}
\@writefile{toc}{\contentsline {subsection}{\numberline {1.2.3}Luminosity}{11}{subsection.1.2.3}\protected@file@percent }
\newlabel{equ:luminosity}{{1.4}{11}{Luminosity}{equation.1.2.4}{}}
\@writefile{toc}{\contentsline {subsection}{\numberline {1.2.4}LHC}{12}{subsection.1.2.4}\protected@file@percent }
\newlabel{section:lhc}{{1.2.4}{12}{LHC}{subsection.1.2.4}{}}
\@writefile{lof}{\contentsline {figure}{\numberline {1.3}{\ignorespaces CERN accelerator complex.}}{12}{figure.caption.11}\protected@file@percent }
\newlabel{fig:lhcmap}{{1.3}{12}{CERN accelerator complex}{figure.caption.11}{}}
\citation{ATLAS}
\citation{ATLAS}
\citation{ATLAS}
\citation{atlascrosssection}
\citation{atlascrosssection}
\@writefile{toc}{\contentsline {section}{\numberline {1.3}The ATLAS experiment}{13}{section.1.3}\protected@file@percent }
\newlabel{sect:atlas}{{1.3}{13}{The ATLAS experiment}{section.1.3}{}}
\@writefile{lof}{\contentsline {figure}{\numberline {1.4}{\ignorespaces Overview of the ATLAS experiment}}{13}{figure.caption.12}\protected@file@percent }
\newlabel{fig:atlasoverview}{{1.4}{13}{Overview of the ATLAS experiment}{figure.caption.12}{}}
\citation{higgsdiscover}
\citation{higgslatest}
\citation{higgslatest}
\citation{higgslatest}
\@writefile{lof}{\contentsline {figure}{\numberline {1.5}{\ignorespaces Cross section of the ATLAS detector}}{14}{figure.caption.13}\protected@file@percent }
\newlabel{fig:atlascrosssection}{{1.5}{14}{Cross section of the ATLAS detector}{figure.caption.13}{}}
\@writefile{toc}{\contentsline {subsection}{\numberline {1.3.1}Physics targets}{14}{subsection.1.3.1}\protected@file@percent }
\@writefile{toc}{\contentsline {subsubsection}{Search for the Standard Model Higgs boson}{14}{section*.14}\protected@file@percent }
\newlabel{sect:higgshunting}{{1.3.1}{14}{Search for the Standard Model Higgs boson}{section*.14}{}}
\@writefile{lof}{\contentsline {figure}{\numberline {1.6}{\ignorespaces Summary of the $m_H$ measurement from the $H\rightarrow \gamma \gamma $ and $H\rightarrow ZZ^* \rightarrow 4\ell $ channels}}{14}{figure.caption.15}\protected@file@percent }
\newlabel{fig:higgslatest}{{1.6}{14}{Summary of the $m_H$ measurement from the $H\rightarrow \gamma \gamma $ and $H\rightarrow ZZ^* \rightarrow 4\ell $ channels}{figure.caption.15}{}}
\citation{heavywmass}
\citation{heavywmass}
\citation{heavywmass}
\citation{r-parity}
\@writefile{toc}{\contentsline {subsubsection}{Search for new gauge bosons $W'$ and $Z'$}{15}{section*.16}\protected@file@percent }
\newlabel{fig:wmass_electron}{{\caption@xref {fig:wmass_electron}{ on input line 293}}{15}{Search for new gauge bosons $W'$ and $Z'$}{figure.caption.17}{}}
\newlabel{fig:wmass_muon}{{\caption@xref {fig:wmass_muon}{ on input line 300}}{15}{Search for new gauge bosons $W'$ and $Z'$}{figure.caption.17}{}}
\@writefile{lof}{\contentsline {figure}{\numberline {1.7}{\ignorespaces Distributions of the transverse mass of new gauge bosons search.}}{15}{figure.caption.17}\protected@file@percent }
\newlabel{fig:heavywmass}{{1.7}{15}{Distributions of the transverse mass of new gauge bosons search}{figure.caption.17}{}}
\@writefile{toc}{\contentsline {subsubsection}{Supersymmetric particles search}{15}{section*.18}\protected@file@percent }
\citation{SUSY}
\citation{SUSY}
\citation{innerdetector}
\citation{ID}
\citation{ID}
\newlabel{fig:gluinodiagram}{{\caption@xref {fig:gluinodiagram}{ on input line 325}}{16}{Supersymmetric particles search}{figure.caption.19}{}}
\newlabel{fig:squarkdiagram}{{\caption@xref {fig:squarkdiagram}{ on input line 331}}{16}{Supersymmetric particles search}{figure.caption.19}{}}
\@writefile{lof}{\contentsline {figure}{\numberline {1.8}{\ignorespaces Diagrams of gluino and squark productions and their decays.}}{16}{figure.caption.19}\protected@file@percent }
\newlabel{fig:susydiagram}{{1.8}{16}{Diagrams of gluino and squark productions and their decays}{figure.caption.19}{}}
\@writefile{lof}{\contentsline {figure}{\numberline {1.9}{\ignorespaces Comparisons of the oberved and expected events of squarks and gluinos searches.}}{16}{figure.caption.20}\protected@file@percent }
\newlabel{fig:susyevent}{{1.9}{16}{Comparisons of the oberved and expected events of squarks and gluinos searches}{figure.caption.20}{}}
\@writefile{toc}{\contentsline {subsection}{\numberline {1.3.2}Inner Detector}{16}{subsection.1.3.2}\protected@file@percent }
\newlabel{sect:id}{{1.3.2}{16}{Inner Detector}{subsection.1.3.2}{}}
\citation{Pixels}
\citation{Pixels}
\citation{Pixels}
\@writefile{lof}{\contentsline {figure}{\numberline {1.10}{\ignorespaces The three different sub-systems of the barrel part of the Inner Detector}}{17}{figure.caption.21}\protected@file@percent }
\newlabel{fig:iddesign}{{1.10}{17}{The three different sub-systems of the barrel part of the Inner Detector}{figure.caption.21}{}}
\@writefile{toc}{\contentsline {subsubsection}{Pixel detector}{17}{section*.22}\protected@file@percent }
\@writefile{lof}{\contentsline {figure}{\numberline {1.11}{\ignorespaces Structure of Pixel detector.}}{17}{figure.caption.23}\protected@file@percent }
\newlabel{fig:pixeldetector}{{1.11}{17}{Structure of Pixel detector}{figure.caption.23}{}}
\citation{IBL}
\citation{SCTdesign}
\citation{SCTdesign}
\citation{SCTdesign}
\@writefile{toc}{\contentsline {subsubsection}{Semiconductor tracker}{18}{section*.24}\protected@file@percent }
\citation{TRT}
\citation{calorimeter}
\citation{calorimeter}
\citation{calorimeter}
\@writefile{lof}{\contentsline {figure}{\numberline {1.12}{\ignorespaces SCT barrel module}}{19}{figure.caption.25}\protected@file@percent }
\newlabel{fig:sctphoto}{{1.12}{19}{SCT barrel module}{figure.caption.25}{}}
\@writefile{toc}{\contentsline {subsubsection}{Transition Radiation Tracker}{19}{section*.26}\protected@file@percent }
\@writefile{toc}{\contentsline {subsection}{\numberline {1.3.3}Calorimeters}{19}{subsection.1.3.3}\protected@file@percent }
\citation{LAr}
\citation{muon}
\citation{muon}
\citation{muon}
\@writefile{lof}{\contentsline {figure}{\numberline {1.13}{\ignorespaces The components of the ATLAS calorimetric system}}{20}{figure.caption.27}\protected@file@percent }
\newlabel{fig:calorimeter}{{1.13}{20}{The components of the ATLAS calorimetric system}{figure.caption.27}{}}
\@writefile{toc}{\contentsline {subsubsection}{Liquid Argon Calorimeter (LAr)}{20}{section*.28}\protected@file@percent }
\@writefile{toc}{\contentsline {subsubsection}{Tile Hadronic Calorimeter}{20}{section*.29}\protected@file@percent }
\@writefile{toc}{\contentsline {subsection}{\numberline {1.3.4}Muon Spectrometer}{20}{subsection.1.3.4}\protected@file@percent }
\newlabel{sect:muonspe}{{1.3.4}{20}{Muon Spectrometer}{subsection.1.3.4}{}}
\citation{hllhc}
\citation{hllhc}
\citation{hllhcTDR}
\citation{hllhcTDR}
\@writefile{lof}{\contentsline {figure}{\numberline {1.14}{\ignorespaces Sub-components of the muon system}}{21}{figure.caption.30}\protected@file@percent }
\newlabel{fig:muon}{{1.14}{21}{Sub-components of the muon system}{figure.caption.30}{}}
\@writefile{toc}{\contentsline {section}{\numberline {1.4}The HL-LHC}{21}{section.1.4}\protected@file@percent }
\newlabel{sect:hl-lhc}{{1.4}{21}{The HL-LHC}{section.1.4}{}}
\@writefile{toc}{\contentsline {subsection}{\numberline {1.4.1}Upgrade of the accelerator}{21}{subsection.1.4.1}\protected@file@percent }
\@writefile{lof}{\contentsline {figure}{\numberline {1.15}{\ignorespaces LHC/HL-LHC schedule plan}}{21}{figure.caption.31}\protected@file@percent }
\newlabel{fig:lhc-plan}{{1.15}{21}{LHC/HL-LHC schedule plan}{figure.caption.31}{}}
\citation{physicsHLLHC}
\citation{hllhc_wwjj}
\citation{hllhc_wwjj}
\@writefile{lot}{\contentsline {table}{\numberline {1.1}{\ignorespaces Comparison of the main parameters of the LHC and HL-LHC}}{22}{table.caption.32}\protected@file@percent }
\newlabel{table:hllhc-para}{{1.1}{22}{Comparison of the main parameters of the LHC and HL-LHC}{table.caption.32}{}}
\@writefile{toc}{\contentsline {subsection}{\numberline {1.4.2}Physics prospected at the HL-LHC}{22}{subsection.1.4.2}\protected@file@percent }
\@writefile{toc}{\contentsline {subsubsection}{Precision Standard Model measurement}{22}{section*.33}\protected@file@percent }
\@writefile{lof}{\contentsline {figure}{\numberline {1.16}{\ignorespaces The uncertainties and significances of $W^{\pm }W^{\pm }jj$ cross section measurement.}}{22}{figure.caption.34}\protected@file@percent }
\newlabel{fig:wwjj_hllhc}{{1.16}{22}{The uncertainties and significances of $W^{\pm }W^{\pm }jj$ cross section measurement}{figure.caption.34}{}}
\citation{bsm}
\citation{bsm}
\citation{bsm}
\citation{atlasupgrade}
\citation{atlasupgrade}
\@writefile{toc}{\contentsline {subsubsection}{Beyond the Standard Model searches}{23}{section*.35}\protected@file@percent }
\@writefile{lof}{\contentsline {figure}{\numberline {1.17}{\ignorespaces Exclusion and potential discovery at the 95~$\%$ CL for production of $\setbox \z@ \hbox {\mathsurround \z@ $\textstyle \chi $}\mathaccent "0365{\chi } ^{+}_{1}\setbox \z@ \hbox {\mathsurround \z@ $\textstyle \chi $}\mathaccent "0365{\chi } ^{-}_{1}$.}}{23}{figure.caption.36}\protected@file@percent }
\newlabel{fig:fcnc}{{1.17}{23}{Exclusion and potential discovery at the 95~$\%$ CL for production of $\widetilde {\chi } ^{+}_{1}\widetilde {\chi } ^{-}_{1}$}{figure.caption.36}{}}
\@writefile{toc}{\contentsline {subsection}{\numberline {1.4.3}The upgrade of ATLAS detector for HL-LHC}{23}{subsection.1.4.3}\protected@file@percent }
\@writefile{toc}{\contentsline {subsubsection}{High particle density}{23}{section*.38}\protected@file@percent }
\citation{PixTDR}
\citation{PixTDR}
\@writefile{lof}{\contentsline {figure}{\numberline {1.18}{\ignorespaces Schematic of the major upgrades to the ATLAS detector for the HL-LHC eras.}}{24}{figure.caption.37}\protected@file@percent }
\newlabel{fig:atlasupgrade}{{1.18}{24}{Schematic of the major upgrades to the ATLAS detector for the HL-LHC eras}{figure.caption.37}{}}
\@writefile{toc}{\contentsline {subsubsection}{Radiation damage}{24}{section*.39}\protected@file@percent }
\newlabel{fig:rad_simulation_fluence}{{1.19a}{24}{1MeV neutron equivalent fluence}{figure.caption.40}{}}
\newlabel{sub@fig:rad_simulation_fluence}{{a}{24}{1MeV neutron equivalent fluence}{figure.caption.40}{}}
\newlabel{fig:rad_simulation_tid}{{1.19b}{24}{Total ionizing dose}{figure.caption.40}{}}
\newlabel{sub@fig:rad_simulation_tid}{{b}{24}{Total ionizing dose}{figure.caption.40}{}}
\@writefile{lof}{\contentsline {figure}{\numberline {1.19}{\ignorespaces The fluence and dose distribution for the Pixel Detector}}{24}{figure.caption.40}\protected@file@percent }
\newlabel{fig:radiation_distribution}{{1.19}{24}{The fluence and dose distribution for the Pixel Detector}{figure.caption.40}{}}
\@setckpt{Chapters/1-ATLAS-HL}{
\setcounter{page}{25}
\setcounter{equation}{5}
\setcounter{enumi}{0}
\setcounter{enumii}{0}
\setcounter{enumiii}{0}
\setcounter{enumiv}{0}
\setcounter{footnote}{0}
\setcounter{mpfootnote}{0}
\setcounter{part}{0}
\setcounter{chapter}{1}
\setcounter{section}{4}
\setcounter{subsection}{3}
\setcounter{subsubsection}{0}
\setcounter{paragraph}{0}
\setcounter{subparagraph}{0}
\setcounter{figure}{19}
\setcounter{table}{1}
\setcounter{Maxaffil}{2}
\setcounter{authors}{0}
\setcounter{affil}{0}
\setcounter{parentequation}{0}
\setcounter{section@level}{3}
\setcounter{Item}{0}
\setcounter{Hfootnote}{0}
\setcounter{Hy@AnnotLevel}{0}
\setcounter{bookmark@seq@number}{16}
\setcounter{float@type}{4}
\setcounter{linenumber}{1}
\setcounter{LN@truepage}{30}
\setcounter{caption@flags}{6}
\setcounter{continuedfloat}{0}
\setcounter{subfigure}{2}
\setcounter{subtable}{0}
}
