\relax 
\citation{Moore}
\@writefile{toc}{\contentsline {chapter}{\numberline {2}Semicondictor detector}{24}}
\@writefile{lof}{\addvspace {10\p@ }}
\@writefile{lot}{\addvspace {10\p@ }}
\newlabel{chap:semiconductor}{{2}{24}}
\@writefile{toc}{\contentsline {section}{\numberline {2.1}Semiconductor}{24}}
\@writefile{toc}{\contentsline {subsection}{\numberline {2.1.1}Properties of semiconductor}{24}}
\newlabel{section:semiconducto}{{2.1.1}{24}}
\newlabel{fig:band_conductor}{{2.1a}{24}}
\newlabel{sub@fig:band_conductor}{{a}{24}}
\newlabel{fig:band_semicon}{{2.1b}{24}}
\newlabel{sub@fig:band_semicon}{{b}{24}}
\newlabel{fig:band_insulator}{{2.1c}{24}}
\newlabel{sub@fig:band_insulator}{{c}{24}}
\@writefile{lof}{\contentsline {figure}{\numberline {2.1}{\ignorespaces Band gap energy of (a) conductor, (b) semiconductor and (c) insulator\relax }}{24}}
\newlabel{fig:bandgap}{{2.1}{24}}
\@writefile{lof}{\contentsline {figure}{\numberline {2.2}{\ignorespaces Lattice structure of silicon.\relax }}{25}}
\newlabel{fig:crystalstructure}{{2.2}{25}}
\@writefile{toc}{\contentsline {subsection}{\numberline {2.1.2}The p-n junction}{25}}
\@writefile{toc}{\contentsline {subsubsection}{Doping}{25}}
\@writefile{toc}{\contentsline {subsubsection}{p-n junction}{25}}
\newlabel{fig:N-type}{{2.3a}{26}}
\newlabel{sub@fig:N-type}{{a}{26}}
\newlabel{fig:P-type}{{2.3b}{26}}
\newlabel{sub@fig:P-type}{{b}{26}}
\@writefile{lof}{\contentsline {figure}{\numberline {2.3}{\ignorespaces Lattice structure of (a) N-type and (b) P-type semiconductor\relax }}{26}}
\newlabel{fig:N-P-semicon}{{2.3}{26}}
\@writefile{lof}{\contentsline {figure}{\numberline {2.4}{\ignorespaces p-n junction, excess electron drift from P-type semiconductor to N-type semiconductor and form band.\relax }}{26}}
\newlabel{fig:pnjunction}{{2.4}{26}}
\@writefile{toc}{\contentsline {subsubsection}{Bias voltage}{26}}
\citation{bandgap}
\citation{bandgap}
\citation{bandgap}
\@writefile{lof}{\contentsline {figure}{\numberline {2.5}{\ignorespaces The Charge, Electric field and Voltage of p-n junction.\relax }}{27}}
\newlabel{fig:potentials}{{2.5}{27}}
\@writefile{toc}{\contentsline {subsubsection}{Forward bias}{27}}
\@writefile{toc}{\contentsline {subsubsection}{Reverse bias}{27}}
\newlabel{equation:width}{{2.1}{27}}
\@writefile{toc}{\contentsline {subsection}{\numberline {2.1.3}Temperature dependence}{27}}
\newlabel{chap:tempdependence}{{2.1.3}{27}}
\newlabel{equ:current_temperature}{{2.2}{27}}
\@writefile{lof}{\contentsline {figure}{\numberline {2.6}{\ignorespaces Typical IV curve of p-n diode.\relax }}{28}}
\newlabel{fig:iv_pn}{{2.6}{28}}
\@writefile{lof}{\contentsline {figure}{\numberline {2.7}{\ignorespaces The leakage current of silicon normalized at room temperature (293\nobreakspace  {}K)\relax }}{28}}
\newlabel{fig:leakagecurrent}{{2.7}{28}}
\@writefile{toc}{\contentsline {section}{\numberline {2.2}Semiconductor detector for particle physics}{28}}
\@writefile{toc}{\contentsline {subsection}{\numberline {2.2.1}How to detect the charged particle}{28}}
\@writefile{lot}{\contentsline {table}{\numberline {2.1}{\ignorespaces Value of parameter in equation 2.2\@setref@ {} \cite  {bandgap}\relax }}{28}}
\newlabel{table:eg_parameter}{{2.1}{28}}
\citation{bethe}
\citation{pdg}
\citation{pdg}
\@writefile{lot}{\contentsline {table}{\numberline {2.2}{\ignorespaces Value of parameter in equation 2.4\@setref@ {}\relax }}{29}}
\newlabel{table:value_bethe}{{2.2}{29}}
\@writefile{lof}{\contentsline {figure}{\numberline {2.8}{\ignorespaces The principle of semiconductor detector.\relax }}{29}}
\newlabel{fig:semiconductor_detector}{{2.8}{29}}
\newlabel{equ:bethe}{{2.4}{29}}
\citation{J.B.Johnson}
\citation{mcwhorter}
\@writefile{lof}{\contentsline {figure}{\numberline {2.9}{\ignorespaces Mean energy loss rate in the material. \cite  {pdg}\relax }}{30}}
\newlabel{fig:bethe}{{2.9}{30}}
\@writefile{toc}{\contentsline {subsubsection}{Noise}{30}}
\newlabel{equation:Johnson-Nyquist}{{2.5}{30}}
\@writefile{toc}{\contentsline {subsection}{\numberline {2.2.2}Features of semiconductor detector}{31}}
\@writefile{toc}{\contentsline {subsection}{\numberline {2.2.3}Radiation damage}{31}}
\newlabel{sect:radiationdamage}{{2.2.3}{31}}
\citation{niel_damage}
\citation{niel_damage}
\citation{Moll}
\citation{Moll}
\citation{collectionexperiment}
\citation{collectedcharge}
\citation{collectedcharge}
\@writefile{toc}{\contentsline {subsubsection}{NIEL}{32}}
\@writefile{lof}{\contentsline {figure}{\numberline {2.10}{\ignorespaces Initial distribution of vacancies produced by 10-MeV protons (left), 23-GeV protons (middle) and 1-MeV neutrons (right). The plots are projections over 1\nobreakspace  {}$\mu $m of depth (z) and correspond to a fluence of 10$^{14}$cm$^{-2}$. \cite  {niel_damage}\relax }}{32}}
\newlabel{fig:niel_damage}{{2.10}{32}}
\@writefile{lof}{\contentsline {figure}{\numberline {2.11}{\ignorespaces Radiation induced leakage current increase as function of particle fluence. \cite  {Moll}\relax }}{32}}
\newlabel{fig:radiation_damage}{{2.11}{32}}
\citation{Moll2}
\citation{Moll2}
\@writefile{lof}{\contentsline {figure}{\numberline {2.12}{\ignorespaces Charge collection at T=248K, V$_{BIAS}$=900V considering the impact ionization and enhanced capture cross-sections. \cite  {collectedcharge}\relax }}{33}}
\newlabel{fig:collectedcharge}{{2.12}{33}}
\@writefile{toc}{\contentsline {subsubsection}{TID}{33}}
\@writefile{lof}{\contentsline {figure}{\numberline {2.13}{\ignorespaces How depletion region expand before and after type inversion. Before inversion, the depletion region is widen from interface between p$^+$ inplant and n$^-$ bulk. After inversion, it is created from between n$^+$ layer of back side and p$-$ bulk.\relax }}{34}}
\newlabel{fig:type-inversion}{{2.13}{34}}
\@writefile{lof}{\contentsline {figure}{\numberline {2.14}{\ignorespaces Evolution of predetected full depletion voltage of SCT Barrel 3. Type inversion occurs around $\Phi $ = 10$^{13}$\nobreakspace  {}1\nobreakspace  {}MeV\nobreakspace  {}n-eq/cm$^2$ fluence. [?] (Need to find the original figure)\relax }}{34}}
\newlabel{fig:inversion_voltage}{{2.14}{34}}
\@writefile{toc}{\contentsline {subsubsection}{Single Event Effect}{34}}
\@writefile{lof}{\contentsline {figure}{\numberline {2.15}{\ignorespaces NIEL cross section scaled to 1\nobreakspace  {}MeV neutron. \cite  {Moll2}\relax }}{35}}
\newlabel{fig:nielfactor}{{2.15}{35}}
\@writefile{lof}{\contentsline {figure}{\numberline {2.16}{\ignorespaces Trapped charges by position.\relax }}{35}}
\newlabel{fig:tid_figure}{{2.16}{35}}
\citation{PixTDR}
\citation{PixTDR}
\citation{PixTDR}
\citation{PixTDR}
\citation{PixTDR}
\citation{PixTDR}
\@writefile{toc}{\contentsline {chapter}{\numberline {3}ITk, new inner detector for HL-LHC}{36}}
\@writefile{lof}{\addvspace {10\p@ }}
\@writefile{lot}{\addvspace {10\p@ }}
\newlabel{chap:itk}{{3}{36}}
\@writefile{toc}{\contentsline {section}{\numberline {3.1}Inner Tracker for HL-LHC (ITk)}{36}}
\newlabel{sect:start}{{3.1}{36}}
\@writefile{toc}{\contentsline {subsection}{\numberline {3.1.1}Changed point from ID}{36}}
\newlabel{pseud-rapidity}{{3.1}{36}}
\newlabel{fig:numberhit_silicon}{{\caption@xref {fig:numberhit_silicon}{ on input line 544}}{36}}
\newlabel{fig:numberhit_pixel}{{\caption@xref {fig:numberhit_pixel}{ on input line 550}}{36}}
\@writefile{lof}{\contentsline {figure}{\numberline {3.1}{\ignorespaces The total number of (left) strip and pixel hits and (right) pixel hits. As a sample, single muon event $p_T$ = 1\nobreakspace  {}GeV is used. The muons are produced with a flat distribution between -15 to 15 cm in z and between 0 to 2 cm in R, respectively. \cite  {PixTDR}\relax }}{36}}
\newlabel{fig:}{{3.1}{36}}
\@writefile{lot}{\contentsline {table}{\numberline {3.1}{\ignorespaces Set of cuts applied during the track reconstruction depending on the pseudorapidity in- terval. Holes are counted if track candidates cross active sensors on which no hit was found, double holes are two consecutive active sensors crossed without a hit found. Here $d_0$ and $z_0$ are defined with respect to the mean position of the beam spot. \cite  {PixTDR}\relax }}{37}}
\newlabel{table:trackingrequirement}{{3.1}{37}}
\@writefile{lof}{\contentsline {figure}{\numberline {3.2}{\ignorespaces Layout of current inner tracker (left) and ITk for HL-LHC (right). \cite  {PixTDR}\relax }}{37}}
\newlabel{fig:tracker_layout}{{3.2}{37}}
\@writefile{toc}{\contentsline {subsection}{\numberline {3.1.2}Physics performance}{37}}
\@writefile{toc}{\contentsline {section}{\numberline {3.2}ITk pixel detector}{37}}
\@writefile{toc}{\contentsline {subsection}{\numberline {3.2.1}RD53A}{37}}
\newlabel{section:rd53a}{{3.2.1}{37}}
\@writefile{toc}{\contentsline {subsection}{\numberline {3.2.2}ITk pix v1}{37}}
\newlabel{section:itkpix}{{3.2.2}{37}}
\@writefile{toc}{\contentsline {subsection}{\numberline {3.2.3}DAQ}{37}}
\@writefile{toc}{\contentsline {subsubsection}{YARR}{37}}
\@writefile{toc}{\contentsline {subsubsection}{Felix}{37}}
\@writefile{toc}{\contentsline {subsubsection}{Scan item}{37}}
\newlabel{sect:yarr_scans}{{3.2.3}{37}}
\citation{RD53Amanual}
\citation{RD53Amanual}
\citation{RD53Amanual}
\citation{RD53Amanual}
\@writefile{lof}{\contentsline {figure}{\numberline {3.3}{\ignorespaces Schematic of multiplexer and ADC. The output of multiplexer is also connected to the external and accessible to the pad on the module flex. \cite  {RD53Amanual}\relax }}{39}}
\newlabel{fig:multiplexer}{{3.3}{39}}
\@writefile{toc}{\contentsline {section}{\numberline {3.3}Construction}{39}}
\@writefile{toc}{\contentsline {subsection}{\numberline {3.3.1}Components}{39}}
\@writefile{toc}{\contentsline {subsubsection}{Sensor}{39}}
\citation{sensor_detail}
\citation{sensor_detail}
\citation{3Defficiency}
\citation{3Defficiency}
\@writefile{lot}{\contentsline {table}{\numberline {3.2}{\ignorespaces Analog voltage multiplexer assignments \cite  {RD53Amanual}.\relax }}{40}}
\newlabel{table:assignMUX}{{3.2}{40}}
\@writefile{lot}{\contentsline {table}{\numberline {3.3}{\ignorespaces The sensor type of ITk pixel module for barrel\relax }}{40}}
\newlabel{table:sensortype}{{3.3}{40}}
\@writefile{toc}{\contentsline {subsubsection}{ASIC}{40}}
\newlabel{fig:3d_cross}{{\caption@xref {fig:3d_cross}{ on input line 791}}{41}}
\newlabel{fig:3d_top}{{\caption@xref {fig:3d_top}{ on input line 798}}{41}}
\@writefile{lof}{\contentsline {figure}{\numberline {3.4}{\ignorespaces The design of the 3D sensor (left) view of cross section, (right) view from top. The n$^+$ colunmn is located in the center of the pixel and the p$^+$ columns are on the each corner. The depletion region is widened from n$^+$ colunmn to p$^+$ colunmn and the charges drift transverse. The bump pads are aligned 50$\times $50\nobreakspace  {}$\mu $m.\relax }}{41}}
\newlabel{fig:3dsensor}{{3.4}{41}}
\@writefile{lof}{\contentsline {figure}{\numberline {3.5}{\ignorespaces The design of the n$^+$-in-p implant sensor (left) view of cross section, (center) design of 25$\times $100\nobreakspace  {}$\mu $m, (right) design of 50$\times $50\nobreakspace  {}$\mu $m. The depletion region is widened from n$^+$ implant to bottom layer and the charges drift longitudinal. The bump pads are aligned 50$\times $50\nobreakspace  {}$\mu $m.\relax }}{41}}
\newlabel{fig:implant}{{3.5}{41}}
\@writefile{toc}{\contentsline {subsubsection}{Module flex}{41}}
\@writefile{toc}{\contentsline {subsubsection}{Module cell}{41}}
\newlabel{equation:TFM}{{3.3}{41}}
\@writefile{toc}{\contentsline {subsubsection}{Pigtail}{41}}
\@writefile{toc}{\contentsline {subsubsection}{Power line}{41}}
\@writefile{lot}{\contentsline {table}{\numberline {3.4}{\ignorespaces The specification of planar pixel sensor. The irradiation is after annealing at room temperature for 10 days. \cite  {sensor_detail}\relax }}{42}}
\newlabel{table:planar_specification}{{3.4}{42}}
\@writefile{lof}{\contentsline {figure}{\numberline {3.6}{\ignorespaces The hit efficiencies of 3D sensor produced at CNM as a function of the bias voltage for the 50$\times $50\nobreakspace  {}$\mu $m (left) and the 25$\times $100\nobreakspace  {}$\mu $m (right). The dashed line is the ATLAS benchmark hit efficiency 97$\%$. Hybrized on the RD53A ASIC and the threshold is tuned at 1\nobreakspace  {}ke.\cite  {3Defficiency}\relax }}{42}}
\newlabel{fig:3defficiency}{{3.6}{42}}
\@writefile{toc}{\contentsline {subsection}{\numberline {3.3.2}QC and QA}{42}}
\@writefile{toc}{\contentsline {subsubsection}{Qualification Control}{42}}
\@writefile{toc}{\contentsline {subsubsection}{Qualification assurance}{42}}
\@writefile{lof}{\contentsline {figure}{\numberline {3.7}{\ignorespaces View of the module cell used in the Outer Barrel. \cite  {}\relax }}{43}}
\newlabel{fig:modulecell}{{3.7}{43}}
\@writefile{lot}{\contentsline {table}{\numberline {3.5}{\ignorespaces The production stages and QC test\relax }}{43}}
\newlabel{table:qcstage}{{3.5}{43}}
\@writefile{lot}{\contentsline {table}{\numberline {3.6}{\ignorespaces The list of electrical test\relax }}{43}}
\newlabel{table:electricallist}{{3.6}{43}}
\@setckpt{Chapters/2-ITk}{
\setcounter{page}{44}
\setcounter{equation}{3}
\setcounter{enumi}{0}
\setcounter{enumii}{0}
\setcounter{enumiii}{0}
\setcounter{enumiv}{0}
\setcounter{footnote}{0}
\setcounter{mpfootnote}{0}
\setcounter{part}{0}
\setcounter{chapter}{3}
\setcounter{section}{3}
\setcounter{subsection}{2}
\setcounter{subsubsection}{0}
\setcounter{paragraph}{0}
\setcounter{subparagraph}{0}
\setcounter{figure}{7}
\setcounter{table}{6}
\setcounter{Maxaffil}{2}
\setcounter{authors}{0}
\setcounter{affil}{0}
\setcounter{parentequation}{0}
\setcounter{float@type}{4}
\setcounter{linenumber}{900}
\setcounter{LN@truepage}{44}
\setcounter{ContinuedFloat}{0}
\setcounter{subfigure}{0}
\setcounter{subtable}{0}
}
