\relax 
\providecommand\hyper@newdestlabel[2]{}
\@writefile{toc}{\contentsline {chapter}{\numberline {2}Semiconductor detectors}{25}{chapter.2}\protected@file@percent }
\@writefile{lof}{\addvspace {10\p@ }}
\@writefile{lot}{\addvspace {10\p@ }}
\newlabel{chap:semiconductor}{{2}{25}{Semiconductor detectors}{chapter.2}{}}
\@writefile{toc}{\contentsline {section}{\numberline {2.1}Semiconductors}{25}{section.2.1}\protected@file@percent }
\@writefile{toc}{\contentsline {subsection}{\numberline {2.1.1}Properties of semiconductors}{25}{subsection.2.1.1}\protected@file@percent }
\newlabel{section:semiconducto}{{2.1.1}{25}{Properties of semiconductors}{subsection.2.1.1}{}}
\@writefile{lof}{\contentsline {figure}{\numberline {2.1}{\ignorespaces Energy band-gap of conductors, semiconductors and insulators}}{25}{figure.caption.41}\protected@file@percent }
\newlabel{fig:bandgap}{{2.1}{25}{Energy band-gap of conductors, semiconductors and insulators}{figure.caption.41}{}}
\citation{Moore}
\newlabel{equation:Neff}{{2.1}{26}{Properties of semiconductors}{equation.2.1.1}{}}
\@writefile{lof}{\contentsline {figure}{\numberline {2.2}{\ignorespaces Lattice structure of silicon}}{26}{figure.caption.42}\protected@file@percent }
\newlabel{fig:crystalstructure}{{2.2}{26}{Lattice structure of silicon}{figure.caption.42}{}}
\@writefile{toc}{\contentsline {subsection}{\numberline {2.1.2}The p-n junction}{27}{subsection.2.1.2}\protected@file@percent }
\@writefile{toc}{\contentsline {subsubsection}{Doping}{27}{section*.43}\protected@file@percent }
\newlabel{fig:N-type}{{2.3a}{27}{N-type semiconductor}{figure.caption.44}{}}
\newlabel{sub@fig:N-type}{{a}{27}{N-type semiconductor}{figure.caption.44}{}}
\newlabel{fig:P-type}{{2.3b}{27}{P-type semiconductor}{figure.caption.44}{}}
\newlabel{sub@fig:P-type}{{b}{27}{P-type semiconductor}{figure.caption.44}{}}
\@writefile{lof}{\contentsline {figure}{\numberline {2.3}{\ignorespaces Lattice structures of the N-type and P-type semiconductors}}{27}{figure.caption.44}\protected@file@percent }
\newlabel{fig:N-P-semicon}{{2.3}{27}{Lattice structures of the N-type and P-type semiconductors}{figure.caption.44}{}}
\@writefile{toc}{\contentsline {subsubsection}{p-n junction}{27}{section*.45}\protected@file@percent }
\@writefile{lof}{\contentsline {figure}{\numberline {2.4}{\ignorespaces p-n junction, where excess electrons drift}}{28}{figure.caption.46}\protected@file@percent }
\newlabel{fig:pnjunction}{{2.4}{28}{p-n junction, where excess electrons drift}{figure.caption.46}{}}
\@writefile{lof}{\contentsline {figure}{\numberline {2.5}{\ignorespaces Carrier concentration, Charge distribution, Electric field and Voltage distribution of the p-n junction.}}{28}{figure.caption.47}\protected@file@percent }
\newlabel{fig:potentials}{{2.5}{28}{Carrier concentration, Charge distribution, Electric field and Voltage distribution of the p-n junction}{figure.caption.47}{}}
\@writefile{toc}{\contentsline {subsubsection}{Bias voltage}{28}{section*.48}\protected@file@percent }
\@writefile{toc}{\contentsline {subsubsection}{Forward bias}{28}{section*.49}\protected@file@percent }
\citation{leakratio}
\citation{bandgap}
\@writefile{toc}{\contentsline {subsubsection}{Reverse bias}{29}{section*.50}\protected@file@percent }
\newlabel{equation:width}{{2.2}{29}{Reverse bias}{equation.2.1.2}{}}
\@writefile{lof}{\contentsline {figure}{\numberline {2.6}{\ignorespaces Typical IV curve of p-n diode.}}{29}{figure.caption.51}\protected@file@percent }
\newlabel{fig:iv_pn}{{2.6}{29}{Typical IV curve of p-n diode}{figure.caption.51}{}}
\@writefile{toc}{\contentsline {subsection}{\numberline {2.1.3}Temperature dependence}{29}{subsection.2.1.3}\protected@file@percent }
\newlabel{chap:tempdependence}{{2.1.3}{29}{Temperature dependence}{subsection.2.1.3}{}}
\newlabel{equ:current_temperature}{{2.3}{29}{Temperature dependence}{equation.2.1.3}{}}
\newlabel{equ:energy_gap}{{2.4}{29}{Temperature dependence}{equation.2.1.4}{}}
\citation{bandgap}
\citation{bandgap}
\@writefile{lof}{\contentsline {figure}{\numberline {2.7}{\ignorespaces The leakage current of silicon normalized to the room temperature (293~K).}}{30}{figure.caption.52}\protected@file@percent }
\newlabel{fig:leakagecurrent}{{2.7}{30}{The leakage current of silicon normalized to the room temperature (293~K)}{figure.caption.52}{}}
\@writefile{lot}{\contentsline {table}{\numberline {2.1}{\ignorespaces Values of parameters in equation \ref {equ:current_temperature}}}{30}{table.caption.53}\protected@file@percent }
\newlabel{table:eg_parameter}{{2.1}{30}{Values of parameters in equation \ref {equ:current_temperature}}{table.caption.53}{}}
\@writefile{toc}{\contentsline {section}{\numberline {2.2}Semiconductor detector for particle physics}{30}{section.2.2}\protected@file@percent }
\@writefile{toc}{\contentsline {subsection}{\numberline {2.2.1}How to detect the charged particle}{30}{subsection.2.2.1}\protected@file@percent }
\citation{bethe}
\citation{pdg}
\citation{pdg}
\citation{pdg}
\citation{pdg}
\@writefile{lof}{\contentsline {figure}{\numberline {2.8}{\ignorespaces The principle of semiconductor detector.}}{31}{figure.caption.54}\protected@file@percent }
\newlabel{fig:semiconductor_detector}{{2.8}{31}{The principle of semiconductor detector}{figure.caption.54}{}}
\newlabel{equ:bethe}{{2.5}{31}{How to detect the charged particle}{equation.2.2.5}{}}
\@writefile{lot}{\contentsline {table}{\numberline {2.2}{\ignorespaces Values of parameters in equation \ref {equ:bethe}}}{31}{table.caption.55}\protected@file@percent }
\newlabel{table:value_bethe}{{2.2}{31}{Values of parameters in equation \ref {equ:bethe}}{table.caption.55}{}}
\citation{J.B.Johnson}
\citation{mcwhorter}
\@writefile{lof}{\contentsline {figure}{\numberline {2.9}{\ignorespaces Energy loss rate in the thin material}}{32}{figure.caption.56}\protected@file@percent }
\newlabel{fig:bethe}{{2.9}{32}{Energy loss rate in the thin material}{figure.caption.56}{}}
\@writefile{toc}{\contentsline {subsubsection}{Noise}{32}{section*.57}\protected@file@percent }
\newlabel{equation:Johnson-Nyquist}{{2.6}{32}{Noise}{equation.2.2.6}{}}
\@writefile{toc}{\contentsline {subsection}{\numberline {2.2.2}Features of semiconductor detector}{33}{subsection.2.2.2}\protected@file@percent }
\newlabel{sect:featuressemicon}{{2.2.2}{33}{Features of semiconductor detector}{subsection.2.2.2}{}}
\citation{niel_damage}
\citation{niel_damage}
\citation{Moll2}
\citation{Moll2}
\@writefile{toc}{\contentsline {subsection}{\numberline {2.2.3}Radiation damage}{34}{subsection.2.2.3}\protected@file@percent }
\newlabel{sect:radiationdamage}{{2.2.3}{34}{Radiation damage}{subsection.2.2.3}{}}
\@writefile{toc}{\contentsline {subsubsection}{NIEL}{34}{section*.58}\protected@file@percent }
\@writefile{lof}{\contentsline {figure}{\numberline {2.10}{\ignorespaces Vacancy distribution maps produced by several types of particles}}{34}{figure.caption.59}\protected@file@percent }
\newlabel{fig:niel_damage}{{2.10}{34}{Vacancy distribution maps produced by several types of particles}{figure.caption.59}{}}
\citation{Moll}
\citation{Moll}
\citation{Moll}
\citation{Moll}
\citation{Moll}
\@writefile{lof}{\contentsline {figure}{\numberline {2.11}{\ignorespaces NIEL cross section scaled to 1-MeV neutron}}{35}{figure.caption.60}\protected@file@percent }
\newlabel{fig:nielfactor}{{2.11}{35}{NIEL cross section scaled to 1-MeV neutron}{figure.caption.60}{}}
\@writefile{lof}{\contentsline {figure}{\numberline {2.12}{\ignorespaces Radiation induced leakage current increase as a function of fluence}}{35}{figure.caption.61}\protected@file@percent }
\newlabel{fig:radiation_damage}{{2.12}{35}{Radiation induced leakage current increase as a function of fluence}{figure.caption.61}{}}
\citation{cce_radiation}
\citation{cce_radiation}
\@writefile{lof}{\contentsline {figure}{\numberline {2.13}{\ignorespaces $\alpha $ values as a function of annealing time}}{36}{figure.caption.62}\protected@file@percent }
\newlabel{fig:radiation_60c}{{2.13}{36}{$\alpha $ values as a function of annealing time}{figure.caption.62}{}}
\@writefile{lof}{\contentsline {figure}{\numberline {2.14}{\ignorespaces Development of $S/N$ against fluence}}{36}{figure.caption.63}\protected@file@percent }
\newlabel{fig:collectedcharge}{{2.14}{36}{Development of $S/N$ against fluence}{figure.caption.63}{}}
\citation{sct_fd}
\citation{sct_fd}
\@writefile{lof}{\contentsline {figure}{\numberline {2.15}{\ignorespaces Expansion of the depletion region before and after the type inversion}}{37}{figure.caption.64}\protected@file@percent }
\newlabel{fig:type-inversion}{{2.15}{37}{Expansion of the depletion region before and after the type inversion}{figure.caption.64}{}}
\@writefile{lof}{\contentsline {figure}{\numberline {2.16}{\ignorespaces Evolution of the predicted full depletion voltage of the SCT Barrel 3}}{37}{figure.caption.65}\protected@file@percent }
\newlabel{fig:inversion_voltage}{{2.16}{37}{Evolution of the predicted full depletion voltage of the SCT Barrel 3}{figure.caption.65}{}}
\citation{pstop}
\@writefile{toc}{\contentsline {subsubsection}{TID}{38}{section*.66}\protected@file@percent }
\@writefile{lof}{\contentsline {figure}{\numberline {2.17}{\ignorespaces Trapped charges by position.}}{38}{figure.caption.67}\protected@file@percent }
\newlabel{fig:tid_figure}{{2.17}{38}{Trapped charges by position}{figure.caption.67}{}}
\@writefile{lof}{\contentsline {figure}{\numberline {2.18}{\ignorespaces The layout of n-type semiconductor detector with the p-stop structure.}}{38}{figure.caption.68}\protected@file@percent }
\newlabel{fig:pstop}{{2.18}{38}{The layout of n-type semiconductor detector with the p-stop structure}{figure.caption.68}{}}
\@writefile{toc}{\contentsline {subsubsection}{Single Event Effect}{38}{section*.69}\protected@file@percent }
\@setckpt{Chapters/2-Semiconductor}{
\setcounter{page}{39}
\setcounter{equation}{7}
\setcounter{enumi}{0}
\setcounter{enumii}{0}
\setcounter{enumiii}{0}
\setcounter{enumiv}{0}
\setcounter{footnote}{0}
\setcounter{mpfootnote}{0}
\setcounter{part}{0}
\setcounter{chapter}{2}
\setcounter{section}{2}
\setcounter{subsection}{3}
\setcounter{subsubsection}{0}
\setcounter{paragraph}{0}
\setcounter{subparagraph}{0}
\setcounter{figure}{18}
\setcounter{table}{2}
\setcounter{Maxaffil}{2}
\setcounter{authors}{0}
\setcounter{affil}{0}
\setcounter{parentequation}{0}
\setcounter{section@level}{3}
\setcounter{Item}{0}
\setcounter{Hfootnote}{0}
\setcounter{Hy@AnnotLevel}{0}
\setcounter{bookmark@seq@number}{25}
\setcounter{float@type}{4}
\setcounter{linenumber}{1}
\setcounter{LN@truepage}{44}
\setcounter{caption@flags}{2}
\setcounter{continuedfloat}{0}
\setcounter{subfigure}{0}
\setcounter{subtable}{0}
}
