\relax 
\citation{PixTDR}
\citation{PixTDR}
\citation{PixTDR}
\citation{PixTDR}
\@writefile{toc}{\contentsline {chapter}{\numberline {3}ITk, the new ATLAS inner tracker for the HL-LHC}{7}}
\@writefile{lof}{\addvspace {10\p@ }}
\@writefile{lot}{\addvspace {10\p@ }}
\newlabel{chap:itk}{{3}{7}}
\@writefile{toc}{\contentsline {section}{\numberline {3.1}The Inner Tracker for the HL-LHC}{7}}
\newlabel{sect:start}{{3.1}{7}}
\@writefile{toc}{\contentsline {subsection}{\numberline {3.1.1}Changed point from ID}{7}}
\newlabel{equ:pseud-rapidity}{{3.1}{7}}
\@writefile{lot}{\contentsline {table}{\numberline {3.1}{\ignorespaces Set of cuts applied during track reconstruction depending on the pseudo-rapidity interval. A hole corresponds to a track candidate crossing a sensor in which no hit was recorded. Double holes correspond to two consecutive holes. $d_0$ and $z_0$ are respectively the transverse and longitudinal impact parameters defined with respect to the mean position of the beam spot\nobreakspace  {}\cite  {PixTDR}.\relax }}{7}}
\providecommand*\caption@xref[2]{\@setref\relax\@undefined{#1}}
\newlabel{table:trackingrequirement}{{3.1}{7}}
\newlabel{fig:numberhit_silicon}{{\caption@xref {fig:numberhit_silicon}{ on input line 58}}{8}}
\newlabel{fig:numberhit_pixel}{{\caption@xref {fig:numberhit_pixel}{ on input line 64}}{8}}
\@writefile{lof}{\contentsline {figure}{\numberline {3.1}{\ignorespaces Total number of strip (left) and pixel hits (right) in ITk for simulated single muon events of $p_T$ = 1\nobreakspace  {}GeV. The muons were produced with a flat distribution between -15 cm and 15 cm in z and between 0 and 2 cm in R, respectively \cite  {PixTDR}.\relax }}{8}}
\newlabel{fig:numberofhit}{{3.1}{8}}
\@writefile{toc}{\contentsline {subsection}{\numberline {3.1.2}Tracking performance}{8}}
\newlabel{sect:trackingperformance}{{3.1.2}{8}}
\@writefile{toc}{\contentsline {subsubsection}{Tracking efficiency}{8}}
\citation{PixTDR}
\citation{PixTDR}
\citation{PixTDR}
\citation{PixTDR}
\citation{PixTDR}
\citation{PixTDR}
\@writefile{lof}{\contentsline {figure}{\numberline {3.2}{\ignorespaces (Left) tracking efficiencies and (right) ratio of reconstructed tracks to generated charged particles as a function of the number of pile-up events $\mu $ for $t\mathaccentV {bar}016{t}$ events \cite  {PixTDR}.\relax }}{9}}
\newlabel{fig:trackeff_pile}{{3.2}{9}}
\@writefile{lof}{\contentsline {figure}{\numberline {3.3}{\ignorespaces Track reconstruction efficiency for $t\mathaccentV {bar}016{t}$ events and a pile up of 200 as a function of $\eta $ \cite  {PixTDR}.\relax }}{9}}
\newlabel{fig:trackeff_eta}{{3.3}{9}}
\@writefile{toc}{\contentsline {subsubsection}{Tracking resolution}{9}}
\citation{PixTDR}
\citation{PixTDR}
\@writefile{lof}{\contentsline {figure}{\numberline {3.4}{\ignorespaces Track parameter resolutions in $d_0$, $z_0$, $\sigma _0$, $\phi _0$ and $p_T$ for ITk as a function of $\eta $ \cite  {PixTDR}.\relax }}{10}}
\newlabel{fig:vertex_resolution}{{3.4}{10}}
\@writefile{toc}{\contentsline {section}{\numberline {3.2}The ITk Pixel detector}{10}}
\@writefile{toc}{\contentsline {subsection}{\numberline {3.2.1}Layout}{10}}
\newlabel{sect:itklayout}{{3.2.1}{10}}
\citation{PixTDR}
\citation{PixTDR}
\citation{PixTDR}
\citation{PixTDR}
\newlabel{fig:itk_layout_whole}{{\caption@xref {fig:itk_layout_whole}{ on input line 173}}{11}}
\newlabel{fig:pixel_layout}{{\caption@xref {fig:pixel_layout}{ on input line 179}}{11}}
\@writefile{lof}{\contentsline {figure}{\numberline {3.5}{\ignorespaces A schematic layout of the ITk Inclined Dual layout (top), and a zoom into the pixel detector (bottom). \cite  {PixTDR}\relax }}{11}}
\newlabel{fig:itk_layout}{{3.5}{11}}
\@writefile{lot}{\contentsline {table}{\numberline {3.2}{\ignorespaces The position of pixel flat barrel. \cite  {PixTDR}\relax }}{11}}
\newlabel{table:pixellayout_flat}{{3.2}{11}}
\citation{rd53study}
\citation{RD53Amanual}
\citation{RD53Amanual}
\citation{RD53Amanual}
\citation{RD53Amanual}
\@writefile{lot}{\contentsline {table}{\numberline {3.3}{\ignorespaces The position of pixel inclined barrel. \cite  {PixTDR}\relax }}{12}}
\newlabel{table:pixellayout_inclined}{{3.3}{12}}
\@writefile{toc}{\contentsline {subsection}{\numberline {3.2.2}Pixel module}{12}}
\newlabel{sect:pixmodule}{{3.2.2}{12}}
\@writefile{toc}{\contentsline {subsubsection}{RD53A}{12}}
\newlabel{section:rd53a}{{3.2.2}{12}}
\@writefile{lof}{\contentsline {figure}{\numberline {3.6}{\ignorespaces Top view of the RD53A layout. The width is 20 mm (400 pixels), and the height is 11.6 mm (192 pixels) \cite  {RD53Amanual}.\relax }}{12}}
\newlabel{fig:topviewofrd53a}{{3.6}{12}}
\@writefile{lof}{\contentsline {figure}{\numberline {3.7}{\ignorespaces Schematic of the analog circuit of Differential front-end \cite  {RD53Amanual}.\relax }}{13}}
\newlabel{fig:diff_sche}{{3.7}{13}}
\@writefile{toc}{\contentsline {subsubsection}{ITk-pix-v1}{13}}
\newlabel{section:itkpix}{{3.2.2}{13}}
\@writefile{lot}{\contentsline {table}{\numberline {3.4}{\ignorespaces Comparison of the main parameters of the FE-I3, FE-I4, RD53A, and ITk-pix-v1 readout chips.\relax }}{13}}
\newlabel{table:asiccomparison}{{3.4}{13}}
\@writefile{toc}{\contentsline {subsubsection}{Sensor}{13}}
\newlabel{sect:chap2_sensor}{{3.2.2}{13}}
\citation{3Defficiency}
\citation{3Defficiency}
\@writefile{lot}{\contentsline {table}{\numberline {3.5}{\ignorespaces The sensor type of ITk pixel module for barrel\relax }}{14}}
\newlabel{table:sensortype}{{3.5}{14}}
\newlabel{fig:3d_cross}{{\caption@xref {fig:3d_cross}{ on input line 343}}{14}}
\newlabel{fig:3d_top}{{\caption@xref {fig:3d_top}{ on input line 350}}{14}}
\@writefile{lof}{\contentsline {figure}{\numberline {3.8}{\ignorespaces Design of the 3D sensor (cross section view on the left) and view from the top (right). The n$^+$ colunmn is located in the center of the pixel and the p$^+$ columns are on the each corner. The column and bump pads are connected because the bump pads are aligned 50$\times $50\nobreakspace  {}$\mu $m.\relax }}{14}}
\newlabel{fig:3dsensor}{{3.8}{14}}
\citation{sensor_detail}
\citation{sensor_detail}
\@writefile{lof}{\contentsline {figure}{\numberline {3.9}{\ignorespaces The hit efficiencies of 3D sensor produced at CNM as a function of the bias voltage for the 50$\times $50\nobreakspace  {}$\mu $m (left) and the 25$\times $100\nobreakspace  {}$\mu $m (right). The dashed line is the ATLAS benchmark hit efficiency of 97$\%$. The readout circuit is the RD53A ASIC and the threshold is tuned at 1\nobreakspace  {}ke.\cite  {3Defficiency}\relax }}{15}}
\newlabel{fig:3defficiency}{{3.9}{15}}
\@writefile{lof}{\contentsline {figure}{\numberline {3.10}{\ignorespaces The design of the n$^+$-in-p planer sensor (cross section view on the left), design of the 25$\times $100\nobreakspace  {}$\mu $m pixel (center) and design of the 50$\times $50\nobreakspace  {}$\mu $m pixel (right). The depletion region grows from n$^+$ implant to the bottom layer and the charges drift longitudinally. The bump pads are aligned 50$\times $50\nobreakspace  {}$\mu $m.\relax }}{15}}
\newlabel{fig:implant}{{3.10}{15}}
\@writefile{lot}{\contentsline {table}{\numberline {3.6}{\ignorespaces Specifications of the planar pixel sensors. The irradiation is after annealing at room temperature for 10 days. \cite  {sensor_detail}\relax }}{15}}
\newlabel{table:planar_specification}{{3.6}{15}}
\@writefile{toc}{\contentsline {subsubsection}{Hybridization}{15}}
\citation{RD53Amanual}
\citation{RD53Amanual}
\@writefile{toc}{\contentsline {subsubsection}{Module flex}{16}}
\@writefile{lof}{\contentsline {figure}{\numberline {3.11}{\ignorespaces The module flex design for RD53A Quad module.\relax }}{16}}
\newlabel{fig:moduleflexdesign}{{3.11}{16}}
\@writefile{lof}{\contentsline {figure}{\numberline {3.12}{\ignorespaces The wire assignments of the ASIC side. \cite  {RD53Amanual}\relax }}{16}}
\newlabel{fig:wirelocation_asic}{{3.12}{16}}
\@writefile{toc}{\contentsline {subsubsection}{Module assembly}{16}}
\@writefile{toc}{\contentsline {subsubsection}{Module cell}{17}}
\newlabel{equation:TFM}{{3.2}{17}}
\@writefile{lof}{\contentsline {figure}{\numberline {3.13}{\ignorespaces View of the module cell used in the Outer Barrel.\relax }}{17}}
\newlabel{fig:modulecell}{{3.13}{17}}
\@writefile{toc}{\contentsline {subsection}{\numberline {3.2.3}Local support}{17}}
\citation{serialpowering}
\newlabel{fig:IHR_modules_a}{{\caption@xref {fig:IHR_modules_a}{ on input line 494}}{18}}
\newlabel{fig:IHR_modules_b}{{\caption@xref {fig:IHR_modules_b}{ on input line 501}}{18}}
\@writefile{lof}{\contentsline {figure}{\numberline {3.14}{\ignorespaces Design of the ring of the IHR (layer 3). A total of 11 modules are mounted on the single IHR, five on the front side and six on the back side. All modules are powered in series a single serial-powering chain.\relax }}{18}}
\newlabel{fig:IHR_modules}{{3.14}{18}}
\@writefile{lof}{\contentsline {figure}{\numberline {3.15}{\ignorespaces The module positions of the longeron. The longeron has two rows of modules partially overlapping. The longeron is symmetric with respect to the interaction point. The central part (A-SP-1 and C-SP-1), and the edge parts (A-SP-2 and C-SP-2) are electrically separated and they are respectively called M6 and M12.\relax }}{18}}
\newlabel{fig:Longeron_modules}{{3.15}{18}}
\@writefile{toc}{\contentsline {subsection}{\numberline {3.2.4}Serial powering}{18}}
\newlabel{sect:serialpowering}{{3.2.4}{18}}
\@writefile{toc}{\contentsline {subsubsection}{Shunt-LDO regulator}{19}}
\citation{yarr}
\@writefile{lof}{\contentsline {figure}{\numberline {3.16}{\ignorespaces V-I curve of the Shunt-LDO regulator.\relax }}{20}}
\newlabel{fig:vi_curve}{{3.16}{20}}
\@writefile{toc}{\contentsline {subsection}{\numberline {3.2.5}DAQ}{20}}
\@writefile{toc}{\contentsline {subsubsection}{YARR}{20}}
\citation{felix}
\@writefile{toc}{\contentsline {subsubsection}{Felix}{21}}
\@writefile{toc}{\contentsline {subsubsection}{Scan types}{21}}
\newlabel{sect:yarr_scans}{{3.2.5}{21}}
\newlabel{equ:errorfunction}{{3.3}{21}}
\citation{RD53Amanual}
\citation{RD53Amanual}
\citation{RD53Amanual}
\citation{RD53Amanual}
\@writefile{lof}{\contentsline {figure}{\numberline {3.17}{\ignorespaces Schematic of the multiplexer and the ADC. The output of the multiplexer accessible from a dedicated pad on the module flex. \cite  {RD53Amanual}\relax }}{23}}
\newlabel{fig:multiplexer}{{3.17}{23}}
\@writefile{lot}{\contentsline {table}{\numberline {3.7}{\ignorespaces Analog voltage multiplexer assignments \cite  {RD53Amanual}.\relax }}{23}}
\newlabel{table:assignMUX}{{3.7}{23}}
\@writefile{toc}{\contentsline {section}{\numberline {3.3}Quality control during module production}{23}}
\newlabel{sect:qualificationcontrol}{{3.3}{23}}
\@writefile{lot}{\contentsline {table}{\numberline {3.8}{\ignorespaces QC tests suring the different production stages of ITk Pixel modules.\relax }}{24}}
\newlabel{table:qcstage}{{3.8}{24}}
\@writefile{lot}{\contentsline {table}{\numberline {3.9}{\ignorespaces The list of electrical test\relax }}{24}}
\newlabel{table:electricallist}{{3.9}{24}}
\@setckpt{Chapters/2b-ITk}{
\setcounter{page}{25}
\setcounter{equation}{3}
\setcounter{enumi}{0}
\setcounter{enumii}{0}
\setcounter{enumiii}{0}
\setcounter{enumiv}{0}
\setcounter{footnote}{0}
\setcounter{mpfootnote}{0}
\setcounter{part}{0}
\setcounter{chapter}{3}
\setcounter{section}{3}
\setcounter{subsection}{0}
\setcounter{subsubsection}{0}
\setcounter{paragraph}{0}
\setcounter{subparagraph}{0}
\setcounter{figure}{17}
\setcounter{table}{9}
\setcounter{Maxaffil}{2}
\setcounter{authors}{0}
\setcounter{affil}{0}
\setcounter{parentequation}{0}
\setcounter{float@type}{4}
\setcounter{linenumber}{394}
\setcounter{LN@truepage}{25}
\setcounter{ContinuedFloat}{0}
\setcounter{subfigure}{0}
\setcounter{subtable}{0}
}
