\relax 
\@writefile{toc}{\contentsline {chapter}{\numberline {4}Measurement after Cell Loading}{44}}
\@writefile{lof}{\addvspace {10\p@ }}
\@writefile{lot}{\addvspace {10\p@ }}
\newlabel{chap:loading}{{4}{44}}
\@writefile{toc}{\contentsline {section}{\numberline {4.1}Introduction}{44}}
\@writefile{toc}{\contentsline {section}{\numberline {4.2}Cell loading}{44}}
\newlabel{sect:cellloading}{{4.2}{44}}
\@writefile{toc}{\contentsline {subsection}{\numberline {4.2.1}Cell loading}{44}}
\@writefile{lot}{\contentsline {table}{\numberline {4.1}{\ignorespaces The requirement of cell loading \cite  {}\relax }}{44}}
\newlabel{table:cellloading}{{4.1}{44}}
\@writefile{lof}{\contentsline {figure}{\numberline {4.1}{\ignorespaces Components of Outer Barrel loaded module. \cite  {}\relax }}{45}}
\newlabel{fig:loadedcell}{{4.1}{45}}
\@writefile{toc}{\contentsline {subsubsection}{Shipment}{45}}
\@writefile{toc}{\contentsline {section}{\numberline {4.3}Measurement after cell loading}{45}}
\@writefile{toc}{\contentsline {subsection}{\numberline {4.3.1}Single cell loaded module setup}{45}}
\citation{moth}
\@writefile{toc}{\contentsline {subsubsection}{Environmental box}{46}}
\@writefile{lof}{\contentsline {figure}{\numberline {4.2}{\ignorespaces Environmental temperature (green), humidity (yellow) and dew point (blue) monitoring.\relax }}{46}}
\newlabel{fig:envmonitor}{{4.2}{46}}
\@writefile{toc}{\contentsline {subsubsection}{Environmental monitoring system}{46}}
\newlabel{equation:steinhart}{{4.1}{46}}
\@writefile{lof}{\contentsline {figure}{\numberline {4.3}{\ignorespaces Arduino and MoTH board. Can connect a maximum of eight module/environmental NTCs.\relax }}{47}}
\newlabel{fig:arduino}{{4.3}{47}}
\@writefile{lot}{\contentsline {table}{\numberline {4.2}{\ignorespaces The calibration parameters of equation defined by [module group (To be correct name)] 4.1\@setref@ {}\relax }}{47}}
\newlabel{table:steinhartcalib}{{4.2}{47}}
\@writefile{lof}{\contentsline {figure}{\numberline {4.4}{\ignorespaces The accuracy of NTC monitoring. The plots shows the differences of temperatures of 2 module NTCs and 2 environmental NTCs from reference thermistor.\relax }}{47}}
\newlabel{fig:ntcdiff}{{4.4}{47}}
\@writefile{toc}{\contentsline {subsubsection}{Cooling block}{47}}
\newlabel{sect:coolingblock}{{4.3.1}{47}}
\@writefile{lof}{\contentsline {figure}{\numberline {4.5}{\ignorespaces Cooling block.\relax }}{48}}
\newlabel{fig:colingblock}{{4.5}{48}}
\@writefile{lof}{\contentsline {figure}{\numberline {4.6}{\ignorespaces Cell loaded Quad heater module.\relax }}{48}}
\newlabel{fig:quadheatermodule}{{4.6}{48}}
\citation{moduletesting}
\citation{keithley}
\citation{keithley}
\citation{keithley}
\citation{moduletesting}
\citation{ttilv}
\citation{ttilv}
\citation{ttilv}
\@writefile{lof}{\contentsline {figure}{\numberline {4.7}{\ignorespaces TFM in each cooling jig.\relax }}{49}}
\newlabel{fig:tfmcoolingjig}{{4.7}{49}}
\@writefile{lof}{\contentsline {figure}{\numberline {4.8}{\ignorespaces The TFM means of repeatability test. The cooling jig temperature is fixed at 5\nobreakspace  {}$^{\circ }$C.\relax }}{49}}
\newlabel{fig:repeatability}{{4.8}{49}}
\@writefile{toc}{\contentsline {subsubsection}{Cooling system}{49}}
\@writefile{toc}{\contentsline {subsubsection}{Power supply}{49}}
\newlabel{sect:cell_powersupply}{{4.3.1}{49}}
\@writefile{lof}{\contentsline {figure}{\numberline {4.9}{\ignorespaces Keithley 2410 HV power supply unit \cite  {keithley}.\relax }}{50}}
\newlabel{fig:keithley2410}{{4.9}{50}}
\@writefile{lof}{\contentsline {figure}{\numberline {4.10}{\ignorespaces TTi PL303QMD-P power supply unit \cite  {ttilv}.\relax }}{50}}
\newlabel{fig:ttilv}{{4.10}{50}}
\@writefile{toc}{\contentsline {subsubsection}{Electrical setup}{50}}
\@writefile{toc}{\contentsline {subsection}{\numberline {4.3.2}Thermal test}{50}}
\newlabel{sect:thermaltest}{{4.3.2}{50}}
\@writefile{lof}{\contentsline {figure}{\numberline {4.11}{\ignorespaces The power adaptaer card and power pigtail. V$\_$SEN and GND$\_$SEN are for the cable to measure the voltage at module flex pad without voltage drop.\relax }}{51}}
\newlabel{fig:power_adapter_pig}{{4.11}{51}}
\@writefile{lof}{\contentsline {figure}{\numberline {4.12}{\ignorespaces The power adaptaer card and power pigtail. Connect the DP-miniDP cables to each Display port connector.\relax }}{51}}
\newlabel{fig:data_adapter_pig}{{4.12}{51}}
\citation{RD53Amanual}
\citation{RD53Amanual}
\citation{FLIR}
\@writefile{lof}{\contentsline {figure}{\numberline {4.13}{\ignorespaces The position of connectors and module connected pigtails.\relax }}{52}}
\newlabel{fig:connectorflex}{{4.13}{52}}
\@writefile{lof}{\contentsline {figure}{\numberline {4.14}{\ignorespaces The design of module flex.\relax }}{52}}
\newlabel{fig:moduleflex}{{4.14}{52}}
\newlabel{equation:temp_ideal}{{4.2}{52}}
\@writefile{lot}{\contentsline {table}{\numberline {4.3}{\ignorespaces The position of temperature sensors \cite  {RD53Amanual}\relax }}{52}}
\newlabel{table:tempsensposition}{{4.3}{52}}
\citation{module-dossier}
\@writefile{lof}{\contentsline {figure}{\numberline {4.15}{\ignorespaces The principle of NMOS sensor.\relax }}{53}}
\newlabel{fig:NMOSsensor}{{4.15}{53}}
\@writefile{toc}{\contentsline {subsection}{\numberline {4.3.3}Electrical test}{53}}
\newlabel{section:electricaltest}{{4.3.3}{53}}
\@writefile{lot}{\contentsline {table}{\numberline {4.4}{\ignorespaces The list of electrical scan\relax }}{53}}
\newlabel{table:electricaltest}{{4.4}{53}}
\@writefile{toc}{\contentsline {subsection}{\numberline {4.3.4}Thermal cycle}{54}}
\@writefile{toc}{\contentsline {subsection}{\numberline {4.3.5}Test procedure}{54}}
\@writefile{lof}{\contentsline {figure}{\numberline {4.16}{\ignorespaces Linear fit of ADC calibration\relax }}{55}}
\newlabel{fig:adccalib}{{4.16}{55}}
\@writefile{lof}{\contentsline {figure}{\numberline {4.17}{\ignorespaces Thermal paste on the cooling block. The paste is spread out with stencil and spatula\relax }}{56}}
\newlabel{fig:thermalpaste}{{4.17}{56}}
\@writefile{lof}{\contentsline {figure}{\numberline {4.18}{\ignorespaces The RD53A cell loaded module mounted on the cooling jig and connected pigtails.\relax }}{57}}
\newlabel{fig:mountedmodule}{{4.18}{57}}
\@writefile{toc}{\contentsline {section}{\numberline {4.4}Result}{58}}
\@writefile{toc}{\contentsline {subsection}{\numberline {4.4.1}Thermal test}{58}}
\@writefile{toc}{\contentsline {subsubsection}{Stability of the measurement}{58}}
\@writefile{lof}{\contentsline {figure}{\numberline {4.19}{\ignorespaces The distribution of Module NTC temperature in each condition\relax }}{58}}
\newlabel{fig:ntc_fluct}{{4.19}{58}}
\@writefile{toc}{\contentsline {subsubsection}{Leakage current to temperature}{58}}
\@writefile{lot}{\contentsline {table}{\numberline {4.5}{\ignorespaces KEKQ17 temperatures calculated from leakage current. The benchmark is module NTC temperature and leakage current taken in room temperature.\relax }}{59}}
\newlabel{table:kekq17tempfromleak}{{4.5}{59}}
\@writefile{lof}{\contentsline {figure}{\numberline {4.20}{\ignorespaces IV curve of KEKQ17 before thermal cycle. The module temperatures are from NTC on module flex. The currents are normalized at 20\nobreakspace  {}$^{\circ }$C.\relax }}{59}}
\newlabel{fig:iv_normalized}{{4.20}{59}}
\@writefile{toc}{\contentsline {subsubsection}{ADC and NMOS sensor calibration}{59}}
\@writefile{toc}{\contentsline {subsubsection}{Module temperatures}{59}}
\@writefile{lof}{\contentsline {figure}{\numberline {4.21}{\ignorespaces Leakage current of KEKQ17 at $V_{bias}$=-90\nobreakspace  {}V.\relax }}{60}}
\newlabel{fig:leak_kek17}{{4.21}{60}}
\@writefile{lof}{\contentsline {figure}{\numberline {4.22}{\ignorespaces The distribution of calibration parameters of ADCs in chip, slope (left) and offset (right). The histograms are separated by FE ID and stacked\relax }}{60}}
\newlabel{fig:ADCcalibration}{{4.22}{60}}
\@writefile{lof}{\contentsline {figure}{\numberline {4.23}{\ignorespaces The distribution of calibrated slope (left) and offset (right). The histograms are separated by sensor position and stacked\relax }}{61}}
\newlabel{fig:NMOScalibration}{{4.23}{61}}
\@writefile{lof}{\contentsline {figure}{\numberline {4.24}{\ignorespaces The correlation of NMOS temperature sensor's slope and offset.\relax }}{61}}
\newlabel{fig:nmoscorrelation}{{4.24}{61}}
\@writefile{toc}{\contentsline {subsubsection}{Thermal cycle}{61}}
\@writefile{toc}{\contentsline {subsection}{\numberline {4.4.2}Electrical test}{61}}
\newlabel{fig:modulentc_byFE}{{4.25a}{62}}
\newlabel{sub@fig:modulentc_byFE}{{a}{62}}
\newlabel{fig:moduleleak_byFE}{{4.25b}{62}}
\newlabel{sub@fig:moduleleak_byFE}{{b}{62}}
\newlabel{fig:modulenmos_byFE}{{4.25c}{62}}
\newlabel{sub@fig:modulenmos_byFE}{{c}{62}}
\newlabel{fig:modulecamera_byFE}{{4.25d}{62}}
\newlabel{sub@fig:modulecamera_byFE}{{d}{62}}
\@writefile{lof}{\contentsline {figure}{\numberline {4.25}{\ignorespaces The module temperatures, sorted by number of functional FEs. (c) plots only the Sensor 1 of chip 1, (d) plots the thermal camera temperature captured around NTC on module flex. (本当は違うけど後で修正します) KEK19, 20, 21 and 22 are empty because these module have wire protection and the surface of the module is covered.\relax }}{62}}
\newlabel{fig:moduletemp_byFE}{{4.25}{62}}
\@writefile{toc}{\contentsline {section}{\numberline {4.5}Summary}{62}}
\newlabel{fig:temperaturerelation10C}{{4.26a}{63}}
\newlabel{sub@fig:temperaturerelation10C}{{a}{63}}
\newlabel{fig:temperaturerelation20C}{{4.26b}{63}}
\newlabel{sub@fig:temperaturerelation20C}{{b}{63}}
\@writefile{lof}{\contentsline {figure}{\numberline {4.26}{\ignorespaces The temperature relations of NTC on module flex and derived from leakage current, the red line represent the both temperatures matching.\relax }}{63}}
\newlabel{fig:temperaturerelation}{{4.26}{63}}
\@writefile{lof}{\contentsline {figure}{\numberline {4.27}{\ignorespaces IV curves of Paris18 and Goettingen4.\relax }}{63}}
\newlabel{fig:IVcurves}{{4.27}{63}}
\@writefile{lof}{\contentsline {figure}{\numberline {4.28}{\ignorespaces The temperature relations of NTC on module flex and NMOS sensor.\relax }}{64}}
\newlabel{fig:temperaturerelation_adc}{{4.28}{64}}
\@writefile{lof}{\contentsline {figure}{\numberline {4.29}{\ignorespaces The temperature relations of NTC on module flex and thermal camera.\relax }}{64}}
\newlabel{fig:temperaturerelation_camera}{{4.29}{64}}
\newlabel{fig:TC10C}{{4.30a}{64}}
\newlabel{sub@fig:TC10C}{{a}{64}}
\newlabel{fig:TC20C}{{4.30b}{64}}
\newlabel{sub@fig:TC20C}{{b}{64}}
\@writefile{lof}{\contentsline {figure}{\numberline {4.30}{\ignorespaces The modules temperature before, during and after thermal cycle. (もうちょっとどうにかしたいな)\relax }}{64}}
\newlabel{fig:TC}{{4.30}{64}}
\newlabel{fig:deltaT_after100tc}{{4.31a}{64}}
\newlabel{sub@fig:deltaT_after100tc}{{a}{64}}
\newlabel{fig:deltaT_after100tc_normalized}{{4.31b}{64}}
\newlabel{sub@fig:deltaT_after100tc_normalized}{{b}{64}}
\@writefile{lof}{\contentsline {figure}{\numberline {4.31}{\ignorespaces Thermal test after 100 thermal cycle in cold temperature.\relax }}{64}}
\newlabel{fig:deltaT_after100tc_quad}{{4.31}{64}}
\@writefile{lof}{\contentsline {figure}{\numberline {4.32}{\ignorespaces The leakage currents of thermal cycled module measured before TC, after 50 and 100 cycles. Measured at room temperature and chips module is thermalized. Leakage currents are normalized at 20\nobreakspace  {}$^{\circ }$C.\relax }}{65}}
\newlabel{fig:tcmodule_current}{{4.32}{65}}
\@writefile{lof}{\contentsline {figure}{\numberline {4.33}{\ignorespaces The IV scan every 25 cycles. Cycle 0, 50, 100 are taken mounted on the cooling jig and cycle 25 and 75 are in the climate chamber. The temperatures are normalized to 20\nobreakspace  {}$^{\circ }$C.\relax }}{65}}
\newlabel{fig:IV_cycle_KEK17}{{4.33}{65}}
\@writefile{lot}{\contentsline {table}{\numberline {4.6}{\ignorespaces The electrical scans of cell-loaded Goe4. Focusing on the Diff. FE.\relax }}{65}}
\newlabel{table:electricalresultscellloadedGoe4}{{4.6}{65}}
\@writefile{lof}{\contentsline {figure}{\numberline {4.34}{\ignorespaces Digital occupancy map of cell-loaded Goe4.\relax }}{66}}
\newlabel{fig:cellGoe4digital}{{4.34}{66}}
\@writefile{lof}{\contentsline {figure}{\numberline {4.35}{\ignorespaces Analog occupancy map of cell-loaded Goe4.\relax }}{66}}
\newlabel{fig:cellGoe4analog}{{4.35}{66}}
\@writefile{lof}{\contentsline {figure}{\numberline {4.36}{\ignorespaces Threshold distribution of cell-loaded Goe4. From left to right: FE1, FE2, FE3, and FE4.\relax }}{66}}
\newlabel{fig:cellGoe4threshold}{{4.36}{66}}
\@writefile{lof}{\contentsline {figure}{\numberline {4.37}{\ignorespaces Noise distribution of cell-loaded Goe4. From left to right: FE1, FE2, FE3, and FE4.\relax }}{66}}
\newlabel{fig:cellGoe4noise}{{4.37}{66}}
\@writefile{lof}{\contentsline {figure}{\numberline {4.38}{\ignorespaces Disconnected bump scan occupancy map of Goe 4 after cell-loading.\relax }}{67}}
\newlabel{fig:cellGoe4discbump}{{4.38}{67}}
\@writefile{lof}{\contentsline {figure}{\numberline {4.39}{\ignorespaces The development of number of dead and bad pixels in Digital scan.\relax }}{67}}
\newlabel{fig:digitaldevelopment_Goe4}{{4.39}{67}}
\@writefile{lof}{\contentsline {figure}{\numberline {4.40}{\ignorespaces The development of number of dead and bad pixels in Analog scan.\relax }}{67}}
\newlabel{fig:analogdevelopment_Goe4}{{4.40}{67}}
\@writefile{lof}{\contentsline {figure}{\numberline {4.41}{\ignorespaces The development of threshold mean in Threshold scan.\relax }}{67}}
\newlabel{fig:thresholddevelopment_Goe4}{{4.41}{67}}
\@writefile{lof}{\contentsline {figure}{\numberline {4.42}{\ignorespaces The development of ENC noise mean in Threshold scan.\relax }}{67}}
\newlabel{fig:noisedevelopment_Goe4}{{4.42}{67}}
\@writefile{lof}{\contentsline {figure}{\numberline {4.43}{\ignorespaces The development of number of good connection pixels in Disconnected bump scan.\relax }}{68}}
\newlabel{fig:discbumpdevelopment_Goe4}{{4.43}{68}}
\@writefile{lof}{\contentsline {figure}{\numberline {4.44}{\ignorespaces Disconnected bump scan occupancy map of Goe4 taken in assembly site as Initial test.\relax }}{68}}
\newlabel{fig:discbump_goe4_initial}{{4.44}{68}}
\@setckpt{Chapters/3-AfterLoading}{
\setcounter{page}{69}
\setcounter{equation}{6}
\setcounter{enumi}{5}
\setcounter{enumii}{0}
\setcounter{enumiii}{0}
\setcounter{enumiv}{0}
\setcounter{footnote}{0}
\setcounter{mpfootnote}{0}
\setcounter{part}{0}
\setcounter{chapter}{4}
\setcounter{section}{5}
\setcounter{subsection}{0}
\setcounter{subsubsection}{0}
\setcounter{paragraph}{0}
\setcounter{subparagraph}{0}
\setcounter{figure}{44}
\setcounter{table}{6}
\setcounter{Maxaffil}{2}
\setcounter{authors}{0}
\setcounter{affil}{0}
\setcounter{parentequation}{0}
\setcounter{float@type}{4}
\setcounter{linenumber}{1359}
\setcounter{LN@truepage}{69}
\setcounter{ContinuedFloat}{0}
\setcounter{subfigure}{0}
\setcounter{subtable}{0}
}
