\relax 
\providecommand\hyper@newdestlabel[2]{}
\citation{PixTDR}
\citation{PixTDR}
\citation{new_design}
\citation{new_design}
\@writefile{toc}{\contentsline {chapter}{\numberline {3}ITk, the new ATLAS inner tracker for the HL-LHC}{39}{chapter.3}\protected@file@percent }
\@writefile{lof}{\addvspace {10\p@ }}
\@writefile{lot}{\addvspace {10\p@ }}
\newlabel{chap:itk}{{3}{39}{ITk, the new ATLAS inner tracker for the HL-LHC}{chapter.3}{}}
\@writefile{toc}{\contentsline {section}{\numberline {3.1}The Inner Tracker for the HL-LHC}{39}{section.3.1}\protected@file@percent }
\newlabel{sect:start}{{3.1}{39}{The Inner Tracker for the HL-LHC}{section.3.1}{}}
\@writefile{toc}{\contentsline {subsection}{\numberline {3.1.1}Changed point from ID}{39}{subsection.3.1.1}\protected@file@percent }
\newlabel{equ:pseud-rapidity}{{3.1}{39}{Changed point from ID}{equation.3.1.1}{}}
\@writefile{lot}{\contentsline {table}{\numberline {3.1}{\ignorespaces Set of cuts applied during track reconstruction}}{39}{table.caption.70}\protected@file@percent }
\newlabel{table:trackingrequirement}{{3.1}{39}{Set of cuts applied during track reconstruction}{table.caption.70}{}}
\citation{new_design}
\citation{new_design}
\@writefile{lof}{\contentsline {figure}{\numberline {3.1}{\ignorespaces Total number of hits in ITk for simulated single muon events of $p_T$ = 1~GeV}}{40}{figure.caption.71}\protected@file@percent }
\newlabel{fig:numberofhit}{{3.1}{40}{Total number of hits in ITk for simulated single muon events of $p_T$ = 1~GeV}{figure.caption.71}{}}
\@writefile{toc}{\contentsline {subsection}{\numberline {3.1.2}Tracking performance}{40}{subsection.3.1.2}\protected@file@percent }
\newlabel{sect:trackingperformance}{{3.1.2}{40}{Tracking performance}{subsection.3.1.2}{}}
\@writefile{toc}{\contentsline {subsubsection}{Tracking efficiency}{40}{section*.72}\protected@file@percent }
\citation{new_design}
\citation{new_design}
\citation{new_design}
\citation{new_design}
\@writefile{lof}{\contentsline {figure}{\numberline {3.2}{\ignorespaces Number of reconstructed tracks per event as a function of numbre of interaction}}{41}{figure.caption.73}\protected@file@percent }
\newlabel{fig:trackrecoNum}{{3.2}{41}{Number of reconstructed tracks per event as a function of numbre of interaction}{figure.caption.73}{}}
\@writefile{lof}{\contentsline {figure}{\numberline {3.3}{\ignorespaces Track reconstruction efficiency vs $\eta $}}{41}{figure.caption.74}\protected@file@percent }
\newlabel{fig:trackeff_eta}{{3.3}{41}{Track reconstruction efficiency vs $\eta $}{figure.caption.74}{}}
\@writefile{toc}{\contentsline {subsubsection}{Tracking resolution}{41}{section*.75}\protected@file@percent }
\citation{new_design}
\citation{new_design}
\newlabel{fig:resolution_d0}{{3.4a}{42}{\relax }{figure.caption.76}{}}
\newlabel{sub@fig:resolution_d0}{{a}{42}{\relax }{figure.caption.76}{}}
\newlabel{fig:resolution_z0}{{3.4b}{42}{\relax }{figure.caption.76}{}}
\newlabel{sub@fig:resolution_z0}{{b}{42}{\relax }{figure.caption.76}{}}
\newlabel{fig:resolution_pt}{{3.4c}{42}{\relax }{figure.caption.76}{}}
\newlabel{sub@fig:resolution_pt}{{c}{42}{\relax }{figure.caption.76}{}}
\@writefile{lof}{\contentsline {figure}{\numberline {3.4}{\ignorespaces Track parameter resolutions in $d_0$, $z_0$ and $p_T$ for ITk as a function of $\eta $}}{42}{figure.caption.76}\protected@file@percent }
\newlabel{fig:vertex_resolution}{{3.4}{42}{Track parameter resolutions in $d_0$, $z_0$ and $p_T$ for ITk as a function of $\eta $}{figure.caption.76}{}}
\@writefile{toc}{\contentsline {section}{\numberline {3.2}The ITk Pixel detector}{42}{section.3.2}\protected@file@percent }
\@writefile{toc}{\contentsline {subsection}{\numberline {3.2.1}Layout}{42}{subsection.3.2.1}\protected@file@percent }
\newlabel{sect:itklayout}{{3.2.1}{42}{Layout}{subsection.3.2.1}{}}
\citation{new_design}
\citation{new_design}
\citation{rd53study}
\newlabel{fig:itk_layout_whole}{{\caption@xref {fig:itk_layout_whole}{ on input line 220}}{43}{Layout}{figure.caption.77}{}}
\newlabel{fig:pixel_layout}{{\caption@xref {fig:pixel_layout}{ on input line 226}}{43}{Layout}{figure.caption.77}{}}
\@writefile{lof}{\contentsline {figure}{\numberline {3.5}{\ignorespaces A schematic layout of ITk, and a zoom into the pixel detector}}{43}{figure.caption.77}\protected@file@percent }
\newlabel{fig:itk_layout}{{3.5}{43}{A schematic layout of ITk, and a zoom into the pixel detector}{figure.caption.77}{}}
\@writefile{lot}{\contentsline {table}{\numberline {3.2}{\ignorespaces The position of pixel flat barrel}}{43}{table.caption.78}\protected@file@percent }
\newlabel{table:pixellayout_flat}{{3.2}{43}{The position of pixel flat barrel}{table.caption.78}{}}
\citation{RD53Amanual}
\citation{RD53Amanual}
\citation{RD53Amanual}
\citation{RD53Amanual}
\@writefile{toc}{\contentsline {subsection}{\numberline {3.2.2}Pixel module}{44}{subsection.3.2.2}\protected@file@percent }
\newlabel{sect:pixmodule}{{3.2.2}{44}{Pixel module}{subsection.3.2.2}{}}
\@writefile{toc}{\contentsline {subsubsection}{RD53A}{44}{section*.79}\protected@file@percent }
\newlabel{section:rd53a}{{3.2.2}{44}{RD53A}{section*.79}{}}
\@writefile{lof}{\contentsline {figure}{\numberline {3.6}{\ignorespaces Top view of the RD53A layout}}{44}{figure.caption.80}\protected@file@percent }
\newlabel{fig:topviewofrd53a}{{3.6}{44}{Top view of the RD53A layout}{figure.caption.80}{}}
\@writefile{lof}{\contentsline {figure}{\numberline {3.7}{\ignorespaces Schematic of the analog circuit of Differential front-end}}{45}{figure.caption.81}\protected@file@percent }
\newlabel{fig:diff_sche}{{3.7}{45}{Schematic of the analog circuit of Differential front-end}{figure.caption.81}{}}
\@writefile{toc}{\contentsline {subsubsection}{ITk-pix-v1}{45}{section*.82}\protected@file@percent }
\newlabel{section:itkpix}{{3.2.2}{45}{ITk-pix-v1}{section*.82}{}}
\@writefile{lot}{\contentsline {table}{\numberline {3.3}{\ignorespaces Comparison of the FE-I3, FE-I4, RD53A, and ITk-pix-v1 readout chips}}{45}{table.caption.83}\protected@file@percent }
\newlabel{table:asiccomparison}{{3.3}{45}{Comparison of the FE-I3, FE-I4, RD53A, and ITk-pix-v1 readout chips}{table.caption.83}{}}
\citation{3Defficiency}
\citation{3Defficiency}
\@writefile{toc}{\contentsline {subsubsection}{Sensor}{46}{section*.84}\protected@file@percent }
\newlabel{sect:chap2_sensor}{{3.2.2}{46}{Sensor}{section*.84}{}}
\@writefile{lot}{\contentsline {table}{\numberline {3.4}{\ignorespaces The sensor type of ITk pixel module for barrel.}}{46}{table.caption.85}\protected@file@percent }
\newlabel{table:sensortype}{{3.4}{46}{The sensor type of ITk pixel module for barrel}{table.caption.85}{}}
\newlabel{fig:3d_cross}{{\caption@xref {fig:3d_cross}{ on input line 400}}{46}{Sensor}{figure.caption.86}{}}
\newlabel{fig:3d_top}{{\caption@xref {fig:3d_top}{ on input line 407}}{46}{Sensor}{figure.caption.86}{}}
\@writefile{lof}{\contentsline {figure}{\numberline {3.8}{\ignorespaces Design of the 3D sensor}}{46}{figure.caption.86}\protected@file@percent }
\newlabel{fig:3dsensor}{{3.8}{46}{Design of the 3D sensor}{figure.caption.86}{}}
\citation{sensor_detail}
\citation{sensor_detail}
\@writefile{lof}{\contentsline {figure}{\numberline {3.9}{\ignorespaces The hit efficiencies of 3D sensor as a function of the bias voltage}}{47}{figure.caption.87}\protected@file@percent }
\newlabel{fig:3defficiency}{{3.9}{47}{The hit efficiencies of 3D sensor as a function of the bias voltage}{figure.caption.87}{}}
\@writefile{lof}{\contentsline {figure}{\numberline {3.10}{\ignorespaces The design of the n$^+$-in-p planer sensor}}{47}{figure.caption.88}\protected@file@percent }
\newlabel{fig:implant}{{3.10}{47}{The design of the n$^+$-in-p planer sensor}{figure.caption.88}{}}
\@writefile{lot}{\contentsline {table}{\numberline {3.5}{\ignorespaces Specifications of the planar pixel sensors}}{47}{table.caption.89}\protected@file@percent }
\newlabel{table:planar_specification}{{3.5}{47}{Specifications of the planar pixel sensors}{table.caption.89}{}}
\citation{RD53Amanual}
\citation{RD53Amanual}
\@writefile{toc}{\contentsline {subsubsection}{Hybridization}{48}{section*.90}\protected@file@percent }
\@writefile{toc}{\contentsline {subsubsection}{Module flex}{48}{section*.91}\protected@file@percent }
\@writefile{lof}{\contentsline {figure}{\numberline {3.11}{\ignorespaces The module flex design for RD53A Quad module}}{48}{figure.caption.92}\protected@file@percent }
\newlabel{fig:moduleflexdesign}{{3.11}{48}{The module flex design for RD53A Quad module}{figure.caption.92}{}}
\@writefile{lof}{\contentsline {figure}{\numberline {3.12}{\ignorespaces The wire assignments of the ASIC side}}{48}{figure.caption.93}\protected@file@percent }
\newlabel{fig:wirelocation_asic}{{3.12}{48}{The wire assignments of the ASIC side}{figure.caption.93}{}}
\@writefile{toc}{\contentsline {subsubsection}{Module assembly}{48}{section*.94}\protected@file@percent }
\@writefile{toc}{\contentsline {subsubsection}{Module cell}{49}{section*.95}\protected@file@percent }
\@writefile{lof}{\contentsline {figure}{\numberline {3.13}{\ignorespaces View of the module cell used in the Outer Barrel}}{49}{figure.caption.96}\protected@file@percent }
\newlabel{fig:modulecell}{{3.13}{49}{View of the module cell used in the Outer Barrel}{figure.caption.96}{}}
\@writefile{toc}{\contentsline {subsection}{\numberline {3.2.3}Local support}{49}{subsection.3.2.3}\protected@file@percent }
\newlabel{fig:IHR_modules_a}{{\caption@xref {fig:IHR_modules_a}{ on input line 551}}{49}{Local support}{figure.caption.97}{}}
\newlabel{fig:IHR_modules_b}{{\caption@xref {fig:IHR_modules_b}{ on input line 558}}{49}{Local support}{figure.caption.97}{}}
\@writefile{lof}{\contentsline {figure}{\numberline {3.14}{\ignorespaces Design of the ring of the IHR}}{49}{figure.caption.97}\protected@file@percent }
\newlabel{fig:IHR_modules}{{3.14}{49}{Design of the ring of the IHR}{figure.caption.97}{}}
\citation{serialpowering}
\@writefile{lof}{\contentsline {figure}{\numberline {3.15}{\ignorespaces Design of the longeron}}{50}{figure.caption.98}\protected@file@percent }
\newlabel{fig:Longeron_modules}{{3.15}{50}{Design of the longeron}{figure.caption.98}{}}
\@writefile{toc}{\contentsline {subsection}{\numberline {3.2.4}Serial powering}{50}{subsection.3.2.4}\protected@file@percent }
\newlabel{sect:serialpowering}{{3.2.4}{50}{Serial powering}{subsection.3.2.4}{}}
\@writefile{toc}{\contentsline {subsubsection}{Shunt-LDO regulator}{50}{section*.99}\protected@file@percent }
\citation{yarr}
\citation{felix}
\@writefile{lof}{\contentsline {figure}{\numberline {3.16}{\ignorespaces V-I curve of the Shunt-LDO regulator}}{51}{figure.caption.100}\protected@file@percent }
\newlabel{fig:vi_curve}{{3.16}{51}{V-I curve of the Shunt-LDO regulator}{figure.caption.100}{}}
\@writefile{toc}{\contentsline {subsection}{\numberline {3.2.5}DAQ}{51}{subsection.3.2.5}\protected@file@percent }
\@writefile{toc}{\contentsline {subsubsection}{YARR}{51}{section*.101}\protected@file@percent }
\@writefile{toc}{\contentsline {subsubsection}{Felix}{51}{section*.102}\protected@file@percent }
\@writefile{toc}{\contentsline {subsubsection}{Scan types}{51}{section*.103}\protected@file@percent }
\newlabel{sect:yarr_scans}{{3.2.5}{51}{Scan types}{section*.103}{}}
\newlabel{equ:errorfunction}{{3.2}{52}{Scan types}{equation.3.2.2}{}}
\citation{RD53Amanual}
\citation{RD53Amanual}
\citation{RD53Amanual}
\citation{RD53Amanual}
\@writefile{lof}{\contentsline {figure}{\numberline {3.17}{\ignorespaces Schematic of the multiplexer and the ADC}}{53}{figure.caption.104}\protected@file@percent }
\newlabel{fig:multiplexer}{{3.17}{53}{Schematic of the multiplexer and the ADC}{figure.caption.104}{}}
\@writefile{lot}{\contentsline {table}{\numberline {3.6}{\ignorespaces Analog voltage multiplexer assignments}}{54}{table.caption.105}\protected@file@percent }
\newlabel{table:assignMUX}{{3.6}{54}{Analog voltage multiplexer assignments}{table.caption.105}{}}
\@setckpt{Chapters/3-ITk}{
\setcounter{page}{55}
\setcounter{equation}{2}
\setcounter{enumi}{0}
\setcounter{enumii}{0}
\setcounter{enumiii}{0}
\setcounter{enumiv}{0}
\setcounter{footnote}{0}
\setcounter{mpfootnote}{0}
\setcounter{part}{0}
\setcounter{chapter}{3}
\setcounter{section}{2}
\setcounter{subsection}{5}
\setcounter{subsubsection}{0}
\setcounter{paragraph}{0}
\setcounter{subparagraph}{0}
\setcounter{figure}{17}
\setcounter{table}{6}
\setcounter{Maxaffil}{2}
\setcounter{authors}{0}
\setcounter{affil}{0}
\setcounter{parentequation}{0}
\setcounter{section@level}{3}
\setcounter{Item}{0}
\setcounter{Hfootnote}{0}
\setcounter{Hy@AnnotLevel}{0}
\setcounter{bookmark@seq@number}{35}
\setcounter{float@type}{4}
\setcounter{linenumber}{1}
\setcounter{LN@truepage}{60}
\setcounter{caption@flags}{2}
\setcounter{continuedfloat}{0}
\setcounter{subfigure}{0}
\setcounter{subtable}{0}
}
