\relax 
\providecommand\hyper@newdestlabel[2]{}
\@writefile{toc}{\contentsline {chapter}{\numberline {4}Module performance after Cell Loading}{55}{chapter.4}\protected@file@percent }
\@writefile{lof}{\addvspace {10\p@ }}
\@writefile{lot}{\addvspace {10\p@ }}
\newlabel{chap:loading}{{4}{55}{Module performance after Cell Loading}{chapter.4}{}}
\@writefile{toc}{\contentsline {section}{\numberline {4.1}Overview of the Cell Loading stage}{55}{section.4.1}\protected@file@percent }
\newlabel{sect:cellloading}{{4.1}{55}{Overview of the Cell Loading stage}{section.4.1}{}}
\@writefile{lof}{\contentsline {figure}{\numberline {4.1}{\ignorespaces Components of the Outer Barrel loaded cell}}{55}{figure.caption.106}\protected@file@percent }
\newlabel{fig:loadedcell}{{4.1}{55}{Components of the Outer Barrel loaded cell}{figure.caption.106}{}}
\@writefile{toc}{\contentsline {section}{\numberline {4.2}Setup for single loaded-cell measurements}{56}{section.4.2}\protected@file@percent }
\@writefile{toc}{\contentsline {subsection}{\numberline {4.2.1}Overview}{56}{subsection.4.2.1}\protected@file@percent }
\newlabel{sect:overview}{{4.2.1}{56}{Overview}{subsection.4.2.1}{}}
\@writefile{lof}{\contentsline {figure}{\numberline {4.2}{\ignorespaces Overview of the loaded-cell QC setup}}{56}{figure.caption.107}\protected@file@percent }
\newlabel{fig:setupphoto}{{4.2}{56}{Overview of the loaded-cell QC setup}{figure.caption.107}{}}
\citation{moth}
\citation{steinhart}
\@writefile{toc}{\contentsline {subsection}{\numberline {4.2.2}Environmental enclosure}{57}{subsection.4.2.2}\protected@file@percent }
\@writefile{lof}{\contentsline {figure}{\numberline {4.3}{\ignorespaces Monitoring of ambient parameters within the environmental box}}{57}{figure.caption.108}\protected@file@percent }
\newlabel{fig:envmonitor}{{4.3}{57}{Monitoring of ambient parameters within the environmental box}{figure.caption.108}{}}
\@writefile{toc}{\contentsline {subsection}{\numberline {4.2.3}Environmental monitoring system}{57}{subsection.4.2.3}\protected@file@percent }
\newlabel{sect:envmonitor}{{4.2.3}{57}{Environmental monitoring system}{subsection.4.2.3}{}}
\newlabel{equation:steinhart}{{4.1}{57}{Environmental monitoring system}{equation.4.2.1}{}}
\@writefile{lof}{\contentsline {figure}{\numberline {4.4}{\ignorespaces Arduino and MoTH board}}{58}{figure.caption.109}\protected@file@percent }
\newlabel{fig:arduino}{{4.4}{58}{Arduino and MoTH board}{figure.caption.109}{}}
\@writefile{lot}{\contentsline {table}{\numberline {4.1}{\ignorespaces Calibration parameters of equation \ref {equation:steinhart}}}{58}{table.caption.110}\protected@file@percent }
\newlabel{table:steinhartcalib}{{4.1}{58}{Calibration parameters of equation \ref {equation:steinhart}}{table.caption.110}{}}
\@writefile{lof}{\contentsline {figure}{\numberline {4.5}{\ignorespaces Accuracy of the NTC monitoring}}{58}{figure.caption.111}\protected@file@percent }
\newlabel{fig:ntcdiff}{{4.5}{58}{Accuracy of the NTC monitoring}{figure.caption.111}{}}
\@writefile{toc}{\contentsline {subsection}{\numberline {4.2.4}Cooling block and thermal performance with heaters}{59}{subsection.4.2.4}\protected@file@percent }
\newlabel{sect:coolingblock}{{4.2.4}{59}{Cooling block and thermal performance with heaters}{subsection.4.2.4}{}}
\@writefile{lof}{\contentsline {figure}{\numberline {4.6}{\ignorespaces Cooling Block}}{59}{figure.caption.112}\protected@file@percent }
\newlabel{fig:colingblock}{{4.6}{59}{Cooling Block}{figure.caption.112}{}}
\@writefile{lof}{\contentsline {figure}{\numberline {4.7}{\ignorespaces Cell-loaded quad heater module}}{59}{figure.caption.113}\protected@file@percent }
\newlabel{fig:heater}{{4.7}{59}{Cell-loaded quad heater module}{figure.caption.113}{}}
\@writefile{lof}{\contentsline {figure}{\numberline {4.8}{\ignorespaces Sketch of the complete setup}}{60}{figure.caption.114}\protected@file@percent }
\newlabel{fig:setup-sketch}{{4.8}{60}{Sketch of the complete setup}{figure.caption.114}{}}
\newlabel{eq:tfm}{{4.2}{60}{Cooling block and thermal performance with heaters}{equation.4.2.2}{}}
\@writefile{lof}{\contentsline {figure}{\numberline {4.9}{\ignorespaces Thermal figure of merit for different cooling jig temperatures}}{60}{figure.caption.115}\protected@file@percent }
\newlabel{fig:tfmcoolingjig}{{4.9}{60}{Thermal figure of merit for different cooling jig temperatures}{figure.caption.115}{}}
\citation{cellsimulation}
\citation{keithley}
\@writefile{lof}{\contentsline {figure}{\numberline {4.10}{\ignorespaces Thermal figure of merit at four different positions on the heater module}}{61}{figure.caption.116}\protected@file@percent }
\newlabel{fig:repeatability}{{4.10}{61}{Thermal figure of merit at four different positions on the heater module}{figure.caption.116}{}}
\@writefile{toc}{\contentsline {subsection}{\numberline {4.2.5}Power supply system}{61}{subsection.4.2.5}\protected@file@percent }
\newlabel{sect:cell_powersupply}{{4.2.5}{61}{Power supply system}{subsection.4.2.5}{}}
\citation{cellsimulation}
\citation{cellsimulation}
\citation{ttilv}
\citation{moduletesting}
\@writefile{lof}{\contentsline {figure}{\numberline {4.11}{\ignorespaces Temperature distribution in the sensor obtained with Analysis}}{62}{figure.caption.117}\protected@file@percent }
\newlabel{fig:cellsimulation}{{4.11}{62}{Temperature distribution in the sensor obtained with Analysis}{figure.caption.117}{}}
\newlabel{f:k2410}{{4.12a}{62}{\caption@thelabel }{figure.caption.118}{}}
\newlabel{sub@f:k2410}{{a}{62}{\caption@thelabel }{figure.caption.118}{}}
\newlabel{f:tti}{{4.12b}{62}{\caption@thelabel }{figure.caption.118}{}}
\newlabel{sub@f:tti}{{b}{62}{\caption@thelabel }{figure.caption.118}{}}
\@writefile{lof}{\contentsline {figure}{\numberline {4.12}{\ignorespaces Keithley 2410 HV supply unit and TTi PL303QMD-P low-power supply unit}}{62}{figure.caption.118}\protected@file@percent }
\newlabel{f:hv-lv-supplies}{{4.12}{62}{Keithley 2410 HV supply unit and TTi PL303QMD-P low-power supply unit}{figure.caption.118}{}}
\@writefile{toc}{\contentsline {subsection}{\numberline {4.2.6}Electrical setup}{63}{subsection.4.2.6}\protected@file@percent }
\newlabel{sect:cell_daq}{{4.2.6}{63}{Electrical setup}{subsection.4.2.6}{}}
\newlabel{f:power-card}{{4.13a}{63}{\caption@thelabel }{figure.caption.119}{}}
\newlabel{sub@f:power-card}{{a}{63}{\caption@thelabel }{figure.caption.119}{}}
\newlabel{f:data-card}{{4.13b}{63}{\caption@thelabel }{figure.caption.119}{}}
\newlabel{sub@f:data-card}{{b}{63}{\caption@thelabel }{figure.caption.119}{}}
\@writefile{lof}{\contentsline {figure}{\numberline {4.13}{\ignorespaces Power and data adapter cards}}{63}{figure.caption.119}\protected@file@percent }
\newlabel{f:cards}{{4.13}{63}{Power and data adapter cards}{figure.caption.119}{}}
\@writefile{lof}{\contentsline {figure}{\numberline {4.14}{\ignorespaces Location of the connectors and a module carrier holding a quad module}}{63}{figure.caption.120}\protected@file@percent }
\newlabel{f:connectorflex}{{4.14}{63}{Location of the connectors and a module carrier holding a quad module}{figure.caption.120}{}}
\@writefile{toc}{\contentsline {section}{\numberline {4.3}Tests description}{64}{section.4.3}\protected@file@percent }
\newlabel{sec:tests_description}{{4.3}{64}{Tests description}{section.4.3}{}}
\@writefile{toc}{\contentsline {subsection}{\numberline {4.3.1}Thermal tests}{64}{subsection.4.3.1}\protected@file@percent }
\newlabel{sect:thermaltest}{{4.3.1}{64}{Thermal tests}{subsection.4.3.1}{}}
\@writefile{lof}{\contentsline {figure}{\numberline {4.15}{\ignorespaces Module flex design}}{64}{figure.caption.121}\protected@file@percent }
\newlabel{fig:moduleflex}{{4.15}{64}{Module flex design}{figure.caption.121}{}}
\citation{RD53Amanual}
\citation{RD53Amanual}
\citation{markmaster}
\citation{FLIR}
\@writefile{lot}{\contentsline {table}{\numberline {4.2}{\ignorespaces Location of the NMOS temperature sensors in the RD53A chip}}{65}{table.caption.122}\protected@file@percent }
\newlabel{table:tempsensposition}{{4.2}{65}{Location of the NMOS temperature sensors in the RD53A chip}{table.caption.122}{}}
\newlabel{equation:temp_ideal}{{4.3}{65}{Thermal tests}{equation.4.3.3}{}}
\newlabel{equation:temp_ideal2}{{4.4}{65}{Thermal tests}{equation.4.3.4}{}}
\citation{technicalcriteria}
\citation{technicalcriteria}
\@writefile{lof}{\contentsline {figure}{\numberline {4.16}{\ignorespaces Location of the different NMOS temperature sensors on the RD53A quad module}}{66}{figure.caption.123}\protected@file@percent }
\newlabel{fig:locationnoms}{{4.16}{66}{Location of the different NMOS temperature sensors on the RD53A quad module}{figure.caption.123}{}}
\@writefile{lof}{\contentsline {figure}{\numberline {4.17}{\ignorespaces Principle of the temperature sensor implemented in the readout ASIC}}{66}{figure.caption.124}\protected@file@percent }
\newlabel{fig:NMOSsensor}{{4.17}{66}{Principle of the temperature sensor implemented in the readout ASIC}{figure.caption.124}{}}
\@writefile{toc}{\contentsline {subsection}{\numberline {4.3.2}Electrical tests}{66}{subsection.4.3.2}\protected@file@percent }
\newlabel{section:electricaltest}{{4.3.2}{66}{Electrical tests}{subsection.4.3.2}{}}
\@writefile{lot}{\contentsline {table}{\numberline {4.3}{\ignorespaces List of electrical scans}}{67}{table.caption.125}\protected@file@percent }
\newlabel{table:electricaltest}{{4.3}{67}{List of electrical scans}{table.caption.125}{}}
\@writefile{toc}{\contentsline {subsection}{\numberline {4.3.3}Thermal cycle}{67}{subsection.4.3.3}\protected@file@percent }
\@writefile{toc}{\contentsline {section}{\numberline {4.4}Procedural steps for the cell-loaded module testing}{67}{section.4.4}\protected@file@percent }
\@writefile{lof}{\contentsline {figure}{\numberline {4.18}{\ignorespaces Disposal of the thermal paste on the cooling block}}{68}{figure.caption.127}\protected@file@percent }
\newlabel{fig:thermalpaste}{{4.18}{68}{Disposal of the thermal paste on the cooling block}{figure.caption.127}{}}
\@writefile{lof}{\contentsline {figure}{\numberline {4.19}{\ignorespaces A RD53A cell-loaded module mounted on the cooling jig}}{68}{figure.caption.129}\protected@file@percent }
\newlabel{fig:mountedmodule}{{4.19}{68}{A RD53A cell-loaded module mounted on the cooling jig}{figure.caption.129}{}}
\@writefile{lof}{\contentsline {figure}{\numberline {4.20}{\ignorespaces Holding tool for cleaning the thermal paste of the module cell}}{69}{figure.caption.133}\protected@file@percent }
\newlabel{fig:holdingtool}{{4.20}{69}{Holding tool for cleaning the thermal paste of the module cell}{figure.caption.133}{}}
\@writefile{toc}{\contentsline {section}{\numberline {4.5}Results}{70}{section.4.5}\protected@file@percent }
\newlabel{sec:results}{{4.5}{70}{Results}{section.4.5}{}}
\@writefile{toc}{\contentsline {subsection}{\numberline {4.5.1}Thermal tests}{70}{subsection.4.5.1}\protected@file@percent }
\newlabel{sect:thermalresult}{{4.5.1}{70}{Thermal tests}{subsection.4.5.1}{}}
\@writefile{toc}{\contentsline {subsubsection}{Measurement stability (using module's NTC)}{70}{section*.134}\protected@file@percent }
\@writefile{lof}{\contentsline {figure}{\numberline {4.21}{\ignorespaces Distribution of the module NTC temperature}}{70}{figure.caption.135}\protected@file@percent }
\newlabel{fig:ntc_fluct}{{4.21}{70}{Distribution of the module NTC temperature}{figure.caption.135}{}}
\@writefile{toc}{\contentsline {subsubsection}{Temperature determination from leakage current measurement}{70}{section*.136}\protected@file@percent }
\@writefile{lof}{\contentsline {figure}{\numberline {4.22}{\ignorespaces I-V curves of quad module KEKQ17 before thermal cycle}}{71}{figure.caption.137}\protected@file@percent }
\newlabel{fig:iv_normalized}{{4.22}{71}{I-V curves of quad module KEKQ17 before thermal cycle}{figure.caption.137}{}}
\@writefile{lof}{\contentsline {figure}{\numberline {4.23}{\ignorespaces Leakage currents of module KEKQ17 at $V_\text  {bias}=-90\,\rm  {V}$}}{71}{figure.caption.138}\protected@file@percent }
\newlabel{fig:leak_kek17}{{4.23}{71}{Leakage currents of module KEKQ17 at $V_\text {bias}=-90\,\rm {V}$}{figure.caption.138}{}}
\@writefile{lot}{\contentsline {table}{\numberline {4.4}{\ignorespaces Temperatures for module KEKQ17 calculated from leakage current}}{71}{table.caption.139}\protected@file@percent }
\newlabel{table:kekq17tempfromleak}{{4.4}{71}{Temperatures for module KEKQ17 calculated from leakage current}{table.caption.139}{}}
\@writefile{toc}{\contentsline {subsubsection}{ADC calibration}{72}{section*.140}\protected@file@percent }
\@writefile{lof}{\contentsline {figure}{\numberline {4.24}{\ignorespaces Principle of the ADC calibration through a linear fit to two calibration points}}{72}{figure.caption.141}\protected@file@percent }
\newlabel{fig:adccalib}{{4.24}{72}{Principle of the ADC calibration through a linear fit to two calibration points}{figure.caption.141}{}}
\@writefile{toc}{\contentsline {subsubsection}{NMOS calibration}{72}{section*.144}\protected@file@percent }
\@writefile{lof}{\contentsline {figure}{\numberline {4.25}{\ignorespaces Probed voltage and ADC output for calibration}}{73}{figure.caption.142}\protected@file@percent }
\newlabel{fig:ADCcalibration_kekq17}{{4.25}{73}{Probed voltage and ADC output for calibration}{figure.caption.142}{}}
\@writefile{lof}{\contentsline {figure}{\numberline {4.26}{\ignorespaces Distributions of the chip ADC calibration parameters}}{73}{figure.caption.143}\protected@file@percent }
\newlabel{fig:ADCcalibration}{{4.26}{73}{Distributions of the chip ADC calibration parameters}{figure.caption.143}{}}
\@writefile{lof}{\contentsline {figure}{\numberline {4.27}{\ignorespaces Distributions of the NMOS sensors calibration parameters}}{74}{figure.caption.145}\protected@file@percent }
\newlabel{fig:NMOScalibration}{{4.27}{74}{Distributions of the NMOS sensors calibration parameters}{figure.caption.145}{}}
\@writefile{toc}{\contentsline {subsubsection}{Module temperatures}{74}{section*.146}\protected@file@percent }
\@writefile{lot}{\contentsline {table}{\numberline {4.5}{\ignorespaces Average module temperatures obtained from the four different methods}}{74}{table.caption.148}\protected@file@percent }
\newlabel{table:moduletemperature}{{4.5}{74}{Average module temperatures obtained from the four different methods}{table.caption.148}{}}
\@writefile{lof}{\contentsline {figure}{\numberline {4.28}{\ignorespaces Comparison of module temperatures determined from different methods}}{75}{figure.caption.147}\protected@file@percent }
\newlabel{fig:moduletemp_byFE}{{4.28}{75}{Comparison of module temperatures determined from different methods}{figure.caption.147}{}}
\@writefile{lof}{\contentsline {figure}{\numberline {4.29}{\ignorespaces Correlation between the module temperatures (NTC and sensor leakage current)}}{75}{figure.caption.149}\protected@file@percent }
\newlabel{fig:temperaturerelation_leak}{{4.29}{75}{Correlation between the module temperatures (NTC and sensor leakage current)}{figure.caption.149}{}}
\@writefile{lof}{\contentsline {figure}{\numberline {4.30}{\ignorespaces I-V curves for modules Paris18 and Goe4}}{76}{figure.caption.150}\protected@file@percent }
\newlabel{fig:IVcurves}{{4.30}{76}{I-V curves for modules Paris18 and Goe4}{figure.caption.150}{}}
\@writefile{lof}{\contentsline {figure}{\numberline {4.31}{\ignorespaces Correlation between the module temperatures (NTC, NMOS and thermal camera)}}{76}{figure.caption.151}\protected@file@percent }
\newlabel{fig:temperaturerelation_nmos}{{4.31}{76}{Correlation between the module temperatures (NTC, NMOS and thermal camera)}{figure.caption.151}{}}
\@writefile{toc}{\contentsline {subsubsection}{Thermal cycle}{76}{section*.152}\protected@file@percent }
\@writefile{lof}{\contentsline {figure}{\numberline {4.32}{\ignorespaces Module temperatures before, during and after 50 and 100 cycles}}{77}{figure.caption.153}\protected@file@percent }
\newlabel{fig:TC}{{4.32}{77}{Module temperatures before, during and after 50 and 100 cycles}{figure.caption.153}{}}
\newlabel{fig:deltaT_after100tc_quad-a}{{4.33a}{77}{\caption@thelabel }{figure.caption.154}{}}
\newlabel{sub@fig:deltaT_after100tc_quad-a}{{a}{77}{\caption@thelabel }{figure.caption.154}{}}
\newlabel{fig:deltaT_after100tc_quad-b}{{4.33b}{77}{\caption@thelabel }{figure.caption.154}{}}
\newlabel{sub@fig:deltaT_after100tc_quad-b}{{b}{77}{\caption@thelabel }{figure.caption.154}{}}
\@writefile{lof}{\contentsline {figure}{\numberline {4.33}{\ignorespaces Thermal test after 100 thermal cycles in cold temperature}}{77}{figure.caption.154}\protected@file@percent }
\newlabel{fig:deltaT_after100tc_quad}{{4.33}{77}{Thermal test after 100 thermal cycles in cold temperature}{figure.caption.154}{}}
\@writefile{lof}{\contentsline {figure}{\numberline {4.34}{\ignorespaces Sensor leakage currents of thermally-cycled modules}}{77}{figure.caption.155}\protected@file@percent }
\newlabel{fig:tcmodule_current}{{4.34}{77}{Sensor leakage currents of thermally-cycled modules}{figure.caption.155}{}}
\@writefile{lof}{\contentsline {figure}{\numberline {4.35}{\ignorespaces I-V scan results every 25 cycles for modules KEKQ17 and CERNQ3}}{78}{figure.caption.156}\protected@file@percent }
\newlabel{fig:IV_cycle_KEK17}{{4.35}{78}{I-V scan results every 25 cycles for modules KEKQ17 and CERNQ3}{figure.caption.156}{}}
\@writefile{toc}{\contentsline {subsection}{\numberline {4.5.2}Electrical test results}{78}{subsection.4.5.2}\protected@file@percent }
\@writefile{toc}{\contentsline {subsubsection}{Example of single modules results}{78}{section*.157}\protected@file@percent }
\@writefile{lof}{\contentsline {figure}{\numberline {4.36}{\ignorespaces Digital scan for module Goe4 after cell-loading}}{78}{figure.caption.158}\protected@file@percent }
\newlabel{fig:cellGoe4_digital}{{4.36}{78}{Digital scan for module Goe4 after cell-loading}{figure.caption.158}{}}
\@writefile{lof}{\contentsline {figure}{\numberline {4.37}{\ignorespaces Analog scan for module Goe4 after cell-loading}}{79}{figure.caption.159}\protected@file@percent }
\newlabel{fig:cellGoe4_analog}{{4.37}{79}{Analog scan for module Goe4 after cell-loading}{figure.caption.159}{}}
\@writefile{lof}{\contentsline {figure}{\numberline {4.38}{\ignorespaces Disconnected-bump scan for module Goe4 after cell-loading}}{79}{figure.caption.160}\protected@file@percent }
\newlabel{fig:cellGoe4_discbump}{{4.38}{79}{Disconnected-bump scan for module Goe4 after cell-loading}{figure.caption.160}{}}
\@writefile{lof}{\contentsline {figure}{\numberline {4.39}{\ignorespaces Threshold and noise distributions for module Goe4}}{79}{figure.caption.161}\protected@file@percent }
\newlabel{fig:cellGoe4_threshold_noise}{{4.39}{79}{Threshold and noise distributions for module Goe4}{figure.caption.161}{}}
\@writefile{lot}{\contentsline {table}{\numberline {4.6}{\ignorespaces Summary of the electrical scans of cell-loaded module Goe4}}{80}{table.caption.162}\protected@file@percent }
\newlabel{table:electricalresultscellloadedGoe4}{{4.6}{80}{Summary of the electrical scans of cell-loaded module Goe4}{table.caption.162}{}}
\@writefile{lof}{\contentsline {figure}{\numberline {4.40}{\ignorespaces Number of dead and bad pixels for module Goe4 for different assembly stages}}{80}{figure.caption.163}\protected@file@percent }
\newlabel{fig:analog_digital_discbump_development_Goe4}{{4.40}{80}{Number of dead and bad pixels for module Goe4 for different assembly stages}{figure.caption.163}{}}
\@writefile{lof}{\contentsline {figure}{\numberline {4.41}{\ignorespaces Mean of the threshold and ENC noise distributions from threshold scans}}{81}{figure.caption.164}\protected@file@percent }
\newlabel{fig:threshold_noise_development_Goe4}{{4.41}{81}{Mean of the threshold and ENC noise distributions from threshold scans}{figure.caption.164}{}}
\@writefile{toc}{\contentsline {subsubsection}{Overall results}{81}{section*.165}\protected@file@percent }
\@writefile{lof}{\contentsline {figure}{\numberline {4.42}{\ignorespaces Number of dead and bad pixels from {\em  digital scans} at different assembly stages}}{82}{figure.caption.166}\protected@file@percent }
\newlabel{fig:digitalscan_aftercell}{{4.42}{82}{Number of dead and bad pixels from {\em digital scans} at different assembly stages}{figure.caption.166}{}}
\@writefile{lof}{\contentsline {figure}{\numberline {4.43}{\ignorespaces Occupancy map from digital scans for SiegenQ4}}{83}{figure.caption.167}\protected@file@percent }
\newlabel{fig:siegenq4_digitalmap}{{4.43}{83}{Occupancy map from digital scans for SiegenQ4}{figure.caption.167}{}}
\@writefile{lof}{\contentsline {figure}{\numberline {4.44}{\ignorespaces {\em  Analog scans} at different assembly stages for CERN and KEK modules}}{83}{figure.caption.168}\protected@file@percent }
\newlabel{fig:analog_scan_dead_bad_aftercell_CERN_KEK}{{4.44}{83}{{\em Analog scans} at different assembly stages for CERN and KEK modules}{figure.caption.168}{}}
\@writefile{lof}{\contentsline {figure}{\numberline {4.45}{\ignorespaces {\em  Analog scans} at different assembly stages for modules from several sites}}{84}{figure.caption.169}\protected@file@percent }
\newlabel{fig:analog_scan_dead_bad_aftercell_Goe_Liv_Paris_Siegen}{{4.45}{84}{{\em Analog scans} at different assembly stages for modules from several sites}{figure.caption.169}{}}
\@writefile{lof}{\contentsline {figure}{\numberline {4.46}{\ignorespaces Occupancy map from analog scans for SiegenQ2}}{85}{figure.caption.170}\protected@file@percent }
\newlabel{fig:siegenq2_analogmap}{{4.46}{85}{Occupancy map from analog scans for SiegenQ2}{figure.caption.170}{}}
\@writefile{lof}{\contentsline {figure}{\numberline {4.47}{\ignorespaces Mean of the threshold and noise distributions for modules from CERN and KEK}}{85}{figure.caption.171}\protected@file@percent }
\newlabel{fig:threshold_aftercell_1}{{4.47}{85}{Mean of the threshold and noise distributions for modules from CERN and KEK}{figure.caption.171}{}}
\@writefile{lof}{\contentsline {figure}{\numberline {4.48}{\ignorespaces Mean of the threshold and noise distributions for modules from several sites}}{86}{figure.caption.172}\protected@file@percent }
\newlabel{fig:threshold_aftercell_2}{{4.48}{86}{Mean of the threshold and noise distributions for modules from several sites}{figure.caption.172}{}}
\@writefile{lof}{\contentsline {figure}{\numberline {4.49}{\ignorespaces Number of dead pixels identified from {\em  disconnected-bump scans}}}{87}{figure.caption.173}\protected@file@percent }
\newlabel{fig:discbump_aftercell_1}{{4.49}{87}{Number of dead pixels identified from {\em disconnected-bump scans}}{figure.caption.173}{}}
\@writefile{lof}{\contentsline {figure}{\numberline {4.50}{\ignorespaces Occupancy map from {\em  disconnected-bump scans} for modules Paris12 and KEKQ22}}{88}{figure.caption.174}\protected@file@percent }
\newlabel{fig:paris12_kekq22_discmap}{{4.50}{88}{Occupancy map from {\em disconnected-bump scans} for modules Paris12 and KEKQ22}{figure.caption.174}{}}
\@writefile{toc}{\contentsline {subsubsection}{Thermal cycle}{88}{section*.175}\protected@file@percent }
\@writefile{lof}{\contentsline {figure}{\numberline {4.51}{\ignorespaces Number of dead and bad pixels from {\em  digital scans} for each thermal cycles stage}}{89}{figure.caption.176}\protected@file@percent }
\newlabel{fig:tc_digital_cern_kek}{{4.51}{89}{Number of dead and bad pixels from {\em digital scans} for each thermal cycles stage}{figure.caption.176}{}}
\@writefile{lof}{\contentsline {figure}{\numberline {4.52}{\ignorespaces Number of dead and bad pixels from {\em  analog scans} for each thermal cycles stage}}{90}{figure.caption.177}\protected@file@percent }
\newlabel{fig:tc_analog_cern_kek}{{4.52}{90}{Number of dead and bad pixels from {\em analog scans} for each thermal cycles stage}{figure.caption.177}{}}
\@writefile{lof}{\contentsline {figure}{\numberline {4.53}{\ignorespaces Threshold and noise from {\em  threshold scans} for each thermal cycles stage}}{90}{figure.caption.178}\protected@file@percent }
\newlabel{fig:tc_threshold_noise_cern_kek}{{4.53}{90}{Threshold and noise from {\em threshold scans} for each thermal cycles stage}{figure.caption.178}{}}
\@writefile{lof}{\contentsline {figure}{\numberline {4.54}{\ignorespaces Number of dead pixels for different modules from {\em  disconnected-bump scans}}}{91}{figure.caption.179}\protected@file@percent }
\newlabel{fig:discbump_tcmodule}{{4.54}{91}{Number of dead pixels for different modules from {\em disconnected-bump scans}}{figure.caption.179}{}}
\@writefile{lof}{\contentsline {figure}{\numberline {4.55}{\ignorespaces Zero-occupancy hitmaps for module CERNQ3 from the {\em  disconnected bump-scan}}}{91}{figure.caption.180}\protected@file@percent }
\newlabel{fig:discbump_CERNQ3_compare}{{4.55}{91}{Zero-occupancy hitmaps for module CERNQ3 from the {\em disconnected bump-scan}}{figure.caption.180}{}}
\@writefile{toc}{\contentsline {section}{\numberline {4.6}Summary}{92}{section.4.6}\protected@file@percent }
\@setckpt{Chapters/4-AfterLoading_sgs}{
\setcounter{page}{93}
\setcounter{equation}{4}
\setcounter{enumi}{2}
\setcounter{enumii}{0}
\setcounter{enumiii}{0}
\setcounter{enumiv}{0}
\setcounter{footnote}{4}
\setcounter{mpfootnote}{0}
\setcounter{part}{0}
\setcounter{chapter}{4}
\setcounter{section}{6}
\setcounter{subsection}{0}
\setcounter{subsubsection}{0}
\setcounter{paragraph}{0}
\setcounter{subparagraph}{0}
\setcounter{figure}{55}
\setcounter{table}{6}
\setcounter{Maxaffil}{2}
\setcounter{authors}{0}
\setcounter{affil}{0}
\setcounter{parentequation}{0}
\setcounter{section@level}{1}
\setcounter{Item}{5}
\setcounter{Hfootnote}{4}
\setcounter{Hy@AnnotLevel}{0}
\setcounter{bookmark@seq@number}{53}
\setcounter{float@type}{4}
\setcounter{linenumber}{1}
\setcounter{LN@truepage}{98}
\setcounter{caption@flags}{6}
\setcounter{continuedfloat}{0}
\setcounter{subfigure}{2}
\setcounter{subtable}{0}
}
