\relax 
\providecommand\hyper@newdestlabel[2]{}
\citation{unigeloading}
\@writefile{toc}{\contentsline {chapter}{\numberline {4}Measurement after Cell Loading}{29}{chapter.4}}
\@writefile{lof}{\addvspace {10\p@ }}
\@writefile{lot}{\addvspace {10\p@ }}
\newlabel{chap:loading}{{4}{29}{Measurement after Cell Loading}{chapter.4}{}}
\@writefile{toc}{\contentsline {section}{\numberline {4.1}Introduction}{29}{section.4.1}}
\@writefile{toc}{\contentsline {section}{\numberline {4.2}Cell loading}{29}{section.4.2}}
\newlabel{sect:cellloading}{{4.2}{29}{Cell loading}{section.4.2}{}}
\@writefile{toc}{\contentsline {subsection}{\numberline {4.2.1}Cell loading}{29}{subsection.4.2.1}}
\@writefile{lof}{\contentsline {figure}{\numberline {4.1}{\ignorespaces Components of Outer Barrel loaded module.\relax }}{30}{figure.caption.48}}
\newlabel{fig:loadedcell}{{4.1}{30}{Components of Outer Barrel loaded module.\relax }{figure.caption.48}{}}
\@writefile{toc}{\contentsline {subsubsection}{Shipment}{30}{section*.49}}
\@writefile{toc}{\contentsline {section}{\numberline {4.3}Measurements after cell loading}{30}{section.4.3}}
\@writefile{toc}{\contentsline {subsection}{\numberline {4.3.1}Single cell-loaded module setup}{30}{subsection.4.3.1}}
\newlabel{sect:singlemodulesetup}{{4.3.1}{30}{Single cell-loaded module setup}{subsection.4.3.1}{}}
\@writefile{lof}{\contentsline {figure}{\numberline {4.2}{\ignorespaces (Left) cell-loaded module QC setup overview, (right) cooling block in the environmental box.\relax }}{31}{figure.caption.50}}
\newlabel{fig:setupphoto}{{4.2}{31}{(Left) cell-loaded module QC setup overview, (right) cooling block in the environmental box.\relax }{figure.caption.50}{}}
\@writefile{toc}{\contentsline {subsubsection}{Environmental box}{31}{section*.51}}
\citation{moth}
\@writefile{lof}{\contentsline {figure}{\numberline {4.3}{\ignorespaces Monitoring of environmental temperature (black), humidity (red) and dew point (green) within the environmental box.\relax }}{32}{figure.caption.52}}
\newlabel{fig:envmonitor}{{4.3}{32}{Monitoring of environmental temperature (black), humidity (red) and dew point (green) within the environmental box.\relax }{figure.caption.52}{}}
\@writefile{toc}{\contentsline {subsubsection}{Environmental monitoring system}{32}{section*.53}}
\newlabel{sect:envmonitor}{{4.3.1}{32}{Environmental monitoring system}{section*.53}{}}
\citation{steinhart}
\@writefile{lof}{\contentsline {figure}{\numberline {4.4}{\ignorespaces Arduino and MoTH board. A maximum of eight modules/environmental NTCs can be connected.\relax }}{33}{figure.caption.54}}
\newlabel{fig:arduino}{{4.4}{33}{Arduino and MoTH board. A maximum of eight modules/environmental NTCs can be connected.\relax }{figure.caption.54}{}}
\newlabel{equation:steinhart}{{4.1}{33}{Environmental monitoring system}{equation.4.3.1}{}}
\@writefile{lot}{\contentsline {table}{\numberline {4.1}{\ignorespaces The calibration parameters of equation \ref  {equation:steinhart}.\relax }}{33}{table.caption.55}}
\newlabel{table:steinhartcalib}{{4.1}{33}{The calibration parameters of equation \ref {equation:steinhart}.\relax }{table.caption.55}{}}
\@writefile{lof}{\contentsline {figure}{\numberline {4.5}{\ignorespaces The accuracy of NTC monitoring. The reference thermistor and module and environmental NTCs are matching.\relax }}{34}{figure.caption.56}}
\newlabel{fig:ntcdiff}{{4.5}{34}{The accuracy of NTC monitoring. The reference thermistor and module and environmental NTCs are matching.\relax }{figure.caption.56}{}}
\@writefile{toc}{\contentsline {subsubsection}{Cooling block}{34}{section*.57}}
\newlabel{sect:coolingblock}{{4.3.1}{34}{Cooling block}{section*.57}{}}
\@writefile{lof}{\contentsline {figure}{\numberline {4.6}{\ignorespaces Cooling block.\relax }}{34}{figure.caption.58}}
\newlabel{fig:colingblock}{{4.6}{34}{Cooling block.\relax }{figure.caption.58}{}}
\@writefile{lof}{\contentsline {figure}{\numberline {4.7}{\ignorespaces cell-loaded Quad heater module.\relax }}{35}{figure.caption.59}}
\newlabel{fig:quadheatermodule}{{4.7}{35}{cell-loaded Quad heater module.\relax }{figure.caption.59}{}}
\@writefile{lof}{\contentsline {figure}{\numberline {4.8}{\ignorespaces The illustration of test setup (side view).\relax }}{35}{figure.caption.59}}
\newlabel{fig:quadheatermodule_setup}{{4.8}{35}{The illustration of test setup (side view).\relax }{figure.caption.59}{}}
\@writefile{lof}{\contentsline {figure}{\numberline {4.9}{\ignorespaces The thermal figure merit in each cooling jig.\relax }}{36}{figure.caption.60}}
\newlabel{fig:tfmcoolingjig}{{4.9}{36}{The thermal figure merit in each cooling jig.\relax }{figure.caption.60}{}}
\citation{cellsimulation}
\citation{cellsimulation}
\@writefile{lof}{\contentsline {figure}{\numberline {4.10}{\ignorespaces The thermal figure merit of repeatability test. The cooling jig temperature is fixed at 5\nobreakspace  {}$^{\circ }$C.\relax }}{37}{figure.caption.61}}
\newlabel{fig:repeatability}{{4.10}{37}{The thermal figure merit of repeatability test. The cooling jig temperature is fixed at 5~$^{\circ }$C.\relax }{figure.caption.61}{}}
\@writefile{lof}{\contentsline {figure}{\numberline {4.11}{\ignorespaces The sensor temperature simulation for the longeron cell. \cite  {cellsimulation}\relax }}{37}{figure.caption.62}}
\newlabel{fig:cellsimulation}{{4.11}{37}{The sensor temperature simulation for the longeron cell. \cite {cellsimulation}\relax }{figure.caption.62}{}}
\citation{moduletesting}
\citation{keithley}
\citation{moduletesting}
\citation{ttilv}
\citation{keithley}
\citation{keithley}
\citation{ttilv}
\citation{ttilv}
\citation{moduletesting}
\citation{yarr}
\@writefile{toc}{\contentsline {subsubsection}{Cooling system}{38}{section*.63}}
\@writefile{toc}{\contentsline {subsubsection}{Power supply}{38}{section*.64}}
\newlabel{sect:cell_powersupply}{{4.3.1}{38}{Power supply}{section*.64}{}}
\@writefile{lof}{\contentsline {figure}{\numberline {4.12}{\ignorespaces Keithley 2410 HV power supply unit \cite  {keithley}.\relax }}{38}{figure.caption.65}}
\newlabel{fig:keithley2410}{{4.12}{38}{Keithley 2410 HV power supply unit \cite {keithley}.\relax }{figure.caption.65}{}}
\@writefile{lof}{\contentsline {figure}{\numberline {4.13}{\ignorespaces TTi PL303QMD-P power supply unit \cite  {ttilv}.\relax }}{38}{figure.caption.65}}
\newlabel{fig:ttilv}{{4.13}{38}{TTi PL303QMD-P power supply unit \cite {ttilv}.\relax }{figure.caption.65}{}}
\@writefile{toc}{\contentsline {subsubsection}{Electrical setup}{38}{section*.66}}
\newlabel{sect:cell_daq}{{4.3.1}{38}{Electrical setup}{section*.66}{}}
\@writefile{lof}{\contentsline {figure}{\numberline {4.14}{\ignorespaces The power adapter card. V$\_$SEN and GND$\_$SEN are for the cable to measure the voltage at module flex pad without voltage drop.\relax }}{39}{figure.caption.67}}
\newlabel{fig:power_adapter_pig}{{4.14}{39}{The power adapter card. V$\_$SEN and GND$\_$SEN are for the cable to measure the voltage at module flex pad without voltage drop.\relax }{figure.caption.67}{}}
\@writefile{lof}{\contentsline {figure}{\numberline {4.15}{\ignorespaces The data adapter card. Send the command and data to the port of the DAQ via DP-miniDP cable(s).\relax }}{39}{figure.caption.67}}
\newlabel{fig:data_adapter_pig}{{4.15}{39}{The data adapter card. Send the command and data to the port of the DAQ via DP-miniDP cable(s).\relax }{figure.caption.67}{}}
\@writefile{lof}{\contentsline {figure}{\numberline {4.16}{\ignorespaces (Left) position of data and power connectors on the module flex and (right) module connected pigatails in module carrier.\relax }}{39}{figure.caption.68}}
\newlabel{fig:connectorflex}{{4.16}{39}{(Left) position of data and power connectors on the module flex and (right) module connected pigatails in module carrier.\relax }{figure.caption.68}{}}
\@writefile{toc}{\contentsline {subsection}{\numberline {4.3.2}Thermal test}{39}{subsection.4.3.2}}
\newlabel{sect:thermaltest}{{4.3.2}{39}{Thermal test}{subsection.4.3.2}{}}
\@writefile{lof}{\contentsline {figure}{\numberline {4.17}{\ignorespaces Module flex design.\relax }}{40}{figure.caption.69}}
\newlabel{fig:moduleflex}{{4.17}{40}{Module flex design.\relax }{figure.caption.69}{}}
\newlabel{equation:temp_ideal}{{4.2}{40}{Thermal test}{equation.4.3.2}{}}
\citation{RD53Amanual}
\citation{RD53Amanual}
\@writefile{lof}{\contentsline {figure}{\numberline {4.18}{\ignorespaces Principle of NMOS sensor implemented in the readout ASIC of a pixel module.\relax }}{41}{figure.caption.70}}
\newlabel{fig:NMOSsensor}{{4.18}{41}{Principle of NMOS sensor implemented in the readout ASIC of a pixel module.\relax }{figure.caption.70}{}}
\@writefile{lot}{\contentsline {table}{\numberline {4.2}{\ignorespaces The positions of temperature sensors in the RD53A \cite  {RD53Amanual}\relax }}{41}{table.caption.71}}
\newlabel{table:tempsensposition}{{4.2}{41}{The positions of temperature sensors in the RD53A \cite {RD53Amanual}\relax }{table.caption.71}{}}
\citation{FLIR}
\citation{technicalcriteria}
\citation{technicalcriteria}
\@writefile{lof}{\contentsline {figure}{\numberline {4.19}{\ignorespaces Positions of the NMOS temperature sensors on the RD53A quad module.\relax }}{42}{figure.caption.72}}
\newlabel{fig:locationnoms}{{4.19}{42}{Positions of the NMOS temperature sensors on the RD53A quad module.\relax }{figure.caption.72}{}}
\@writefile{toc}{\contentsline {subsection}{\numberline {4.3.3}Electrical test}{42}{subsection.4.3.3}}
\newlabel{section:electricaltest}{{4.3.3}{42}{Electrical test}{subsection.4.3.3}{}}
\citation{markmaster}
\@writefile{lot}{\contentsline {table}{\numberline {4.3}{\ignorespaces The list of electrical scan. Critria are from \cite  {technicalcriteria}.\relax }}{43}{table.caption.73}}
\newlabel{table:electricaltest}{{4.3}{43}{The list of electrical scan. Critria are from \cite {technicalcriteria}.\relax }{table.caption.73}{}}
\@writefile{toc}{\contentsline {subsection}{\numberline {4.3.4}Thermal cycle}{43}{subsection.4.3.4}}
\@writefile{toc}{\contentsline {subsection}{\numberline {4.3.5}Test procedure}{43}{subsection.4.3.5}}
\citation{moduletesting}
\@writefile{lof}{\contentsline {figure}{\numberline {4.20}{\ignorespaces Linear fit of ADC calibration\relax }}{44}{figure.caption.74}}
\newlabel{fig:adccalib}{{4.20}{44}{Linear fit of ADC calibration\relax }{figure.caption.74}{}}
\@writefile{lof}{\contentsline {figure}{\numberline {4.21}{\ignorespaces Thermal paste on the cooling block. The paste is spread out with a stencil and a spatula\relax }}{46}{figure.caption.75}}
\newlabel{fig:thermalpaste}{{4.21}{46}{Thermal paste on the cooling block. The paste is spread out with a stencil and a spatula\relax }{figure.caption.75}{}}
\@writefile{lof}{\contentsline {figure}{\numberline {4.22}{\ignorespaces The RD53A cell-loaded module mounted on the cooling jig with pigtails connected.\relax }}{46}{figure.caption.76}}
\newlabel{fig:mountedmodule}{{4.22}{46}{The RD53A cell-loaded module mounted on the cooling jig with pigtails connected.\relax }{figure.caption.76}{}}
\@writefile{lof}{\contentsline {figure}{\numberline {4.23}{\ignorespaces The module holding tool. A cell side faces up for cleaning.\relax }}{48}{figure.caption.77}}
\newlabel{fig:holdingtool}{{4.23}{48}{The module holding tool. A cell side faces up for cleaning.\relax }{figure.caption.77}{}}
\@writefile{toc}{\contentsline {section}{\numberline {4.4}Results}{48}{section.4.4}}
\@writefile{toc}{\contentsline {subsection}{\numberline {4.4.1}Thermal test}{48}{subsection.4.4.1}}
\newlabel{sect:thermalresult}{{4.4.1}{48}{Thermal test}{subsection.4.4.1}{}}
\@writefile{toc}{\contentsline {subsubsection}{Stability of the measurement}{48}{section*.78}}
\@writefile{lof}{\contentsline {figure}{\numberline {4.24}{\ignorespaces The distribution of Module NTC temperature in each condition, module power on (left) and power off (right).\relax }}{49}{figure.caption.79}}
\newlabel{fig:ntc_fluct}{{4.24}{49}{The distribution of Module NTC temperature in each condition, module power on (left) and power off (right).\relax }{figure.caption.79}{}}
\@writefile{toc}{\contentsline {subsubsection}{Leakage current to temperature}{49}{section*.80}}
\@writefile{lot}{\contentsline {table}{\numberline {4.4}{\ignorespaces KEKQ17 temperatures calculated from leakage current. The benchmark is module NTC temperature and leakage current taken in room temperature.\relax }}{49}{table.caption.81}}
\newlabel{table:kekq17tempfromleak}{{4.4}{49}{KEKQ17 temperatures calculated from leakage current. The benchmark is module NTC temperature and leakage current taken in room temperature.\relax }{table.caption.81}{}}
\@writefile{lof}{\contentsline {figure}{\numberline {4.25}{\ignorespaces IV curves of KEKQ17 before thermal cycle. The module temperatures are from NTC on module flex. The currents are normalized at 20\nobreakspace  {}$^{\circ }$C.\relax }}{50}{figure.caption.82}}
\newlabel{fig:iv_normalized}{{4.25}{50}{IV curves of KEKQ17 before thermal cycle. The module temperatures are from NTC on module flex. The currents are normalized at 20~$^{\circ }$C.\relax }{figure.caption.82}{}}
\@writefile{lof}{\contentsline {figure}{\numberline {4.26}{\ignorespaces Leakage currents of module KEKQ17 at $V_{bias}$=-90\nobreakspace  {}V.\relax }}{50}{figure.caption.83}}
\newlabel{fig:leak_kek17}{{4.26}{50}{Leakage currents of module KEKQ17 at $V_{bias}$=-90~V.\relax }{figure.caption.83}{}}
\@writefile{toc}{\contentsline {subsubsection}{ADC and NMOS sensor calibration}{50}{section*.84}}
\@writefile{lof}{\contentsline {figure}{\numberline {4.27}{\ignorespaces Probed voltage and ADC output for calibration. Two measurement points are fit with a linear function for slope and offset calibration.\relax }}{51}{figure.caption.85}}
\newlabel{fig:ADCcalibration_kekq17}{{4.27}{51}{Probed voltage and ADC output for calibration. Two measurement points are fit with a linear function for slope and offset calibration.\relax }{figure.caption.85}{}}
\@writefile{lof}{\contentsline {figure}{\numberline {4.28}{\ignorespaces The distribution of calibration parameters of ADCs in chip, (left) slope and (right) offset. The histograms are separated by FE ID and stacked\relax }}{51}{figure.caption.86}}
\newlabel{fig:ADCcalibration}{{4.28}{51}{The distribution of calibration parameters of ADCs in chip, (left) slope and (right) offset. The histograms are separated by FE ID and stacked\relax }{figure.caption.86}{}}
\@writefile{lof}{\contentsline {figure}{\numberline {4.29}{\ignorespaces The distribution of calibrated slope (left) and offset (right). The histograms are separated by sensor position and stacked\relax }}{52}{figure.caption.87}}
\newlabel{fig:NMOScalibration}{{4.29}{52}{The distribution of calibrated slope (left) and offset (right). The histograms are separated by sensor position and stacked\relax }{figure.caption.87}{}}
\@writefile{toc}{\contentsline {subsubsection}{Module temperatures}{52}{section*.88}}
\newlabel{fig:modulentc_byFE}{{4.30a}{53}{The module NTC temperature.\relax }{figure.caption.89}{}}
\newlabel{sub@fig:modulentc_byFE}{{a}{53}{The module NTC temperature.\relax }{figure.caption.89}{}}
\newlabel{fig:moduleleak_byFE}{{4.30b}{53}{The module temperature from leakage current.\relax }{figure.caption.89}{}}
\newlabel{sub@fig:moduleleak_byFE}{{b}{53}{The module temperature from leakage current.\relax }{figure.caption.89}{}}
\newlabel{fig:modulenmos_byFE}{{4.30c}{53}{The NMOS temperture in chip.\relax }{figure.caption.89}{}}
\newlabel{sub@fig:modulenmos_byFE}{{c}{53}{The NMOS temperture in chip.\relax }{figure.caption.89}{}}
\newlabel{fig:modulecamera_byFE}{{4.30d}{53}{The module temperature from thermal camera.\relax }{figure.caption.89}{}}
\newlabel{sub@fig:modulecamera_byFE}{{d}{53}{The module temperature from thermal camera.\relax }{figure.caption.89}{}}
\@writefile{lof}{\contentsline {figure}{\numberline {4.30}{\ignorespaces The module temperatures, sorted by number of functional FEs. (c) plots only the Sensor 1 of chip 1, (d) plots the thermal camera temperature captured around NTC on module flex. KEK19, 20, 21 and 22 are empty because these module have wire protection and the surface of the module is covered.\relax }}{53}{figure.caption.89}}
\newlabel{fig:moduletemp_byFE}{{4.30}{53}{The module temperatures, sorted by number of functional FEs. (c) plots only the Sensor 1 of chip 1, (d) plots the thermal camera temperature captured around NTC on module flex. KEK19, 20, 21 and 22 are empty because these module have wire protection and the surface of the module is covered.\relax }{figure.caption.89}{}}
\@writefile{lot}{\contentsline {table}{\numberline {4.5}{\ignorespaces The average module temperature in each jig temperature\relax }}{53}{table.caption.90}}
\newlabel{table:moduletemperature}{{4.5}{53}{The average module temperature in each jig temperature\relax }{table.caption.90}{}}
\newlabel{fig:temperaturerelation10C}{{4.31a}{54}{Cooling jig temperature : 10~$^{\circ }$C.\relax }{figure.caption.91}{}}
\newlabel{sub@fig:temperaturerelation10C}{{a}{54}{Cooling jig temperature : 10~$^{\circ }$C.\relax }{figure.caption.91}{}}
\newlabel{fig:temperaturerelation20C}{{4.31b}{54}{Cooling jig temperature : 20~$^{\circ }$C.\relax }{figure.caption.91}{}}
\newlabel{sub@fig:temperaturerelation20C}{{b}{54}{Cooling jig temperature : 20~$^{\circ }$C.\relax }{figure.caption.91}{}}
\@writefile{lof}{\contentsline {figure}{\numberline {4.31}{\ignorespaces The temperature relations of NTC on module flex and derived from leakage current, the red line represent the both temperatures matching.\relax }}{54}{figure.caption.91}}
\newlabel{fig:temperaturerelation}{{4.31}{54}{The temperature relations of NTC on module flex and derived from leakage current, the red line represent the both temperatures matching.\relax }{figure.caption.91}{}}
\@writefile{lof}{\contentsline {figure}{\numberline {4.32}{\ignorespaces IV curves of Paris18 and Goettingen4.\relax }}{54}{figure.caption.92}}
\newlabel{fig:IVcurves}{{4.32}{54}{IV curves of Paris18 and Goettingen4.\relax }{figure.caption.92}{}}
\@writefile{lof}{\contentsline {figure}{\numberline {4.33}{\ignorespaces The temperature relations of NTC on module flex and NMOS sensor.\relax }}{55}{figure.caption.93}}
\newlabel{fig:temperaturerelation_adc}{{4.33}{55}{The temperature relations of NTC on module flex and NMOS sensor.\relax }{figure.caption.93}{}}
\@writefile{lof}{\contentsline {figure}{\numberline {4.34}{\ignorespaces The temperature relations of NTC on module flex and thermal camera.\relax }}{55}{figure.caption.93}}
\newlabel{fig:temperaturerelation_camera}{{4.34}{55}{The temperature relations of NTC on module flex and thermal camera.\relax }{figure.caption.93}{}}
\@writefile{toc}{\contentsline {subsubsection}{Thermal cycle}{55}{section*.94}}
\newlabel{fig:TC10C}{{4.35a}{55}{Cooling jig temperature : 10~$^{\circ }$C.\relax }{figure.caption.95}{}}
\newlabel{sub@fig:TC10C}{{a}{55}{Cooling jig temperature : 10~$^{\circ }$C.\relax }{figure.caption.95}{}}
\newlabel{fig:TC20C}{{4.35b}{55}{Cooling jig temperature : 20~$^{\circ }$C.\relax }{figure.caption.95}{}}
\newlabel{sub@fig:TC20C}{{b}{55}{Cooling jig temperature : 20~$^{\circ }$C.\relax }{figure.caption.95}{}}
\@writefile{lof}{\contentsline {figure}{\numberline {4.35}{\ignorespaces The modules temperature before, during and after thermal cycle.\relax }}{55}{figure.caption.95}}
\newlabel{fig:TC}{{4.35}{55}{The modules temperature before, during and after thermal cycle.\relax }{figure.caption.95}{}}
\newlabel{fig:deltaT_after100tc}{{4.36a}{56}{$\Delta $T between jig and NTC on the module flex.\relax }{figure.caption.96}{}}
\newlabel{sub@fig:deltaT_after100tc}{{a}{56}{$\Delta $T between jig and NTC on the module flex.\relax }{figure.caption.96}{}}
\newlabel{fig:deltaT_after100tc_normalized}{{4.36b}{56}{$\Delta $T between jig and NTC on the module flex and normalized in power.\relax }{figure.caption.96}{}}
\newlabel{sub@fig:deltaT_after100tc_normalized}{{b}{56}{$\Delta $T between jig and NTC on the module flex and normalized in power.\relax }{figure.caption.96}{}}
\@writefile{lof}{\contentsline {figure}{\numberline {4.36}{\ignorespaces Thermal test after 100 thermal cycle in cold temperature.\relax }}{56}{figure.caption.96}}
\newlabel{fig:deltaT_after100tc_quad}{{4.36}{56}{Thermal test after 100 thermal cycle in cold temperature.\relax }{figure.caption.96}{}}
\@writefile{lof}{\contentsline {figure}{\numberline {4.37}{\ignorespaces The leakage currents of thermal cycled module measured before TC, after 50 and 100 cycles. Measured at room temperature and chips module is thermalized. Leakage currents are normalized at 20\nobreakspace  {}$^{\circ }$C.\relax }}{56}{figure.caption.97}}
\newlabel{fig:tcmodule_current}{{4.37}{56}{The leakage currents of thermal cycled module measured before TC, after 50 and 100 cycles. Measured at room temperature and chips module is thermalized. Leakage currents are normalized at 20~$^{\circ }$C.\relax }{figure.caption.97}{}}
\@writefile{lof}{\contentsline {figure}{\numberline {4.38}{\ignorespaces The IV scan every 25 cycles. Cycle 0, 50, 100 are taken mounted on the cooling jig and cycle 25 and 75 are in the climate chamber. The LV is off in both conditions. The temperatures are normalized to 20\nobreakspace  {}$^{\circ }$C.\relax }}{57}{figure.caption.98}}
\newlabel{fig:IV_cycle_KEK17}{{4.38}{57}{The IV scan every 25 cycles. Cycle 0, 50, 100 are taken mounted on the cooling jig and cycle 25 and 75 are in the climate chamber. The LV is off in both conditions. The temperatures are normalized to 20~$^{\circ }$C.\relax }{figure.caption.98}{}}
\@writefile{toc}{\contentsline {subsection}{\numberline {4.4.2}Electrical test}{57}{subsection.4.4.2}}
\@writefile{toc}{\contentsline {subsubsection}{Individual results}{57}{section*.99}}
\@writefile{lot}{\contentsline {table}{\numberline {4.6}{\ignorespaces The electrical scans of cell-loaded Goe4 after 100 thermal cycles. Focusing on the Diff. FE.\relax }}{57}{table.caption.100}}
\newlabel{table:electricalresultscellloadedGoe4}{{4.6}{57}{The electrical scans of cell-loaded Goe4 after 100 thermal cycles. Focusing on the Diff. FE.\relax }{table.caption.100}{}}
\@writefile{lof}{\contentsline {figure}{\numberline {4.39}{\ignorespaces Digital occupancy map of cell-loaded Goe4.\relax }}{58}{figure.caption.101}}
\newlabel{fig:cellGoe4digital}{{4.39}{58}{Digital occupancy map of cell-loaded Goe4.\relax }{figure.caption.101}{}}
\@writefile{lof}{\contentsline {figure}{\numberline {4.40}{\ignorespaces Analog occupancy map of cell-loaded Goe4.\relax }}{58}{figure.caption.102}}
\newlabel{fig:cellGoe4analog}{{4.40}{58}{Analog occupancy map of cell-loaded Goe4.\relax }{figure.caption.102}{}}
\@writefile{lof}{\contentsline {figure}{\numberline {4.41}{\ignorespaces Threshold distribution of cell-loaded Goe4. From left to right: FE1, FE2, FE3, and FE4.\relax }}{59}{figure.caption.103}}
\newlabel{fig:cellGoe4threshold}{{4.41}{59}{Threshold distribution of cell-loaded Goe4. From left to right: FE1, FE2, FE3, and FE4.\relax }{figure.caption.103}{}}
\@writefile{lof}{\contentsline {figure}{\numberline {4.42}{\ignorespaces Noise distribution of cell-loaded Goe4. From left to right: FE1, FE2, FE3, and FE4.\relax }}{59}{figure.caption.104}}
\newlabel{fig:cellGoe4noise}{{4.42}{59}{Noise distribution of cell-loaded Goe4. From left to right: FE1, FE2, FE3, and FE4.\relax }{figure.caption.104}{}}
\@writefile{lof}{\contentsline {figure}{\numberline {4.43}{\ignorespaces Disconnected bump scan occupancy map of Goe 4 after cell-loading.\relax }}{59}{figure.caption.105}}
\newlabel{fig:cellGoe4discbump}{{4.43}{59}{Disconnected bump scan occupancy map of Goe 4 after cell-loading.\relax }{figure.caption.105}{}}
\@writefile{lof}{\contentsline {figure}{\numberline {4.44}{\ignorespaces The development of number of dead and bad pixels in Digital scan.\relax }}{60}{figure.caption.106}}
\newlabel{fig:digitaldevelopment_Goe4}{{4.44}{60}{The development of number of dead and bad pixels in Digital scan.\relax }{figure.caption.106}{}}
\@writefile{lof}{\contentsline {figure}{\numberline {4.45}{\ignorespaces The development of number of dead and bad pixels in Analog scan.\relax }}{60}{figure.caption.106}}
\newlabel{fig:analogdevelopment_Goe4}{{4.45}{60}{The development of number of dead and bad pixels in Analog scan.\relax }{figure.caption.106}{}}
\@writefile{lof}{\contentsline {figure}{\numberline {4.46}{\ignorespaces The development of threshold mean value in Threshold scan.\relax }}{60}{figure.caption.107}}
\newlabel{fig:thresholddevelopment_Goe4}{{4.46}{60}{The development of threshold mean value in Threshold scan.\relax }{figure.caption.107}{}}
\@writefile{lof}{\contentsline {figure}{\numberline {4.47}{\ignorespaces The development of ENC noise mean value in Threshold scan.\relax }}{60}{figure.caption.107}}
\newlabel{fig:noisedevelopment_Goe4}{{4.47}{60}{The development of ENC noise mean value in Threshold scan.\relax }{figure.caption.107}{}}
\@writefile{lof}{\contentsline {figure}{\numberline {4.48}{\ignorespaces The development of number of good connection pixels in Disconnected bump scan.\relax }}{61}{figure.caption.108}}
\newlabel{fig:discbumpdevelopment_Goe4}{{4.48}{61}{The development of number of good connection pixels in Disconnected bump scan.\relax }{figure.caption.108}{}}
\@writefile{lof}{\contentsline {figure}{\numberline {4.49}{\ignorespaces Disconnected bump scan occupancy 0 pixel map of Goe4 taken in assembly site as Initial test. Many pixels in differential front-end are dead.\relax }}{61}{figure.caption.109}}
\newlabel{fig:discbump_goe4_initial}{{4.49}{61}{Disconnected bump scan occupancy 0 pixel map of Goe4 taken in assembly site as Initial test. Many pixels in differential front-end are dead.\relax }{figure.caption.109}{}}
\@writefile{toc}{\contentsline {subsubsection}{Overall results}{61}{section*.110}}
\newlabel{fig:digitalscan_aftercell_cern}{{4.50a}{63}{Assembled in CERN.\relax }{figure.caption.111}{}}
\newlabel{sub@fig:digitalscan_aftercell_cern}{{a}{63}{Assembled in CERN.\relax }{figure.caption.111}{}}
\newlabel{fig:digitalscan_aftercell_kek}{{4.50b}{63}{Assembled in KEK.\relax }{figure.caption.111}{}}
\newlabel{sub@fig:digitalscan_aftercell_kek}{{b}{63}{Assembled in KEK.\relax }{figure.caption.111}{}}
\newlabel{fig:digitalscan_aftercell_goe}{{4.50c}{63}{Assembled in Goettingen.\relax }{figure.caption.111}{}}
\newlabel{sub@fig:digitalscan_aftercell_goe}{{c}{63}{Assembled in Goettingen.\relax }{figure.caption.111}{}}
\newlabel{fig:digitalscan_aftercell_liv}{{4.50d}{63}{Assembled in Liverpool.\relax }{figure.caption.111}{}}
\newlabel{sub@fig:digitalscan_aftercell_liv}{{d}{63}{Assembled in Liverpool.\relax }{figure.caption.111}{}}
\newlabel{fig:digitalscan_aftercell_paris}{{4.50e}{63}{Assembled in Paris.\relax }{figure.caption.111}{}}
\newlabel{sub@fig:digitalscan_aftercell_paris}{{e}{63}{Assembled in Paris.\relax }{figure.caption.111}{}}
\newlabel{fig:digitalscan_aftercell_siegen}{{4.50f}{63}{Assembled in Siegen.\relax }{figure.caption.111}{}}
\newlabel{sub@fig:digitalscan_aftercell_siegen}{{f}{63}{Assembled in Siegen.\relax }{figure.caption.111}{}}
\@writefile{lof}{\contentsline {figure}{\numberline {4.50}{\ignorespaces The development of not good (occupancy $\not =$ 100) pixels in digital scan.\relax }}{63}{figure.caption.111}}
\newlabel{fig:digitalscan_aftercell}{{4.50}{63}{The development of not good (occupancy $\neq $ 100) pixels in digital scan.\relax }{figure.caption.111}{}}
\@writefile{lof}{\contentsline {figure}{\numberline {4.51}{\ignorespaces Digital occupancy map of SiegenQ4 at (left) initial test and (right) after cell loading.\relax }}{63}{figure.caption.112}}
\newlabel{fig:siegenq4_digitalmap}{{4.51}{63}{Digital occupancy map of SiegenQ4 at (left) initial test and (right) after cell loading.\relax }{figure.caption.112}{}}
\newlabel{subfig:analogscan_dead_aftercell_cern}{{4.52a}{64}{Dead pixels, Assembled in CERN.\relax }{figure.caption.113}{}}
\newlabel{sub@subfig:analogscan_dead_aftercell_cern}{{a}{64}{Dead pixels, Assembled in CERN.\relax }{figure.caption.113}{}}
\newlabel{subfig:analogscan_bad_aftercell_cern}{{4.52b}{64}{Bad pixels, Assembled in CERN.\relax }{figure.caption.113}{}}
\newlabel{sub@subfig:analogscan_bad_aftercell_cern}{{b}{64}{Bad pixels, Assembled in CERN.\relax }{figure.caption.113}{}}
\newlabel{subfig:analogscan_dead_aftercell_kek}{{4.52c}{64}{Dead pixels, Assembled in KEK.\relax }{figure.caption.113}{}}
\newlabel{sub@subfig:analogscan_dead_aftercell_kek}{{c}{64}{Dead pixels, Assembled in KEK.\relax }{figure.caption.113}{}}
\newlabel{subfig:analogscan_bad_aftercell_kek}{{4.52d}{64}{Bad pixels, Assembled in KEK.\relax }{figure.caption.113}{}}
\newlabel{sub@subfig:analogscan_bad_aftercell_kek}{{d}{64}{Bad pixels, Assembled in KEK.\relax }{figure.caption.113}{}}
\newlabel{subfig:analogscan_dead_aftercell_goe}{{4.52e}{64}{Dead pixels, Assembled in Goettingen.\relax }{figure.caption.113}{}}
\newlabel{sub@subfig:analogscan_dead_aftercell_goe}{{e}{64}{Dead pixels, Assembled in Goettingen.\relax }{figure.caption.113}{}}
\newlabel{subfig:analogscan_bad_aftercell_goe}{{4.52f}{64}{Bad pixels, Assembled in Goettingen.\relax }{figure.caption.113}{}}
\newlabel{sub@subfig:analogscan_bad_aftercell_goe}{{f}{64}{Bad pixels, Assembled in Goettingen.\relax }{figure.caption.113}{}}
\newlabel{subfig:analogscan_dead_aftercell_liv}{{4.52g}{65}{Dead pixels, Assembled in Liverpool.\relax }{figure.caption.114}{}}
\newlabel{sub@subfig:analogscan_dead_aftercell_liv}{{g}{65}{Dead pixels, Assembled in Liverpool.\relax }{figure.caption.114}{}}
\newlabel{subfig:analogscan_bad_aftercell_liv}{{4.52h}{65}{Bad pixels, Assembled in Liverpool.\relax }{figure.caption.114}{}}
\newlabel{sub@subfig:analogscan_bad_aftercell_liv}{{h}{65}{Bad pixels, Assembled in Liverpool.\relax }{figure.caption.114}{}}
\newlabel{subfig:analogscan_dead_aftercell_paris}{{4.52i}{65}{Dead pixels, Assembled in Paris.\relax }{figure.caption.114}{}}
\newlabel{sub@subfig:analogscan_dead_aftercell_paris}{{i}{65}{Dead pixels, Assembled in Paris.\relax }{figure.caption.114}{}}
\newlabel{subfig:analogscan_bad_aftercell_paris}{{4.52j}{65}{Bad pixels, Assembled in Paris.\relax }{figure.caption.114}{}}
\newlabel{sub@subfig:analogscan_bad_aftercell_paris}{{j}{65}{Bad pixels, Assembled in Paris.\relax }{figure.caption.114}{}}
\newlabel{subfig:analogscan_dead_aftercell_siegen}{{4.52k}{65}{Dead pixels, Assembled in Siegen.\relax }{figure.caption.114}{}}
\newlabel{sub@subfig:analogscan_dead_aftercell_siegen}{{k}{65}{Dead pixels, Assembled in Siegen.\relax }{figure.caption.114}{}}
\newlabel{subfig:analogscan_bad_aftercell_siegen}{{4.52l}{65}{Bad pixels, Assembled in Siegen.\relax }{figure.caption.114}{}}
\newlabel{sub@subfig:analogscan_bad_aftercell_siegen}{{l}{65}{Bad pixels, Assembled in Siegen.\relax }{figure.caption.114}{}}
\@writefile{lof}{\contentsline {figure}{\numberline {4.52}{\ignorespaces The development of bad, and dead pixels in Analog scan.\relax }}{65}{figure.caption.114}}
\newlabel{fig:analogscan_aftercell}{{4.52}{65}{The development of bad, and dead pixels in Analog scan.\relax }{figure.caption.114}{}}
\newlabel{subfig:threshold_aftercell_cern}{{4.53a}{66}{Threshold mean value, Assembled in CERN.\relax }{figure.caption.115}{}}
\newlabel{sub@subfig:threshold_aftercell_cern}{{a}{66}{Threshold mean value, Assembled in CERN.\relax }{figure.caption.115}{}}
\newlabel{subfig:noise_aftercell_cern}{{4.53b}{66}{Noise mean value, Assembled in CERN.\relax }{figure.caption.115}{}}
\newlabel{sub@subfig:noise_aftercell_cern}{{b}{66}{Noise mean value, Assembled in CERN.\relax }{figure.caption.115}{}}
\newlabel{subfig:threshold_aftercell_kek}{{4.53c}{66}{Threshold mean value, Assembled in KEK.\relax }{figure.caption.115}{}}
\newlabel{sub@subfig:threshold_aftercell_kek}{{c}{66}{Threshold mean value, Assembled in KEK.\relax }{figure.caption.115}{}}
\newlabel{subfig:noise_aftercell_kek}{{4.53d}{66}{Noise mean value, Assembled in KEK.\relax }{figure.caption.115}{}}
\newlabel{sub@subfig:noise_aftercell_kek}{{d}{66}{Noise mean value, Assembled in KEK.\relax }{figure.caption.115}{}}
\newlabel{subfig:threshold_aftercell_goe}{{4.53e}{66}{Threshold mean value, Assembled in Goettingen.\relax }{figure.caption.115}{}}
\newlabel{sub@subfig:threshold_aftercell_goe}{{e}{66}{Threshold mean value, Assembled in Goettingen.\relax }{figure.caption.115}{}}
\newlabel{subfig:noise_aftercell_goe}{{4.53f}{66}{Noise mean value, Assembled in Goettingen.\relax }{figure.caption.115}{}}
\newlabel{sub@subfig:noise_aftercell_goe}{{f}{66}{Noise mean value, Assembled in Goettingen.\relax }{figure.caption.115}{}}
\newlabel{subfig:threshold_aftercell_liv}{{4.53g}{67}{Threshold mean value, Assembled in Liverpool.\relax }{figure.caption.116}{}}
\newlabel{sub@subfig:threshold_aftercell_liv}{{g}{67}{Threshold mean value, Assembled in Liverpool.\relax }{figure.caption.116}{}}
\newlabel{subfig:noise_aftercell_liv}{{4.53h}{67}{Noise mean value, Assembled in Liverpool.\relax }{figure.caption.116}{}}
\newlabel{sub@subfig:noise_aftercell_liv}{{h}{67}{Noise mean value, Assembled in Liverpool.\relax }{figure.caption.116}{}}
\newlabel{subfig:threshold_aftercell_paris}{{4.53i}{67}{Threshold mean value, Assembled in Paris.\relax }{figure.caption.116}{}}
\newlabel{sub@subfig:threshold_aftercell_paris}{{i}{67}{Threshold mean value, Assembled in Paris.\relax }{figure.caption.116}{}}
\newlabel{subfig:noise_aftercell_paris}{{4.53j}{67}{Noise mean value, Assembled in Paris.\relax }{figure.caption.116}{}}
\newlabel{sub@subfig:noise_aftercell_paris}{{j}{67}{Noise mean value, Assembled in Paris.\relax }{figure.caption.116}{}}
\newlabel{subfig:threshold_aftercell_siegen}{{4.53k}{67}{Threshold mean value, Assembled in Siegen.\relax }{figure.caption.116}{}}
\newlabel{sub@subfig:threshold_aftercell_siegen}{{k}{67}{Threshold mean value, Assembled in Siegen.\relax }{figure.caption.116}{}}
\newlabel{subfig:noise_aftercell_siegen}{{4.53l}{67}{Noise mean value, Assembled in Siegen.\relax }{figure.caption.116}{}}
\newlabel{sub@subfig:noise_aftercell_siegen}{{l}{67}{Noise mean value, Assembled in Siegen.\relax }{figure.caption.116}{}}
\@writefile{lof}{\contentsline {figure}{\numberline {4.53}{\ignorespaces The development of threshold, and noise obtained from threshold scan.\relax }}{67}{figure.caption.116}}
\newlabel{fig:thresholdscan_aftercell}{{4.53}{67}{The development of threshold, and noise obtained from threshold scan.\relax }{figure.caption.116}{}}
\newlabel{fig:discbump_aftercell_cern}{{4.54a}{68}{Assembled in CERN.\relax }{figure.caption.117}{}}
\newlabel{sub@fig:discbump_aftercell_cern}{{a}{68}{Assembled in CERN.\relax }{figure.caption.117}{}}
\newlabel{fig:discbump_aftercell_kek}{{4.54b}{68}{Assembled in KEK.\relax }{figure.caption.117}{}}
\newlabel{sub@fig:discbump_aftercell_kek}{{b}{68}{Assembled in KEK.\relax }{figure.caption.117}{}}
\newlabel{fig:discbump_aftercell_goe}{{4.54c}{68}{Assembled in Goettingen.\relax }{figure.caption.117}{}}
\newlabel{sub@fig:discbump_aftercell_goe}{{c}{68}{Assembled in Goettingen.\relax }{figure.caption.117}{}}
\newlabel{fig:discbump_aftercell_liv}{{4.54d}{68}{Assembled in Liverpool.\relax }{figure.caption.117}{}}
\newlabel{sub@fig:discbump_aftercell_liv}{{d}{68}{Assembled in Liverpool.\relax }{figure.caption.117}{}}
\newlabel{fig:discbump_aftercell_paris}{{4.54e}{68}{Assembled in Paris.\relax }{figure.caption.117}{}}
\newlabel{sub@fig:discbump_aftercell_paris}{{e}{68}{Assembled in Paris.\relax }{figure.caption.117}{}}
\newlabel{fig:discbump_aftercell_siegen}{{4.54f}{68}{Assembled in Siegen.\relax }{figure.caption.117}{}}
\newlabel{sub@fig:discbump_aftercell_siegen}{{f}{68}{Assembled in Siegen.\relax }{figure.caption.117}{}}
\@writefile{lof}{\contentsline {figure}{\numberline {4.54}{\ignorespaces The development of dead pixels in disconnected bump scan.\relax }}{68}{figure.caption.117}}
\newlabel{fig:discbump_aftercell}{{4.54}{68}{The development of dead pixels in disconnected bump scan.\relax }{figure.caption.117}{}}
\@writefile{lof}{\contentsline {figure}{\numberline {4.55}{\ignorespaces Paris12 disconnected bump scan map.\relax }}{69}{figure.caption.118}}
\newlabel{fig:paris12_discbump}{{4.55}{69}{Paris12 disconnected bump scan map.\relax }{figure.caption.118}{}}
\@writefile{lof}{\contentsline {figure}{\numberline {4.56}{\ignorespaces KEKQ22 disconnected bump scan map.\relax }}{69}{figure.caption.118}}
\newlabel{fig:kekq22_discmap}{{4.56}{69}{KEKQ22 disconnected bump scan map.\relax }{figure.caption.118}{}}
\@writefile{toc}{\contentsline {subsubsection}{Thermal cycle}{69}{section*.119}}
\newlabel{fig:digitaldevelopment_dead_cern}{{4.57a}{70}{Number of dead pixels.\relax }{figure.caption.120}{}}
\newlabel{sub@fig:digitaldevelopment_dead_cern}{{a}{70}{Number of dead pixels.\relax }{figure.caption.120}{}}
\newlabel{fig:digitaldevelopment_bad_cern}{{4.57b}{70}{Number of bad pixels.\relax }{figure.caption.120}{}}
\newlabel{sub@fig:digitaldevelopment_bad_cern}{{b}{70}{Number of bad pixels.\relax }{figure.caption.120}{}}
\@writefile{lof}{\contentsline {figure}{\numberline {4.57}{\ignorespaces Number of (left) dead and (right) bad pixels obtained from digital scan. Modules are assembled at CERN.\relax }}{70}{figure.caption.120}}
\newlabel{fig:digitaldevelopment_cern}{{4.57}{70}{Number of (left) dead and (right) bad pixels obtained from digital scan. Modules are assembled at CERN.\relax }{figure.caption.120}{}}
\newlabel{fig:digitaldevelopment_dead_kek}{{4.58a}{70}{Number of dead pixels.\relax }{figure.caption.121}{}}
\newlabel{sub@fig:digitaldevelopment_dead_kek}{{a}{70}{Number of dead pixels.\relax }{figure.caption.121}{}}
\newlabel{fig:digitaldevelopment_bad_kek}{{4.58b}{70}{Number of bad pixels.\relax }{figure.caption.121}{}}
\newlabel{sub@fig:digitaldevelopment_bad_kek}{{b}{70}{Number of bad pixels.\relax }{figure.caption.121}{}}
\@writefile{lof}{\contentsline {figure}{\numberline {4.58}{\ignorespaces Number of (left) dead and (right) bad pixels obtained from digital scan. Modules are assembled at KEK.\relax }}{70}{figure.caption.121}}
\newlabel{fig:digitaldevelopment_kek}{{4.58}{70}{Number of (left) dead and (right) bad pixels obtained from digital scan. Modules are assembled at KEK.\relax }{figure.caption.121}{}}
\newlabel{fig:analogdevelopment_dead_cern}{{4.59a}{71}{Number of dead pixels.\relax }{figure.caption.122}{}}
\newlabel{sub@fig:analogdevelopment_dead_cern}{{a}{71}{Number of dead pixels.\relax }{figure.caption.122}{}}
\newlabel{fig:analogdevelopment_bad_cern}{{4.59b}{71}{Number of bad pixels.\relax }{figure.caption.122}{}}
\newlabel{sub@fig:analogdevelopment_bad_cern}{{b}{71}{Number of bad pixels.\relax }{figure.caption.122}{}}
\@writefile{lof}{\contentsline {figure}{\numberline {4.59}{\ignorespaces Number of (left) dead and (right) bad pixels obtained from analog scan. Modules are assembled at CERN.\relax }}{71}{figure.caption.122}}
\newlabel{fig:analogdevelopment_cern}{{4.59}{71}{Number of (left) dead and (right) bad pixels obtained from analog scan. Modules are assembled at CERN.\relax }{figure.caption.122}{}}
\newlabel{fig:analogdevelopment_dead_kek}{{4.60a}{71}{Number of dead pixels.\relax }{figure.caption.123}{}}
\newlabel{sub@fig:analogdevelopment_dead_kek}{{a}{71}{Number of dead pixels.\relax }{figure.caption.123}{}}
\newlabel{fig:analogdevelopment_bad_kek}{{4.60b}{71}{Number of bad pixels.\relax }{figure.caption.123}{}}
\newlabel{sub@fig:analogdevelopment_bad_kek}{{b}{71}{Number of bad pixels.\relax }{figure.caption.123}{}}
\@writefile{lof}{\contentsline {figure}{\numberline {4.60}{\ignorespaces Number of (left) dead and (right) bad pixels obtained from analog scan. Modules are assembled at KEK.\relax }}{71}{figure.caption.123}}
\newlabel{fig:analogdevelopment_kek}{{4.60}{71}{Number of (left) dead and (right) bad pixels obtained from analog scan. Modules are assembled at KEK.\relax }{figure.caption.123}{}}
\newlabel{fig:thresholddevelopment_cern}{{4.61a}{72}{Threshold mean values.\relax }{figure.caption.124}{}}
\newlabel{sub@fig:thresholddevelopment_cern}{{a}{72}{Threshold mean values.\relax }{figure.caption.124}{}}
\newlabel{fig:noisedevelopment_cern}{{4.61b}{72}{ENC noises\relax }{figure.caption.124}{}}
\newlabel{sub@fig:noisedevelopment_cern}{{b}{72}{ENC noises\relax }{figure.caption.124}{}}
\@writefile{lof}{\contentsline {figure}{\numberline {4.61}{\ignorespaces (Left) threshold mean value and (right) noise from threshold scan. Modules are assembled at CERN.\relax }}{72}{figure.caption.124}}
\newlabel{fig:THscandevelopment_cern}{{4.61}{72}{(Left) threshold mean value and (right) noise from threshold scan. Modules are assembled at CERN.\relax }{figure.caption.124}{}}
\newlabel{fig:thresholddevelopment_kek}{{4.62a}{72}{Threshold mean values.\relax }{figure.caption.125}{}}
\newlabel{sub@fig:thresholddevelopment_kek}{{a}{72}{Threshold mean values.\relax }{figure.caption.125}{}}
\newlabel{fig:noisedevelopment_kek}{{4.62b}{72}{ENC noises\relax }{figure.caption.125}{}}
\newlabel{sub@fig:noisedevelopment_kek}{{b}{72}{ENC noises\relax }{figure.caption.125}{}}
\@writefile{lof}{\contentsline {figure}{\numberline {4.62}{\ignorespaces (Left) threshold mean value and (right) noise from threshold scan. Modules are assembled at KEK.\relax }}{72}{figure.caption.125}}
\newlabel{fig:THscandevelopment_kek}{{4.62}{72}{(Left) threshold mean value and (right) noise from threshold scan. Modules are assembled at KEK.\relax }{figure.caption.125}{}}
\@writefile{lof}{\contentsline {figure}{\numberline {4.63}{\ignorespaces Development of number of occupancy 0 pixels per module obtained from disconnected bump scan. All modules at 50 cycles and the CERNQ3 and CERNQ7 at 100 cycles are measured at cold temperatures. All others are measured at warm temperatures.\relax }}{73}{figure.caption.126}}
\newlabel{fig:discbump_tcmodule}{{4.63}{73}{Development of number of occupancy 0 pixels per module obtained from disconnected bump scan. All modules at 50 cycles and the CERNQ3 and CERNQ7 at 100 cycles are measured at cold temperatures. All others are measured at warm temperatures.\relax }{figure.caption.126}{}}
\newlabel{fig:discbump_CERNQ3_before}{{\caption@xref {fig:discbump_CERNQ3_before}{ on input line 2121}}{73}{Thermal cycle}{figure.caption.127}{}}
\newlabel{fig:discbump_CERNQ3_50cycle}{{\caption@xref {fig:discbump_CERNQ3_50cycle}{ on input line 2127}}{73}{Thermal cycle}{figure.caption.127}{}}
\@writefile{lof}{\contentsline {figure}{\numberline {4.64}{\ignorespaces The maps of 0 occupancy pixel of disconnected bump scan at (left) 75 and (right) 100 cycles.\relax }}{73}{figure.caption.127}}
\newlabel{fig:discbump_CERNQ3_compare}{{4.64}{73}{The maps of 0 occupancy pixel of disconnected bump scan at (left) 75 and (right) 100 cycles.\relax }{figure.caption.127}{}}
\@writefile{toc}{\contentsline {section}{\numberline {4.5}Summary}{74}{section.4.5}}
\@setckpt{Chapters/4-AfterLoading}{
\setcounter{page}{75}
\setcounter{equation}{6}
\setcounter{enumi}{5}
\setcounter{enumii}{0}
\setcounter{enumiii}{0}
\setcounter{enumiv}{0}
\setcounter{footnote}{0}
\setcounter{mpfootnote}{0}
\setcounter{part}{0}
\setcounter{chapter}{4}
\setcounter{section}{5}
\setcounter{subsection}{0}
\setcounter{subsubsection}{0}
\setcounter{paragraph}{0}
\setcounter{subparagraph}{0}
\setcounter{figure}{64}
\setcounter{table}{6}
\setcounter{Maxaffil}{2}
\setcounter{authors}{0}
\setcounter{affil}{0}
\setcounter{parentequation}{0}
\setcounter{Item}{18}
\setcounter{Hfootnote}{0}
\setcounter{Hy@AnnotLevel}{0}
\setcounter{bookmark@seq@number}{25}
\setcounter{float@type}{4}
\setcounter{linenumber}{1}
\setcounter{LN@truepage}{75}
\setcounter{ContinuedFloat}{0}
\setcounter{subfigure}{0}
\setcounter{subtable}{0}
\setcounter{section@level}{1}
}
