\relax 
\@writefile{toc}{\contentsline {chapter}{\numberline {5}Measurement after Pigtail connection}{69}}
\@writefile{lof}{\addvspace {10\p@ }}
\@writefile{lot}{\addvspace {10\p@ }}
\newlabel{chap:pigtail}{{5}{69}}
\@writefile{toc}{\contentsline {section}{\numberline {5.1}Type-0 Pigtail}{69}}
\newlabel{sect:type0}{{5.1}{69}}
\@writefile{toc}{\contentsline {subsection}{\numberline {5.1.1}Local support}{69}}
\@writefile{toc}{\contentsline {subsection}{\numberline {5.1.2}Type-0 pigtail}{69}}
\newlabel{fig:IHR_modules_a}{{5.1a}{70}}
\newlabel{sub@fig:IHR_modules_a}{{a}{70}}
\newlabel{fig:IHR_modules_b}{{5.1b}{70}}
\newlabel{sub@fig:IHR_modules_b}{{b}{70}}
\@writefile{lof}{\contentsline {figure}{\numberline {5.1}{\ignorespaces The design of the IHR. 11 modules are on the single IHR, five are front side and six are back side.\relax }}{70}}
\newlabel{fig:IHR_modules}{{5.1}{70}}
\@writefile{lof}{\contentsline {figure}{\numberline {5.2}{\ignorespaces The module positions of the longeron. Two lanes are on the single longeron and two modules are partially overlapped. The longeron is symmetric with respect to the interaction point. Center part, A-SP-1 and C-SP-1, and edge parts, A-SP-2 and C-SP-2, are separated and they are called M6 and M12.\relax }}{70}}
\newlabel{fig:Longeron_modules}{{5.2}{70}}
\@writefile{toc}{\contentsline {section}{\numberline {5.2}Pigtail connection}{70}}
\newlabel{sect:pigtail_connection}{{5.2}{70}}
\@writefile{toc}{\contentsline {subsection}{\numberline {5.2.1}Setup}{70}}
\newlabel{sect:pigtail_setup}{{5.2.1}{70}}
\@writefile{toc}{\contentsline {subsubsection}{Jig}{70}}
\citation{mpi}
\newlabel{fig:connecting_front_jig_a}{{5.3a}{71}}
\newlabel{sub@fig:connecting_front_jig_a}{{a}{71}}
\newlabel{fig:connecting_front_jig_b}{{5.3b}{71}}
\newlabel{sub@fig:connecting_front_jig_b}{{b}{71}}
\@writefile{lof}{\contentsline {figure}{\numberline {5.3}{\ignorespaces The connecting jig for front pigtail.\relax }}{71}}
\newlabel{fig:connecting_front_jig}{{5.3}{71}}
\newlabel{fig:connecting_back_jig_a}{{5.4a}{71}}
\newlabel{sub@fig:connecting_back_jig_a}{{a}{71}}
\newlabel{fig:connecting_back_jig_b}{{5.4b}{71}}
\newlabel{sub@fig:connecting_back_jig_b}{{b}{71}}
\@writefile{lof}{\contentsline {figure}{\numberline {5.4}{\ignorespaces The connecting jig for back pigtail.\relax }}{71}}
\newlabel{fig:connecting_back_jig}{{5.4}{71}}
\@writefile{toc}{\contentsline {subsubsection}{Cooling}{71}}
\@writefile{toc}{\contentsline {subsubsection}{Power and data connection}{71}}
\citation{moduletesting}
\citation{RandS}
\@writefile{lof}{\contentsline {figure}{\numberline {5.5}{\ignorespaces The tilted jig for screwing. Cell loaded module is vacuum fixed, thus the module will not fall down from the jig.\relax }}{72}}
\newlabel{fig:thermalmachine}{{5.5}{72}}
\@writefile{toc}{\contentsline {subsubsection}{DAQ}{72}}
\@writefile{toc}{\contentsline {subsubsection}{Power supplies}{72}}
\@writefile{lof}{\contentsline {figure}{\numberline {5.6}{\ignorespaces TA-5000A thermal focsuing machine. Removed the box at the end of the arm and inserted the nozzle to the cooling chamber.\relax }}{73}}
\newlabel{fig:thermalmachine}{{5.6}{73}}
\@writefile{toc}{\contentsline {section}{\numberline {5.3}Measurement}{73}}
\newlabel{sect:pigtail_measurement}{{5.3}{73}}
\newlabel{fig:frontadapter}{{5.7a}{74}}
\newlabel{sub@fig:frontadapter}{{a}{74}}
\newlabel{fig:backadapter}{{5.7b}{74}}
\newlabel{sub@fig:backadapter}{{b}{74}}
\@writefile{lof}{\contentsline {figure}{\numberline {5.7}{\ignorespaces (a)Front adapter card and (b) Back adapter card. The Z-Ray adapter is inverted.\relax }}{74}}
\newlabel{fig:adaptercard}{{5.7}{74}}
\@writefile{toc}{\contentsline {subsection}{\numberline {5.3.1}Measurement}{74}}
\@writefile{lof}{\contentsline {figure}{\numberline {5.8}{\ignorespaces Interposer for front pigtail.\relax }}{75}}
\newlabel{fig:frontinterposer}{{5.8}{75}}
\@writefile{lof}{\contentsline {figure}{\numberline {5.9}{\ignorespaces Interposer for back pigtail.\relax }}{75}}
\newlabel{fig:backinterposer}{{5.9}{75}}
\@writefile{lof}{\contentsline {figure}{\numberline {5.10}{\ignorespaces Lane adjuster, modify the data lane. Connect the DP-mini DP cables to both side of the board.\relax }}{75}}
\newlabel{fig:laneadjuster}{{5.10}{75}}
\@writefile{toc}{\contentsline {subsection}{\numberline {5.3.2}After the measurement}{75}}
\@writefile{toc}{\contentsline {section}{\numberline {5.4}Scan result}{75}}
\@writefile{toc}{\contentsline {subsection}{\numberline {5.4.1}Comparison between pigtails}{75}}
\@writefile{lof}{\contentsline {figure}{\numberline {5.11}{\ignorespaces R$\&$S HMP4040 power supply.\relax }}{76}}
\newlabel{fig:hmp4040}{{5.11}{76}}
\@writefile{lot}{\contentsline {table}{\numberline {5.1}{\ignorespaces The type of pigtails and test setup\relax }}{76}}
\newlabel{table:pigtailtype}{{5.1}{76}}
\@writefile{toc}{\contentsline {subsubsection}{Connection check}{76}}
\@writefile{lot}{\contentsline {table}{\numberline {5.2}{\ignorespaces The temperature and voltage of each pigtail.\relax }}{76}}
\newlabel{table:pigtail_connection}{{5.2}{76}}
\@writefile{toc}{\contentsline {subsubsection}{IV scan}{76}}
\@writefile{toc}{\contentsline {subsubsection}{Digital scan}{76}}
\@writefile{toc}{\contentsline {subsubsection}{Analog scan}{77}}
\@writefile{toc}{\contentsline {subsubsection}{Threshold scan}{77}}
\@writefile{toc}{\contentsline {subsubsection}{Disconnected bump scan}{77}}
\@writefile{toc}{\contentsline {subsubsection}{Conclusion of comparison between pigtails}{77}}
\@writefile{toc}{\contentsline {subsection}{\numberline {5.4.2}Powering}{77}}
\@writefile{toc}{\contentsline {subsection}{\numberline {5.4.3}Electrical scan}{77}}
\@writefile{toc}{\contentsline {section}{\numberline {5.5}Sumary}{78}}
\newlabel{fig:iv_cern10_stage1}{{5.12a}{79}}
\newlabel{sub@fig:iv_cern10_stage1}{{a}{79}}
\newlabel{fig:iv_cern10_stage2}{{5.12b}{79}}
\newlabel{sub@fig:iv_cern10_stage2}{{b}{79}}
\newlabel{fig:iv_cern10_stage3}{{5.12c}{79}}
\newlabel{sub@fig:iv_cern10_stage3}{{c}{79}}
\newlabel{fig:iv_cern10_stage4}{{5.12d}{79}}
\newlabel{sub@fig:iv_cern10_stage4}{{d}{79}}
\newlabel{fig:iv_cern10_comp}{{5.12e}{79}}
\newlabel{sub@fig:iv_cern10_comp}{{e}{79}}
\@writefile{lof}{\contentsline {figure}{\numberline {5.12}{\ignorespaces The IV scans taken with several pigtail connection. The leakage current was corrected at 20\nobreakspace  {}$^{\circ }$C\relax }}{79}}
\newlabel{fig:iv_comparison_pigatail}{{5.12}{79}}
\newlabel{fig:digital_comparison_stage1}{{5.13a}{80}}
\newlabel{sub@fig:digital_comparison_stage1}{{a}{80}}
\newlabel{fig:digital_comparison_stage2}{{5.13b}{80}}
\newlabel{sub@fig:digital_comparison_stage2}{{b}{80}}
\newlabel{fig:digital_comparison_stage3}{{5.13c}{80}}
\newlabel{sub@fig:digital_comparison_stage3}{{c}{80}}
\newlabel{fig:digital_comparison_stage4}{{5.13d}{80}}
\newlabel{sub@fig:digital_comparison_stage4}{{d}{80}}
\@writefile{lof}{\contentsline {figure}{\numberline {5.13}{\ignorespaces The Digital occupancy maps of CERNQ10 module taken with several types of pigtail.\relax }}{80}}
\newlabel{fig:digital_comparison_pigatail}{{5.13}{80}}
\newlabel{fig:analog_comparison_stage1}{{5.14a}{81}}
\newlabel{sub@fig:analog_comparison_stage1}{{a}{81}}
\newlabel{fig:analog_comparison_stage2}{{5.14b}{81}}
\newlabel{sub@fig:analog_comparison_stage2}{{b}{81}}
\newlabel{fig:analog_comparison_stage3}{{5.14c}{81}}
\newlabel{sub@fig:analog_comparison_stage3}{{c}{81}}
\newlabel{fig:analog_comparison_stage4}{{5.14d}{81}}
\newlabel{sub@fig:analog_comparison_stage4}{{d}{81}}
\@writefile{lof}{\contentsline {figure}{\numberline {5.14}{\ignorespaces The Analog occupancy maps of CERNQ10 module taken with several types of pigtail.\relax }}{81}}
\newlabel{fig:analog_comparison_pigatail}{{5.14}{81}}
\newlabel{fig:thre_comp_thre_sync}{{5.15a}{81}}
\newlabel{sub@fig:thre_comp_thre_sync}{{a}{81}}
\newlabel{fig:thre_comp_thre_lin}{{5.15b}{81}}
\newlabel{sub@fig:thre_comp_thre_lin}{{b}{81}}
\newlabel{fig:thre_comp_thre_diff}{{5.15c}{81}}
\newlabel{sub@fig:thre_comp_thre_diff}{{c}{81}}
\@writefile{lof}{\contentsline {figure}{\numberline {5.15}{\ignorespaces The threshold distribution of CERNQ10 taken with each pigtail taken with several types of pigtail.\relax }}{81}}
\newlabel{fig:thre_comparison_pigatail}{{5.15}{81}}
\newlabel{fig:thre_comp_noise_sync}{{5.16a}{82}}
\newlabel{sub@fig:thre_comp_noise_sync}{{a}{82}}
\newlabel{fig:thre_comp_noise_lin}{{5.16b}{82}}
\newlabel{sub@fig:thre_comp_noise_lin}{{b}{82}}
\newlabel{fig:thre_comp_noise_diff}{{5.16c}{82}}
\newlabel{sub@fig:thre_comp_noise_diff}{{c}{82}}
\@writefile{lof}{\contentsline {figure}{\numberline {5.16}{\ignorespaces The noise distribution of CERNQ10 taken with each pigtail taken with several types of pigtail.\relax }}{82}}
\newlabel{fig:thre_comparison_pigatail}{{5.16}{82}}
\newlabel{fig:discbump_comparison_stage1}{{5.17a}{82}}
\newlabel{sub@fig:discbump_comparison_stage1}{{a}{82}}
\newlabel{fig:discbump_comparison_stage2}{{5.17b}{82}}
\newlabel{sub@fig:discbump_comparison_stage2}{{b}{82}}
\newlabel{fig:discbump_comparison_stage3}{{5.17c}{82}}
\newlabel{sub@fig:discbump_comparison_stage3}{{c}{82}}
\newlabel{fig:discbump_comparison_stage4}{{5.17d}{82}}
\newlabel{sub@fig:discbump_comparison_stage4}{{d}{82}}
\@writefile{lof}{\contentsline {figure}{\numberline {5.17}{\ignorespaces The Disconnected bump occupancy maps of CERNQ10 module taken with several types of pigtail.\relax }}{82}}
\newlabel{fig:discbump_comparison_pigatail}{{5.17}{82}}
\newlabel{fig:lv_voltage_a}{{5.18a}{83}}
\newlabel{sub@fig:lv_voltage_a}{{a}{83}}
\newlabel{fig:lv_voltage_b}{{5.18b}{83}}
\newlabel{sub@fig:lv_voltage_b}{{b}{83}}
\@writefile{lof}{\contentsline {figure}{\numberline {5.18}{\ignorespaces The LV voltages. Power the module in constant current at 4.6\nobreakspace  {}A.\relax }}{83}}
\newlabel{fig:lv_voltage}{{5.18}{83}}
\newlabel{fig:comparison_frontpigtail_threshold_syn}{{5.19a}{84}}
\newlabel{sub@fig:comparison_frontpigtail_threshold_syn}{{a}{84}}
\newlabel{fig:comparison_frontpigtail_noise_syn}{{5.19b}{84}}
\newlabel{sub@fig:comparison_frontpigtail_noise_syn}{{b}{84}}
\newlabel{fig:comparison_frontpigtail_threshold_lin}{{5.19c}{84}}
\newlabel{sub@fig:comparison_frontpigtail_threshold_lin}{{c}{84}}
\newlabel{fig:comparison_frontpigtail_noise_lin}{{5.19d}{84}}
\newlabel{sub@fig:comparison_frontpigtail_noise_lin}{{d}{84}}
\newlabel{fig:comparison_frontpigtail_threshold_diff}{{5.19e}{84}}
\newlabel{sub@fig:comparison_frontpigtail_threshold_diff}{{e}{84}}
\newlabel{fig:comparison_frontpigtail_noise_diff}{{5.19f}{84}}
\newlabel{sub@fig:comparison_frontpigtail_noise_diff}{{f}{84}}
\@writefile{lof}{\contentsline {figure}{\numberline {5.19}{\ignorespaces The evolution of threshold and noise means for modules with front pigtail connections is depicted in Figures (a) and (b) for Sync. FE, Figures (c) and (d) for Lin. FE, and Figures (e) and (f) for Diff. FE. In (a), (c), and (e), the plots represent the mean threshold, while in (b), (d), and (f), they illustrate the mean noise.\relax }}{84}}
\@setckpt{Chapters/4-PigtailAssembly}{
\setcounter{page}{85}
\setcounter{equation}{0}
\setcounter{enumi}{2}
\setcounter{enumii}{0}
\setcounter{enumiii}{0}
\setcounter{enumiv}{0}
\setcounter{footnote}{0}
\setcounter{mpfootnote}{0}
\setcounter{part}{0}
\setcounter{chapter}{5}
\setcounter{section}{5}
\setcounter{subsection}{0}
\setcounter{subsubsection}{0}
\setcounter{paragraph}{0}
\setcounter{subparagraph}{0}
\setcounter{figure}{19}
\setcounter{table}{2}
\setcounter{Maxaffil}{2}
\setcounter{authors}{0}
\setcounter{affil}{0}
\setcounter{parentequation}{0}
\setcounter{float@type}{4}
\setcounter{linenumber}{1586}
\setcounter{LN@truepage}{85}
\setcounter{ContinuedFloat}{0}
\setcounter{subfigure}{6}
\setcounter{subtable}{0}
}
