\relax 
\@writefile{toc}{\contentsline {chapter}{\numberline {6}Measurement after integration on Local Support}{85}}
\@writefile{lof}{\addvspace {10\p@ }}
\@writefile{lot}{\addvspace {10\p@ }}
\newlabel{chap:start}{{6}{85}}
\@writefile{toc}{\contentsline {section}{\numberline {6.1}Local support}{85}}
\newlabel{section:LS_localsupport}{{6.1}{85}}
\@writefile{toc}{\contentsline {subsection}{\numberline {6.1.1}Longeron}{85}}
\@writefile{lof}{\contentsline {figure}{\numberline {6.1}{\ignorespaces The design of Longeron.\relax }}{85}}
\newlabel{fig:longeron_design}{{6.1}{85}}
\@writefile{lot}{\contentsline {table}{\numberline {6.1}{\ignorespaces Modules on the Longeron (M6)\relax }}{85}}
\newlabel{table:modules_m6}{{6.1}{85}}
\@writefile{lot}{\contentsline {table}{\numberline {6.2}{\ignorespaces Modules on the Longeron (M12)\relax }}{86}}
\newlabel{table:modules_m12}{{6.2}{86}}
\@writefile{toc}{\contentsline {subsection}{\numberline {6.1.2}Inclined Half Ring}{86}}
\@writefile{lof}{\contentsline {figure}{\numberline {6.2}{\ignorespaces The design of Inner Half Ring.\relax }}{86}}
\newlabel{fig:ihr_design}{{6.2}{86}}
\@writefile{toc}{\contentsline {section}{\numberline {6.2}Setup up in SR1}{86}}
\@writefile{toc}{\contentsline {subsection}{\numberline {6.2.1}Environmental box}{86}}
\@writefile{toc}{\contentsline {subsection}{\numberline {6.2.2}Powering}{86}}
\@writefile{lot}{\contentsline {table}{\numberline {6.3}{\ignorespaces Modules on the Inner Half Ring\relax }}{87}}
\newlabel{table:modules_ihr}{{6.3}{87}}
\@writefile{lof}{\contentsline {figure}{\numberline {6.3}{\ignorespaces CSB board.\relax }}{87}}
\newlabel{fig:csbboard}{{6.3}{87}}
\@writefile{toc}{\contentsline {subsubsection}{Low voltage}{87}}
\@writefile{toc}{\contentsline {subsubsection}{High voltage}{87}}
\@writefile{lof}{\contentsline {figure}{\numberline {6.4}{\ignorespaces Serial powering.\relax }}{88}}
\newlabel{fig:serialpowering}{{6.4}{88}}
\@writefile{toc}{\contentsline {subsection}{\numberline {6.2.3}Readout System}{88}}
\@writefile{toc}{\contentsline {subsubsection}{Connection}{88}}
\@writefile{toc}{\contentsline {subsubsection}{felix sw}{88}}
\@writefile{toc}{\contentsline {subsubsection}{YARR (Default)}{88}}
\@writefile{toc}{\contentsline {subsubsection}{YARR (modified)}{88}}
\@writefile{lot}{\contentsline {table}{\numberline {6.4}{\ignorespaces Duration times of scans on IHR by software\relax }}{88}}
\newlabel{table:duration}{{6.4}{88}}
\@writefile{toc}{\contentsline {subsection}{\numberline {6.2.4}Cooling}{89}}
\@writefile{toc}{\contentsline {subsection}{\numberline {6.2.5}Interlock}{89}}
\@writefile{toc}{\contentsline {section}{\numberline {6.3}Electrical performance}{89}}
\@writefile{toc}{\contentsline {subsection}{\numberline {6.3.1}local support stand alone test}{89}}
\@writefile{toc}{\contentsline {subsection}{\numberline {6.3.2}IV scan}{89}}
\@writefile{toc}{\contentsline {section}{\numberline {6.4}Thermal performance}{89}}
\newlabel{fig:ihrch1_iv}{{6.5a}{90}}
\newlabel{sub@fig:ihrch1_iv}{{a}{90}}
\newlabel{fig:ihrch2_iv}{{6.5b}{90}}
\newlabel{sub@fig:ihrch2_iv}{{b}{90}}
\newlabel{fig:m6ch1_iv}{{6.5c}{90}}
\newlabel{sub@fig:m6ch1_iv}{{c}{90}}
\newlabel{fig:m6ch2_iv}{{6.5d}{90}}
\newlabel{sub@fig:m6ch2_iv}{{d}{90}}
\newlabel{fig:m12ch1_iv}{{6.5e}{90}}
\newlabel{sub@fig:m12ch1_iv}{{e}{90}}
\newlabel{fig:m12ch2_iv}{{6.5f}{90}}
\newlabel{sub@fig:m12ch2_iv}{{f}{90}}
\@writefile{lof}{\contentsline {figure}{\numberline {6.5}{\ignorespaces The sum of the leakage current of the modules connected to each channel. The histograms are leakage current at single module testing. Temperature is normalized to the module temperature integrated on the local support.\relax }}{90}}
\newlabel{fig:localsupport_iv}{{6.5}{90}}
\@setckpt{Chapters/5-LocalSupportTest}{
\setcounter{page}{91}
\setcounter{equation}{0}
\setcounter{enumi}{2}
\setcounter{enumii}{0}
\setcounter{enumiii}{0}
\setcounter{enumiv}{0}
\setcounter{footnote}{0}
\setcounter{mpfootnote}{0}
\setcounter{part}{0}
\setcounter{chapter}{6}
\setcounter{section}{4}
\setcounter{subsection}{0}
\setcounter{subsubsection}{0}
\setcounter{paragraph}{0}
\setcounter{subparagraph}{0}
\setcounter{figure}{5}
\setcounter{table}{4}
\setcounter{Maxaffil}{2}
\setcounter{authors}{0}
\setcounter{affil}{0}
\setcounter{parentequation}{0}
\setcounter{float@type}{4}
\setcounter{linenumber}{1627}
\setcounter{LN@truepage}{91}
\setcounter{ContinuedFloat}{0}
\setcounter{subfigure}{6}
\setcounter{subtable}{0}
}
