\relax 
\providecommand\hyper@newdestlabel[2]{}
\@writefile{toc}{\contentsline {chapter}{\numberline {5}Measurement after Pigtail connection}{93}{chapter.5}\protected@file@percent }
\@writefile{lof}{\addvspace {10\p@ }}
\@writefile{lot}{\addvspace {10\p@ }}
\newlabel{chap:pigtail}{{5}{93}{Measurement after Pigtail connection}{chapter.5}{}}
\@writefile{toc}{\contentsline {section}{\numberline {5.1}Type-0 Pigtail and Local support}{93}{section.5.1}\protected@file@percent }
\newlabel{sect:type0}{{5.1}{93}{Type-0 Pigtail and Local support}{section.5.1}{}}
\@writefile{toc}{\contentsline {section}{\numberline {5.2}Pigtail connection and measurement setup}{94}{section.5.2}\protected@file@percent }
\newlabel{sect:pigtail_connection}{{5.2}{94}{Pigtail connection and measurement setup}{section.5.2}{}}
\@writefile{lof}{\contentsline {figure}{\numberline {5.1}{\ignorespaces The measurement setup for module with Type-0 pigtail}}{94}{figure.caption.181}\protected@file@percent }
\newlabel{fig:pigtailconnection}{{5.1}{94}{The measurement setup for module with Type-0 pigtail}{figure.caption.181}{}}
\@writefile{toc}{\contentsline {subsection}{\numberline {5.2.1}Power and data connection}{94}{subsection.5.2.1}\protected@file@percent }
\newlabel{sect:pigtail_lane}{{5.2.1}{94}{Power and data connection}{subsection.5.2.1}{}}
\newlabel{fig:frontadapter}{{5.2a}{95}{The adapter card for front pigtail (top and bottom side are shown)}{figure.caption.182}{}}
\newlabel{sub@fig:frontadapter}{{a}{95}{The adapter card for front pigtail (top and bottom side are shown)}{figure.caption.182}{}}
\newlabel{fig:backadapter}{{5.2b}{95}{The adapter card for back pigtail (top and bottom side are shown)}{figure.caption.182}{}}
\newlabel{sub@fig:backadapter}{{b}{95}{The adapter card for back pigtail (top and bottom side are shown)}{figure.caption.182}{}}
\@writefile{lof}{\contentsline {figure}{\numberline {5.2}{\ignorespaces The adapter cards for Front and Back pigtail}}{95}{figure.caption.182}\protected@file@percent }
\newlabel{fig:adaptercard}{{5.2}{95}{The adapter cards for Front and Back pigtail}{figure.caption.182}{}}
\@writefile{lof}{\contentsline {figure}{\numberline {5.3}{\ignorespaces Layout of the interposer for front and back pigtails}}{95}{figure.caption.183}\protected@file@percent }
\newlabel{fig:layoutinterposer}{{5.3}{95}{Layout of the interposer for front and back pigtails}{figure.caption.183}{}}
\@writefile{lof}{\contentsline {figure}{\numberline {5.4}{\ignorespaces Lane adjuster, which rearranges the data lanes for the RD53A quad module}}{96}{figure.caption.184}\protected@file@percent }
\newlabel{fig:laneadjuster}{{5.4}{96}{Lane adjuster, which rearranges the data lanes for the RD53A quad module}{figure.caption.184}{}}
\@writefile{toc}{\contentsline {subsection}{\numberline {5.2.2}Jig}{96}{subsection.5.2.2}\protected@file@percent }
\@writefile{lof}{\contentsline {figure}{\numberline {5.5}{\ignorespaces The connecting jig for Flat top pigtails}}{96}{figure.caption.185}\protected@file@percent }
\newlabel{fig:connecting_top_jig}{{5.5}{96}{The connecting jig for Flat top pigtails}{figure.caption.185}{}}
\@writefile{lof}{\contentsline {figure}{\numberline {5.6}{\ignorespaces The connecting jig for Flat bottom pigtails}}{96}{figure.caption.186}\protected@file@percent }
\newlabel{fig:connecting_bottom_jig}{{5.6}{96}{The connecting jig for Flat bottom pigtails}{figure.caption.186}{}}
\citation{mpi}
\@writefile{lof}{\contentsline {figure}{\numberline {5.7}{\ignorespaces The connecting jig for front pigtails}}{97}{figure.caption.187}\protected@file@percent }
\newlabel{fig:connecting_front_jig}{{5.7}{97}{The connecting jig for front pigtails}{figure.caption.187}{}}
\@writefile{lof}{\contentsline {figure}{\numberline {5.8}{\ignorespaces The connecting jig for back pigtails}}{97}{figure.caption.188}\protected@file@percent }
\newlabel{fig:connecting_back_jig}{{5.8}{97}{The connecting jig for back pigtails}{figure.caption.188}{}}
\@writefile{toc}{\contentsline {subsection}{\numberline {5.2.3}Cooling}{97}{subsection.5.2.3}\protected@file@percent }
\@writefile{lof}{\contentsline {figure}{\numberline {5.9}{\ignorespaces The tilted jig for screwing}}{98}{figure.caption.189}\protected@file@percent }
\newlabel{fig:tiltedjig}{{5.9}{98}{The tilted jig for screwing}{figure.caption.189}{}}
\@writefile{lof}{\contentsline {figure}{\numberline {5.10}{\ignorespaces TA-5000A thermal forcing machine}}{98}{figure.caption.190}\protected@file@percent }
\newlabel{fig:thermalmachine}{{5.10}{98}{TA-5000A thermal forcing machine}{figure.caption.190}{}}
\citation{moduletesting}
\citation{RandS}
\@writefile{toc}{\contentsline {subsection}{\numberline {5.2.4}DAQ}{99}{subsection.5.2.4}\protected@file@percent }
\@writefile{lot}{\contentsline {table}{\numberline {5.1}{\ignorespaces Parameters in connectivity configuration file}}{99}{table.caption.191}\protected@file@percent }
\newlabel{table:connectivityfile}{{5.1}{99}{Parameters in connectivity configuration file}{table.caption.191}{}}
\@writefile{toc}{\contentsline {subsection}{\numberline {5.2.5}Power supply system}{99}{subsection.5.2.5}\protected@file@percent }
\@writefile{lof}{\contentsline {figure}{\numberline {5.11}{\ignorespaces R$\&$S HMP4040 power supply}}{99}{figure.caption.192}\protected@file@percent }
\newlabel{fig:hmp4040}{{5.11}{99}{R$\&$S HMP4040 power supply}{figure.caption.192}{}}
\@writefile{toc}{\contentsline {section}{\numberline {5.3}Measurement}{100}{section.5.3}\protected@file@percent }
\newlabel{sect:pigtail_measurement}{{5.3}{100}{Measurement}{section.5.3}{}}
\@writefile{toc}{\contentsline {subsection}{\numberline {5.3.1}Pigtail assembly}{100}{subsection.5.3.1}\protected@file@percent }
\@writefile{toc}{\contentsline {subsection}{\numberline {5.3.2}Performing the measurement}{100}{subsection.5.3.2}\protected@file@percent }
\@writefile{toc}{\contentsline {subsection}{\numberline {5.3.3}After the measurement}{101}{subsection.5.3.3}\protected@file@percent }
\@writefile{toc}{\contentsline {section}{\numberline {5.4}Results of pigtail study}{101}{section.5.4}\protected@file@percent }
\@writefile{toc}{\contentsline {subsection}{\numberline {5.4.1}Comparison between pigtail types}{101}{subsection.5.4.1}\protected@file@percent }
\newlabel{sect:comparisonpigtails}{{5.4.1}{101}{Comparison between pigtail types}{subsection.5.4.1}{}}
\@writefile{lot}{\contentsline {table}{\numberline {5.2}{\ignorespaces Pigtail type and measurement condition}}{101}{table.caption.193}\protected@file@percent }
\newlabel{table:pigtailtype}{{5.2}{101}{Pigtail type and measurement condition}{table.caption.193}{}}
\@writefile{toc}{\contentsline {subsubsection}{Connectivity check}{101}{section*.194}\protected@file@percent }
\@writefile{lot}{\contentsline {table}{\numberline {5.3}{\ignorespaces The temperature and voltage measurements for each pigtail}}{102}{table.caption.195}\protected@file@percent }
\newlabel{table:pigtail_connection}{{5.3}{102}{The temperature and voltage measurements for each pigtail}{table.caption.195}{}}
\@writefile{toc}{\contentsline {subsubsection}{I-V scan}{102}{section*.196}\protected@file@percent }
\newlabel{section:single_iv}{{5.4.1}{102}{I-V scan}{section*.196}{}}
\@writefile{lof}{\contentsline {figure}{\numberline {5.12}{\ignorespaces The I-V curves taken with standard and Flat top pigtails for the same module}}{102}{figure.caption.197}\protected@file@percent }
\newlabel{fig:iv_comparison_pigatail_1}{{5.12}{102}{The I-V curves taken with standard and Flat top pigtails for the same module}{figure.caption.197}{}}
\@writefile{lof}{\contentsline {figure}{\numberline {5.13}{\ignorespaces The I-V curves taken with several pigtail types for the same module}}{103}{figure.caption.198}\protected@file@percent }
\newlabel{fig:iv_comparison_pigatail_2}{{5.13}{103}{The I-V curves taken with several pigtail types for the same module}{figure.caption.198}{}}
\@writefile{toc}{\contentsline {subsubsection}{Digital scan}{104}{section*.199}\protected@file@percent }
\@writefile{lof}{\contentsline {figure}{\numberline {5.14}{\ignorespaces The Digital occupancy maps taken with several types of pigtail}}{104}{figure.caption.200}\protected@file@percent }
\newlabel{fig:digital_comparison_pigatail}{{5.14}{104}{The Digital occupancy maps taken with several types of pigtail}{figure.caption.200}{}}
\@writefile{toc}{\contentsline {subsubsection}{Analog scan}{104}{section*.201}\protected@file@percent }
\@writefile{lof}{\contentsline {figure}{\numberline {5.15}{\ignorespaces The Analog occupancy maps taken with several types of pigtail}}{105}{figure.caption.202}\protected@file@percent }
\newlabel{fig:analog_comparison_pigatail}{{5.15}{105}{The Analog occupancy maps taken with several types of pigtail}{figure.caption.202}{}}
\@writefile{lof}{\contentsline {figure}{\numberline {5.16}{\ignorespaces Analog inefficienct pixels}}{105}{figure.caption.203}\protected@file@percent }
\newlabel{fig:analog_comparison_inefficiency}{{5.16}{105}{Analog inefficienct pixels}{figure.caption.203}{}}
\@writefile{toc}{\contentsline {subsubsection}{Threshold scan}{106}{section*.204}\protected@file@percent }
\@writefile{lot}{\contentsline {table}{\numberline {5.4}{\ignorespaces The threshold and noise of FE4 obtained from {\em  threshold scans}}}{106}{table.caption.205}\protected@file@percent }
\newlabel{table:pigtail_thresholdnoise}{{5.4}{106}{The threshold and noise of FE4 obtained from {\em threshold scans}}{table.caption.205}{}}
\@writefile{lof}{\contentsline {figure}{\numberline {5.17}{\ignorespaces Threshold and noise distributions with each pigtail type}}{106}{figure.caption.206}\protected@file@percent }
\newlabel{fig:thre_comparison_pigatail}{{5.17}{106}{Threshold and noise distributions with each pigtail type}{figure.caption.206}{}}
\@writefile{toc}{\contentsline {subsubsection}{Disconnected-bump scan}{107}{section*.207}\protected@file@percent }
\@writefile{lof}{\contentsline {figure}{\numberline {5.18}{\ignorespaces The Disconnected bump occupancy maps taken with several types of pigtail}}{107}{figure.caption.208}\protected@file@percent }
\newlabel{fig:discbump_comparison_pigatail}{{5.18}{107}{The Disconnected bump occupancy maps taken with several types of pigtail}{figure.caption.208}{}}
\@writefile{toc}{\contentsline {subsubsection}{Conclusion of comparison between pigtail types}{107}{section*.209}\protected@file@percent }
\@writefile{toc}{\contentsline {subsection}{\numberline {5.4.2}Pigtail connection for demonstrator modules}{108}{subsection.5.4.2}\protected@file@percent }
\@writefile{toc}{\contentsline {subsection}{\numberline {5.4.3}Powering}{108}{subsection.5.4.3}\protected@file@percent }
\newlabel{fig:lv_voltage_a}{{5.19a}{109}{\relax }{figure.caption.210}{}}
\newlabel{sub@fig:lv_voltage_a}{{a}{109}{\relax }{figure.caption.210}{}}
\newlabel{fig:lv_voltage_b}{{5.19b}{109}{\relax }{figure.caption.210}{}}
\newlabel{sub@fig:lv_voltage_b}{{b}{109}{\relax }{figure.caption.210}{}}
\@writefile{lof}{\contentsline {figure}{\numberline {5.19}{\ignorespaces The LV voltages measured on the adapter cards}}{109}{figure.caption.210}\protected@file@percent }
\newlabel{fig:lv_voltage}{{5.19}{109}{The LV voltages measured on the adapter cards}{figure.caption.210}{}}
\@writefile{toc}{\contentsline {subsection}{\numberline {5.4.4}I-V scan}{109}{subsection.5.4.4}\protected@file@percent }
\@writefile{lof}{\contentsline {figure}{\numberline {5.20}{\ignorespaces The I-V curves after Type-0 pigtail connection}}{110}{figure.caption.211}\protected@file@percent }
\newlabel{fig:iv_after_pigtail}{{5.20}{110}{The I-V curves after Type-0 pigtail connection}{figure.caption.211}{}}
\@writefile{toc}{\contentsline {subsection}{\numberline {5.4.5}Electrical scan}{111}{subsection.5.4.5}\protected@file@percent }
\@writefile{lof}{\contentsline {figure}{\numberline {5.21}{\ignorespaces Number of dead and bad pixels from {\em  digital scans}}}{111}{figure.caption.212}\protected@file@percent }
\newlabel{fig:pigtailcomparison_digital}{{5.21}{111}{Number of dead and bad pixels from {\em digital scans}}{figure.caption.212}{}}
\@writefile{lof}{\contentsline {figure}{\numberline {5.22}{\ignorespaces Goe7 FE4 digital occupancy map}}{112}{figure.caption.213}\protected@file@percent }
\newlabel{fig:goe7fe4digital}{{5.22}{112}{Goe7 FE4 digital occupancy map}{figure.caption.213}{}}
\@writefile{lof}{\contentsline {figure}{\numberline {5.24}{\ignorespaces Goe7 FE4 analog occupancy map}}{112}{figure.caption.215}\protected@file@percent }
\newlabel{fig:goe7fe4analog}{{5.24}{112}{Goe7 FE4 analog occupancy map}{figure.caption.215}{}}
\@writefile{lof}{\contentsline {figure}{\numberline {5.25}{\ignorespaces Paris12 FE4 analog occupancy map}}{112}{figure.caption.216}\protected@file@percent }
\newlabel{fig:paris12fe4analog}{{5.25}{112}{Paris12 FE4 analog occupancy map}{figure.caption.216}{}}
\@writefile{lof}{\contentsline {figure}{\numberline {5.23}{\ignorespaces Number of dead (left) and bad pixels (right) from {\em  analog scans}}}{113}{figure.caption.214}\protected@file@percent }
\newlabel{fig:pigtailcomparison_analog}{{5.23}{113}{Number of dead (left) and bad pixels (right) from {\em analog scans}}{figure.caption.214}{}}
\@writefile{lof}{\contentsline {figure}{\numberline {5.26}{\ignorespaces Mean of the threshold and ENC noise distributions from {\em  threshold scans}}}{114}{figure.caption.217}\protected@file@percent }
\newlabel{fig:pigtailcomparison_threshold}{{5.26}{114}{Mean of the threshold and ENC noise distributions from {\em threshold scans}}{figure.caption.217}{}}
\@writefile{lof}{\contentsline {figure}{\numberline {5.27}{\ignorespaces Number of dead pixels identified from {\em  disconnected-bump scans}}}{115}{figure.caption.218}\protected@file@percent }
\newlabel{fig:pigtailcomparison_discbump}{{5.27}{115}{Number of dead pixels identified from {\em disconnected-bump scans}}{figure.caption.218}{}}
\@writefile{toc}{\contentsline {section}{\numberline {5.5}Summary}{116}{section.5.5}\protected@file@percent }
\@setckpt{Chapters/5-PigtailAssembly}{
\setcounter{page}{117}
\setcounter{equation}{0}
\setcounter{enumi}{2}
\setcounter{enumii}{0}
\setcounter{enumiii}{0}
\setcounter{enumiv}{0}
\setcounter{footnote}{1}
\setcounter{mpfootnote}{0}
\setcounter{part}{0}
\setcounter{chapter}{5}
\setcounter{section}{5}
\setcounter{subsection}{0}
\setcounter{subsubsection}{0}
\setcounter{paragraph}{0}
\setcounter{subparagraph}{0}
\setcounter{figure}{27}
\setcounter{table}{4}
\setcounter{Maxaffil}{2}
\setcounter{authors}{0}
\setcounter{affil}{0}
\setcounter{parentequation}{0}
\setcounter{section@level}{1}
\setcounter{Item}{9}
\setcounter{Hfootnote}{5}
\setcounter{Hy@AnnotLevel}{0}
\setcounter{bookmark@seq@number}{72}
\setcounter{float@type}{4}
\setcounter{linenumber}{1}
\setcounter{LN@truepage}{122}
\setcounter{caption@flags}{6}
\setcounter{continuedfloat}{0}
\setcounter{subfigure}{4}
\setcounter{subtable}{0}
}
