\relax 
\@writefile{toc}{\contentsline {chapter}{\numberline {7}Test setup for production}{91}}
\@writefile{lof}{\addvspace {10\p@ }}
\@writefile{lot}{\addvspace {10\p@ }}
\newlabel{chap:quadsetup}{{7}{91}}
\@writefile{toc}{\contentsline {section}{\numberline {7.1}For production}{91}}
\newlabel{sect:start}{{7.1}{91}}
\@writefile{toc}{\contentsline {section}{\numberline {7.2}QC after cell loading}{91}}
\newlabel{}{{7.2}{91}}
\@writefile{toc}{\contentsline {section}{\numberline {7.3}4 Quad module setup}{91}}
\@writefile{toc}{\contentsline {subsection}{\numberline {7.3.1}Concept}{91}}
\@writefile{toc}{\contentsline {subsection}{\numberline {7.3.2}Cooling peformance}{91}}
\@writefile{toc}{\contentsline {subsection}{\numberline {7.3.3}Electrical performance of multi module operating}{91}}
\@writefile{toc}{\contentsline {subsection}{\numberline {7.3.4}DCS system for multi module setup}{92}}
\newlabel{sect:}{{7.3.4}{92}}
\@writefile{toc}{\contentsline {section}{\numberline {7.4}Site qualification in UniGe}{92}}
\@setckpt{Chapters/6-FourQuadSetup}{
\setcounter{page}{93}
\setcounter{equation}{0}
\setcounter{enumi}{2}
\setcounter{enumii}{0}
\setcounter{enumiii}{0}
\setcounter{enumiv}{0}
\setcounter{footnote}{0}
\setcounter{mpfootnote}{0}
\setcounter{part}{0}
\setcounter{chapter}{7}
\setcounter{section}{4}
\setcounter{subsection}{0}
\setcounter{subsubsection}{0}
\setcounter{paragraph}{0}
\setcounter{subparagraph}{0}
\setcounter{figure}{0}
\setcounter{table}{0}
\setcounter{Maxaffil}{2}
\setcounter{authors}{0}
\setcounter{affil}{0}
\setcounter{parentequation}{0}
\setcounter{float@type}{4}
\setcounter{linenumber}{1656}
\setcounter{LN@truepage}{93}
\setcounter{ContinuedFloat}{0}
\setcounter{subfigure}{0}
\setcounter{subtable}{0}
}
