\relax 
\providecommand\hyper@newdestlabel[2]{}
\@writefile{toc}{\contentsline {chapter}{\numberline {6}Measurements after module integration onto the Local Support}{117}{chapter.6}\protected@file@percent }
\@writefile{lof}{\addvspace {10\p@ }}
\@writefile{lot}{\addvspace {10\p@ }}
\newlabel{chap:integration}{{6}{117}{Measurements after module integration onto the Local Support}{chapter.6}{}}
\@writefile{toc}{\contentsline {section}{\numberline {6.1}Outer Barrel RD53A Demonstrators}{117}{section.6.1}\protected@file@percent }
\newlabel{section:LS_localsupport}{{6.1}{117}{Outer Barrel RD53A Demonstrators}{section.6.1}{}}
\@writefile{toc}{\contentsline {subsection}{\numberline {6.1.1}Longeron}{117}{subsection.6.1.1}\protected@file@percent }
\@writefile{lof}{\contentsline {figure}{\numberline {6.1}{\ignorespaces Serial-powering chains in an OB Longeron}}{118}{figure.caption.219}\protected@file@percent }
\newlabel{fig:longeron_design}{{6.1}{118}{Serial-powering chains in an OB Longeron}{figure.caption.219}{}}
\@writefile{lot}{\contentsline {table}{\numberline {6.1}{\ignorespaces Modules on the short (M6) SP-chain}}{118}{table.caption.220}\protected@file@percent }
\newlabel{table:modules_m6}{{6.1}{118}{Modules on the short (M6) SP-chain}{table.caption.220}{}}
\@writefile{lot}{\contentsline {table}{\numberline {6.2}{\ignorespaces Modules on the long (M12) SP-chain}}{118}{table.caption.221}\protected@file@percent }
\newlabel{table:modules_m12}{{6.2}{118}{Modules on the long (M12) SP-chain}{table.caption.221}{}}
\@writefile{toc}{\contentsline {subsection}{\numberline {6.1.2}Inclined Half Ring}{119}{subsection.6.1.2}\protected@file@percent }
\@writefile{lof}{\contentsline {figure}{\numberline {6.2}{\ignorespaces Exploded CAD view of a loaded Inclined Half Ring (layer 3)}}{119}{figure.caption.222}\protected@file@percent }
\newlabel{fig:ihr_design}{{6.2}{119}{Exploded CAD view of a loaded Inclined Half Ring (layer 3)}{figure.caption.222}{}}
\@writefile{lof}{\contentsline {figure}{\numberline {6.3}{\ignorespaces Serial-powering chains in an IHR of layer 3}}{120}{figure.caption.223}\protected@file@percent }
\newlabel{fig:ihr-l3-modules}{{6.3}{120}{Serial-powering chains in an IHR of layer 3}{figure.caption.223}{}}
\@writefile{lot}{\contentsline {table}{\numberline {6.3}{\ignorespaces Modules on the Inclined Half Ring}}{120}{table.caption.224}\protected@file@percent }
\newlabel{table:modules_ihr}{{6.3}{120}{Modules on the Inclined Half Ring}{table.caption.224}{}}
\@writefile{toc}{\contentsline {section}{\numberline {6.2}Setup for the test of Loaded Local Supports}{121}{section.6.2}\protected@file@percent }
\@writefile{lof}{\contentsline {figure}{\numberline {6.4}{\ignorespaces Schematic of the setup for the test of Loaded Local Supports}}{121}{figure.caption.225}\protected@file@percent }
\newlabel{fig:sr1setup}{{6.4}{121}{Schematic of the setup for the test of Loaded Local Supports}{figure.caption.225}{}}
\@writefile{toc}{\contentsline {subsection}{\numberline {6.2.1}Powering}{121}{subsection.6.2.1}\protected@file@percent }
\newlabel{sect:LS_powering}{{6.2.1}{121}{Powering}{subsection.6.2.1}{}}
\@writefile{lof}{\contentsline {figure}{\numberline {6.5}{\ignorespaces Environmental enclosure at the SR1 lab at CERN and IHR inside the enclosure}}{122}{figure.caption.226}\protected@file@percent }
\newlabel{f:sr1box}{{6.5}{122}{Environmental enclosure at the SR1 lab at CERN and IHR inside the enclosure}{figure.caption.226}{}}
\@writefile{lof}{\contentsline {figure}{\numberline {6.6}{\ignorespaces CSB board}}{122}{figure.caption.227}\protected@file@percent }
\newlabel{fig:csbboard}{{6.6}{122}{CSB board}{figure.caption.227}{}}
\@writefile{toc}{\contentsline {subsection}{\numberline {6.2.2}Readout System}{123}{subsection.6.2.2}\protected@file@percent }
\newlabel{sect:sr1readoutsystem}{{6.2.2}{123}{Readout System}{subsection.6.2.2}{}}
\@writefile{lof}{\contentsline {figure}{\numberline {6.7}{\ignorespaces Inter-connections inside the Optobox}}{123}{figure.caption.228}\protected@file@percent }
\newlabel{fig:optbox}{{6.7}{123}{Inter-connections inside the Optobox}{figure.caption.228}{}}
\@writefile{toc}{\contentsline {section}{\numberline {6.3}Electrical performance}{123}{section.6.3}\protected@file@percent }
\@writefile{toc}{\contentsline {subsection}{\numberline {6.3.1}Basic informations about electrical scan}{124}{subsection.6.3.1}\protected@file@percent }
\newlabel{chap:lselectrical}{{6.3.1}{124}{Basic informations about electrical scan}{subsection.6.3.1}{}}
\@writefile{lot}{\contentsline {table}{\numberline {6.4}{\ignorespaces Duration times of electrical scans performed to the IHR RD53A demonstrator}}{124}{table.caption.229}\protected@file@percent }
\newlabel{table:duration}{{6.4}{124}{Duration times of electrical scans performed to the IHR RD53A demonstrator}{table.caption.229}{}}
\@writefile{toc}{\contentsline {subsection}{\numberline {6.3.2}Scan results}{124}{subsection.6.3.2}\protected@file@percent }
\@writefile{toc}{\contentsline {subsubsection}{Digital scan}{124}{section*.230}\protected@file@percent }
\newlabel{sec:digital_scan_ihr}{{6.3.2}{124}{Digital scan}{section*.230}{}}
\@writefile{lof}{\contentsline {figure}{\numberline {6.8}{\ignorespaces Number of dead and bad pixels from {\em  digital scans}}}{125}{figure.caption.231}\protected@file@percent }
\newlabel{fig:development_digitalscan_ihr}{{6.8}{125}{Number of dead and bad pixels from {\em digital scans}}{figure.caption.231}{}}
\@writefile{lof}{\contentsline {figure}{\numberline {6.9}{\ignorespaces Occupancy map from {\em  digital scans}}}{125}{figure.caption.232}\protected@file@percent }
\newlabel{fig:goe5_kekq22_digitalmap}{{6.9}{125}{Occupancy map from {\em digital scans}}{figure.caption.232}{}}
\@writefile{toc}{\contentsline {subsubsection}{Analog scan}{125}{section*.233}\protected@file@percent }
\@writefile{lof}{\contentsline {figure}{\numberline {6.10}{\ignorespaces Number of dead (top) and bad (bottom) pixels from {\em  analog scans}}}{126}{figure.caption.234}\protected@file@percent }
\newlabel{fig:development_analogscan_ihr}{{6.10}{126}{Number of dead (top) and bad (bottom) pixels from {\em analog scans}}{figure.caption.234}{}}
\@writefile{lof}{\contentsline {figure}{\numberline {6.11}{\ignorespaces Occupancy map from {\em  analog scans} for module KEKQ22}}{126}{figure.caption.235}\protected@file@percent }
\newlabel{fig:kekq22analogscancomparisonp}{{6.11}{126}{Occupancy map from {\em analog scans} for module KEKQ22}{figure.caption.235}{}}
\@writefile{toc}{\contentsline {subsubsection}{Threshold scan}{127}{section*.236}\protected@file@percent }
\@writefile{lof}{\contentsline {figure}{\numberline {6.12}{\ignorespaces Mean of the threshold and ENC noise distributions}}{127}{figure.caption.237}\protected@file@percent }
\newlabel{fig:development_threshold_noise}{{6.12}{127}{Mean of the threshold and ENC noise distributions}{figure.caption.237}{}}
\@writefile{toc}{\contentsline {subsubsection}{Disconnected-bump scan}{127}{section*.238}\protected@file@percent }
\@writefile{lof}{\contentsline {figure}{\numberline {6.13}{\ignorespaces Number of dead pixels from {\em  disconnected-bump scans}}}{127}{figure.caption.239}\protected@file@percent }
\newlabel{fig:developmentdisc}{{6.13}{127}{Number of dead pixels from {\em disconnected-bump scans}}{figure.caption.239}{}}
\@writefile{lot}{\contentsline {table}{\numberline {6.5}{\ignorespaces Number of dead pixels from {\em  disconnected-bump scans}}}{128}{table.caption.240}\protected@file@percent }
\newlabel{table:discbumpscan_dead}{{6.5}{128}{Number of dead pixels from {\em disconnected-bump scans}}{table.caption.240}{}}
\@writefile{lof}{\contentsline {figure}{\numberline {6.14}{\ignorespaces Occupancy map from {\em  disconnected-bump scans} obtained with YARR}}{128}{figure.caption.241}\protected@file@percent }
\newlabel{fig:discbump_map}{{6.14}{128}{Occupancy map from {\em disconnected-bump scans} obtained with YARR}{figure.caption.241}{}}
\@writefile{toc}{\contentsline {subsection}{\numberline {6.3.3}V-I scan}{129}{subsection.6.3.3}\protected@file@percent }
\@writefile{lof}{\contentsline {figure}{\numberline {6.15}{\ignorespaces VI curves for the different modules integrated onto the IHR demonstrator}}{129}{figure.caption.242}\protected@file@percent }
\newlabel{fig:ihr_vi}{{6.15}{129}{VI curves for the different modules integrated onto the IHR demonstrator}{figure.caption.242}{}}
\@writefile{toc}{\contentsline {subsection}{\numberline {6.3.4}I-V scan}{129}{subsection.6.3.4}\protected@file@percent }
\@writefile{lof}{\contentsline {figure}{\numberline {6.16}{\ignorespaces I-V curves for different loaded local supports}}{130}{figure.caption.243}\protected@file@percent }
\newlabel{fig:localsupport_iv}{{6.16}{130}{I-V curves for different loaded local supports}{figure.caption.243}{}}
\@writefile{lof}{\contentsline {figure}{\numberline {6.17}{\ignorespaces I-V curves for the IHR demonstrator with Keithley 2410}}{131}{figure.caption.244}\protected@file@percent }
\newlabel{fig:ihr_iv_keithley}{{6.17}{131}{I-V curves for the IHR demonstrator with Keithley 2410}{figure.caption.244}{}}
\@writefile{toc}{\contentsline {section}{\numberline {6.4}Temperature scan}{131}{section.6.4}\protected@file@percent }
\@writefile{toc}{\contentsline {subsection}{\numberline {6.4.1}Module temperature}{131}{subsection.6.4.1}\protected@file@percent }
\@writefile{lof}{\contentsline {figure}{\numberline {6.18}{\ignorespaces Module NTC temperatures for $-10\,^{\circ }\rm  {C}$ and $+10\,^{\circ }\rm  {C}$ cooling temperatures\ }}{132}{figure.caption.245}\protected@file@percent }
\newlabel{fig:temperatureIHR}{{6.18}{132}{Module NTC temperatures for $-10\,^{\circ }\rm {C}$ and $+10\,^{\circ }\rm {C}$ cooling temperatures\^^M}{figure.caption.245}{}}
\@writefile{lof}{\contentsline {figure}{\numberline {6.19}{\ignorespaces Oscillation of NTC temperature}}{132}{figure.caption.246}\protected@file@percent }
\newlabel{fig:ntc_oscillication}{{6.19}{132}{Oscillation of NTC temperature}{figure.caption.246}{}}
\@writefile{toc}{\contentsline {subsection}{\numberline {6.4.2}LV and communication}{132}{subsection.6.4.2}\protected@file@percent }
\@writefile{lof}{\contentsline {figure}{\numberline {6.20}{\ignorespaces Module voltage measured at 4.6~A for different cooling pipe temperatures}}{133}{figure.caption.247}\protected@file@percent }
\newlabel{fig:voltageIHR}{{6.20}{133}{Module voltage measured at 4.6~A for different cooling pipe temperatures}{figure.caption.247}{}}
\@writefile{toc}{\contentsline {subsection}{\numberline {6.4.3}Electrical performance}{133}{subsection.6.4.3}\protected@file@percent }
\@writefile{lof}{\contentsline {figure}{\numberline {6.21}{\ignorespaces {\em  Digital scans} for different cooling pipe temperatures}}{133}{figure.caption.248}\protected@file@percent }
\newlabel{fig:occupancyIHR}{{6.21}{133}{{\em Digital scans} for different cooling pipe temperatures}{figure.caption.248}{}}
\citation{localsupportdesign}
\citation{localsupportdesign}
\@writefile{toc}{\contentsline {section}{\numberline {6.5}Thermal cycle}{134}{section.6.5}\protected@file@percent }
\@writefile{lof}{\contentsline {figure}{\numberline {6.22}{\ignorespaces {\em  Analog scans} performed on the M6 and M12}}{134}{figure.caption.249}\protected@file@percent }
\newlabel{fig:m6m12analog}{{6.22}{134}{{\em Analog scans} performed on the M6 and M12}{figure.caption.249}{}}
\@writefile{lof}{\contentsline {figure}{\numberline {6.23}{\ignorespaces VI scans after thermal cycling for different modules installed in the Longeron}}{135}{figure.caption.250}\protected@file@percent }
\newlabel{fig:vi_aftertc}{{6.23}{135}{VI scans after thermal cycling for different modules installed in the Longeron}{figure.caption.250}{}}
\@writefile{lot}{\contentsline {table}{\numberline {6.6}{\ignorespaces Summary results of the V-I scans on Longeron modules after 25 thermal cycles}}{136}{table.caption.251}\protected@file@percent }
\newlabel{table:lls_tc_summary}{{6.6}{136}{Summary results of the V-I scans on Longeron modules after 25 thermal cycles}{table.caption.251}{}}
\@writefile{lof}{\contentsline {figure}{\numberline {6.24}{\ignorespaces Occupancy maps from {\em  digital} and {\em  analog scans} for modules CERNQ4 and KEKQ20}}{136}{figure.caption.252}\protected@file@percent }
\newlabel{fig:cernq4-kekq20-afterTC}{{6.24}{136}{Occupancy maps from {\em digital} and {\em analog scans} for modules CERNQ4 and KEKQ20}{figure.caption.252}{}}
\@writefile{lof}{\contentsline {figure}{\numberline {6.25}{\ignorespaces Occupancy maps from {\em  digital} and {\em  analog scans} for module CERNQ10}}{137}{figure.caption.253}\protected@file@percent }
\newlabel{fig:cernq10-afterTC}{{6.25}{137}{Occupancy maps from {\em digital} and {\em analog scans} for module CERNQ10}{figure.caption.253}{}}
\@writefile{lof}{\contentsline {figure}{\numberline {6.26}{\ignorespaces VI scans for modules Paris6, Liv8, KEKQ19 and KEKQ25}}{138}{figure.caption.254}\protected@file@percent }
\newlabel{fig:vi_ihr_aftertc}{{6.26}{138}{VI scans for modules Paris6, Liv8, KEKQ19 and KEKQ25}{figure.caption.254}{}}
\@writefile{toc}{\contentsline {section}{\numberline {6.6}Summary}{139}{section.6.6}\protected@file@percent }
\@setckpt{Chapters/6-LocalSupportTest_sgs}{
\setcounter{page}{141}
\setcounter{equation}{0}
\setcounter{enumi}{2}
\setcounter{enumii}{0}
\setcounter{enumiii}{0}
\setcounter{enumiv}{0}
\setcounter{footnote}{0}
\setcounter{mpfootnote}{0}
\setcounter{part}{0}
\setcounter{chapter}{6}
\setcounter{section}{6}
\setcounter{subsection}{0}
\setcounter{subsubsection}{0}
\setcounter{paragraph}{0}
\setcounter{subparagraph}{0}
\setcounter{figure}{26}
\setcounter{table}{6}
\setcounter{Maxaffil}{2}
\setcounter{authors}{0}
\setcounter{affil}{0}
\setcounter{parentequation}{0}
\setcounter{section@level}{1}
\setcounter{Item}{9}
\setcounter{Hfootnote}{5}
\setcounter{Hy@AnnotLevel}{0}
\setcounter{bookmark@seq@number}{90}
\setcounter{float@type}{4}
\setcounter{linenumber}{1}
\setcounter{LN@truepage}{146}
\setcounter{caption@flags}{6}
\setcounter{continuedfloat}{0}
\setcounter{subfigure}{4}
\setcounter{subtable}{0}
}
