\relax 
\providecommand\hyper@newdestlabel[2]{}
\@writefile{toc}{\contentsline {chapter}{\numberline {6}Measurement after integration on the Local Support}{137}{chapter.6}\protected@file@percent }
\@writefile{lof}{\addvspace {10\p@ }}
\@writefile{lot}{\addvspace {10\p@ }}
\newlabel{chap:integration}{{6}{137}{Measurement after integration on the Local Support}{chapter.6}{}}
\@writefile{toc}{\contentsline {section}{\numberline {6.1}Introduction}{137}{section.6.1}\protected@file@percent }
\@writefile{toc}{\contentsline {section}{\numberline {6.2}Local support}{137}{section.6.2}\protected@file@percent }
\newlabel{section:LS_localsupport}{{6.2}{137}{Local support}{section.6.2}{}}
\@writefile{toc}{\contentsline {subsection}{\numberline {6.2.1}PP0}{137}{subsection.6.2.1}\protected@file@percent }
\@writefile{toc}{\contentsline {subsection}{\numberline {6.2.2}Longeron}{137}{subsection.6.2.2}\protected@file@percent }
\@writefile{lof}{\contentsline {figure}{\numberline {6.1}{\ignorespaces The design of Longeron.}}{138}{figure.caption.221}\protected@file@percent }
\newlabel{fig:longeron_design}{{6.1}{138}{The design of Longeron}{figure.caption.221}{}}
\@writefile{lot}{\contentsline {table}{\numberline {6.1}{\ignorespaces Modules on the Longeron (M6)}}{138}{table.caption.222}\protected@file@percent }
\newlabel{table:modules_m6}{{6.1}{138}{Modules on the Longeron (M6)}{table.caption.222}{}}
\@writefile{lot}{\contentsline {table}{\numberline {6.2}{\ignorespaces Modules on the Longeron (M12)}}{138}{table.caption.223}\protected@file@percent }
\newlabel{table:modules_m12}{{6.2}{138}{Modules on the Longeron (M12)}{table.caption.223}{}}
\@writefile{toc}{\contentsline {subsection}{\numberline {6.2.3}Inclined Half Ring}{139}{subsection.6.2.3}\protected@file@percent }
\@writefile{lof}{\contentsline {figure}{\numberline {6.2}{\ignorespaces The design of Inclined Half Ring.}}{139}{figure.caption.224}\protected@file@percent }
\newlabel{fig:ihr_design}{{6.2}{139}{The design of Inclined Half Ring}{figure.caption.224}{}}
\@writefile{lot}{\contentsline {table}{\numberline {6.3}{\ignorespaces Modules on the Inclined Half Ring}}{139}{table.caption.225}\protected@file@percent }
\newlabel{table:modules_ihr}{{6.3}{139}{Modules on the Inclined Half Ring}{table.caption.225}{}}
\@writefile{toc}{\contentsline {section}{\numberline {6.3}Setup in SR1}{139}{section.6.3}\protected@file@percent }
\@writefile{lof}{\contentsline {figure}{\numberline {6.3}{\ignorespaces Measurement setup.}}{140}{figure.caption.226}\protected@file@percent }
\newlabel{fig:sr1setup}{{6.3}{140}{Measurement setup}{figure.caption.226}{}}
\@writefile{toc}{\contentsline {subsection}{\numberline {6.3.1}Environmental enclosure}{140}{subsection.6.3.1}\protected@file@percent }
\@writefile{lof}{\contentsline {figure}{\numberline {6.4}{\ignorespaces The entire environmental box.}}{140}{figure.caption.227}\protected@file@percent }
\newlabel{fig:environmentalbox}{{6.4}{140}{The entire environmental box}{figure.caption.227}{}}
\@writefile{lof}{\contentsline {figure}{\numberline {6.5}{\ignorespaces The Inclined Half Ring is installed inside the environmental box. The local support is protected by an acrylic board from physical damage.}}{141}{figure.caption.228}\protected@file@percent }
\newlabel{fig:ihrinenv}{{6.5}{141}{The Inclined Half Ring is installed inside the environmental box. The local support is protected by an acrylic board from physical damage}{figure.caption.228}{}}
\@writefile{toc}{\contentsline {subsection}{\numberline {6.3.2}Powering}{141}{subsection.6.3.2}\protected@file@percent }
\newlabel{sect:LS_powering}{{6.3.2}{141}{Powering}{subsection.6.3.2}{}}
\@writefile{lof}{\contentsline {figure}{\numberline {6.6}{\ignorespaces The cables from the adjacent room (on the right) are connected to the bundles (on the left) via the CSB board.}}{141}{figure.caption.229}\protected@file@percent }
\newlabel{fig:csbboard}{{6.6}{141}{The cables from the adjacent room (on the right) are connected to the bundles (on the left) via the CSB board}{figure.caption.229}{}}
\citation{iseg}
\@writefile{toc}{\contentsline {subsubsection}{Low voltage power supply}{142}{section*.230}\protected@file@percent }
\@writefile{toc}{\contentsline {subsubsection}{High voltage power supply}{142}{section*.231}\protected@file@percent }
\newlabel{sect:HVPS_LS}{{6.3.2}{142}{High voltage power supply}{section*.231}{}}
\@writefile{toc}{\contentsline {subsection}{\numberline {6.3.3}Readout System}{142}{subsection.6.3.3}\protected@file@percent }
\newlabel{sect:sr1readoutsystem}{{6.3.3}{142}{Readout System}{subsection.6.3.3}{}}
\@writefile{lof}{\contentsline {figure}{\numberline {6.7}{\ignorespaces OPTO board, located in a small box next to the environmental enclosure, converts the fiber cables from the FELIX server into twinax cables.}}{142}{figure.caption.232}\protected@file@percent }
\newlabel{fig:optbox}{{6.7}{142}{OPTO board, located in a small box next to the environmental enclosure, converts the fiber cables from the FELIX server into twinax cables}{figure.caption.232}{}}
\@writefile{toc}{\contentsline {subsubsection}{itk-felix-sw}{142}{section*.233}\protected@file@percent }
\@writefile{toc}{\contentsline {subsubsection}{YARR for FELIX}{143}{section*.234}\protected@file@percent }
\@writefile{toc}{\contentsline {subsubsection}{Modified YARR}{143}{section*.235}\protected@file@percent }
\@writefile{toc}{\contentsline {subsection}{\numberline {6.3.4}Cooling}{143}{subsection.6.3.4}\protected@file@percent }
\@writefile{toc}{\contentsline {section}{\numberline {6.4}Electrical performance}{143}{section.6.4}\protected@file@percent }
\@writefile{toc}{\contentsline {subsection}{\numberline {6.4.1}Basic information about electrical scan}{143}{subsection.6.4.1}\protected@file@percent }
\newlabel{chap:lselectrical}{{6.4.1}{143}{Basic information about electrical scan}{subsection.6.4.1}{}}
\@writefile{lot}{\contentsline {table}{\numberline {6.4}{\ignorespaces Scan time on IHR by software}}{144}{table.caption.236}\protected@file@percent }
\newlabel{table:duration}{{6.4}{144}{Scan time on IHR by software}{table.caption.236}{}}
\@writefile{toc}{\contentsline {subsection}{\numberline {6.4.2}Comparison between softwares and with single setup}{144}{subsection.6.4.2}\protected@file@percent }
\@writefile{toc}{\contentsline {subsubsection}{Digital scan}{144}{section*.237}\protected@file@percent }
\@writefile{lof}{\contentsline {figure}{\numberline {6.8}{\ignorespaces The number of digital dead pixels of diff. FE of the modules on the IHR.}}{144}{figure.caption.238}\protected@file@percent }
\newlabel{fig:developmentofdigital}{{6.8}{144}{The number of digital dead pixels of diff. FE of the modules on the IHR}{figure.caption.238}{}}
\@writefile{lof}{\contentsline {figure}{\numberline {6.9}{\ignorespaces The number of digital bad (0<occupancy<98) pixels of diff. FE of the modules on the IHR.}}{145}{figure.caption.239}\protected@file@percent }
\newlabel{fig:digitallow_ls}{{6.9}{145}{The number of digital bad (0<occupancy<98) pixels of diff. FE of the modules on the IHR}{figure.caption.239}{}}
\@writefile{lof}{\contentsline {figure}{\numberline {6.10}{\ignorespaces The number of digital bad (occupancy>102) pixels of diff. FE of the modules on the IHR.}}{145}{figure.caption.240}\protected@file@percent }
\newlabel{fig:digitalhigh_ls}{{6.10}{145}{The number of digital bad (occupancy>102) pixels of diff. FE of the modules on the IHR}{figure.caption.240}{}}
\@writefile{lof}{\contentsline {figure}{\numberline {6.11}{\ignorespaces The digital occupancy map of Goe5. The software is VakYARR. There are periodically present inefficient pixels.}}{146}{figure.caption.241}\protected@file@percent }
\newlabel{fig:goe5_digitalmap}{{6.11}{146}{The digital occupancy map of Goe5. The software is VakYARR. There are periodically present inefficient pixels}{figure.caption.241}{}}
\@writefile{lof}{\contentsline {figure}{\numberline {6.12}{\ignorespaces The digital occupancy map of KEKQ22. The software is YARR. All pixels have 200 occupancies.}}{146}{figure.caption.242}\protected@file@percent }
\newlabel{fig:kekq22_digitalmap}{{6.12}{146}{The digital occupancy map of KEKQ22. The software is YARR. All pixels have 200 occupancies}{figure.caption.242}{}}
\@writefile{toc}{\contentsline {subsubsection}{Analog scan}{146}{section*.243}\protected@file@percent }
\@writefile{lof}{\contentsline {figure}{\numberline {6.13}{\ignorespaces The number of analog dead pixels of diff. FE of the modules on the IHR.}}{147}{figure.caption.244}\protected@file@percent }
\newlabel{fig:analogzero_ls}{{6.13}{147}{The number of analog dead pixels of diff. FE of the modules on the IHR}{figure.caption.244}{}}
\@writefile{lof}{\contentsline {figure}{\numberline {6.14}{\ignorespaces The number of analog bad pixels (0<occupancy<98) of diff. FE of the modules on the IHR.}}{147}{figure.caption.245}\protected@file@percent }
\newlabel{fig:analoglow_ls}{{6.14}{147}{The number of analog bad pixels (0<occupancy<98) of diff. FE of the modules on the IHR}{figure.caption.245}{}}
\@writefile{lof}{\contentsline {figure}{\numberline {6.15}{\ignorespaces The number of analog bad pixels (occupancy>102) of diff. FE of the modules on the IHR.}}{148}{figure.caption.246}\protected@file@percent }
\newlabel{fig:analoghigh_ls}{{6.15}{148}{The number of analog bad pixels (occupancy>102) of diff. FE of the modules on the IHR}{figure.caption.246}{}}
\newlabel{}{{6.16a}{148}{\relax }{figure.caption.247}{}}
\newlabel{sub@}{{a}{148}{\relax }{figure.caption.247}{}}
\newlabel{}{{6.16b}{148}{\relax }{figure.caption.247}{}}
\newlabel{sub@}{{b}{148}{\relax }{figure.caption.247}{}}
\newlabel{}{{6.16c}{148}{\relax }{figure.caption.247}{}}
\newlabel{sub@}{{c}{148}{\relax }{figure.caption.247}{}}
\newlabel{}{{6.16d}{148}{\relax }{figure.caption.247}{}}
\newlabel{sub@}{{d}{148}{\relax }{figure.caption.247}{}}
\@writefile{lof}{\contentsline {figure}{\numberline {6.16}{\ignorespaces Analog occupancy map comparison between each software. (a) is in single module setup after Type-0 pigtail connection, (b) is itk-felix-sw, (c) is YARR, and (d) is VakYARR.}}{148}{figure.caption.247}\protected@file@percent }
\newlabel{fig:kekq22analogscancomparisonp}{{6.16}{148}{Analog occupancy map comparison between each software. (a) is in single module setup after Type-0 pigtail connection, (b) is itk-felix-sw, (c) is YARR, and (d) is VakYARR}{figure.caption.247}{}}
\@writefile{toc}{\contentsline {subsubsection}{Threshold scan}{149}{section*.248}\protected@file@percent }
\@writefile{lof}{\contentsline {figure}{\numberline {6.17}{\ignorespaces Threshold means of differential front-end, the modules are on the IHR.}}{149}{figure.caption.249}\protected@file@percent }
\newlabel{fig:developmentthreshold}{{6.17}{149}{Threshold means of differential front-end, the modules are on the IHR}{figure.caption.249}{}}
\@writefile{lof}{\contentsline {figure}{\numberline {6.18}{\ignorespaces Noises of differential front-end, the modules are on the IHR.}}{149}{figure.caption.250}\protected@file@percent }
\newlabel{fig:developmentnoise}{{6.18}{149}{Noises of differential front-end, the modules are on the IHR}{figure.caption.250}{}}
\@writefile{toc}{\contentsline {subsubsection}{Disconnected bump scan}{149}{section*.251}\protected@file@percent }
\@writefile{lof}{\contentsline {figure}{\numberline {6.19}{\ignorespaces The number of disconnected bump pixels (occupancy=0). Itk-felix-sw does not implement this scan and is excluded. Paris8 at the Type-0 pigtail is empty because it was not functional at Type-0 pigtail connecting stage.}}{150}{figure.caption.252}\protected@file@percent }
\newlabel{fig:developmentdisc}{{6.19}{150}{The number of disconnected bump pixels (occupancy=0). Itk-felix-sw does not implement this scan and is excluded. Paris8 at the Type-0 pigtail is empty because it was not functional at Type-0 pigtail connecting stage}{figure.caption.252}{}}
\@writefile{lot}{\contentsline {table}{\numberline {6.5}{\ignorespaces The number of dead pixels of disconnected bump scans.}}{150}{table.caption.253}\protected@file@percent }
\newlabel{table:discbumpscan_dead}{{6.5}{150}{The number of dead pixels of disconnected bump scans}{table.caption.253}{}}
\@writefile{lof}{\contentsline {figure}{\numberline {6.20}{\ignorespaces The disconnected bump occupancy map of KEKQ22 on the local support. The setups are depicted as (left) in a single module setup and (right) on the local support with VakYARR.}}{151}{figure.caption.254}\protected@file@percent }
\newlabel{fig:discbump_map}{{6.20}{151}{The disconnected bump occupancy map of KEKQ22 on the local support. The setups are depicted as (left) in a single module setup and (right) on the local support with VakYARR}{figure.caption.254}{}}
\@writefile{toc}{\contentsline {subsection}{\numberline {6.4.3}VI scan}{151}{subsection.6.4.3}\protected@file@percent }
\@writefile{lof}{\contentsline {figure}{\numberline {6.21}{\ignorespaces VI curves of the module on the IHR.}}{152}{figure.caption.255}\protected@file@percent }
\newlabel{fig:ihr_vi}{{6.21}{152}{VI curves of the module on the IHR}{figure.caption.255}{}}
\@writefile{toc}{\contentsline {subsection}{\numberline {6.4.4}IV scan}{152}{subsection.6.4.4}\protected@file@percent }
\newlabel{fig:ihrch1_iv}{{6.22a}{153}{IHR Channel 1}{figure.caption.256}{}}
\newlabel{sub@fig:ihrch1_iv}{{a}{153}{IHR Channel 1}{figure.caption.256}{}}
\newlabel{fig:ihrch2_iv}{{6.22b}{153}{IHR Channel 2}{figure.caption.256}{}}
\newlabel{sub@fig:ihrch2_iv}{{b}{153}{IHR Channel 2}{figure.caption.256}{}}
\newlabel{fig:m6ch1_iv}{{6.22c}{153}{M6 Channel 1}{figure.caption.256}{}}
\newlabel{sub@fig:m6ch1_iv}{{c}{153}{M6 Channel 1}{figure.caption.256}{}}
\newlabel{fig:m6ch2_iv}{{6.22d}{153}{M6 Channel 2}{figure.caption.256}{}}
\newlabel{sub@fig:m6ch2_iv}{{d}{153}{M6 Channel 2}{figure.caption.256}{}}
\newlabel{fig:m12ch1_iv}{{6.22e}{153}{M12 Channel 1}{figure.caption.256}{}}
\newlabel{sub@fig:m12ch1_iv}{{e}{153}{M12 Channel 1}{figure.caption.256}{}}
\newlabel{fig:m12ch2_iv}{{6.22f}{153}{M12 Channel 2}{figure.caption.256}{}}
\newlabel{sub@fig:m12ch2_iv}{{f}{153}{M12 Channel 2}{figure.caption.256}{}}
\@writefile{lof}{\contentsline {figure}{\numberline {6.22}{\ignorespaces The sum of the leakage current from the modules connected to each channel. The histograms represent the leakage current at pigtail connection stage. Module power is off, and temperatures are normalized to the module temperature on the local support.}}{153}{figure.caption.256}\protected@file@percent }
\newlabel{fig:localsupport_iv}{{6.22}{153}{The sum of the leakage current from the modules connected to each channel. The histograms represent the leakage current at pigtail connection stage. Module power is off, and temperatures are normalized to the module temperature on the local support}{figure.caption.256}{}}
\newlabel{fig:ihrch1_iv_keithley}{{6.23a}{154}{Channel 1}{figure.caption.257}{}}
\newlabel{sub@fig:ihrch1_iv_keithley}{{a}{154}{Channel 1}{figure.caption.257}{}}
\newlabel{fig:ihrch2_iv_keithley}{{6.23b}{154}{Channel 2}{figure.caption.257}{}}
\newlabel{sub@fig:ihrch2_iv_keithley}{{b}{154}{Channel 2}{figure.caption.257}{}}
\@writefile{lof}{\contentsline {figure}{\numberline {6.23}{\ignorespaces The IV curves of IHR channels with Keithley 2410.}}{154}{figure.caption.257}\protected@file@percent }
\newlabel{fig:ihr_iv_keithley}{{6.23}{154}{The IV curves of IHR channels with Keithley 2410}{figure.caption.257}{}}
\@writefile{toc}{\contentsline {section}{\numberline {6.5}Temperature scan}{154}{section.6.5}\protected@file@percent }
\@writefile{toc}{\contentsline {subsection}{\numberline {6.5.1}Module temperature}{154}{subsection.6.5.1}\protected@file@percent }
\@writefile{lof}{\contentsline {figure}{\numberline {6.24}{\ignorespaces The module temperatures at each cooling pipe temperature.}}{155}{figure.caption.258}\protected@file@percent }
\newlabel{fig:temperatureIHR}{{6.24}{155}{The module temperatures at each cooling pipe temperature}{figure.caption.258}{}}
\@writefile{lof}{\contentsline {figure}{\numberline {6.25}{\ignorespaces Oscillation of NTC temperature observed in the module located at the upstream end of the SP-chain. The cooling pipe temperature is -10~$^{\circ }$C.}}{155}{figure.caption.259}\protected@file@percent }
\newlabel{fig:ntc_oscillication}{{6.25}{155}{Oscillation of NTC temperature observed in the module located at the upstream end of the SP-chain. The cooling pipe temperature is -10~$^{\circ }$C}{figure.caption.259}{}}
\@writefile{toc}{\contentsline {subsection}{\numberline {6.5.2}LV and communication}{155}{subsection.6.5.2}\protected@file@percent }
\@writefile{lof}{\contentsline {figure}{\numberline {6.26}{\ignorespaces The LVs supplied 4.6~A in each temperature. The voltages for configured modules are shown in the left plot, while those for unconfigured modules are shown in the right plot.}}{156}{figure.caption.260}\protected@file@percent }
\newlabel{fig:voltageIHR}{{6.26}{156}{The LVs supplied 4.6~A in each temperature. The voltages for configured modules are shown in the left plot, while those for unconfigured modules are shown in the right plot}{figure.caption.260}{}}
\@writefile{toc}{\contentsline {subsection}{\numberline {6.5.3}Electrical performance}{156}{subsection.6.5.3}\protected@file@percent }
\citation{localsupportdesign}
\citation{localsupportdesign}
\citation{localsupportdesign}
\citation{localsupportdesign}
\@writefile{lof}{\contentsline {figure}{\numberline {6.27}{\ignorespaces Number of (left) dead and (right) bad pixels in the Digital scan at each cooling pipe temperature. The software used is YARR.}}{157}{figure.caption.261}\protected@file@percent }
\newlabel{fig:occupancyIHR}{{6.27}{157}{Number of (left) dead and (right) bad pixels in the Digital scan at each cooling pipe temperature. The software used is YARR}{figure.caption.261}{}}
\@writefile{toc}{\contentsline {section}{\numberline {6.6}Thermal cycle}{157}{section.6.6}\protected@file@percent }
\@writefile{lof}{\contentsline {figure}{\numberline {6.28}{\ignorespaces Analog (left) dead and (right) bad pixels of modules on the M6. \cite  {localsupportdesign}}}{157}{figure.caption.262}\protected@file@percent }
\newlabel{fig:m6analog}{{6.28}{157}{Analog (left) dead and (right) bad pixels of modules on the M6. \cite {localsupportdesign}}{figure.caption.262}{}}
\@writefile{lof}{\contentsline {figure}{\numberline {6.29}{\ignorespaces Analog (left) dead and (right) bad pixels of modules on the M12. \cite  {localsupportdesign}}}{158}{figure.caption.263}\protected@file@percent }
\newlabel{fig:m12analog}{{6.29}{158}{Analog (left) dead and (right) bad pixels of modules on the M12. \cite {localsupportdesign}}{figure.caption.263}{}}
\newlabel{fig:cernq4_vi}{{6.30a}{159}{CERNQ4 (mechanical protection)}{figure.caption.264}{}}
\newlabel{sub@fig:cernq4_vi}{{a}{159}{CERNQ4 (mechanical protection)}{figure.caption.264}{}}
\newlabel{fig:kekq20_vi}{{6.30b}{159}{KEKQ20 (mechanical protection)}{figure.caption.264}{}}
\newlabel{sub@fig:kekq20_vi}{{b}{159}{KEKQ20 (mechanical protection)}{figure.caption.264}{}}
\newlabel{fig:cernq8_vi}{{6.30c}{159}{CERNQ8 (Potting)}{figure.caption.264}{}}
\newlabel{sub@fig:cernq8_vi}{{c}{159}{CERNQ8 (Potting)}{figure.caption.264}{}}
\newlabel{fig:goe4_vi}{{6.30d}{159}{Goe4 (Potting)}{figure.caption.264}{}}
\newlabel{sub@fig:goe4_vi}{{d}{159}{Goe4 (Potting)}{figure.caption.264}{}}
\newlabel{fig:liv5_vi}{{6.30e}{159}{Liv5 (Potting)}{figure.caption.264}{}}
\newlabel{sub@fig:liv5_vi}{{e}{159}{Liv5 (Potting)}{figure.caption.264}{}}
\newlabel{fig:cernq10_vi}{{6.30f}{159}{CERNQ10 (Potting)}{figure.caption.264}{}}
\newlabel{sub@fig:cernq10_vi}{{f}{159}{CERNQ10 (Potting)}{figure.caption.264}{}}
\@writefile{lof}{\contentsline {figure}{\numberline {6.30}{\ignorespaces The VI scans are conducted after thermal cycling on the local support. The scans are performed using a single testing setup.}}{159}{figure.caption.264}\protected@file@percent }
\newlabel{fig:vi_aftertc}{{6.30}{159}{The VI scans are conducted after thermal cycling on the local support. The scans are performed using a single testing setup}{figure.caption.264}{}}
\newlabel{fig:cernq4_digital_after}{{6.31a}{160}{Digital scan}{figure.caption.265}{}}
\newlabel{sub@fig:cernq4_digital_after}{{a}{160}{Digital scan}{figure.caption.265}{}}
\newlabel{fig:cernq4_analog_after}{{6.31b}{160}{Analog scan}{figure.caption.265}{}}
\newlabel{sub@fig:cernq4_analog_after}{{b}{160}{Analog scan}{figure.caption.265}{}}
\@writefile{lof}{\contentsline {figure}{\numberline {6.31}{\ignorespaces The occupancy maps of (left) digital scan and (right) analog scan for the CERNQ4 module after thermal cycling. This module is equipped with mechanical protection.}}{160}{figure.caption.265}\protected@file@percent }
\newlabel{fig:CERNQ4_afterTC}{{6.31}{160}{The occupancy maps of (left) digital scan and (right) analog scan for the CERNQ4 module after thermal cycling. This module is equipped with mechanical protection}{figure.caption.265}{}}
\newlabel{fig:kekq20_digital_after}{{6.32a}{160}{Digital scan}{figure.caption.266}{}}
\newlabel{sub@fig:kekq20_digital_after}{{a}{160}{Digital scan}{figure.caption.266}{}}
\newlabel{fig:kekq20_analog_after}{{6.32b}{160}{Analog scan}{figure.caption.266}{}}
\newlabel{sub@fig:kekq20_analog_after}{{b}{160}{Analog scan}{figure.caption.266}{}}
\@writefile{lof}{\contentsline {figure}{\numberline {6.32}{\ignorespaces The occupancy maps of (left) digital scan and (right) analog scan for the KEKQ20 module after thermal cycling. This module is equipped with mechanical protection.}}{160}{figure.caption.266}\protected@file@percent }
\newlabel{fig:kekq20_afterTC}{{6.32}{160}{The occupancy maps of (left) digital scan and (right) analog scan for the KEKQ20 module after thermal cycling. This module is equipped with mechanical protection}{figure.caption.266}{}}
\newlabel{fig:cernq10_digital_after}{{6.33a}{160}{Digital scan}{figure.caption.267}{}}
\newlabel{sub@fig:cernq10_digital_after}{{a}{160}{Digital scan}{figure.caption.267}{}}
\newlabel{fig:cernq10_analog_after}{{6.33b}{160}{Analog scan}{figure.caption.267}{}}
\newlabel{sub@fig:cernq10_analog_after}{{b}{160}{Analog scan}{figure.caption.267}{}}
\@writefile{lof}{\contentsline {figure}{\numberline {6.33}{\ignorespaces The occupancy maps of (left) digital scan and (right) analog scan for the CERNQ10 module after thermal cycling. This module is equipped with potting for protection.}}{160}{figure.caption.267}\protected@file@percent }
\newlabel{fig:CERNQ10_afterTC}{{6.33}{160}{The occupancy maps of (left) digital scan and (right) analog scan for the CERNQ10 module after thermal cycling. This module is equipped with potting for protection}{figure.caption.267}{}}
\@writefile{toc}{\contentsline {section}{\numberline {6.7}Summary}{160}{section.6.7}\protected@file@percent }
\@setckpt{Chapters/6-LocalSupportTest}{
\setcounter{page}{162}
\setcounter{equation}{0}
\setcounter{enumi}{2}
\setcounter{enumii}{0}
\setcounter{enumiii}{0}
\setcounter{enumiv}{0}
\setcounter{footnote}{0}
\setcounter{mpfootnote}{0}
\setcounter{part}{0}
\setcounter{chapter}{6}
\setcounter{section}{7}
\setcounter{subsection}{0}
\setcounter{subsubsection}{0}
\setcounter{paragraph}{0}
\setcounter{subparagraph}{0}
\setcounter{figure}{33}
\setcounter{table}{5}
\setcounter{Maxaffil}{2}
\setcounter{authors}{0}
\setcounter{affil}{0}
\setcounter{parentequation}{0}
\setcounter{section@level}{1}
\setcounter{Item}{9}
\setcounter{Hfootnote}{5}
\setcounter{Hy@AnnotLevel}{0}
\setcounter{bookmark@seq@number}{95}
\setcounter{float@type}{4}
\setcounter{linenumber}{1}
\setcounter{LN@truepage}{162}
\setcounter{caption@flags}{6}
\setcounter{continuedfloat}{0}
\setcounter{subfigure}{2}
\setcounter{subtable}{0}
}
