\relax 
\providecommand\hyper@newdestlabel[2]{}
\bibcite{darkmatter}{1}
\bibcite{darkmatter2}{2}
\bibcite{debroglie}{3}
\bibcite{ALICE}{4}
\bibcite{ATLAS}{5}
\bibcite{CMS}{6}
\bibcite{LHCb}{7}
\bibcite{acceleratotcomplex}{8}
\bibcite{atlascrosssection}{9}
\bibcite{higgsdiscover}{10}
\bibcite{higgslatest}{11}
\bibcite{heavywmass}{12}
\bibcite{r-parity}{13}
\bibcite{SUSY}{14}
\bibcite{innerdetector}{15}
\bibcite{ID}{16}
\bibcite{Pixels}{17}
\bibcite{IBL}{18}
\bibcite{SCTdesign}{19}
\bibcite{TRT}{20}
\bibcite{calorimeter}{21}
\bibcite{LAr}{22}
\bibcite{muon}{23}
\bibcite{hllhc}{24}
\bibcite{hllhcTDR}{25}
\bibcite{physicsHLLHC}{26}
\bibcite{hllhc_wwjj}{27}
\bibcite{bsm}{28}
\bibcite{atlasupgrade}{29}
\bibcite{PixTDR}{30}
\bibcite{Moore}{31}
\bibcite{leakratio}{32}
\bibcite{bandgap}{33}
\bibcite{bethe}{34}
\bibcite{pdg}{35}
\bibcite{J.B.Johnson}{36}
\bibcite{mcwhorter}{37}
\bibcite{niel_damage}{38}
\bibcite{Moll2}{39}
\bibcite{Moll}{40}
\bibcite{cce_radiation}{41}
\bibcite{sct_fd}{42}
\bibcite{pstop}{43}
\bibcite{new_design}{44}
\bibcite{rd53study}{45}
\bibcite{RD53Amanual}{46}
\bibcite{3Defficiency}{47}
\bibcite{sensor_detail}{48}
\bibcite{serialpowering}{49}
\bibcite{yarr}{50}
\bibcite{felix}{51}
\bibcite{moth}{52}
\bibcite{steinhart}{53}
\bibcite{cellsimulation}{54}
\bibcite{keithley}{55}
\bibcite{ttilv}{56}
\bibcite{moduletesting}{57}
\bibcite{markmaster}{58}
\bibcite{FLIR}{59}
\bibcite{technicalcriteria}{60}
\bibcite{mpi}{61}
\bibcite{RandS}{62}
\bibcite{iseg}{63}
\bibcite{localsupportdesign}{64}
\@setckpt{Chapters/91_bibliography}{
\setcounter{page}{148}
\setcounter{equation}{0}
\setcounter{enumi}{2}
\setcounter{enumii}{0}
\setcounter{enumiii}{0}
\setcounter{enumiv}{64}
\setcounter{footnote}{0}
\setcounter{mpfootnote}{0}
\setcounter{part}{0}
\setcounter{chapter}{7}
\setcounter{section}{0}
\setcounter{subsection}{0}
\setcounter{subsubsection}{0}
\setcounter{paragraph}{0}
\setcounter{subparagraph}{0}
\setcounter{figure}{0}
\setcounter{table}{0}
\setcounter{Maxaffil}{2}
\setcounter{authors}{0}
\setcounter{affil}{0}
\setcounter{parentequation}{0}
\setcounter{section@level}{1}
\setcounter{Item}{9}
\setcounter{Hfootnote}{5}
\setcounter{Hy@AnnotLevel}{0}
\setcounter{bookmark@seq@number}{91}
\setcounter{float@type}{4}
\setcounter{linenumber}{1}
\setcounter{LN@truepage}{153}
\setcounter{caption@flags}{6}
\setcounter{continuedfloat}{0}
\setcounter{subfigure}{0}
\setcounter{subtable}{0}
}
