{
    "Data": [0.0, 0.0, 0.0, 0.0, 0.0, 0.0, 0.0, 0.0, 0.0, 0.0, 0.0, 0.0, 0.0, 0.0, 0.0, 0.0, 0.0, 0.0, 0.0, 0.0, 0.0, 0.0, 0.0, 0.0, 0.0, 0.0, 0.0, 0.0, 0.0, 0.0, 0.0, 0.0, 0.0, 0.0, 0.0, 0.0, 0.0, 0.0, 0.0, 0.0, 0.0, 0.0, 0.0, 0.0, 0.0, 0.0, 0.0, 0.0, 1.0, 0.0, 0.0, 0.0, 0.0, 0.0, 0.0, 1.0, 0.0, 0.0, 1.0, 0.0, 0.0, 0.0, 1.0, 0.0, 0.0, 0.0, 0.0, 0.0, 0.0, 0.0, 0.0, 0.0, 0.0, 1.0, 0.0, 0.0, 0.0, 0.0, 0.0, 0.0, 0.0, 0.0, 0.0, 0.0, 0.0, 0.0, 0.0, 0.0, 0.0, 1.0, 0.0, 0.0, 0.0, 0.0, 0.0, 0.0, 0.0, 1.0, 0.0, 1.0, 0.0, 0.0, 1.0, 0.0, 0.0, 1.0, 1.0, 1.0, 0.0, 0.0, 1.0, 0.0, 0.0, 0.0, 0.0, 0.0, 0.0, 0.0, 0.0, 0.0, 2.0, 1.0, 1.0, 0.0, 0.0, 0.0, 0.0, 0.0, 0.0, 0.0, 0.0, 1.0, 0.0, 0.0, 0.0, 2.0, 0.0, 2.0, 1.0, 0.0, 0.0, 0.0, 0.0, 0.0, 0.0, 1.0, 1.0, 0.0, 0.0, 0.0, 2.0, 1.0, 1.0, 3.0, 0.0, 0.0, 3.0, 3.0, 1.0, 0.0, 2.0, 0.0, 1.0, 3.0, 2.0, 6.0, 0.0, 1.0, 7.0, 5.0, 5.0, 1.0, 1.0, 4.0, 3.0, 3.0, 4.0, 1.0, 7.0, 6.0, 2.0, 5.0, 8.0, 5.0, 5.0, 6.0, 8.0, 7.0, 6.0, 4.0, 6.0, 13.0, 8.0, 9.0, 10.0, 5.0, 8.0, 10.0, 8.0, 12.0, 19.0, 7.0, 15.0, 17.0, 13.0, 14.0, 21.0, 19.0, 19.0, 26.0, 20.0, 16.0, 31.0, 23.0, 37.0, 27.0, 26.0, 37.0, 38.0, 57.0, 44.0, 24.0, 50.0, 34.0, 49.0, 46.0, 47.0, 63.0, 58.0, 70.0, 58.0, 54.0, 81.0, 71.0, 86.0, 72.0, 81.0, 90.0, 65.0, 92.0, 90.0, 85.0, 101.0, 100.0, 109.0, 92.0, 122.0, 118.0, 116.0, 126.0, 132.0, 121.0, 117.0, 143.0, 123.0, 132.0, 159.0, 138.0, 156.0, 163.0, 183.0, 158.0, 156.0, 171.0, 170.0, 147.0, 168.0, 165.0, 170.0, 163.0, 175.0, 176.0, 173.0, 172.0, 181.0, 176.0, 183.0, 186.0, 192.0, 168.0, 148.0, 172.0, 162.0, 191.0, 166.0, 180.0, 179.0, 171.0, 186.0, 167.0, 177.0, 187.0, 168.0, 155.0, 174.0, 160.0, 171.0, 165.0, 160.0, 142.0, 147.0, 156.0, 156.0, 187.0, 163.0, 160.0, 146.0, 148.0, 141.0, 145.0, 148.0, 134.0, 143.0, 140.0, 130.0, 123.0, 137.0, 123.0, 120.0, 121.0, 112.0, 121.0, 148.0, 121.0, 126.0, 108.0, 123.0, 122.0, 125.0, 117.0, 111.0, 109.0, 120.0, 127.0, 95.0, 120.0, 100.0, 119.0, 120.0, 94.0, 98.0, 95.0, 101.0, 104.0, 97.0, 96.0, 90.0, 97.0, 107.0, 89.0, 99.0, 89.0, 92.0, 99.0, 83.0, 74.0, 95.0, 83.0, 85.0, 87.0, 66.0, 77.0, 74.0, 65.0, 84.0, 81.0, 76.0, 70.0, 67.0, 65.0, 68.0, 81.0, 60.0, 77.0, 67.0, 68.0, 64.0, 67.0, 63.0, 75.0, 64.0, 57.0, 76.0, 52.0, 53.0, 68.0, 48.0, 41.0, 45.0, 53.0, 37.0, 39.0, 48.0, 56.0, 42.0, 54.0, 46.0, 50.0, 48.0, 47.0, 45.0, 47.0, 47.0, 58.0, 42.0, 50.0, 31.0, 55.0, 38.0, 41.0, 39.0, 35.0, 43.0, 36.0, 37.0, 29.0, 34.0, 26.0, 27.0, 34.0, 24.0, 29.0, 29.0, 34.0, 24.0, 31.0, 18.0, 18.0, 15.0, 19.0, 24.0, 27.0, 22.0, 21.0, 21.0, 17.0, 31.0, 25.0, 17.0, 24.0, 28.0, 22.0, 17.0, 18.0, 22.0, 15.0, 29.0, 16.0, 21.0, 22.0, 18.0, 13.0, 17.0, 17.0, 13.0, 8.0, 14.0, 10.0, 9.0, 14.0, 13.0, 11.0, 14.0, 15.0, 10.0, 7.0, 13.0, 11.0, 13.0, 14.0, 10.0, 14.0, 10.0, 8.0, 4.0, 5.0, 3.0, 4.0, 9.0, 11.0, 6.0, 11.0, 5.0, 6.0, 11.0, 2.0, 7.0, 4.0, 6.0, 7.0, 7.0, 5.0, 10.0, 7.0, 7.0, 6.0, 9.0, 3.0, 6.0, 6.0, 8.0, 2.0, 4.0, 6.0, 6.0, 1.0, 6.0, 2.0, 4.0, 3.0, 3.0, 4.0, 1.0, 2.0, 3.0, 1.0, 2.0, 1.0, 3.0, 3.0, 2.0, 3.0, 3.0, 2.0, 2.0, 1.0, 3.0, 1.0, 3.0, 3.0, 2.0, 1.0, 3.0, 0.0, 1.0, 1.0, 2.0, 2.0, 1.0, 1.0, 1.0, 0.0, 0.0, 3.0, 0.0, 1.0, 2.0, 0.0, 3.0, 0.0, 0.0, 1.0, 2.0, 0.0, 1.0, 3.0, 3.0, 3.0, 1.0, 1.0, 1.0, 0.0, 2.0, 0.0, 1.0, 2.0, 0.0, 1.0, 0.0, 0.0, 1.0, 0.0, 0.0, 0.0, 0.0, 3.0, 1.0, 0.0, 0.0, 1.0, 1.0, 2.0, 0.0, 0.0, 1.0, 0.0, 0.0, 3.0, 0.0, 0.0, 0.0, 0.0, 0.0, 0.0, 0.0, 1.0, 0.0, 0.0, 0.0, 0.0, 0.0, 0.0, 0.0, 1.0, 0.0, 1.0, 0.0, 0.0, 1.0, 0.0, 0.0, 1.0, 0.0, 0.0, 1.0, 1.0, 0.0, 0.0, 0.0, 0.0, 0.0],
    "Name": "NoiseDist-0",
    "Overflow": 16.0,
    "Type": "Histo1d",
    "Underflow": 3.0,
    "x": {
        "AxisTitle": "Noise [e]",
        "Bins": 621,
        "High": 3647.0,
        "Low": 542.0
    },
    "y": {
        "AxisTitle": "Number of Pixels"
    },
    "z": {
        "AxisTitle": "z"
    }
}