{
    "Data": [0.0, 0.0, 0.0, 0.0, 0.0, 0.0, 0.0, 0.0, 0.0, 0.0, 0.0, 0.0, 0.0, 0.0, 0.0, 0.0, 0.0, 0.0, 0.0, 0.0, 0.0, 0.0, 0.0, 0.0, 0.0, 0.0, 0.0, 0.0, 0.0, 0.0, 0.0, 0.0, 0.0, 0.0, 0.0, 0.0, 0.0, 0.0, 1.0, 0.0, 0.0, 0.0, 0.0, 0.0, 0.0, 0.0, 0.0, 0.0, 0.0, 0.0, 0.0, 0.0, 0.0, 0.0, 0.0, 0.0, 0.0, 0.0, 1.0, 1.0, 0.0, 0.0, 0.0, 0.0, 0.0, 0.0, 1.0, 0.0, 0.0, 0.0, 0.0, 0.0, 0.0, 0.0, 0.0, 0.0, 1.0, 0.0, 0.0, 0.0, 0.0, 0.0, 2.0, 1.0, 0.0, 0.0, 0.0, 0.0, 0.0, 0.0, 0.0, 0.0, 0.0, 0.0, 1.0, 0.0, 0.0, 0.0, 0.0, 1.0, 0.0, 0.0, 1.0, 1.0, 1.0, 1.0, 0.0, 0.0, 1.0, 0.0, 0.0, 2.0, 1.0, 0.0, 0.0, 1.0, 2.0, 0.0, 0.0, 1.0, 1.0, 1.0, 1.0, 0.0, 1.0, 0.0, 1.0, 1.0, 3.0, 1.0, 2.0, 3.0, 1.0, 1.0, 2.0, 1.0, 3.0, 1.0, 2.0, 2.0, 2.0, 2.0, 3.0, 3.0, 4.0, 4.0, 4.0, 3.0, 3.0, 2.0, 4.0, 2.0, 7.0, 8.0, 5.0, 9.0, 6.0, 3.0, 4.0, 4.0, 3.0, 9.0, 13.0, 9.0, 5.0, 14.0, 10.0, 12.0, 17.0, 9.0, 10.0, 18.0, 17.0, 11.0, 12.0, 17.0, 19.0, 21.0, 24.0, 16.0, 23.0, 18.0, 20.0, 23.0, 25.0, 22.0, 28.0, 29.0, 44.0, 28.0, 36.0, 41.0, 37.0, 38.0, 33.0, 40.0, 40.0, 54.0, 63.0, 46.0, 56.0, 56.0, 67.0, 53.0, 48.0, 72.0, 73.0, 85.0, 85.0, 83.0, 78.0, 80.0, 86.0, 80.0, 85.0, 100.0, 96.0, 89.0, 103.0, 108.0, 95.0, 97.0, 116.0, 108.0, 115.0, 125.0, 122.0, 116.0, 105.0, 115.0, 118.0, 118.0, 128.0, 128.0, 139.0, 119.0, 123.0, 133.0, 133.0, 145.0, 140.0, 154.0, 137.0, 145.0, 115.0, 136.0, 125.0, 144.0, 152.0, 137.0, 134.0, 145.0, 134.0, 128.0, 151.0, 152.0, 140.0, 119.0, 129.0, 138.0, 122.0, 113.0, 121.0, 127.0, 138.0, 127.0, 118.0, 127.0, 119.0, 116.0, 125.0, 130.0, 108.0, 97.0, 99.0, 106.0, 97.0, 110.0, 77.0, 111.0, 87.0, 93.0, 74.0, 98.0, 84.0, 83.0, 103.0, 77.0, 83.0, 88.0, 81.0, 69.0, 66.0, 67.0, 65.0, 75.0, 63.0, 54.0, 68.0, 67.0, 67.0, 57.0, 66.0, 54.0, 45.0, 62.0, 53.0, 51.0, 53.0, 48.0, 44.0, 50.0, 46.0, 50.0, 41.0, 47.0, 33.0, 36.0, 40.0, 32.0, 36.0, 34.0, 39.0, 30.0, 40.0, 26.0, 45.0, 34.0, 29.0, 21.0, 20.0, 34.0, 19.0, 32.0, 23.0, 16.0, 24.0, 28.0, 11.0, 19.0, 24.0, 13.0, 22.0, 19.0, 25.0, 13.0, 23.0, 15.0, 15.0, 18.0, 14.0, 12.0, 11.0, 14.0, 15.0, 13.0, 12.0, 15.0, 12.0, 12.0, 7.0, 12.0, 11.0, 14.0, 9.0, 13.0, 8.0, 7.0, 11.0, 11.0, 12.0, 13.0, 4.0, 8.0, 8.0, 11.0, 6.0, 8.0, 7.0, 12.0, 6.0, 6.0, 5.0, 8.0, 10.0, 5.0, 14.0, 15.0, 10.0, 9.0, 7.0, 9.0, 6.0, 5.0, 5.0, 4.0, 9.0, 6.0, 12.0, 8.0, 2.0, 10.0, 9.0, 9.0, 8.0, 3.0, 5.0, 5.0, 7.0, 5.0, 5.0, 2.0, 6.0, 3.0, 3.0, 5.0, 5.0, 2.0, 3.0, 8.0, 4.0, 2.0, 4.0, 5.0, 2.0, 4.0, 3.0, 2.0, 5.0, 2.0, 3.0, 4.0, 1.0, 2.0, 1.0, 1.0, 2.0, 5.0, 0.0, 3.0, 5.0, 4.0, 5.0, 2.0, 1.0, 3.0, 3.0, 0.0, 0.0, 3.0, 0.0, 2.0, 1.0, 0.0, 1.0, 5.0, 3.0, 2.0, 1.0, 1.0, 0.0, 2.0, 1.0, 3.0, 1.0, 2.0, 2.0, 2.0, 2.0, 0.0, 2.0, 2.0, 1.0, 1.0, 0.0, 0.0, 2.0, 3.0, 2.0, 1.0, 0.0, 1.0, 1.0, 3.0, 3.0, 1.0, 0.0, 1.0, 1.0, 2.0, 0.0, 2.0, 0.0, 1.0, 3.0, 1.0, 0.0, 0.0, 0.0, 1.0, 0.0, 0.0, 0.0, 0.0, 0.0, 0.0, 0.0, 0.0, 0.0, 0.0, 1.0, 1.0, 0.0, 0.0, 1.0, 1.0, 1.0, 0.0, 0.0, 1.0, 0.0],
    "Name": "NoiseDist-0",
    "Overflow": 15.0,
    "Type": "Histo1d",
    "Underflow": 5.0,
    "x": {
        "AxisTitle": "Noise [e]",
        "Bins": 521,
        "High": 3357.0,
        "Low": 752.0
    },
    "y": {
        "AxisTitle": "Number of Pixels"
    },
    "z": {
        "AxisTitle": "z"
    }
}