{
    "Data": [0.0, 0.0, 0.0, 0.0, 0.0, 0.0, 0.0, 0.0, 0.0, 0.0, 0.0, 0.0, 0.0, 0.0, 0.0, 0.0, 0.0, 0.0, 0.0, 0.0, 0.0, 0.0, 0.0, 0.0, 0.0, 0.0, 0.0, 0.0, 0.0, 0.0, 1.0, 0.0, 0.0, 0.0, 0.0, 0.0, 0.0, 0.0, 0.0, 0.0, 0.0, 0.0, 0.0, 0.0, 0.0, 0.0, 0.0, 0.0, 0.0, 0.0, 0.0, 0.0, 0.0, 0.0, 0.0, 0.0, 0.0, 0.0, 0.0, 0.0, 0.0, 0.0, 0.0, 0.0, 0.0, 0.0, 0.0, 0.0, 0.0, 0.0, 0.0, 0.0, 0.0, 0.0, 0.0, 0.0, 0.0, 0.0, 0.0, 1.0, 0.0, 0.0, 0.0, 0.0, 0.0, 0.0, 0.0, 0.0, 0.0, 0.0, 0.0, 0.0, 0.0, 0.0, 0.0, 0.0, 0.0, 0.0, 0.0, 0.0, 0.0, 0.0, 0.0, 0.0, 0.0, 0.0, 0.0, 0.0, 0.0, 0.0, 0.0, 0.0, 0.0, 0.0, 0.0, 0.0, 0.0, 0.0, 0.0, 0.0, 0.0, 0.0, 0.0, 0.0, 0.0, 0.0, 0.0, 0.0, 0.0, 0.0, 0.0, 0.0, 0.0, 0.0, 0.0, 1.0, 0.0, 0.0, 0.0, 0.0, 1.0, 0.0, 0.0, 0.0, 0.0, 0.0, 0.0, 0.0, 0.0, 0.0, 0.0, 0.0, 0.0, 0.0, 0.0, 0.0, 0.0, 1.0, 0.0, 0.0, 0.0, 0.0, 1.0, 0.0, 1.0, 0.0, 0.0, 0.0, 1.0, 0.0, 0.0, 0.0, 0.0, 0.0, 0.0, 0.0, 0.0, 0.0, 0.0, 0.0, 0.0, 0.0, 0.0, 1.0, 0.0, 1.0, 1.0, 3.0, 0.0, 1.0, 1.0, 0.0, 1.0, 0.0, 1.0, 1.0, 1.0, 1.0, 2.0, 0.0, 0.0, 1.0, 1.0, 4.0, 0.0, 0.0, 0.0, 1.0, 1.0, 1.0, 1.0, 1.0, 0.0, 3.0, 4.0, 2.0, 4.0, 1.0, 1.0, 2.0, 4.0, 1.0, 1.0, 4.0, 6.0, 2.0, 3.0, 5.0, 5.0, 4.0, 6.0, 4.0, 3.0, 2.0, 7.0, 2.0, 3.0, 11.0, 10.0, 5.0, 5.0, 9.0, 9.0, 2.0, 9.0, 5.0, 9.0, 10.0, 13.0, 14.0, 12.0, 10.0, 9.0, 18.0, 11.0, 15.0, 11.0, 15.0, 12.0, 17.0, 17.0, 25.0, 22.0, 21.0, 23.0, 27.0, 16.0, 26.0, 15.0, 22.0, 19.0, 28.0, 34.0, 20.0, 32.0, 24.0, 25.0, 38.0, 31.0, 31.0, 39.0, 41.0, 35.0, 47.0, 44.0, 40.0, 59.0, 38.0, 58.0, 43.0, 49.0, 41.0, 49.0, 71.0, 59.0, 71.0, 67.0, 65.0, 79.0, 72.0, 77.0, 84.0, 99.0, 84.0, 74.0, 97.0, 88.0, 93.0, 106.0, 113.0, 117.0, 128.0, 104.0, 117.0, 131.0, 129.0, 124.0, 100.0, 137.0, 134.0, 147.0, 148.0, 134.0, 149.0, 164.0, 149.0, 159.0, 141.0, 165.0, 169.0, 164.0, 164.0, 176.0, 156.0, 208.0, 156.0, 185.0, 141.0, 179.0, 179.0, 186.0, 196.0, 164.0, 186.0, 197.0, 171.0, 211.0, 196.0, 167.0, 194.0, 177.0, 172.0, 181.0, 172.0, 196.0, 153.0, 186.0, 177.0, 158.0, 186.0, 175.0, 173.0, 170.0, 164.0, 169.0, 173.0, 143.0, 150.0, 165.0, 162.0, 166.0, 141.0, 145.0, 155.0, 177.0, 140.0, 137.0, 137.0, 137.0, 121.0, 139.0, 141.0, 103.0, 117.0, 119.0, 115.0, 129.0, 127.0, 139.0, 106.0, 103.0, 107.0, 127.0, 119.0, 116.0, 107.0, 124.0, 79.0, 107.0, 105.0, 113.0, 89.0, 97.0, 91.0, 99.0, 100.0, 90.0, 92.0, 75.0, 95.0, 82.0, 80.0, 86.0, 105.0, 78.0, 74.0, 74.0, 84.0, 85.0, 97.0, 75.0, 71.0, 76.0, 85.0, 63.0, 80.0, 67.0, 75.0, 68.0, 63.0, 61.0, 56.0, 62.0, 68.0, 71.0, 75.0, 58.0, 57.0, 60.0, 73.0, 72.0, 54.0, 51.0, 61.0, 55.0, 44.0, 60.0, 58.0, 63.0, 41.0, 55.0, 57.0, 46.0, 44.0, 61.0, 48.0, 55.0, 51.0, 44.0, 53.0, 55.0, 44.0, 40.0, 52.0, 55.0, 34.0, 47.0, 47.0, 57.0, 44.0, 51.0, 56.0, 50.0, 40.0, 44.0, 45.0, 48.0, 43.0, 59.0, 45.0, 39.0, 42.0, 39.0, 48.0, 45.0, 44.0, 31.0, 48.0, 32.0, 39.0, 39.0, 38.0, 40.0, 30.0, 34.0, 35.0, 38.0, 30.0, 26.0, 35.0, 39.0, 34.0, 26.0, 34.0, 38.0, 32.0, 32.0, 26.0, 32.0, 41.0, 31.0, 41.0, 33.0, 28.0, 24.0, 28.0, 33.0, 25.0, 25.0, 34.0, 23.0, 37.0, 26.0, 21.0, 30.0, 16.0, 29.0, 37.0, 21.0, 29.0, 26.0, 22.0, 20.0, 20.0, 26.0, 23.0, 27.0, 24.0, 29.0, 32.0, 17.0, 20.0, 20.0, 17.0, 19.0, 20.0, 21.0, 27.0, 22.0, 18.0, 15.0, 20.0, 17.0, 10.0, 14.0, 13.0, 12.0, 11.0, 18.0, 17.0, 17.0, 9.0, 8.0, 8.0, 11.0, 10.0, 15.0, 17.0, 11.0, 18.0, 10.0, 10.0, 10.0, 21.0, 13.0, 12.0, 14.0, 14.0, 9.0, 12.0, 10.0, 8.0, 7.0, 7.0, 10.0, 8.0, 9.0, 7.0, 8.0, 14.0, 5.0, 8.0, 11.0, 11.0, 12.0, 11.0, 13.0, 5.0, 10.0, 4.0, 5.0, 6.0, 3.0, 7.0, 6.0, 3.0, 10.0, 2.0, 8.0, 7.0, 4.0, 4.0, 6.0, 1.0, 5.0, 5.0, 8.0, 5.0, 5.0, 9.0, 5.0, 10.0, 1.0, 5.0, 2.0, 6.0, 5.0, 5.0, 3.0, 3.0, 2.0, 7.0, 1.0, 1.0, 8.0, 3.0, 6.0, 5.0, 4.0, 3.0, 5.0, 4.0, 2.0, 0.0, 3.0, 3.0, 3.0, 5.0, 5.0, 3.0, 5.0, 0.0, 2.0, 4.0, 3.0, 5.0, 2.0, 2.0, 2.0, 0.0, 2.0, 3.0, 2.0, 1.0, 2.0, 1.0, 1.0, 0.0, 0.0, 2.0, 1.0, 3.0, 1.0, 3.0, 2.0, 1.0, 0.0, 5.0, 2.0, 4.0, 0.0, 2.0, 1.0, 0.0, 0.0, 1.0, 1.0, 2.0, 1.0, 1.0, 1.0, 1.0, 3.0, 3.0, 4.0, 3.0, 0.0, 1.0, 1.0, 2.0, 0.0, 1.0, 0.0, 2.0, 1.0, 2.0, 0.0, 3.0, 0.0, 1.0, 0.0, 3.0, 0.0, 0.0, 0.0, 0.0, 2.0, 1.0, 0.0, 0.0, 0.0, 0.0, 1.0, 0.0, 0.0, 0.0, 1.0, 2.0, 1.0, 1.0, 1.0, 1.0, 0.0, 0.0, 0.0, 0.0, 3.0, 0.0, 1.0, 0.0, 0.0, 0.0, 0.0, 1.0, 0.0, 0.0, 1.0, 0.0, 0.0, 1.0, 0.0, 0.0, 0.0, 0.0, 2.0, 1.0, 0.0, 1.0, 1.0, 1.0, 0.0, 0.0, 1.0, 0.0, 1.0, 1.0, 0.0, 0.0, 0.0, 1.0, 0.0],
    "Name": "NoiseDist-0",
    "Overflow": 13.0,
    "Type": "Histo1d",
    "Underflow": 2.0,
    "x": {
        "AxisTitle": "Noise [e]",
        "Bins": 771,
        "High": 4162.0,
        "Low": 307.0
    },
    "y": {
        "AxisTitle": "Number of Pixels"
    },
    "z": {
        "AxisTitle": "z"
    }
}