{
    "Data": [0.0, 0.0, 0.0, 0.0, 0.0, 0.0, 0.0, 0.0, 0.0, 0.0, 0.0, 0.0, 0.0, 0.0, 0.0, 0.0, 0.0, 0.0, 0.0, 0.0, 0.0, 0.0, 0.0, 0.0, 5.0, 7.0, 6.0, 1.0, 0.0, 0.0, 5.0, 22.0, 28.0, 17.0, 2.0, 5.0, 34.0, 71.0, 37.0, 22.0, 66.0, 185.0, 233.0, 394.0, 581.0, 746.0, 668.0, 705.0, 1057.0, 1385.0, 1409.0, 1143.0, 909.0, 1173.0, 1528.0, 1476.0, 1065.0, 894.0, 973.0, 889.0, 850.0, 797.0, 791.0, 716.0, 565.0, 431.0, 356.0, 339.0, 285.0, 231.0, 189.0, 207.0, 158.0, 139.0, 90.0, 93.0, 79.0, 61.0, 52.0, 56.0, 32.0, 42.0, 26.0, 23.0, 32.0, 20.0, 23.0, 23.0, 13.0, 20.0, 14.0, 15.0, 7.0, 11.0, 13.0, 10.0, 7.0, 9.0, 9.0, 8.0, 5.0, 3.0, 6.0, 3.0, 11.0, 3.0, 4.0, 2.0, 7.0, 1.0, 5.0, 3.0, 3.0, 4.0, 5.0, 1.0, 0.0, 2.0, 0.0, 5.0, 1.0, 2.0, 2.0, 2.0, 0.0, 2.0, 0.0, 2.0, 1.0, 0.0, 0.0, 1.0, 0.0, 1.0, 1.0, 0.0, 0.0, 0.0, 0.0, 0.0, 0.0, 1.0, 0.0, 0.0, 1.0, 0.0, 1.0, 0.0, 0.0, 0.0, 0.0, 0.0, 0.0, 0.0, 0.0, 0.0, 1.0, 0.0, 0.0, 0.0, 0.0, 0.0, 0.0, 0.0, 0.0, 1.0, 0.0, 0.0, 0.0, 0.0, 0.0, 1.0, 0.0, 0.0, 0.0, 0.0, 0.0, 1.0, 0.0, 0.0, 0.0, 0.0, 0.0, 0.0, 0.0, 1.0, 0.0, 0.0, 0.0, 0.0, 0.0, 0.0, 0.0, 0.0, 0.0, 0.0, 0.0, 0.0, 0.0, 0.0, 0.0],
    "Name": "TimePerFitDist-0",
    "Overflow": 7.0,
    "Type": "Histo1d",
    "Underflow": 0.0,
    "x": {
        "AxisTitle": "Fit Time [us]",
        "Bins": 201,
        "High": 401.0,
        "Low": -1.0
    },
    "y": {
        "AxisTitle": "Number of Pixels"
    },
    "z": {
        "AxisTitle": "z"
    }
}