{
    "unit": {
        "Time": "s",
        "Voltage": "V",
        "Current": "A"
    },
    "V_step": -5,
    "Step_duration": 2,
    "N_measurements_per_step": 10,
    "A_Compliance": 1e-05,
    "Sensor_IV": [
        {
            "Time": 33.24617600440979,
            "Voltage": 0.0,
            "Current_mean": 7.848249399999999e-08,
            "Current_sigma": 1.431643067646276e-08
        },
        {
            "Time": 39.24031138420105,
            "Voltage": -5.0,
            "Current_mean": -4.827504700000001e-07,
            "Current_sigma": 1.7117202746888876e-08
        },
        {
            "Time": 45.234455585479736,
            "Voltage": -10.0,
            "Current_mean": -5.348097900000001e-07,
            "Current_sigma": 1.0487525901035932e-08
        },
        {
            "Time": 51.228487730026245,
            "Voltage": -15.0,
            "Current_mean": -5.595580799999999e-07,
            "Current_sigma": 7.615558054903137e-09
        },
        {
            "Time": 57.222588539123535,
            "Voltage": -20.0,
            "Current_mean": -5.6374049e-07,
            "Current_sigma": 6.858686854267364e-09
        },
        {
            "Time": 63.216463565826416,
            "Voltage": -25.0,
            "Current_mean": -5.652967599999999e-07,
            "Current_sigma": 6.252168238171471e-09
        },
        {
            "Time": 69.21056175231934,
            "Voltage": -30.0,
            "Current_mean": -5.671841400000001e-07,
            "Current_sigma": 6.560669377312035e-09
        },
        {
            "Time": 75.20473456382751,
            "Voltage": -35.0,
            "Current_mean": -5.6903873e-07,
            "Current_sigma": 6.144880768582899e-09
        },
        {
            "Time": 81.19884324073792,
            "Voltage": -40.0,
            "Current_mean": -5.7283302e-07,
            "Current_sigma": 5.936959529388774e-09
        },
        {
            "Time": 87.19290232658386,
            "Voltage": -45.0,
            "Current_mean": -5.787904800000001e-07,
            "Current_sigma": 5.989362876767459e-09
        },
        {
            "Time": 93.18684506416321,
            "Voltage": -50.0,
            "Current_mean": -5.7993194e-07,
            "Current_sigma": 5.406231142709327e-09
        },
        {
            "Time": 99.18097043037415,
            "Voltage": -55.0,
            "Current_mean": -5.8069649e-07,
            "Current_sigma": 6.106332781211644e-09
        },
        {
            "Time": 105.17493152618408,
            "Voltage": -60.0,
            "Current_mean": -5.821294900000001e-07,
            "Current_sigma": 5.9137842771697456e-09
        },
        {
            "Time": 111.16900420188904,
            "Voltage": -65.0,
            "Current_mean": -5.832718900000001e-07,
            "Current_sigma": 5.558912488508874e-09
        },
        {
            "Time": 117.16291666030884,
            "Voltage": -70.0,
            "Current_mean": -5.8565256e-07,
            "Current_sigma": 5.986154157420282e-09
        },
        {
            "Time": 123.15694046020508,
            "Voltage": -75.0,
            "Current_mean": -5.8635436e-07,
            "Current_sigma": 5.81068683155442e-09
        },
        {
            "Time": 129.15083694458008,
            "Voltage": -80.0,
            "Current_mean": -5.8730418e-07,
            "Current_sigma": 5.024778571797968e-09
        },
        {
            "Time": 135.14494252204895,
            "Voltage": -85.0,
            "Current_mean": -5.895971099999999e-07,
            "Current_sigma": 5.52867614812987e-09
        },
        {
            "Time": 141.13898730278015,
            "Voltage": -90.0,
            "Current_mean": -5.9171955e-07,
            "Current_sigma": 5.209470812328264e-09
        },
        {
            "Time": 147.13292145729065,
            "Voltage": -95.0,
            "Current_mean": -5.969818399999999e-07,
            "Current_sigma": 4.784004701962562e-09
        },
        {
            "Time": 153.126788854599,
            "Voltage": -100.0,
            "Current_mean": -6.050193699999999e-07,
            "Current_sigma": 5.4188039949881995e-09
        },
        {
            "Time": 159.12109184265137,
            "Voltage": -105.0,
            "Current_mean": -6.081866600000001e-07,
            "Current_sigma": 5.405788045086486e-09
        },
        {
            "Time": 165.11528253555298,
            "Voltage": -110.0,
            "Current_mean": -6.1194571e-07,
            "Current_sigma": 5.471918952150157e-09
        },
        {
            "Time": 171.10948252677917,
            "Voltage": -115.0,
            "Current_mean": -6.1584497e-07,
            "Current_sigma": 4.725791652633462e-09
        },
        {
            "Time": 177.10340237617493,
            "Voltage": -120.0,
            "Current_mean": -6.204411699999999e-07,
            "Current_sigma": 4.720355405697752e-09
        },
        {
            "Time": 183.0973699092865,
            "Voltage": -125.0,
            "Current_mean": -6.243123799999999e-07,
            "Current_sigma": 4.959236744459788e-09
        },
        {
            "Time": 189.09140276908875,
            "Voltage": -130.0,
            "Current_mean": -6.2917949e-07,
            "Current_sigma": 4.993461195493561e-09
        },
        {
            "Time": 195.08544540405273,
            "Voltage": -135.0,
            "Current_mean": -6.3305311e-07,
            "Current_sigma": 4.410329162874346e-09
        },
        {
            "Time": 201.07933449745178,
            "Voltage": -140.0,
            "Current_mean": -6.3828411e-07,
            "Current_sigma": 4.571586856541176e-09
        },
        {
            "Time": 207.07322120666504,
            "Voltage": -145.0,
            "Current_mean": -6.430669e-07,
            "Current_sigma": 4.481060108054786e-09
        },
        {
            "Time": 213.06716394424438,
            "Voltage": -150.0,
            "Current_mean": -6.4885764e-07,
            "Current_sigma": 4.3143820153528195e-09
        },
        {
            "Time": 219.06132888793945,
            "Voltage": -155.0,
            "Current_mean": -6.5568656e-07,
            "Current_sigma": 4.496500548693393e-09
        },
        {
            "Time": 225.07151174545288,
            "Voltage": -160.0,
            "Current_mean": -6.6196124e-07,
            "Current_sigma": 4.704190714076121e-09
        },
        {
            "Time": 231.0656280517578,
            "Voltage": -165.0,
            "Current_mean": -6.6958472e-07,
            "Current_sigma": 4.198696283800484e-09
        },
        {
            "Time": 237.05970358848572,
            "Voltage": -170.0,
            "Current_mean": -6.765619700000001e-07,
            "Current_sigma": 4.0782416811782954e-09
        },
        {
            "Time": 243.05334401130676,
            "Voltage": -175.0,
            "Current_mean": -6.849895299999999e-07,
            "Current_sigma": 3.7742841366410075e-09
        },
        {
            "Time": 249.04755353927612,
            "Voltage": -180.0,
            "Current_mean": -6.933302199999999e-07,
            "Current_sigma": 4.138097083153076e-09
        },
        {
            "Time": 255.04152274131775,
            "Voltage": -185.0,
            "Current_mean": -7.0371745e-07,
            "Current_sigma": 3.892224278031784e-09
        },
        {
            "Time": 261.03548860549927,
            "Voltage": -190.0,
            "Current_mean": -7.1423857e-07,
            "Current_sigma": 4.4059276753142356e-09
        },
        {
            "Time": 267.0295350551605,
            "Voltage": -195.0,
            "Current_mean": -7.2675631e-07,
            "Current_sigma": 3.971687346317672e-09
        },
        {
            "Time": 273.02339243888855,
            "Voltage": -200.0,
            "Current_mean": -7.395659000000001e-07,
            "Current_sigma": 3.723417884417489e-09
        }
    ]
}