{
    "unit": {
        "Time": "s",
        "Voltage": "V",
        "Current": "A"
    },
    "V_step": -5,
    "Step_duration": 2,
    "N_measurements_per_step": 10,
    "A_Compliance": 1e-05,
    "Sensor_IV": [
        {
            "Time": 33.24688506126404,
            "Voltage": 0.0,
            "Current_mean": 7.015515000000001e-09,
            "Current_sigma": 7.22425100333146e-09
        },
        {
            "Time": 39.24112844467163,
            "Voltage": -5.0,
            "Current_mean": -1.8605774e-07,
            "Current_sigma": 1.3838573844150287e-09
        },
        {
            "Time": 45.2351713180542,
            "Voltage": -10.0,
            "Current_mean": -1.8323909e-07,
            "Current_sigma": 2.904631342339333e-09
        },
        {
            "Time": 51.229382038116455,
            "Voltage": -15.0,
            "Current_mean": -1.8290113e-07,
            "Current_sigma": 2.9579564902310513e-09
        },
        {
            "Time": 57.22349977493286,
            "Voltage": -20.0,
            "Current_mean": -1.7247357e-07,
            "Current_sigma": 1.4055828022923405e-09
        },
        {
            "Time": 63.21767973899841,
            "Voltage": -25.0,
            "Current_mean": -1.85104e-07,
            "Current_sigma": 2.0673800100610436e-09
        },
        {
            "Time": 69.21166920661926,
            "Voltage": -30.0,
            "Current_mean": -1.9289501e-07,
            "Current_sigma": 8.980486250198274e-10
        },
        {
            "Time": 75.20565271377563,
            "Voltage": -35.0,
            "Current_mean": -1.9340409e-07,
            "Current_sigma": 3.595310764036976e-10
        },
        {
            "Time": 81.19964718818665,
            "Voltage": -40.0,
            "Current_mean": -1.9359728000000002e-07,
            "Current_sigma": 3.326137754212806e-10
        },
        {
            "Time": 87.1938226222992,
            "Voltage": -45.0,
            "Current_mean": -1.9266531000000002e-07,
            "Current_sigma": 7.188256609915914e-10
        },
        {
            "Time": 93.18779611587524,
            "Voltage": -50.0,
            "Current_mean": -1.8589419e-07,
            "Current_sigma": 6.242962376220122e-09
        },
        {
            "Time": 99.18201494216919,
            "Voltage": -55.0,
            "Current_mean": -1.8995489e-07,
            "Current_sigma": 4.713159951550546e-09
        },
        {
            "Time": 105.19196963310242,
            "Voltage": -60.0,
            "Current_mean": -1.8526731e-07,
            "Current_sigma": 4.883225591645343e-09
        },
        {
            "Time": 111.18603157997131,
            "Voltage": -65.0,
            "Current_mean": -1.8597714e-07,
            "Current_sigma": 6.343969757840902e-09
        },
        {
            "Time": 117.18010091781616,
            "Voltage": -70.0,
            "Current_mean": -1.8682744999999997e-07,
            "Current_sigma": 5.475123652895887e-09
        },
        {
            "Time": 123.17409658432007,
            "Voltage": -75.0,
            "Current_mean": -1.9386467e-07,
            "Current_sigma": 4.602034669154503e-09
        },
        {
            "Time": 129.16819071769714,
            "Voltage": -80.0,
            "Current_mean": -2.1037414e-07,
            "Current_sigma": 5.352673326890036e-09
        },
        {
            "Time": 135.16235303878784,
            "Voltage": -85.0,
            "Current_mean": -2.2968047000000004e-07,
            "Current_sigma": 3.3612769570655754e-09
        },
        {
            "Time": 141.15633392333984,
            "Voltage": -90.0,
            "Current_mean": -2.4716708e-07,
            "Current_sigma": 4.7541464232394055e-09
        },
        {
            "Time": 147.15042304992676,
            "Voltage": -95.0,
            "Current_mean": -2.6748593999999996e-07,
            "Current_sigma": 5.085257038773946e-09
        },
        {
            "Time": 153.14468121528625,
            "Voltage": -100.0,
            "Current_mean": -2.8799606999999997e-07,
            "Current_sigma": 6.2268268313885184e-09
        },
        {
            "Time": 159.1387062072754,
            "Voltage": -105.0,
            "Current_mean": -3.1278831000000005e-07,
            "Current_sigma": 5.561309574632583e-09
        },
        {
            "Time": 165.13271379470825,
            "Voltage": -110.0,
            "Current_mean": -3.3904065e-07,
            "Current_sigma": 5.208946848884135e-09
        },
        {
            "Time": 171.1269872188568,
            "Voltage": -115.0,
            "Current_mean": -3.7139120999999993e-07,
            "Current_sigma": 4.876246077968176e-09
        },
        {
            "Time": 177.12102270126343,
            "Voltage": -120.0,
            "Current_mean": -4.0149875999999994e-07,
            "Current_sigma": 5.662763117454237e-09
        },
        {
            "Time": 183.11524510383606,
            "Voltage": -125.0,
            "Current_mean": -4.3599941e-07,
            "Current_sigma": 4.592122111497036e-09
        },
        {
            "Time": 189.10930728912354,
            "Voltage": -130.0,
            "Current_mean": -4.7005432999999993e-07,
            "Current_sigma": 4.209194151865649e-09
        },
        {
            "Time": 195.10360097885132,
            "Voltage": -135.0,
            "Current_mean": -5.047339900000001e-07,
            "Current_sigma": 5.096231143394117e-09
        },
        {
            "Time": 201.09781765937805,
            "Voltage": -140.0,
            "Current_mean": -5.403734399999999e-07,
            "Current_sigma": 5.224265968191124e-09
        },
        {
            "Time": 207.09199690818787,
            "Voltage": -145.0,
            "Current_mean": -5.816404800000001e-07,
            "Current_sigma": 4.881819787497273e-09
        },
        {
            "Time": 213.0862259864807,
            "Voltage": -150.0,
            "Current_mean": -9.730512300000002e-07,
            "Current_sigma": 2.681550979418628e-08
        }
    ]
}