{
    "unit": {
        "Time": "s",
        "Voltage": "V",
        "Current": "A"
    },
    "V_step": -5,
    "Step_duration": 2,
    "N_measurements_per_step": 10,
    "A_Compliance": 1e-05,
    "Sensor_IV": [
        {
            "Time": 6.105621337890625,
            "Voltage": 0.0,
            "Current_mean": 1.3099818e-09,
            "Current_sigma": 1.2292750147703848e-08
        },
        {
            "Time": 12.099717617034912,
            "Voltage": -5.0,
            "Current_mean": -2.5797120000000004e-07,
            "Current_sigma": 4.424103094413602e-09
        },
        {
            "Time": 18.094221115112305,
            "Voltage": -10.0,
            "Current_mean": -2.9237543999999995e-07,
            "Current_sigma": 5.687347366602472e-09
        },
        {
            "Time": 24.088538885116577,
            "Voltage": -15.0,
            "Current_mean": -3.2577398999999995e-07,
            "Current_sigma": 6.844486291380825e-09
        },
        {
            "Time": 30.09861731529236,
            "Voltage": -20.0,
            "Current_mean": -3.3421590000000004e-07,
            "Current_sigma": 4.969741199901658e-09
        },
        {
            "Time": 36.09281897544861,
            "Voltage": -25.0,
            "Current_mean": -3.3188288e-07,
            "Current_sigma": 7.99245936802934e-09
        },
        {
            "Time": 42.08670973777771,
            "Voltage": -30.0,
            "Current_mean": -3.3138129999999994e-07,
            "Current_sigma": 6.43147272916553e-09
        },
        {
            "Time": 48.08092474937439,
            "Voltage": -35.0,
            "Current_mean": -3.3500239e-07,
            "Current_sigma": 7.694239651512034e-09
        },
        {
            "Time": 54.07524538040161,
            "Voltage": -40.0,
            "Current_mean": -3.3217413999999997e-07,
            "Current_sigma": 6.427166001310381e-09
        },
        {
            "Time": 60.06949472427368,
            "Voltage": -45.0,
            "Current_mean": -3.3003543e-07,
            "Current_sigma": 5.233956018166372e-09
        },
        {
            "Time": 66.0635313987732,
            "Voltage": -50.0,
            "Current_mean": -3.3170520000000006e-07,
            "Current_sigma": 6.806105759389864e-09
        },
        {
            "Time": 72.05770063400269,
            "Voltage": -55.0,
            "Current_mean": -3.3326492e-07,
            "Current_sigma": 6.157995710099185e-09
        },
        {
            "Time": 78.05193090438843,
            "Voltage": -60.0,
            "Current_mean": -3.3241119e-07,
            "Current_sigma": 6.594779343154704e-09
        },
        {
            "Time": 84.04610896110535,
            "Voltage": -65.0,
            "Current_mean": -3.3048388e-07,
            "Current_sigma": 2.886493977405809e-09
        },
        {
            "Time": 90.04028487205505,
            "Voltage": -70.0,
            "Current_mean": -3.3890554000000003e-07,
            "Current_sigma": 6.975181478958084e-09
        },
        {
            "Time": 96.03455018997192,
            "Voltage": -75.0,
            "Current_mean": -4.7098742e-07,
            "Current_sigma": 4.31567455139982e-09
        },
        {
            "Time": 102.02879762649536,
            "Voltage": -80.0,
            "Current_mean": -8.737324499999999e-07,
            "Current_sigma": 6.202334358167091e-09
        },
        {
            "Time": 108.0230176448822,
            "Voltage": -85.0,
            "Current_mean": -1.4106155000000002e-06,
            "Current_sigma": 4.478687134641129e-09
        },
        {
            "Time": 114.01697278022766,
            "Voltage": -90.0,
            "Current_mean": -1.9950222999999995e-06,
            "Current_sigma": 5.962565673432878e-09
        },
        {
            "Time": 120.01115679740906,
            "Voltage": -95.0,
            "Current_mean": -2.5847629e-06,
            "Current_sigma": 6.216376540236338e-09
        },
        {
            "Time": 126.00540781021118,
            "Voltage": -100.0,
            "Current_mean": -3.1649030999999998e-06,
            "Current_sigma": 4.818427698949104e-09
        },
        {
            "Time": 131.999582529068,
            "Voltage": -105.0,
            "Current_mean": -3.7245327999999996e-06,
            "Current_sigma": 3.5613810748079447e-09
        },
        {
            "Time": 137.99361181259155,
            "Voltage": -110.0,
            "Current_mean": -4.251184400000001e-06,
            "Current_sigma": 3.9140934889192725e-09
        },
        {
            "Time": 143.98758935928345,
            "Voltage": -115.0,
            "Current_mean": -4.7648195000000005e-06,
            "Current_sigma": 5.143925995774116e-09
        },
        {
            "Time": 149.98174357414246,
            "Voltage": -120.0,
            "Current_mean": -5.2604588999999994e-06,
            "Current_sigma": 5.171189349656503e-09
        },
        {
            "Time": 155.9759078025818,
            "Voltage": -125.0,
            "Current_mean": -5.7503253e-06,
            "Current_sigma": 5.18593040929009e-09
        },
        {
            "Time": 161.96998643875122,
            "Voltage": -130.0,
            "Current_mean": -6.243644599999999e-06,
            "Current_sigma": 9.601581278102074e-09
        },
        {
            "Time": 167.96395993232727,
            "Voltage": -135.0,
            "Current_mean": -6.724114499999999e-06,
            "Current_sigma": 6.6554612499811036e-09
        },
        {
            "Time": 173.95812726020813,
            "Voltage": -140.0,
            "Current_mean": -7.184344599999999e-06,
            "Current_sigma": 6.466070479046768e-09
        },
        {
            "Time": 179.95259165763855,
            "Voltage": -145.0,
            "Current_mean": -7.6297732e-06,
            "Current_sigma": 7.519968388231282e-09
        },
        {
            "Time": 185.94665336608887,
            "Voltage": -150.0,
            "Current_mean": -8.0343704e-06,
            "Current_sigma": 1.2357648086913633e-08
        },
        {
            "Time": 191.94084334373474,
            "Voltage": -155.0,
            "Current_mean": -8.471674599999999e-06,
            "Current_sigma": 7.798045514101425e-09
        },
        {
            "Time": 197.934898853302,
            "Voltage": -160.0,
            "Current_mean": -8.877945600000001e-06,
            "Current_sigma": 8.291718714476679e-09
        },
        {
            "Time": 203.9292070865631,
            "Voltage": -165.0,
            "Current_mean": -9.2617832e-06,
            "Current_sigma": 1.502361842433416e-08
        },
        {
            "Time": 209.9233500957489,
            "Voltage": -170.0,
            "Current_mean": -9.630738900000001e-06,
            "Current_sigma": 2.4844528518166715e-08
        },
        {
            "Time": 215.91764760017395,
            "Voltage": -175.0,
            "Current_mean": -9.999844199999999e-06,
            "Current_sigma": 2.545505843652206e-11
        },
        {
            "Time": 221.91171550750732,
            "Voltage": -180.0,
            "Current_mean": -9.9998506e-06,
            "Current_sigma": 3.559550533404738e-11
        },
        {
            "Time": 227.9059808254242,
            "Voltage": -185.0,
            "Current_mean": -9.999832100000001e-06,
            "Current_sigma": 4.247928907099228e-11
        },
        {
            "Time": 233.90001606941223,
            "Voltage": -190.0,
            "Current_mean": -9.999835400000001e-06,
            "Current_sigma": 3.480000000019925e-11
        },
        {
            "Time": 239.8941559791565,
            "Voltage": -195.0,
            "Current_mean": -9.9998647e-06,
            "Current_sigma": 3.381138861401749e-11
        },
        {
            "Time": 245.88814783096313,
            "Voltage": -200.0,
            "Current_mean": -9.9998288e-06,
            "Current_sigma": 2.703997041430834e-11
        }
    ]
}