{
    "unit": {
        "Time": "s",
        "Voltage": "V",
        "Current": "A"
    },
    "V_step": -5,
    "Step_duration": 2,
    "N_measurements_per_step": 10,
    "A_Compliance": 1e-05,
    "Sensor_IV": [
        {
            "Time": 6.105675458908081,
            "Voltage": 0.0,
            "Current_mean": -3.6782741999999996e-08,
            "Current_sigma": 9.360979480903479e-09
        },
        {
            "Time": 12.100123643875122,
            "Voltage": -5.0,
            "Current_mean": -3.4932218999999996e-07,
            "Current_sigma": 1.0904351696497132e-08
        },
        {
            "Time": 18.27032446861267,
            "Voltage": -10.0,
            "Current_mean": -4.0423197e-07,
            "Current_sigma": 8.33420415805252e-09
        },
        {
            "Time": 24.5843563079834,
            "Voltage": -15.0,
            "Current_mean": -4.0738235999999997e-07,
            "Current_sigma": 4.2431686490640355e-09
        },
        {
            "Time": 30.88244080543518,
            "Voltage": -20.0,
            "Current_mean": -4.2040679e-07,
            "Current_sigma": 7.860014346481822e-09
        },
        {
            "Time": 36.87682223320007,
            "Voltage": -25.0,
            "Current_mean": -4.210546e-07,
            "Current_sigma": 5.555289637813676e-09
        },
        {
            "Time": 43.06299018859863,
            "Voltage": -30.0,
            "Current_mean": -4.1935130999999994e-07,
            "Current_sigma": 7.728755260771298e-09
        },
        {
            "Time": 49.057417154312134,
            "Voltage": -35.0,
            "Current_mean": -4.2759086e-07,
            "Current_sigma": 2.001847755549864e-09
        },
        {
            "Time": 55.24358797073364,
            "Voltage": -40.0,
            "Current_mean": -4.1758409e-07,
            "Current_sigma": 4.5926241761002006e-09
        },
        {
            "Time": 61.238229274749756,
            "Voltage": -45.0,
            "Current_mean": -4.2590865e-07,
            "Current_sigma": 3.0705058336534692e-09
        },
        {
            "Time": 67.42437720298767,
            "Voltage": -50.0,
            "Current_mean": -4.1824529e-07,
            "Current_sigma": 4.564978652841649e-09
        },
        {
            "Time": 73.41875696182251,
            "Voltage": -55.0,
            "Current_mean": -4.205184299999999e-07,
            "Current_sigma": 1.033733065205911e-09
        },
        {
            "Time": 79.71685123443604,
            "Voltage": -60.0,
            "Current_mean": -4.4974752e-07,
            "Current_sigma": 5.402429144893991e-09
        },
        {
            "Time": 85.71126770973206,
            "Voltage": -65.0,
            "Current_mean": -4.918825000000002e-07,
            "Current_sigma": 6.9601878162877085e-09
        },
        {
            "Time": 91.8976833820343,
            "Voltage": -70.0,
            "Current_mean": -5.5890611e-07,
            "Current_sigma": 6.219791639990831e-09
        },
        {
            "Time": 97.8921115398407,
            "Voltage": -75.0,
            "Current_mean": -6.3734634e-07,
            "Current_sigma": 5.853670903151291e-09
        },
        {
            "Time": 104.19034123420715,
            "Voltage": -80.0,
            "Current_mean": -7.205569199999999e-07,
            "Current_sigma": 5.933007434311867e-09
        },
        {
            "Time": 110.1849114894867,
            "Voltage": -85.0,
            "Current_mean": -8.1241349e-07,
            "Current_sigma": 6.030987231034414e-09
        },
        {
            "Time": 116.48304200172424,
            "Voltage": -90.0,
            "Current_mean": -9.082632599999999e-07,
            "Current_sigma": 5.636591232864051e-09
        },
        {
            "Time": 122.47756004333496,
            "Voltage": -95.0,
            "Current_mean": -1.0038201100000001e-06,
            "Current_sigma": 6.10262826730421e-09
        },
        {
            "Time": 128.6638684272766,
            "Voltage": -100.0,
            "Current_mean": -1.0986106999999998e-06,
            "Current_sigma": 5.311428151636813e-09
        },
        {
            "Time": 134.65832901000977,
            "Voltage": -105.0,
            "Current_mean": -1.1924539e-06,
            "Current_sigma": 5.5259222117217616e-09
        },
        {
            "Time": 140.9565405845642,
            "Voltage": -110.0,
            "Current_mean": -1.2859033e-06,
            "Current_sigma": 5.666463659991124e-09
        },
        {
            "Time": 146.9509313106537,
            "Voltage": -115.0,
            "Current_mean": -1.3784916e-06,
            "Current_sigma": 6.159016255864217e-09
        },
        {
            "Time": 153.16908407211304,
            "Voltage": -120.0,
            "Current_mean": -1.4723677e-06,
            "Current_sigma": 5.8370491697432366e-09
        },
        {
            "Time": 159.16342878341675,
            "Voltage": -125.0,
            "Current_mean": -1.5655462000000002e-06,
            "Current_sigma": 5.402679905380302e-09
        },
        {
            "Time": 165.31754326820374,
            "Voltage": -130.0,
            "Current_mean": -1.6582330000000001e-06,
            "Current_sigma": 5.04653786273323e-09
        },
        {
            "Time": 171.31202507019043,
            "Voltage": -135.0,
            "Current_mean": -1.7518885000000001e-06,
            "Current_sigma": 4.8100460756628735e-09
        },
        {
            "Time": 177.30644702911377,
            "Voltage": -140.0,
            "Current_mean": -1.8446056000000003e-06,
            "Current_sigma": 5.617708949384954e-09
        },
        {
            "Time": 183.36491107940674,
            "Voltage": -145.0,
            "Current_mean": -1.9363474e-06,
            "Current_sigma": 4.257952940087613e-09
        },
        {
            "Time": 189.67885613441467,
            "Voltage": -150.0,
            "Current_mean": -2.0234301000000003e-06,
            "Current_sigma": 5.86231623933745e-09
        },
        {
            "Time": 196.08885860443115,
            "Voltage": -155.0,
            "Current_mean": -2.1149320999999994e-06,
            "Current_sigma": 5.91180849571434e-09
        },
        {
            "Time": 202.08311414718628,
            "Voltage": -160.0,
            "Current_mean": -2.2022103000000004e-06,
            "Current_sigma": 4.424033454891555e-09
        },
        {
            "Time": 208.26941633224487,
            "Voltage": -165.0,
            "Current_mean": -2.2932031e-06,
            "Current_sigma": 5.041612429570527e-09
        },
        {
            "Time": 214.2636477947235,
            "Voltage": -170.0,
            "Current_mean": -2.3819442e-06,
            "Current_sigma": 4.7621759480305e-09
        },
        {
            "Time": 220.44981455802917,
            "Voltage": -175.0,
            "Current_mean": -2.4723268e-06,
            "Current_sigma": 4.192478736976517e-09
        },
        {
            "Time": 226.44407057762146,
            "Voltage": -180.0,
            "Current_mean": -2.5623577e-06,
            "Current_sigma": 5.1684009722543745e-09
        },
        {
            "Time": 232.63022565841675,
            "Voltage": -185.0,
            "Current_mean": -2.6480378000000002e-06,
            "Current_sigma": 4.922515653606359e-09
        },
        {
            "Time": 238.62447953224182,
            "Voltage": -190.0,
            "Current_mean": -2.7363138e-06,
            "Current_sigma": 4.463261919269307e-09
        },
        {
            "Time": 244.92251896858215,
            "Voltage": -195.0,
            "Current_mean": -2.8211278e-06,
            "Current_sigma": 2.35272309462895e-09
        },
        {
            "Time": 250.91696000099182,
            "Voltage": -200.0,
            "Current_mean": -2.9092361e-06,
            "Current_sigma": 4.373845275041169e-09
        }
    ]
}