##date time ModuleTemp##
2022-03-17 13:20:38 -9.035802841186523
2022-03-17 13:20:44 -8.860845565795898
2022-03-17 13:20:49 -8.860845565795898
2022-03-17 13:20:54 -8.948369979858398
2022-03-17 13:21:00 -8.860845565795898
2022-03-17 13:21:05 -8.948369979858398
2022-03-17 13:21:11 -8.773229598999023
2022-03-17 13:21:16 -8.948369979858398
2022-03-17 13:21:22 -8.948369979858398
2022-03-17 13:21:27 -8.773229598999023
2022-03-17 13:21:33 -8.860845565795898
2022-03-17 13:21:38 -8.948369979858398
2022-03-17 13:21:44 -8.860845565795898
2022-03-17 13:21:49 -8.860845565795898
2022-03-17 13:21:54 -8.860845565795898
2022-03-17 13:22:00 -9.035802841186523
2022-03-17 13:22:05 -8.860845565795898
2022-03-17 13:22:11 -8.860845565795898
2022-03-17 13:22:16 -8.948369979858398
2022-03-17 13:22:22 -8.948369979858398
2022-03-17 13:22:27 -8.860845565795898
2022-03-17 13:22:33 -8.860845565795898
2022-03-17 13:22:38 -8.860845565795898
2022-03-17 13:22:44 -8.860845565795898
2022-03-17 13:22:49 -8.773229598999023
2022-03-17 13:22:54 -8.860845565795898
2022-03-17 13:23:00 -9.732458114624023
2022-03-17 13:23:05 -9.905858993530273
2022-03-17 13:23:11 -5.465857028961182
2022-03-17 13:23:16 -4.546576023101807
2022-03-17 13:23:22 -3.9889893531799316
2022-03-17 13:23:27 -4.175360202789307
2022-03-17 13:23:33 -4.082251071929932
2022-03-17 13:23:38 -3.9889893531799316
2022-03-17 13:23:44 -3.9889893531799316
2022-03-17 13:23:49 -5.830267429351807
2022-03-17 13:23:54 -4.453955173492432
2022-03-17 13:24:00 -5.557135105133057
2022-03-17 13:24:05 -4.175360202789307
2022-03-17 13:24:11 -4.175360202789307
2022-03-17 13:24:16 -3.8956055641174316
2022-03-17 13:24:22 -2.9541687965393066
2022-03-17 13:24:27 -1.124578833580017
2022-03-17 13:24:33 0.3622985780239105
2022-03-17 13:24:38 0.4628845155239105
2022-03-17 13:24:44 2.3074584007263184
2022-03-17 13:24:49 3.4689879417419434
2022-03-17 13:24:54 1.788354516029358
2022-03-17 13:25:00 4.659417629241943
2022-03-17 13:25:05 5.433221340179443
2022-03-17 13:25:11 6.220513820648193
2022-03-17 13:25:16 6.791558742523193
2022-03-17 13:25:22 7.137811183929443
2022-03-17 13:25:27 7.838830471038818
2022-03-17 13:25:33 7.956780910491943
2022-03-17 13:25:39 8.075067520141602
2022-03-17 13:25:44 3.7906737327575684
2022-03-17 13:25:50 2.7266173362731934
2022-03-17 13:25:55 1.995355248451233
2022-03-17 13:26:01 0.4628845155239105
2022-03-17 13:26:06 -0.7319701910018921
2022-03-17 13:26:12 -1.514501929283142
2022-03-17 13:26:17 -2.2866272926330566
2022-03-17 13:26:23 -3.0489563941955566
2022-03-17 13:26:28 -3.7084107398986816
2022-03-17 13:26:34 -4.175360202789307
2022-03-17 13:26:39 -4.639044284820557
2022-03-17 13:26:44 -5.099585056304932
2022-03-17 13:26:50 -5.557135105133057
2022-03-17 13:26:55 -5.830267429351807
2022-03-17 13:27:01 -6.192877292633057
2022-03-17 13:27:06 -6.463659763336182
2022-03-17 13:27:12 -6.463659763336182
2022-03-17 13:27:17 -6.823278903961182
2022-03-17 13:27:23 -7.091894626617432
2022-03-17 13:27:28 -7.270452976226807
2022-03-17 13:27:34 -7.270452976226807
2022-03-17 13:27:39 -7.537603855133057
2022-03-17 13:27:44 -7.537603855133057
2022-03-17 13:27:50 -7.626440525054932
2022-03-17 13:27:55 -7.803869724273682
2022-03-17 13:28:01 -7.892431735992432
2022-03-17 13:28:06 -7.980902194976807
2022-03-17 13:28:12 -8.157598495483398
2022-03-17 13:28:17 -8.157598495483398
2022-03-17 13:28:23 -8.333929061889648
2022-03-17 13:28:28 -8.245824813842773
2022-03-17 13:28:34 -8.157598495483398
2022-03-17 13:28:39 -8.333929061889648
2022-03-17 13:28:44 -8.421972274780273
2022-03-17 13:28:50 -8.421972274780273
2022-03-17 13:28:55 -8.509923934936523
2022-03-17 13:29:01 -8.597784042358398
2022-03-17 13:29:06 -8.421972274780273
2022-03-17 13:29:12 -8.685552597045898
2022-03-17 13:29:17 -8.597784042358398
2022-03-17 13:29:23 -8.333929061889648
2022-03-17 13:29:28 -8.773229598999023
2022-03-17 13:29:34 -8.509923934936523
2022-03-17 13:29:39 -8.773229598999023
2022-03-17 13:29:44 -8.509923934936523
2022-03-17 13:29:50 -8.509923934936523
2022-03-17 13:29:55 -8.509923934936523
2022-03-17 13:30:01 -8.773229598999023
2022-03-17 13:30:06 -8.685552597045898
2022-03-17 13:30:12 -8.685552597045898
2022-03-17 13:30:17 -8.773229598999023
2022-03-17 13:30:23 -8.509923934936523
2022-03-17 13:30:28 -8.773229598999023
2022-03-17 13:30:33 -8.685552597045898
2022-03-17 13:30:39 -8.773229598999023
2022-03-17 13:30:44 -8.685552597045898
2022-03-17 13:30:50 -8.948369979858398
2022-03-17 13:30:55 -8.948369979858398
2022-03-17 13:31:01 -8.773229598999023
2022-03-17 13:31:06 -8.773229598999023
2022-03-17 13:31:12 -8.860845565795898
2022-03-17 13:31:17 -8.948369979858398
2022-03-17 13:31:23 -8.860845565795898
2022-03-17 13:31:28 -7.181219577789307
2022-03-17 13:31:33 -4.546576023101807
2022-03-17 13:31:39 1.995355248451233
2022-03-17 13:31:44 5.433221340179443
2022-03-17 13:31:50 5.210809230804443
2022-03-17 13:31:55 6.562249660491943
2022-03-17 13:32:01 9.398920059204102
2022-03-17 13:32:06 10.766992568969727
2022-03-17 13:32:12 10.015039443969727
2022-03-17 13:32:17 12.315240859985352
2022-03-17 13:32:23 11.922388076782227
2022-03-17 13:32:28 14.203821182250977
2022-03-17 13:32:33 15.043176651000977
2022-03-17 13:32:39 14.481500625610352
2022-03-17 13:32:44 12.183832168579102
2022-03-17 13:32:50 10.389245986938477
2022-03-17 13:32:55 8.791925430297852
2022-03-17 13:33:01 7.603845119476318
2022-03-17 13:33:06 6.676782131195068
2022-03-17 13:33:12 5.544824123382568
2022-03-17 13:33:17 4.549951076507568
2022-03-17 13:33:23 3.6831908226013184
2022-03-17 13:33:28 3.0433592796325684
2022-03-17 13:33:33 2.4119200706481934
2022-03-17 13:33:39 1.788354516029358
2022-03-17 13:33:44 1.376886010169983
2022-03-17 13:33:50 0.7658020257949829
2022-03-17 13:33:55 0.4628845155239105
2022-03-17 13:34:01 -0.03815307468175888
2022-03-17 13:34:06 -0.3365844786167145
2022-03-17 13:34:12 -0.4356750547885895
2022-03-17 13:34:17 -0.7319701910018921
2022-03-17 13:34:23 -0.9285949468612671
2022-03-17 13:34:28 -1.124578833580017
2022-03-17 13:34:33 -1.319860816001892
2022-03-17 13:34:39 -1.514501929283142
2022-03-17 13:34:44 -1.805242896080017
2022-03-17 13:34:50 -1.901831030845642
2022-03-17 13:34:55 -1.998266577720642
2022-03-17 13:35:01 -2.0945496559143066
2022-03-17 13:35:06 -2.1906800270080566
2022-03-17 13:35:12 -2.2866272926330566
2022-03-17 13:35:17 -2.2866272926330566
2022-03-17 13:35:23 -2.4780945777893066
2022-03-17 13:35:28 -2.6689820289611816
2022-03-17 13:35:33 -2.5736145973205566
2022-03-17 13:35:39 -2.5736145973205566
2022-03-17 13:35:44 -2.6689820289611816
2022-03-17 13:35:50 -2.7641968727111816
2022-03-17 13:35:55 -2.7641968727111816
2022-03-17 13:36:01 -2.7641968727111816
2022-03-17 13:36:06 -2.7641968727111816
2022-03-17 13:36:12 -2.7641968727111816
2022-03-17 13:36:17 -2.8592591285705566
2022-03-17 13:36:23 -2.9541687965393066
2022-03-17 13:36:28 -2.8592591285705566
2022-03-17 13:36:33 -2.7641968727111816
2022-03-17 13:36:39 -3.0489563941955566
2022-03-17 13:36:44 -2.9541687965393066
2022-03-17 13:36:50 -3.0489563941955566
2022-03-17 13:36:55 -2.8592591285705566
2022-03-17 13:37:01 -2.8592591285705566
2022-03-17 13:37:06 -2.8592591285705566
2022-03-17 13:37:12 -2.9541687965393066
2022-03-17 13:37:17 -2.8592591285705566
2022-03-17 13:37:23 -2.8592591285705566
2022-03-17 13:37:28 -2.9541687965393066
2022-03-17 13:37:33 -2.9541687965393066
2022-03-17 13:37:39 -2.8592591285705566
2022-03-17 13:37:44 -2.8592591285705566
2022-03-17 13:37:50 -3.0489563941955566
2022-03-17 13:37:55 -2.9541687965393066
2022-03-17 13:38:01 -3.0489563941955566
2022-03-17 13:38:06 -2.8592591285705566
2022-03-17 13:38:12 -2.9541687965393066
2022-03-17 13:38:17 -3.0489563941955566
2022-03-17 13:38:23 -2.9541687965393066
2022-03-17 13:38:28 -2.9541687965393066
2022-03-17 13:38:33 -3.0489563941955566
2022-03-17 13:38:39 -2.8592591285705566
2022-03-17 13:38:44 -2.9541687965393066
2022-03-17 13:38:50 -2.9541687965393066
2022-03-17 13:38:55 -2.9541687965393066
2022-03-17 13:39:01 -3.0489563941955566
2022-03-17 13:39:06 -2.9541687965393066
2022-03-17 13:39:12 -3.0489563941955566
2022-03-17 13:39:17 -2.9541687965393066
2022-03-17 13:39:23 -2.9541687965393066
2022-03-17 13:39:28 -2.9541687965393066
2022-03-17 13:39:33 -2.9541687965393066
2022-03-17 13:39:39 -2.9541687965393066
2022-03-17 13:39:44 -2.9541687965393066
2022-03-17 13:39:50 -2.9541687965393066
2022-03-17 13:39:55 -2.8592591285705566
2022-03-17 13:40:01 -2.8592591285705566
2022-03-17 13:40:06 -3.0489563941955566
2022-03-17 13:40:12 -2.9541687965393066
2022-03-17 13:40:17 -2.9541687965393066
2022-03-17 13:40:23 -2.8592591285705566
2022-03-17 13:40:28 -2.9541687965393066
2022-03-17 13:40:33 -2.9541687965393066
2022-03-17 13:40:39 -2.9541687965393066
2022-03-17 13:40:44 -2.9541687965393066
2022-03-17 13:40:50 -3.1435914039611816
2022-03-17 13:40:55 -2.9541687965393066
2022-03-17 13:41:01 -2.9541687965393066
2022-03-17 13:41:06 -2.9541687965393066
2022-03-17 13:41:12 -2.9541687965393066
2022-03-17 13:41:17 -2.9541687965393066
2022-03-17 13:41:23 -2.9541687965393066
2022-03-17 13:41:28 -3.0489563941955566
2022-03-17 13:41:33 -2.7641968727111816
2022-03-17 13:41:39 -2.8592591285705566
2022-03-17 13:41:44 -3.0489563941955566
2022-03-17 13:41:50 -2.8592591285705566
2022-03-17 13:41:55 -3.0489563941955566
2022-03-17 13:42:01 -2.9541687965393066
2022-03-17 13:42:06 -2.9541687965393066
2022-03-17 13:42:12 -2.9541687965393066
2022-03-17 13:42:17 -2.8592591285705566
2022-03-17 13:42:23 -2.9541687965393066
2022-03-17 13:42:28 -2.8592591285705566
2022-03-17 13:42:33 -2.8592591285705566
2022-03-17 13:42:39 -3.0489563941955566
2022-03-17 13:42:44 -3.0489563941955566
2022-03-17 13:42:50 -2.9541687965393066
2022-03-17 13:42:55 -3.0489563941955566
2022-03-17 13:43:01 -2.9541687965393066
2022-03-17 13:43:06 -2.9541687965393066
2022-03-17 13:43:12 -3.0489563941955566
2022-03-17 13:43:17 -3.0489563941955566
2022-03-17 13:43:23 -2.9541687965393066
2022-03-17 13:43:28 -2.9541687965393066
2022-03-17 13:43:33 -3.0489563941955566
2022-03-17 13:43:39 -2.9541687965393066
2022-03-17 13:43:44 -2.9541687965393066
2022-03-17 13:43:50 -3.0489563941955566
2022-03-17 13:43:55 -3.0489563941955566
2022-03-17 13:44:01 -2.9541687965393066
2022-03-17 13:44:06 -2.8592591285705566
2022-03-17 13:44:12 -3.1435914039611816
2022-03-17 13:44:17 -3.0489563941955566
2022-03-17 13:44:23 -3.0489563941955566
