##date time ModuleTemp##
2022-03-17 13:47:06 -3.0489563941955566
2022-03-17 13:47:11 -3.0489563941955566
2022-03-17 13:47:17 -3.0489563941955566
2022-03-17 13:47:22 -3.1435914039611816
2022-03-17 13:47:28 -2.9541687965393066
2022-03-17 13:47:33 -3.0489563941955566
2022-03-17 13:47:39 -2.8592591285705566
2022-03-17 13:47:44 -3.0489563941955566
2022-03-17 13:47:50 -1.805242896080017
2022-03-17 13:47:55 1.788354516029358
2022-03-17 13:48:00 4.769158840179443
2022-03-17 13:48:06 7.486871242523193
2022-03-17 13:48:11 9.767450332641602
2022-03-17 13:48:17 11.792322158813477
2022-03-17 13:48:22 13.654565811157227
2022-03-17 13:48:28 15.327264785766602
2022-03-17 13:48:33 16.78167152404785
2022-03-17 13:48:39 18.142847061157227
2022-03-17 13:48:44 16.63360023498535
2022-03-17 13:48:50 14.761285781860352
2022-03-17 13:48:55 14.901971817016602
2022-03-17 13:49:00 15.470117568969727
2022-03-17 13:49:06 16.047204971313477
2022-03-17 13:49:11 16.63360023498535
2022-03-17 13:49:17 17.229639053344727
2022-03-17 13:49:22 17.6833438873291
2022-03-17 13:49:28 18.142847061157227
2022-03-17 13:49:33 18.608423233032227
2022-03-17 13:49:39 19.08025550842285
2022-03-17 13:49:44 19.55852699279785
2022-03-17 13:49:50 19.719446182250977
2022-03-17 13:49:55 20.2066593170166
2022-03-17 13:50:00 20.3705997467041
2022-03-17 13:50:06 20.70086097717285
2022-03-17 13:50:11 20.8671817779541
2022-03-17 13:50:17 21.2022647857666
2022-03-17 13:50:22 21.371057510375977
2022-03-17 13:50:28 21.2022647857666
2022-03-17 13:50:33 21.711145401000977
2022-03-17 13:50:39 21.88250160217285
2022-03-17 13:50:44 22.0546817779541
2022-03-17 13:50:50 22.2277774810791
2022-03-17 13:50:55 22.576623916625977
2022-03-17 13:51:00 22.401758193969727
2022-03-17 13:51:06 22.401758193969727
2022-03-17 13:51:11 22.576623916625977
2022-03-17 13:51:17 22.576623916625977
2022-03-17 13:51:22 22.752405166625977
2022-03-17 13:51:28 22.752405166625977
2022-03-17 13:51:33 22.929101943969727
2022-03-17 13:51:39 22.929101943969727
2022-03-17 13:51:44 22.929101943969727
2022-03-17 13:51:50 23.106775283813477
2022-03-17 13:51:55 22.929101943969727
2022-03-17 13:52:00 23.106775283813477
2022-03-17 13:52:06 23.106775283813477
2022-03-17 13:52:11 23.106775283813477
2022-03-17 13:52:17 23.28533363342285
2022-03-17 13:52:22 23.106775283813477
2022-03-17 13:52:28 23.106775283813477
2022-03-17 13:52:33 23.28533363342285
2022-03-17 13:52:39 23.28533363342285
2022-03-17 13:52:44 23.106775283813477
2022-03-17 13:52:50 23.28533363342285
2022-03-17 13:52:55 -273.1499938964844
2022-03-17 13:53:00 -273.1499938964844
2022-03-17 13:53:06 -273.1499938964844
2022-03-17 13:53:11 -273.1499938964844
2022-03-17 13:53:17 -273.1499938964844
2022-03-17 13:53:22 -273.1499938964844
2022-03-17 13:53:28 -273.1499938964844
2022-03-17 13:53:33 -273.1499938964844
2022-03-17 13:53:39 -273.1499938964844
2022-03-17 13:53:44 -273.1499938964844
2022-03-17 13:53:50 -273.1499938964844
2022-03-17 13:53:55 -89.3625717163086
2022-03-17 13:54:00 -273.1499938964844
2022-03-17 13:54:06 -273.1499938964844
2022-03-17 13:54:11 -273.1499938964844
2022-03-17 13:54:17 -273.1499938964844
2022-03-17 13:54:22 -273.1499938964844
2022-03-17 13:54:28 -273.1499938964844
2022-03-17 13:54:33 -273.1499938964844
2022-03-17 13:54:39 -273.1499938964844
2022-03-17 13:54:44 -273.1499938964844
2022-03-17 13:54:50 -273.1499938964844
2022-03-17 13:54:55 -273.1499938964844
2022-03-17 13:55:01 -273.1499938964844
2022-03-17 13:55:06 -273.1499938964844
2022-03-17 13:55:11 -273.1499938964844
2022-03-17 13:55:17 -273.1499938964844
2022-03-17 13:55:22 -273.1499938964844
2022-03-17 13:55:28 -273.1499938964844
2022-03-17 13:55:33 -273.1499938964844
2022-03-17 13:55:39 -273.1499938964844
2022-03-17 13:55:44 -273.1499938964844
2022-03-17 13:55:50 -273.1499938964844
2022-03-17 13:55:55 -273.1499938964844
2022-03-17 13:56:00 -273.1499938964844
2022-03-17 13:56:06 -273.1499938964844
2022-03-17 13:56:11 -273.1499938964844
2022-03-17 13:56:17 -273.1499938964844
2022-03-17 13:56:22 -273.1499938964844
2022-03-17 13:56:28 -273.1499938964844
2022-03-17 13:56:33 -273.1499938964844
2022-03-17 13:56:39 -273.1499938964844
2022-03-17 13:56:44 -273.1499938964844
2022-03-17 13:56:50 -273.1499938964844
2022-03-17 13:56:55 -273.1499938964844
2022-03-17 13:57:01 -273.1499938964844
2022-03-17 13:57:06 -273.1499938964844
2022-03-17 13:57:11 -273.1499938964844
2022-03-17 13:57:17 -273.1499938964844
2022-03-17 13:57:22 -273.1499938964844
2022-03-17 13:57:28 -273.1499938964844
2022-03-17 13:57:33 -273.1499938964844
2022-03-17 13:57:39 -273.1499938964844
2022-03-17 13:57:44 -273.1499938964844
2022-03-17 13:57:50 -89.3625717163086
2022-03-17 13:57:55 -273.1499938964844
2022-03-17 13:58:00 -273.1499938964844
2022-03-17 13:58:06 -273.1499938964844
2022-03-17 13:58:11 -273.1499938964844
2022-03-17 13:58:17 -273.1499938964844
2022-03-17 13:58:22 -273.1499938964844
2022-03-17 13:58:28 -273.1499938964844
2022-03-17 13:58:33 -273.1499938964844
2022-03-17 13:58:39 -273.1499938964844
2022-03-17 13:58:44 -273.1499938964844
2022-03-17 13:58:50 -273.1499938964844
2022-03-17 13:58:55 -273.1499938964844
2022-03-17 13:59:00 -273.1499938964844
2022-03-17 13:59:06 -273.1499938964844
2022-03-17 13:59:11 -273.1499938964844
2022-03-17 13:59:17 -273.1499938964844
2022-03-17 13:59:22 -273.1499938964844
2022-03-17 13:59:28 -273.1499938964844
2022-03-17 13:59:33 -273.1499938964844
2022-03-17 13:59:39 -273.1499938964844
2022-03-17 13:59:44 -273.1499938964844
2022-03-17 13:59:50 -273.1499938964844
2022-03-17 13:59:55 -273.1499938964844
2022-03-17 14:00:00 -273.1499938964844
2022-03-17 14:00:06 -273.1499938964844
2022-03-17 14:00:11 -273.1499938964844
2022-03-17 14:00:17 -273.1499938964844
2022-03-17 14:00:22 -273.1499938964844
2022-03-17 14:00:28 -273.1499938964844
2022-03-17 14:00:33 -273.1499938964844
2022-03-17 14:00:39 -273.1499938964844
2022-03-17 14:00:44 -273.1499938964844
2022-03-17 14:00:50 -273.1499938964844
2022-03-17 14:00:55 -273.1499938964844
2022-03-17 14:01:00 -273.1499938964844
2022-03-17 14:01:06 -273.1499938964844
2022-03-17 14:01:11 -273.1499938964844
2022-03-17 14:01:17 -273.1499938964844
2022-03-17 14:01:22 -273.1499938964844
2022-03-17 14:01:28 -273.1499938964844
2022-03-17 14:01:33 -273.1499938964844
2022-03-17 14:01:39 -273.1499938964844
2022-03-17 14:01:44 -273.1499938964844
2022-03-17 14:01:50 -273.1499938964844
2022-03-17 14:01:55 -273.1499938964844
2022-03-17 14:02:00 -89.3625717163086
2022-03-17 14:02:06 -273.1499938964844
2022-03-17 14:02:11 -273.1499938964844
2022-03-17 14:02:17 -273.1499938964844
2022-03-17 14:02:22 -273.1499938964844
2022-03-17 14:02:28 -273.1499938964844
2022-03-17 14:02:33 -273.1499938964844
2022-03-17 14:02:39 -273.1499938964844
2022-03-17 14:02:44 -273.1499938964844
2022-03-17 14:02:50 -273.1499938964844
2022-03-17 14:02:55 -273.1499938964844
2022-03-17 14:03:00 -273.1499938964844
2022-03-17 14:03:06 -273.1499938964844
2022-03-17 14:03:11 -273.1499938964844
2022-03-17 14:03:17 -273.1499938964844
2022-03-17 14:03:22 -273.1499938964844
2022-03-17 14:03:28 -273.1499938964844
2022-03-17 14:03:33 -273.1499938964844
2022-03-17 14:03:39 -273.1499938964844
2022-03-17 14:03:44 -273.1499938964844
2022-03-17 14:03:50 -273.1499938964844
2022-03-17 14:03:55 -273.1499938964844
2022-03-17 14:04:00 -273.1499938964844
2022-03-17 14:04:06 -89.3625717163086
2022-03-17 14:04:11 -273.1499938964844
2022-03-17 14:04:17 -273.1499938964844
2022-03-17 14:04:22 -273.1499938964844
2022-03-17 14:04:28 -273.1499938964844
2022-03-17 14:04:33 -273.1499938964844
2022-03-17 14:04:39 -273.1499938964844
2022-03-17 14:04:44 -273.1499938964844
2022-03-17 14:04:50 -273.1499938964844
2022-03-17 14:04:55 -273.1499938964844
2022-03-17 14:05:00 -273.1499938964844
2022-03-17 14:05:06 -273.1499938964844
2022-03-17 14:05:11 -273.1499938964844
2022-03-17 14:05:17 -273.1499938964844
2022-03-17 14:05:22 -273.1499938964844
2022-03-17 14:05:28 -273.1499938964844
2022-03-17 14:05:33 -273.1499938964844
2022-03-17 14:05:39 -273.1499938964844
2022-03-17 14:05:44 -273.1499938964844
2022-03-17 14:05:50 -89.3625717163086
2022-03-17 14:05:55 -273.1499938964844
2022-03-17 14:06:00 -273.1499938964844
2022-03-17 14:06:06 -273.1499938964844
2022-03-17 14:06:11 -273.1499938964844
2022-03-17 14:06:17 -273.1499938964844
2022-03-17 14:06:22 -273.1499938964844
2022-03-17 14:06:28 -273.1499938964844
2022-03-17 14:06:33 -273.1499938964844
2022-03-17 14:06:39 -89.3625717163086
2022-03-17 14:06:44 -273.1499938964844
2022-03-17 14:06:50 -273.1499938964844
2022-03-17 14:06:55 -273.1499938964844
2022-03-17 14:07:00 -89.3625717163086
2022-03-17 14:07:06 -273.1499938964844
2022-03-17 14:07:11 -273.1499938964844
2022-03-17 14:07:17 -273.1499938964844
2022-03-17 14:07:22 -273.1499938964844
2022-03-17 14:07:28 -273.1499938964844
2022-03-17 14:07:33 -273.1499938964844
2022-03-17 14:07:39 -273.1499938964844
2022-03-17 14:07:44 -273.1499938964844
2022-03-17 14:07:50 -273.1499938964844
2022-03-17 14:07:55 -273.1499938964844
2022-03-17 14:08:00 -273.1499938964844
2022-03-17 14:08:06 -273.1499938964844
2022-03-17 14:08:11 -273.1499938964844
2022-03-17 14:08:17 -273.1499938964844
2022-03-17 14:08:22 -273.1499938964844
2022-03-17 14:08:28 -273.1499938964844
2022-03-17 14:08:33 -273.1499938964844
2022-03-17 14:08:39 -273.1499938964844
2022-03-17 14:08:44 -273.1499938964844
2022-03-17 14:08:50 -273.1499938964844
2022-03-17 14:08:55 -89.3625717163086
2022-03-17 14:09:01 -273.1499938964844
2022-03-17 14:09:06 -273.1499938964844
2022-03-17 14:09:11 -273.1499938964844
2022-03-17 14:09:17 -273.1499938964844
2022-03-17 14:09:22 -273.1499938964844
2022-03-17 14:09:28 -273.1499938964844
2022-03-17 14:09:33 -273.1499938964844
2022-03-17 14:09:39 -273.1499938964844
2022-03-17 14:09:44 -273.1499938964844
2022-03-17 14:09:50 -273.1499938964844
2022-03-17 14:09:55 -273.1499938964844
2022-03-17 14:10:01 -273.1499938964844
2022-03-17 14:10:06 -273.1499938964844
2022-03-17 14:10:11 -89.3625717163086
2022-03-17 14:10:17 -273.1499938964844
2022-03-17 14:10:22 -273.1499938964844
2022-03-17 14:10:28 -273.1499938964844
2022-03-17 14:10:33 -89.3625717163086
2022-03-17 14:10:39 -273.1499938964844
2022-03-17 14:10:44 -273.1499938964844
2022-03-17 14:10:50 -273.1499938964844
2022-03-17 14:10:55 -273.1499938964844
2022-03-17 14:11:01 -273.1499938964844
2022-03-17 14:11:06 -273.1499938964844
2022-03-17 14:11:11 -273.1499938964844
2022-03-17 14:11:17 -273.1499938964844
2022-03-17 14:11:22 -273.1499938964844
2022-03-17 14:11:28 -273.1499938964844
2022-03-17 14:11:33 -273.1499938964844
2022-03-17 14:11:39 -89.3625717163086
2022-03-17 14:11:44 -273.1499938964844
2022-03-17 14:11:50 -273.1499938964844
2022-03-17 14:11:55 -273.1499938964844
2022-03-17 14:12:01 -273.1499938964844
2022-03-17 14:12:06 -273.1499938964844
2022-03-17 14:12:11 -89.3625717163086
2022-03-17 14:12:17 -273.1499938964844
2022-03-17 14:12:22 -273.1499938964844
2022-03-17 14:12:28 -273.1499938964844
2022-03-17 14:12:33 -273.1499938964844
2022-03-17 14:12:39 -273.1499938964844
2022-03-17 14:12:44 -273.1499938964844
2022-03-17 14:12:50 -273.1499938964844
2022-03-17 14:12:55 -273.1499938964844
2022-03-17 14:13:01 -273.1499938964844
2022-03-17 14:13:06 -273.1499938964844
2022-03-17 14:13:11 -273.1499938964844
2022-03-17 14:13:17 -273.1499938964844
2022-03-17 14:13:22 -273.1499938964844
2022-03-17 14:13:28 -273.1499938964844
2022-03-17 14:13:33 -89.3625717163086
2022-03-17 14:13:39 -273.1499938964844
2022-03-17 14:13:44 -273.1499938964844
2022-03-17 14:13:50 -273.1499938964844
2022-03-17 14:13:55 -273.1499938964844
2022-03-17 14:14:01 -273.1499938964844
2022-03-17 14:14:06 -273.1499938964844
2022-03-17 14:14:11 -273.1499938964844
2022-03-17 14:14:17 -273.1499938964844
2022-03-17 14:14:22 -273.1499938964844
2022-03-17 14:14:28 -89.3625717163086
2022-03-17 14:14:33 -273.1499938964844
2022-03-17 14:14:39 -273.1499938964844
2022-03-17 14:14:44 -273.1499938964844
2022-03-17 14:14:50 -273.1499938964844
2022-03-17 14:14:55 -273.1499938964844
2022-03-17 14:15:01 -273.1499938964844
2022-03-17 14:15:06 -273.1499938964844
2022-03-17 14:15:11 -273.1499938964844
2022-03-17 14:15:17 -273.1499938964844
2022-03-17 14:15:22 -273.1499938964844
2022-03-17 14:15:28 -273.1499938964844
2022-03-17 14:15:33 -273.1499938964844
2022-03-17 14:15:39 -273.1499938964844
2022-03-17 14:15:44 -273.1499938964844
2022-03-17 14:15:50 -273.1499938964844
2022-03-17 14:15:55 -273.1499938964844
2022-03-17 14:16:01 -273.1499938964844
2022-03-17 14:16:06 -273.1499938964844
2022-03-17 14:16:11 -273.1499938964844
2022-03-17 14:16:17 -273.1499938964844
2022-03-17 14:16:22 -273.1499938964844
2022-03-17 14:16:28 -273.1499938964844
2022-03-17 14:16:33 -273.1499938964844
2022-03-17 14:16:39 -273.1499938964844
2022-03-17 14:16:44 -273.1499938964844
2022-03-17 14:16:50 -273.1499938964844
2022-03-17 14:16:55 -273.1499938964844
2022-03-17 14:17:01 -273.1499938964844
2022-03-17 14:17:06 -273.1499938964844
2022-03-17 14:17:11 -89.3625717163086
2022-03-17 14:17:17 -273.1499938964844
2022-03-17 14:17:22 -273.1499938964844
2022-03-17 14:17:28 -89.3625717163086
2022-03-17 14:17:33 -273.1499938964844
2022-03-17 14:17:39 -273.1499938964844
2022-03-17 14:17:44 -273.1499938964844
2022-03-17 14:17:50 -273.1499938964844
2022-03-17 14:17:55 -273.1499938964844
2022-03-17 14:18:01 -273.1499938964844
2022-03-17 14:18:06 -273.1499938964844
