##date time ModuleTemp##
2022-03-17 15:38:00 11.276330947875977
2022-03-17 15:38:05 11.148370742797852
2022-03-17 15:38:11 11.148370742797852
2022-03-17 15:38:16 11.276330947875977
2022-03-17 15:38:22 11.148370742797852
2022-03-17 15:38:27 11.148370742797852
2022-03-17 15:38:32 11.148370742797852
2022-03-17 15:38:38 11.276330947875977
2022-03-17 15:38:43 11.276330947875977
2022-03-17 15:38:49 11.148370742797852
2022-03-17 15:38:54 11.148370742797852
2022-03-17 15:39:00 11.148370742797852
2022-03-17 15:39:05 11.148370742797852
2022-03-17 15:39:11 11.148370742797852
2022-03-17 15:39:16 11.148370742797852
2022-03-17 15:39:22 11.148370742797852
2022-03-17 15:39:27 11.020837783813477
2022-03-17 15:39:32 11.148370742797852
2022-03-17 15:39:38 11.148370742797852
2022-03-17 15:39:43 11.148370742797852
2022-03-17 15:39:49 11.148370742797852
2022-03-17 15:39:54 11.148370742797852
2022-03-17 15:40:00 11.148370742797852
2022-03-17 15:40:05 11.148370742797852
2022-03-17 15:40:11 11.148370742797852
2022-03-17 15:40:16 11.276330947875977
2022-03-17 15:40:22 11.276330947875977
2022-03-17 15:40:27 11.148370742797852
2022-03-17 15:40:32 11.148370742797852
2022-03-17 15:40:38 11.276330947875977
2022-03-17 15:40:43 11.148370742797852
2022-03-17 15:40:49 11.148370742797852
2022-03-17 15:40:54 11.148370742797852
2022-03-17 15:41:00 11.148370742797852
2022-03-17 15:41:05 11.148370742797852
2022-03-17 15:41:11 11.148370742797852
2022-03-17 15:41:16 11.148370742797852
2022-03-17 15:41:22 11.148370742797852
2022-03-17 15:41:27 11.148370742797852
2022-03-17 15:41:32 11.148370742797852
2022-03-17 15:41:38 11.148370742797852
2022-03-17 15:41:43 11.276330947875977
2022-03-17 15:41:49 11.148370742797852
2022-03-17 15:41:54 11.148370742797852
2022-03-17 15:42:00 11.276330947875977
2022-03-17 15:42:05 11.148370742797852
2022-03-17 15:42:11 11.148370742797852
2022-03-17 15:42:16 11.148370742797852
2022-03-17 15:42:21 11.020837783813477
2022-03-17 15:42:27 11.148370742797852
2022-03-17 15:42:32 11.020837783813477
2022-03-17 15:42:38 11.148370742797852
2022-03-17 15:42:43 11.148370742797852
2022-03-17 15:42:49 11.148370742797852
2022-03-17 15:42:54 11.148370742797852
2022-03-17 15:43:00 11.148370742797852
2022-03-17 15:43:05 11.148370742797852
2022-03-17 15:43:11 11.148370742797852
2022-03-17 15:43:16 11.148370742797852
2022-03-17 15:43:21 11.148370742797852
2022-03-17 15:43:27 11.020837783813477
2022-03-17 15:43:32 11.148370742797852
2022-03-17 15:43:38 11.148370742797852
2022-03-17 15:43:43 11.148370742797852
2022-03-17 15:43:49 11.148370742797852
2022-03-17 15:43:54 11.148370742797852
2022-03-17 15:44:00 11.148370742797852
2022-03-17 15:44:05 11.148370742797852
2022-03-17 15:44:11 11.148370742797852
2022-03-17 15:44:16 11.148370742797852
2022-03-17 15:44:21 11.276330947875977
2022-03-17 15:44:27 11.148370742797852
2022-03-17 15:44:32 11.148370742797852
2022-03-17 15:44:38 11.148370742797852
2022-03-17 15:44:43 11.148370742797852
2022-03-17 15:44:49 11.148370742797852
2022-03-17 15:44:54 11.148370742797852
2022-03-17 15:45:00 11.148370742797852
2022-03-17 15:45:05 11.148370742797852
2022-03-17 15:45:11 11.148370742797852
2022-03-17 15:45:16 11.148370742797852
2022-03-17 15:45:21 11.276330947875977
2022-03-17 15:45:27 11.148370742797852
2022-03-17 15:45:32 11.148370742797852
2022-03-17 15:45:38 11.148370742797852
2022-03-17 15:45:43 11.148370742797852
2022-03-17 15:45:49 11.148370742797852
2022-03-17 15:45:54 11.148370742797852
2022-03-17 15:46:00 11.148370742797852
2022-03-17 15:46:05 11.148370742797852
2022-03-17 15:46:11 11.148370742797852
2022-03-17 15:46:16 11.148370742797852
2022-03-17 15:46:21 11.148370742797852
2022-03-17 15:46:27 11.148370742797852
2022-03-17 15:46:32 12.845361709594727
2022-03-17 15:46:38 16.78167152404785
2022-03-17 15:46:43 17.989038467407227
2022-03-17 15:46:49 18.45256996154785
2022-03-17 15:46:54 18.2973575592041
2022-03-17 15:47:00 18.2973575592041
2022-03-17 15:47:05 18.142847061157227
2022-03-17 15:47:11 18.2973575592041
2022-03-17 15:47:16 18.2973575592041
2022-03-17 15:47:21 18.2973575592041
2022-03-17 15:47:27 18.2973575592041
2022-03-17 15:47:32 18.142847061157227
2022-03-17 15:47:38 18.2973575592041
2022-03-17 15:47:43 18.142847061157227
2022-03-17 15:47:49 18.45256996154785
2022-03-17 15:47:54 18.142847061157227
2022-03-17 15:48:00 18.2973575592041
2022-03-17 15:48:05 18.142847061157227
2022-03-17 15:48:11 18.142847061157227
2022-03-17 15:48:16 18.142847061157227
2022-03-17 15:48:21 18.142847061157227
2022-03-17 15:48:27 18.142847061157227
2022-03-17 15:48:32 18.2973575592041
2022-03-17 15:48:38 18.142847061157227
2022-03-17 15:48:43 18.142847061157227
2022-03-17 15:48:49 18.142847061157227
2022-03-17 15:48:54 18.142847061157227
2022-03-17 15:49:00 18.142847061157227
2022-03-17 15:49:05 18.142847061157227
2022-03-17 15:49:11 18.142847061157227
2022-03-17 15:49:16 18.2973575592041
2022-03-17 15:49:21 17.989038467407227
2022-03-17 15:49:27 18.142847061157227
2022-03-17 15:49:32 18.142847061157227
2022-03-17 15:49:38 18.2973575592041
2022-03-17 15:49:43 18.142847061157227
2022-03-17 15:49:49 18.2973575592041
2022-03-17 15:49:54 18.142847061157227
2022-03-17 15:50:00 18.142847061157227
2022-03-17 15:50:05 17.989038467407227
2022-03-17 15:50:10 18.142847061157227
2022-03-17 15:50:16 17.989038467407227
2022-03-17 15:50:21 17.989038467407227
2022-03-17 15:50:27 17.989038467407227
2022-03-17 15:50:32 17.835840225219727
2022-03-17 15:50:38 17.835840225219727
2022-03-17 15:50:43 17.835840225219727
2022-03-17 15:50:49 17.835840225219727
2022-03-17 15:50:54 17.835840225219727
2022-03-17 15:51:00 17.6833438873291
2022-03-17 15:51:05 17.835840225219727
2022-03-17 15:51:11 17.6833438873291
2022-03-17 15:51:16 17.531457901000977
2022-03-17 15:51:21 17.6833438873291
2022-03-17 15:51:27 17.6833438873291
2022-03-17 15:51:32 17.6833438873291
2022-03-17 15:51:38 17.6833438873291
2022-03-17 15:51:43 17.6833438873291
2022-03-17 15:51:49 17.6833438873291
2022-03-17 15:51:54 17.6833438873291
2022-03-17 15:52:00 17.6833438873291
2022-03-17 15:52:05 17.6833438873291
2022-03-17 15:52:11 17.6833438873291
2022-03-17 15:52:16 17.6833438873291
2022-03-17 15:52:21 17.6833438873291
2022-03-17 15:52:27 17.6833438873291
2022-03-17 15:52:32 17.6833438873291
2022-03-17 15:52:38 17.6833438873291
2022-03-17 15:52:43 17.531457901000977
2022-03-17 15:52:49 17.6833438873291
2022-03-17 15:52:54 17.6833438873291
2022-03-17 15:53:00 17.6833438873291
