{
    "connectivity": [{
            "chipType": "RD53A",
            "chips": [{
                    "chipId": 1,
                    "config": "configs/KEKQ14/20UPGFC0009300.json",
                    "enable": 1,
                    "locked": 0,
                    "name": "20UPGFC0009300",
                    "rx": 4,
                    "tx": 1
                }, {
                    "chipId": 2,
                    "config": "configs/KEKQ14/20UPGFC0009316.json",
                    "enable": 1,
                    "locked": 0,
                    "name": "20UPGFC0009316",
                    "rx": 5,
                    "tx": 1
                }, {
                    "chipId": 3,
                    "config": "configs/KEKQ14/20UPGFC0009332.json",
                    "enable": 1,
                    "locked": 0,
                    "name": "20UPGFC0009332",
                    "rx": 6,
                    "tx": 1
                }, {
                    "chipId": 4,
                    "config": "configs/KEKQ14/20UPGFC0009348.json",
                    "enable": 1,
                    "locked": 0,
                    "name": "20UPGFC0009348",
                    "rx": 7,
                    "tx": 1
                }],
            "module": {
                "componentType": "module",
                "serialNumber": "20UPGM20021021"
            },
            "stage": "Testing"
        }],
    "ctrlCfg": {
        "ctrlCfg": {
            "cfg": {
                "cmdPeriod": 6.250000073038109e-9,
                "idle": {
                    "word": 1768515945
                },
                "pulse": {
                    "interval": 500,
                    "word": 1549575846
                },
                "rxActiveLanes": 1,
                "rxPolarity": 0,
                "specNum": 0,
                "spiConfig": 541200,
                "sync": {
                    "interval": 32,
                    "word": 2172551550
                },
                "trigConfig": null,
                "txPolarity": 0
            },
            "type": "spec"
        }
    },
    "ctrlStatus": {
        "channel_configuration": "16x1",
        "fe_chip_type": "RD53A/B",
        "firmware_identifier": "0x4030232",
        "firmware_version": "0x4d9ff6d",
        "fmc_card_type": "Ohio Card (Display Port)",
        "fpga_card": "PLDA XpressK7 325",
        "rx_speed": "640Mbps"
    },
    "exec": "-r configs/controller/specCfg-rd53a-16x1.json -c configs/KEKQ14/connectivity.json -s configs/scans/rd53a/reg_readtemp.json -p ",
    "finishTime": 1661342562,
    "runNumber": 1756,
    "startTime": 1661342560,
    "stopwatch": {
        "analysis": 800,
        "config": 137,
        "processing": 0,
        "scan": 206
    },
    "targetCharge": -1,
    "targetTot": -1,
    "testType": "reg_readtemp",
    "timestamp": "2022-08-24_14:02:40"
}