{
    "Data": [0.0, 0.0, 0.0, 0.0, 0.0, 0.0, 0.0, 0.0, 0.0, 0.0, 0.0, 0.0, 0.0, 0.0, 0.0, 2.0, 3.0, 0.0, 1.0, 3.0, 41.0, 45.0, 8.0, 4.0, 24.0, 201.0, 264.0, 108.0, 31.0, 123.0, 498.0, 953.0, 681.0, 345.0, 253.0, 488.0, 1139.0, 1184.0, 791.0, 592.0, 867.0, 1610.0, 1713.0, 1265.0, 719.0, 606.0, 672.0, 1069.0, 1002.0, 671.0, 605.0, 622.0, 650.0, 517.0, 445.0, 397.0, 363.0, 428.0, 370.0, 324.0, 292.0, 281.0, 269.0, 192.0, 181.0, 147.0, 171.0, 152.0, 151.0, 130.0, 112.0, 105.0, 93.0, 98.0, 70.0, 67.0, 63.0, 49.0, 45.0, 48.0, 47.0, 39.0, 37.0, 35.0, 35.0, 28.0, 32.0, 22.0, 25.0, 16.0, 16.0, 14.0, 20.0, 19.0, 13.0, 10.0, 9.0, 15.0, 14.0, 10.0, 6.0, 10.0, 12.0, 14.0, 8.0, 5.0, 4.0, 3.0, 4.0, 6.0, 4.0, 6.0, 9.0, 5.0, 5.0, 3.0, 7.0, 3.0, 9.0, 2.0, 1.0, 2.0, 4.0, 4.0, 5.0, 2.0, 1.0, 3.0, 2.0, 3.0, 5.0, 3.0, 5.0, 1.0, 2.0, 1.0, 4.0, 2.0, 1.0, 0.0, 0.0, 2.0, 1.0, 4.0, 1.0, 3.0, 0.0, 1.0, 1.0, 1.0, 0.0, 2.0, 1.0, 1.0, 1.0, 1.0, 1.0, 0.0, 2.0, 0.0, 1.0, 1.0, 1.0, 0.0, 0.0, 1.0, 0.0, 0.0, 0.0, 1.0, 0.0, 1.0, 3.0, 0.0, 0.0, 0.0, 1.0, 1.0, 0.0, 0.0, 0.0, 0.0, 0.0, 0.0, 0.0, 0.0, 0.0, 0.0, 0.0, 1.0, 0.0, 0.0, 0.0, 0.0, 0.0, 0.0, 0.0, 0.0, 0.0, 0.0, 0.0],
    "Name": "TimePerFitDist-0",
    "Overflow": 23.0,
    "Type": "Histo1d",
    "Underflow": 0.0,
    "x": {
        "AxisTitle": "Fit Time [us]",
        "Bins": 201,
        "High": 401.0,
        "Low": -1.0
    },
    "y": {
        "AxisTitle": "Number of Pixels"
    },
    "z": {
        "AxisTitle": "z"
    }
}