{
    "Data": [0.0, 2.0, 7.0, 30.0, 97.0, 283.0, 702.0, 1613.0, 2616.0, 3757.0, 4168.0, 3741.0, 2989.0, 2120.0, 1440.0, 981.0, 667.0, 398.0, 201.0, 125.0, 75.0],
    "Name": "NoiseDist-0",
    "Overflow": 89.0,
    "Type": "Histo1d",
    "Underflow": 2.0,
    "x": {
        "AxisTitle": "Noise [e]",
        "Bins": 21,
        "High": 127.0,
        "Low": 22.0
    },
    "y": {
        "AxisTitle": "Number of Pixels"
    },
    "z": {
        "AxisTitle": "z"
    }
}