{
    "Data": [0.0, 0.0, 0.0, 0.0, 0.0, 0.0, 0.0, 0.0, 0.0, 0.0, 0.0, 0.0, 0.0, 0.0, 0.0, 3.0, 6.0, 2.0, 0.0, 6.0, 75.0, 82.0, 20.0, 5.0, 33.0, 288.0, 357.0, 173.0, 70.0, 202.0, 828.0, 1412.0, 949.0, 446.0, 346.0, 696.0, 1208.0, 1170.0, 795.0, 640.0, 1214.0, 1673.0, 1610.0, 1112.0, 704.0, 676.0, 639.0, 779.0, 678.0, 604.0, 575.0, 519.0, 540.0, 410.0, 371.0, 349.0, 347.0, 303.0, 243.0, 245.0, 236.0, 233.0, 196.0, 159.0, 147.0, 152.0, 133.0, 116.0, 104.0, 87.0, 70.0, 91.0, 55.0, 75.0, 68.0, 56.0, 41.0, 37.0, 43.0, 40.0, 33.0, 36.0, 32.0, 28.0, 23.0, 20.0, 25.0, 29.0, 22.0, 18.0, 15.0, 15.0, 13.0, 15.0, 14.0, 13.0, 5.0, 9.0, 7.0, 9.0, 8.0, 10.0, 9.0, 10.0, 10.0, 6.0, 4.0, 5.0, 4.0, 3.0, 3.0, 1.0, 2.0, 4.0, 3.0, 4.0, 4.0, 4.0, 1.0, 2.0, 0.0, 2.0, 0.0, 4.0, 0.0, 2.0, 2.0, 3.0, 0.0, 0.0, 2.0, 1.0, 0.0, 1.0, 0.0, 0.0, 1.0, 2.0, 2.0, 1.0, 0.0, 0.0, 0.0, 3.0, 2.0, 2.0, 0.0, 1.0, 2.0, 0.0, 0.0, 0.0, 0.0, 0.0, 0.0, 0.0, 0.0, 0.0, 0.0, 2.0, 0.0, 1.0, 0.0, 0.0, 0.0, 0.0, 1.0, 1.0, 0.0, 0.0, 1.0, 0.0, 1.0, 0.0, 0.0, 0.0, 1.0, 0.0, 1.0, 2.0, 0.0, 0.0, 1.0, 0.0, 1.0, 2.0, 0.0, 0.0, 0.0, 2.0, 0.0, 0.0, 1.0, 0.0, 0.0, 0.0, 0.0, 0.0, 0.0, 0.0, 0.0],
    "Name": "TimePerFitDist-0",
    "Overflow": 34.0,
    "Type": "Histo1d",
    "Underflow": 0.0,
    "x": {
        "AxisTitle": "Fit Time [us]",
        "Bins": 201,
        "High": 401.0,
        "Low": -1.0
    },
    "y": {
        "AxisTitle": "Number of Pixels"
    },
    "z": {
        "AxisTitle": "z"
    }
}