{
    "connectivity": {
        "chipType": "RD53A",
        "chips": [{
            "_position": "IHRPP0_M12_KEKQ22_Chip4",
            "config": "configs/ihrpp0/20UPGFC0009319.json",
            "enable": 1,
            "locked": 0,
            "rx": 192,
            "tx": 196
        },{
            "_position": "IHRPP0_M13_KEKQ24_Chip4",
            "config": "configs/ihrpp0/20UPGFC0009349.json",
            "enable": 0,
            "locked": 0,
            "rx": 196,
            "tx": 192
        },{
            "_position": "IHRPP0_M14_KEKQ25_Chip4",
            "config": "configs/ihrpp0/20UPGFC0009382.json",
            "enable": 1,
            "locked": 0,
            "rx": 212,
            "tx": 204
        },{
            "_position": "IHRPP0_M15_Liv8_Chip4",
            "config": "configs/ihrpp0/20UPGFC0010037.json",
            "enable": 1,
            "locked": 0,
            "rx": 208,
            "tx": 198
        },{
            "_position": "IHRPP0_M16_KEKQ19_Chip4",
            "config": "configs/ihrpp0/20UPGFC0005719.json",
            "enable": 0,
            "locked": 0,
            "rx": 204,
            "tx": 206
        },{
            "_position": "IHRPP0_M17_Paris6_Chip4",
            "config": "configs/ihrpp0/20UPGFC0008763.json",
            "enable": 1,
            "locked": 0,
            "rx": 260,
            "tx": 268
        },{
            "_position": "IHRPP0_M18_Goe5_Chip4",
            "config": "configs/ihrpp0/20UPGFC0012436.json",
            "enable": 1,
            "locked": 0,
            "rx": 256,
            "tx": 260
        },{
            "_position": "IHRPP0_M19_Paris16_Chip4",
            "config": "configs/ihrpp0/20UPGFC0008759.json",
            "enable": 1,
            "locked": 0,
            "rx": 264,
            "tx": 256
        },{
            "_position": "IHRPP0_M20_Paris11_Chip4",
            "config": "configs/ihrpp0/20UPGFC0008773.json",
            "enable": 1,
            "locked": 0,
            "rx": 276,
            "tx": 270
        },{
            "_position": "IHRPP0_M21_Goe7_Chip4",
            "config": "configs/ihrpp-1/20UPGFC0012454.json",
            "enable": 0,
            "locked": 0,
            "rx": 268,
            "tx": 262
        },{
            "_position": "IHRPP0_M22_Paris8_Chip4",
            "config": "configs/ihrpp0/20UPGFC0008843.json",
            "enable": 1,
            "locked": 0,
            "rx": 272,
            "tx": 258
        }]
    },
    "ctrlCfg": {
        "ctrlCfg": {
            "cfg": {
                "NetIO": {
                    "extend": false,
                    "fetype": "rd53a",
                    "flip": false,
                    "host": "127.0.0.1",
                    "manchester": false,
                    "rxport": 12350,
                    "txport": 12340
                }
            },
            "type": "Netio"
        }
    },
    "exec": "-r configs/controller/felix.json -c configs/connectivity/IHRDemonstrator_setup.json -s configs/newscans/rd53a/module_QC_scans_config/std_digitalscan.json -p ",
    "runNumber": 7556,
    "stopwatch": {
        "analysis": 802,
        "config": 1404,
        "processing": 990,
        "scan": 143678
    },
    "targetCharge": -1,
    "targetTot": -1,
    "timestamp": "2022-12-20_18:21:22"
}