{
    "unit": {
        "Time": "s",
        "Voltage": "V",
        "Current": "A"
    },
    "V_step": -5,
    "Step_duration": 2,
    "N_measurements_per_step": 10,
    "A_Compliance": 1e-05,
    "Sensor_IV": [
        {
            "Time": 20.29799747467041,
            "Voltage": 0.0,
            "Current_mean": -1.50408944e-08,
            "Current_sigma": 1.4353112135868765e-08
        },
        {
            "Time": 26.291796684265137,
            "Voltage": -5.0,
            "Current_mean": -2.1419285600000003e-08,
            "Current_sigma": 1.2674395806266919e-08
        },
        {
            "Time": 32.28575539588928,
            "Voltage": -10.0,
            "Current_mean": -2.3369918999999997e-08,
            "Current_sigma": 7.785879306197148e-09
        },
        {
            "Time": 38.279669523239136,
            "Voltage": -15.0,
            "Current_mean": -2.5208249999999997e-08,
            "Current_sigma": 6.935048996289789e-09
        },
        {
            "Time": 44.27331280708313,
            "Voltage": -20.0,
            "Current_mean": -2.2192932999999997e-08,
            "Current_sigma": 6.227407782620391e-09
        },
        {
            "Time": 50.267091274261475,
            "Voltage": -25.0,
            "Current_mean": -2.2829593999999996e-08,
            "Current_sigma": 6.109618311931115e-09
        },
        {
            "Time": 56.26081871986389,
            "Voltage": -30.0,
            "Current_mean": -2.5030894e-08,
            "Current_sigma": 6.5452677064535715e-09
        },
        {
            "Time": 62.25455856323242,
            "Voltage": -35.0,
            "Current_mean": -2.5492080999999997e-08,
            "Current_sigma": 6.180566407462102e-09
        },
        {
            "Time": 68.24832320213318,
            "Voltage": -40.0,
            "Current_mean": -2.5620415e-08,
            "Current_sigma": 6.637169468195384e-09
        },
        {
            "Time": 74.2420003414154,
            "Voltage": -45.0,
            "Current_mean": -2.4673164999999998e-08,
            "Current_sigma": 5.515254303640494e-09
        },
        {
            "Time": 80.23582363128662,
            "Voltage": -50.0,
            "Current_mean": -2.4331935e-08,
            "Current_sigma": 6.095760131839588e-09
        },
        {
            "Time": 86.22964096069336,
            "Voltage": -55.0,
            "Current_mean": -2.6194440999999998e-08,
            "Current_sigma": 5.111710221232127e-09
        },
        {
            "Time": 92.22311472892761,
            "Voltage": -60.0,
            "Current_mean": -2.7995430000000005e-08,
            "Current_sigma": 5.028290315119046e-09
        },
        {
            "Time": 98.21698927879333,
            "Voltage": -65.0,
            "Current_mean": -2.6776910000000003e-08,
            "Current_sigma": 5.444313290217601e-09
        },
        {
            "Time": 104.21081876754761,
            "Voltage": -70.0,
            "Current_mean": -2.6543202000000003e-08,
            "Current_sigma": 5.233703633557788e-09
        },
        {
            "Time": 110.2045533657074,
            "Voltage": -75.0,
            "Current_mean": -2.5920324e-08,
            "Current_sigma": 5.701740061267612e-09
        },
        {
            "Time": 116.19820523262024,
            "Voltage": -80.0,
            "Current_mean": -2.6381438000000004e-08,
            "Current_sigma": 4.968215329266234e-09
        },
        {
            "Time": 122.19190573692322,
            "Voltage": -85.0,
            "Current_mean": -2.7441464999999997e-08,
            "Current_sigma": 4.33127284430397e-09
        },
        {
            "Time": 128.1856245994568,
            "Voltage": -90.0,
            "Current_mean": -2.8417193999999998e-08,
            "Current_sigma": 3.0504556957582585e-09
        },
        {
            "Time": 134.17956042289734,
            "Voltage": -95.0,
            "Current_mean": -2.7401368e-08,
            "Current_sigma": 5.144528810170666e-09
        },
        {
            "Time": 140.17341208457947,
            "Voltage": -100.0,
            "Current_mean": -2.4992716000000003e-08,
            "Current_sigma": 4.441143897563329e-09
        },
        {
            "Time": 146.16717505455017,
            "Voltage": -105.0,
            "Current_mean": -2.6211184999999998e-08,
            "Current_sigma": 5.232749699531308e-09
        },
        {
            "Time": 152.16106843948364,
            "Voltage": -110.0,
            "Current_mean": -2.521145e-08,
            "Current_sigma": 3.456198953084154e-09
        },
        {
            "Time": 158.15492296218872,
            "Voltage": -115.0,
            "Current_mean": -2.7970583000000002e-08,
            "Current_sigma": 4.757334958444802e-09
        },
        {
            "Time": 164.1485676765442,
            "Voltage": -120.0,
            "Current_mean": -2.6778933000000006e-08,
            "Current_sigma": 4.4254008059294485e-09
        },
        {
            "Time": 170.14245223999023,
            "Voltage": -125.0,
            "Current_mean": -2.7121368e-08,
            "Current_sigma": 4.4652153007437385e-09
        },
        {
            "Time": 176.13613510131836,
            "Voltage": -130.0,
            "Current_mean": -2.7921027e-08,
            "Current_sigma": 4.587745224205567e-09
        },
        {
            "Time": 182.12977361679077,
            "Voltage": -135.0,
            "Current_mean": -2.7592606999999998e-08,
            "Current_sigma": 4.499960967761942e-09
        },
        {
            "Time": 188.1234266757965,
            "Voltage": -140.0,
            "Current_mean": -3.011883e-08,
            "Current_sigma": 3.57635749173653e-09
        },
        {
            "Time": 194.11700963974,
            "Voltage": -145.0,
            "Current_mean": -2.8014472e-08,
            "Current_sigma": 4.4598931908282286e-09
        },
        {
            "Time": 200.1107997894287,
            "Voltage": -150.0,
            "Current_mean": -2.5221632999999998e-08,
            "Current_sigma": 3.1598400706999398e-09
        },
        {
            "Time": 206.10463643074036,
            "Voltage": -155.0,
            "Current_mean": -2.7625149000000002e-08,
            "Current_sigma": 4.769004869897806e-09
        },
        {
            "Time": 212.09848189353943,
            "Voltage": -160.0,
            "Current_mean": -2.8430444e-08,
            "Current_sigma": 4.172068730131851e-09
        },
        {
            "Time": 218.09231233596802,
            "Voltage": -165.0,
            "Current_mean": -2.9505911999999998e-08,
            "Current_sigma": 4.586614955401859e-09
        },
        {
            "Time": 224.08619213104248,
            "Voltage": -170.0,
            "Current_mean": -2.8797553e-08,
            "Current_sigma": 4.355636661931411e-09
        },
        {
            "Time": 230.07976484298706,
            "Voltage": -175.0,
            "Current_mean": -2.7080263000000003e-08,
            "Current_sigma": 4.038313700197274e-09
        },
        {
            "Time": 236.07354140281677,
            "Voltage": -180.0,
            "Current_mean": -2.6867830999999995e-08,
            "Current_sigma": 3.407565635724278e-09
        },
        {
            "Time": 242.0673394203186,
            "Voltage": -185.0,
            "Current_mean": -3.0115563999999996e-08,
            "Current_sigma": 3.761372423653899e-09
        },
        {
            "Time": 248.06118845939636,
            "Voltage": -190.0,
            "Current_mean": -2.9207646000000002e-08,
            "Current_sigma": 4.0104059197572515e-09
        },
        {
            "Time": 254.0550878047943,
            "Voltage": -195.0,
            "Current_mean": -2.9836842e-08,
            "Current_sigma": 3.8397085545489e-09
        },
        {
            "Time": 260.0489149093628,
            "Voltage": -200.0,
            "Current_mean": -3.1939785e-08,
            "Current_sigma": 2.927888847327542e-09
        }
    ]
}