{
    "Modules": ["KEKQ22", "KEKQ24", "KEKQ25", "Liv8", "KEKQ19", "Paris6", "Goe5", "Paris16", "Paris11", "Paris8", "CERNQ10", "Paris10", "CERNQ9", "SiegenQ1", "Paris12", "SiegenQ2", "SiegenQ3", "CERNQ11", "Paris9", "SiegenQ4", "Paris7", "Paris13", "Goe10", "CERNQ8", "Goe4", "CERNQ4", "KEKQ20", "Liv5"],

        "FlatTop": ["Paris10", "SiegenQ1", "SiegenQ2", "CERNQ11", "SiegenQ4", "Paris13", "CERNQ8", "CERNQ4", "Liv5"],

        "FlatBottom": ["CERNQ10", "CERNQ9", "Paris12", "SiegenQ3", "Paris9", "Paris7", "Goe10", "Goe4", "KEKQ20"],

        "Front": ["KEKQ24", "Liv8", "Paris6", "Paris16", "Goe7"],

        "Back": ["KEKQ22", "KEKQ25", "KEKQ19", "Goe5", "Paris11", "Paris8"],
    
	"FEs": [
	    "FE2",
	    "FE4"
	],
    "Ignore": {
	"CERNQ8": ["FE4"],
        "CERNQ9": ["FE4"],
        "KEKQ22": ["FE2"],
        "Goe5": ["FE2"],
        "Paris8": ["FE4"],
	"Paris10": ["FE4"]
	},
	"Stages": {
	        "Stage4": {
			"Name": "After cell loading"
		},
		"Stage5": {
			"Name": "Type-0 pigtail connection"
		}
	},
	"Path": "/eos/home-d/dharada/Documents/Figure_pigtail_new",
	"Plots": {
		"NoiseDist": {
			"Title": "Noise",
			"ytitle": "Noise [e]",
			"Data": "Noise[e]",
			"Error": "Stdev[e]",
			"Scan": ""
		},
		"ThresholdDist": {
			"Title": "Threshold",
			"ytitle": "Threshold [e]",
			"Data": "Threshold[e]",
			"Error": "Stdev[e]",
			"Scan": ""
		},
		"digitalscan_evolution_0": {
			"Title": "digitalscan occupancy = 0",
			"ytitle": "# of dead pixels",
			"Data": "#dead_pixels",
			"Error": "",
			"Scan": ""
		},
		"digitalscan_evolution_(0, 98)": {
			"Title": "digitalscan, 0 < occupancy < 98",
			"ytitle": "# of inefficient pixels",
			"Data": "#pixels_in_range",
			"Error": "",
			"Scan": ""
		},
		"digitalscan_evolution_(97, 103)": {
			"Title": "digitalscan, 97 < occupancy < 103",
			"ytitle": "# of good pixels",
			"Data": "#pixels_in_range",
			"Error": "",
			"Scan": ""
		},
		"digitalscan_evolution_102": {
			"Title": "digitalscan, occupancy > 102",
			"ytitle": "# of noisy pixels",
			"Data": "#pixels_in_range",
			"Error": "",
			"Scan": ""
		},
	        "analogscan_evolution_0": {
			"Title": "analogscan occupancy = 0",
			"ytitle": "# of not masked dead pixels",
			"Data": "#pixels_nm",
			"Error": "",
			"Scan": ""
		},
		"analogscan_evolution_(0, 98)": {
			"Title": "analogscan, 0 < occupancy < 98",
			"ytitle": "# of inefficient pixels",
			"Data": "#pixels_in_range",
			"Error": "",
			"Scan": ""
		},
		"analogscan_evolution_(97, 103)": {
			"Title": "analogscan, 97 < occupancy < 103",
			"ytitle": "# of good pixels",
			"Data": "#pixels_in_range",
			"Error": "",
			"Scan": ""
		},
		"analogscan_evolution_102": {
			"Title": "analogscan, occupancy > 102",
			"ytitle": "# of noisy pixels",
			"Data": "#pixels_in_range",
			"Error": "",
			"Scan": ""
		},
		"discbumpscan": {
			"Title": "discbumpscan Occupancy = 0",
			"ytitle": "# of 0 hits in not-masked pixels",
			"Data": "#pixels_nm",
			"Error": "",
			"Scan": "",
			"Comment_nm": [
				600,
				600,
				500
			]
		},
		"FE_counter": {
			"Data": "#FEs",
			"Error": "",
			"Scan": "thresholdscan",
			"Limits": 6
		}
	},
	"SumPlots": {
		"digitalscan_notgood": {
			"Title": "digitalscan occupancy < 98 or > 102",
			"ytitle": "# of not good pixels",
			"Data": {
				"digitalscan_evolution_0": "#dead_pixels",
				"digitalscan_evolution_(0, 98)": "#pixels_in_range",
				"digitalscan_evolution_102": "#pixels_in_range"
			},
			"Error": "",
			"Scan": ""
		}
	}
}
