{
    "Module": {
	"ModuleID": "CERNQ9",
	"FolderPath": {
	    "Stage1": ".",
	    "Stage2": "/eos/atlas/atlascerngroupdisk/det-itk/general/pixels/systemtest/lls-prototype-rd53a-ob/moduledata/CERN_Thin_Q9_20UPGM20025070/1-ReceptionTestCERN/BeforePotting",
	    "Stage3": "/eos/atlas/atlascerngroupdisk/det-itk/general/pixels/systemtest/lls-prototype-rd53a-ob/moduledata/CERN_Thin_Q9_20UPGM20025070/1-ReceptionTestCERN/AfterPotting",
	    "Stage4": "/eos/atlas/atlascerngroupdisk/det-itk/general/pixels/systemtest/lls-prototype-rd53a-ob/moduledata/CERN_Thin_Q9_20UPGM20025070/2-AfterLoading",
	    "Stage5": "/eos/atlas/atlascerngroupdisk/det-itk/general/pixels/systemtest/lls-prototype-rd53a-ob/moduledata/CERN_Thin_Q9_20UPGM20025070/3-ReceptionAfterLoading/Pigtail_Bottom",
	    "Stage6": "."
	},
	"IV": {
	    "Stage1": ".",
	    "Stage2": "/eos/atlas/atlascerngroupdisk/det-itk/general/pixels/systemtest/lls-prototype-rd53a-ob/moduledata/CERN_Thin_Q9_20UPGM20025070/1-ReceptionTestCERN/BeforePotting",
	    "Stage3": "/eos/atlas/atlascerngroupdisk/det-itk/general/pixels/systemtest/lls-prototype-rd53a-ob/moduledata/CERN_Thin_Q9_20UPGM20025070/1-ReceptionTestCERN/AfterPotting",
	    "Stage4": "/eos/atlas/atlascerngroupdisk/det-itk/general/pixels/systemtest/lls-prototype-rd53a-ob/moduledata/CERN_Thin_Q9_20UPGM20025070/2-AfterLoading",
	    "Stage5": "/eos/atlas/atlascerngroupdisk/det-itk/general/pixels/systemtest/lls-prototype-rd53a-ob/moduledata/CERN_Thin_Q9_20UPGM20025070/3-ReceptionAfterLoading/Pigtail_Bottom",
	    "Stage6": "."
	},
	"FWB": {
	    "Stage1": ".",
	    "Stage2": "/eos/atlas/atlascerngroupdisk/det-itk/general/pixels/systemtest/lls-prototype-rd53a-ob/moduledata/CERN_Thin_Q9_20UPGM20025070/1-ReceptionTestCERN/BeforePotting",
	    "Stage3": "/eos/atlas/atlascerngroupdisk/det-itk/general/pixels/systemtest/lls-prototype-rd53a-ob/moduledata/CERN_Thin_Q9_20UPGM20025070/1-ReceptionTestCERN/AfterPotting",
	    "Stage4": "/eos/atlas/atlascerngroupdisk/det-itk/general/pixels/systemtest/lls-prototype-rd53a-ob/moduledata/CERN_Thin_Q9_20UPGM20025070/2-AfterLoading",
	    "Stage5": "/eos/atlas/atlascerngroupdisk/det-itk/general/pixels/systemtest/lls-prototype-rd53a-ob/moduledata/CERN_Thin_Q9_20UPGM20025070/3-ReceptionAfterLoading/Pigtail_Bottom",
	    "Stage6": "."
	}, 
	"Temperature": {
	    "Stage1": 298.15,
	    "Stage2": 298.15,
	    "Stage3": 297.15,
	    "Stage4": 298.65,
	    "Stage5": 293.55,
	    "Stage6": 293.55
	},
	"Type": [ "diff", "lin", "syn" ],
	"FE1": "20UPGFC0012914",
	"FE2": "20UPGFC0012851",
	"FE3": "20UPGFC0012854",
	"FE4": "20UPGFC0012931"
    },
    "PlotConfig": "./PlotConfig.json",
    "OutputFormat": [ ".png", ".pdf", ".csv" ]
}
