{
    "Module": {
	"ModuleID": "KEKQ24",
	"FolderPath": {
	    "Stage1": "/eos/atlas/atlascerngroupdisk/det-itk/general/pixels/systemtest/lls-prototype-rd53a-ob/moduledata/KEKQ24/Initial-ModuleQCAtKEK",
	    "Stage2": ".",
	    "Stage3": ".",
	    "Stage4": "/eos/atlas/atlascerngroupdisk/det-itk/general/pixels/systemtest/lls-prototype-rd53a-ob/moduledata/KEKQ24/2-AfterLoading",
	    "Stage5": "/eos/atlas/atlascerngroupdisk/det-itk/general/pixels/systemtest/lls-prototype-rd53a-ob/moduledata/KEKQ24/2-AfterLoading/PigtailFront",
	    "Stage6": "."
	},
	"IV": {
	    "Stage1": "/eos/atlas/atlascerngroupdisk/det-itk/general/pixels/systemtest/lls-prototype-rd53a-ob/moduledata/KEKQ24/Initial-ModuleQCAtKEK",
	    "Stage2": ".",
	    "Stage3": ".",
	    "Stage4": "/eos/atlas/atlascerngroupdisk/det-itk/general/pixels/systemtest/lls-prototype-rd53a-ob/moduledata/KEKQ24/2-AfterLoading",
	    "Stage5": "/eos/atlas/atlascerngroupdisk/det-itk/general/pixels/systemtest/lls-prototype-rd53a-ob/moduledata/KEKQ24/2-AfterLoading/PigtailFront",
	    "Stage6": "."
	},
	"FWB": {
	    "Stage1": "/eos/atlas/atlascerngroupdisk/det-itk/general/pixels/systemtest/lls-prototype-rd53a-ob/moduledata/KEKQ24/Initial-ModuleQCAtKEK",
	    "Stage2": ".",
	    "Stage3": ".",
	    "Stage4": "/eos/atlas/atlascerngroupdisk/det-itk/general/pixels/systemtest/lls-prototype-rd53a-ob/moduledata/KEKQ24/2-AfterLoading",
	    "Stage5": "/eos/atlas/atlascerngroupdisk/det-itk/general/pixels/systemtest/lls-prototype-rd53a-ob/moduledata/KEKQ24/2-AfterLoading/PigtailFront",
	    "Stage6": "."
	},
	"Temperature": {
	    "Stage1": 303.15,
	    "Stage2": 290.15,
	    "Stage3": 293.15,
	    "Stage4": 290.15,
	    "Stage5": 293.15,
	    "Stage6": 293.65
	},
	"Type": [ "diff", "lin", "syn" ],
	"FE1": "20UPGFC0009301",
	"FE2": "20UPGFC0009333",
	"FE3": "20UPGFC0009365",
	"FE4": "20UPGFC0009349"
    },
    "PlotConfig": "./PlotConfig.json",
    "OutputFormat": [ ".png", ".pdf" ]
}
