{
    "Module": {
	"ModuleID": "CERNQ4",
	"FolderPath": {
	    "Stage1": "/eos/atlas/atlascerngroupdisk/det-itk/general/pixels/systemtest/lls-prototype-rd53a-ob/moduledata/CERN_Thin_Q4_20UPGM20023012/Initial-ModuleQCAtCERN/AfterTCBurnIn_2nd",
	    "Stage2": "/eos/atlas/atlascerngroupdisk/det-itk/general/pixels/systemtest/lls-prototype-rd53a-ob/moduledata/CERN_Thin_Q4_20UPGM20023012/Initial-ModuleQCAtCERN/BeforeParylene",
	    "Stage3": ".",
	    "Stage4": "/eos/atlas/atlascerngroupdisk/det-itk/general/pixels/systemtest/lls-prototype-rd53a-ob/moduledata/CERN_Thin_Q4_20UPGM20023012/2-AfterLoading",
	    "Stage5": "/eos/atlas/atlascerngroupdisk/det-itk/general/pixels/systemtest/lls-prototype-rd53a-ob/moduledata/CERN_Thin_Q4_20UPGM20023012/3-ReceptionAfterLoading/Pigtail_Top",
	    "Stage6": "."
	},
	"IV": {
	    "Stage1": "/eos/atlas/atlascerngroupdisk/det-itk/general/pixels/systemtest/lls-prototype-rd53a-ob/moduledata/CERN_Thin_Q4_20UPGM20023012/Initial-ModuleQCAtCERN/AfterTCBurnIn_2nd",
	    "Stage2": "/eos/atlas/atlascerngroupdisk/det-itk/general/pixels/systemtest/lls-prototype-rd53a-ob/moduledata/CERN_Thin_Q4_20UPGM20023012/Initial-ModuleQCAtCERN/BeforeParylene",
	    "Stage3": ".",
	    "Stage4": "/eos/atlas/atlascerngroupdisk/det-itk/general/pixels/systemtest/lls-prototype-rd53a-ob/moduledata/CERN_Thin_Q4_20UPGM20023012/2-AfterLoading",
	    "Stage5": "/eos/atlas/atlascerngroupdisk/det-itk/general/pixels/systemtest/lls-prototype-rd53a-ob/moduledata/CERN_Thin_Q4_20UPGM20023012/3-ReceptionAfterLoading/Pigtail_Top",
	    "Stage6": "."
	},
        "FWB": {
	    "Stage1": "/eos/atlas/atlascerngroupdisk/det-itk/general/pixels/systemtest/lls-prototype-rd53a-ob/moduledata/CERN_Thin_Q4_20UPGM20023012/Initial-ModuleQCAtCERN/AfterTCBurnIn_2nd",
	    "Stage2": "/eos/atlas/atlascerngroupdisk/det-itk/general/pixels/systemtest/lls-prototype-rd53a-ob/moduledata/CERN_Thin_Q4_20UPGM20023012/Initial-ModuleQCAtCERN/BeforeParylene",
	    "Stage3": ".",
	    "Stage4": "/eos/atlas/atlascerngroupdisk/det-itk/general/pixels/systemtest/lls-prototype-rd53a-ob/moduledata/CERN_Thin_Q4_20UPGM20023012/2-AfterLoading",
	    "Stage5": "/eos/atlas/atlascerngroupdisk/det-itk/general/pixels/systemtest/lls-prototype-rd53a-ob/moduledata/CERN_Thin_Q4_20UPGM20023012/3-ReceptionAfterLoading/Pigtail_Top",
	    "Stage6": "."

	}, 
	"Temperature": {
	    "Stage1": 285.15,
	    "Stage2": 298.15,
	    "Stage3": 1,
	    "Stage4": 298.85,
	    "Stage5": 293.15,
	    "Stage6": 1
	},
	"Type": [ "diff", "lin", "syn" ],
	"FE1": "20UPGFC0012891",
	"FE2": "20UPGFC0012923",
	"FE3": "20UPGFC0012924",
	"FE4": "20UPGFC0012907"
        },
        "PlotConfig": "./PlotConfig.json",
        "OutputFormat": [ ".png", ".pdf" ]
}
