2022-08-19 17:52:51 {'measurement': 'measName', 'fields': {'measV_HV2': -50.0, 'measI_HV2': -2.729381e-08, 'settV_HV2': -50.0, 'settI_HV2': 0.0}, 'tags': {'user': 'root'}}
2022-08-19 17:52:51 {'measurement': 'measName', 'fields': {'measV_HV2': -50.0, 'measI_HV2': -3.795485e-08, 'settV_HV2': -50.0, 'settI_HV2': 0.0}, 'tags': {'user': 'root'}}
2022-08-19 17:52:52 {'measurement': 'measName', 'fields': {'measV_HV2': -50.0, 'measI_HV2': -4.303495e-08, 'settV_HV2': -50.0, 'settI_HV2': 0.0}, 'tags': {'user': 'root'}}
2022-08-19 17:52:53 {'measurement': 'measName', 'fields': {'measV_HV2': -50.0, 'measI_HV2': -3.764008e-08, 'settV_HV2': -50.0, 'settI_HV2': 0.0}, 'tags': {'user': 'root'}}
2022-08-19 17:52:54 {'measurement': 'measName', 'fields': {'measV_HV2': -50.0, 'measI_HV2': -2.935264e-08, 'settV_HV2': -50.0, 'settI_HV2': 0.0}, 'tags': {'user': 'root'}}
2022-08-19 17:52:54 {'measurement': 'measName', 'fields': {'measV_HV2': -50.0, 'measI_HV2': -3.138409e-08, 'settV_HV2': -50.0, 'settI_HV2': 0.0}, 'tags': {'user': 'root'}}
2022-08-19 17:52:55 {'measurement': 'measName', 'fields': {'measV_HV2': -50.0, 'measI_HV2': -4.323291e-08, 'settV_HV2': -50.0, 'settI_HV2': 0.0}, 'tags': {'user': 'root'}}
2022-08-19 17:52:56 {'measurement': 'measName', 'fields': {'measV_HV2': -50.0, 'measI_HV2': -4.089123e-08, 'settV_HV2': -50.0, 'settI_HV2': 0.0}, 'tags': {'user': 'root'}}
2022-08-19 17:52:56 {'measurement': 'measName', 'fields': {'measV_HV2': -50.0, 'measI_HV2': -3.421951e-08, 'settV_HV2': -50.0, 'settI_HV2': 0.0}, 'tags': {'user': 'root'}}
2022-08-19 17:52:57 {'measurement': 'measName', 'fields': {'measV_HV2': -50.0, 'measI_HV2': -2.942184e-08, 'settV_HV2': -50.0, 'settI_HV2': 0.0}, 'tags': {'user': 'root'}}
2022-08-19 17:52:58 {'measurement': 'measName', 'fields': {'measV_HV2': -50.0, 'measI_HV2': -4.007274e-08, 'settV_HV2': -50.0, 'settI_HV2': 0.0}, 'tags': {'user': 'root'}}
2022-08-19 17:52:59 {'measurement': 'measName', 'fields': {'measV_HV2': -50.0, 'measI_HV2': -3.203704e-08, 'settV_HV2': -50.0, 'settI_HV2': 0.0}, 'tags': {'user': 'root'}}
2022-08-19 17:53:00 {'measurement': 'measName', 'fields': {'measV_HV2': -50.0, 'measI_HV2': -4.363217e-08, 'settV_HV2': -50.0, 'settI_HV2': 0.0}, 'tags': {'user': 'root'}}
2022-08-19 17:53:00 {'measurement': 'measName', 'fields': {'measV_HV2': -50.0, 'measI_HV2': -3.877441e-08, 'settV_HV2': -50.0, 'settI_HV2': 0.0}, 'tags': {'user': 'root'}}
2022-08-19 17:53:01 {'measurement': 'measName', 'fields': {'measV_HV2': -50.0, 'measI_HV2': -3.004236e-08, 'settV_HV2': -50.0, 'settI_HV2': 0.0}, 'tags': {'user': 'root'}}
2022-08-19 17:53:02 {'measurement': 'measName', 'fields': {'measV_HV2': -50.0, 'measI_HV2': -3.99441e-08, 'settV_HV2': -50.0, 'settI_HV2': 0.0}, 'tags': {'user': 'root'}}
2022-08-19 17:53:03 {'measurement': 'measName', 'fields': {'measV_HV2': -50.0, 'measI_HV2': -3.929421e-08, 'settV_HV2': -50.0, 'settI_HV2': 0.0}, 'tags': {'user': 'root'}}
2022-08-19 17:53:03 {'measurement': 'measName', 'fields': {'measV_HV2': -50.0, 'measI_HV2': -2.983801e-08, 'settV_HV2': -50.0, 'settI_HV2': 0.0}, 'tags': {'user': 'root'}}
2022-08-19 17:53:04 {'measurement': 'measName', 'fields': {'measV_HV2': -50.0, 'measI_HV2': -2.783467e-08, 'settV_HV2': -50.0, 'settI_HV2': 0.0}, 'tags': {'user': 'root'}}
2022-08-19 17:53:05 {'measurement': 'measName', 'fields': {'measV_HV2': -50.0, 'measI_HV2': -3.178764e-08, 'settV_HV2': -50.0, 'settI_HV2': 0.0}, 'tags': {'user': 'root'}}
2022-08-19 17:53:05 {'measurement': 'measName', 'fields': {'measV_HV2': -50.0, 'measI_HV2': -4.1667e-08, 'settV_HV2': -50.0, 'settI_HV2': 0.0}, 'tags': {'user': 'root'}}
2022-08-19 17:53:06 {'measurement': 'measName', 'fields': {'measV_HV2': -50.0, 'measI_HV2': -3.943514e-08, 'settV_HV2': -50.0, 'settI_HV2': 0.0}, 'tags': {'user': 'root'}}
2022-08-19 17:53:07 {'measurement': 'measName', 'fields': {'measV_HV2': -50.0, 'measI_HV2': -3.311546e-08, 'settV_HV2': -50.0, 'settI_HV2': 0.0}, 'tags': {'user': 'root'}}
2022-08-19 17:53:07 {'measurement': 'measName', 'fields': {'measV_HV2': -50.0, 'measI_HV2': -3.167396e-08, 'settV_HV2': -50.0, 'settI_HV2': 0.0}, 'tags': {'user': 'root'}}
2022-08-19 17:53:08 {'measurement': 'measName', 'fields': {'measV_HV2': -50.0, 'measI_HV2': -3.672399e-08, 'settV_HV2': -50.0, 'settI_HV2': 0.0}, 'tags': {'user': 'root'}}
2022-08-19 17:53:09 {'measurement': 'measName', 'fields': {'measV_HV2': -50.0, 'measI_HV2': -4.468919e-08, 'settV_HV2': -50.0, 'settI_HV2': 0.0}, 'tags': {'user': 'root'}}
2022-08-19 17:53:10 {'measurement': 'measName', 'fields': {'measV_HV2': -50.0, 'measI_HV2': -3.173037e-08, 'settV_HV2': -50.0, 'settI_HV2': 0.0}, 'tags': {'user': 'root'}}
2022-08-19 17:53:11 {'measurement': 'measName', 'fields': {'measV_HV2': -50.0, 'measI_HV2': -3.641917e-08, 'settV_HV2': -50.0, 'settI_HV2': 0.0}, 'tags': {'user': 'root'}}
2022-08-19 17:53:11 {'measurement': 'measName', 'fields': {'measV_HV2': -50.0, 'measI_HV2': -4.335304e-08, 'settV_HV2': -50.0, 'settI_HV2': 0.0}, 'tags': {'user': 'root'}}
2022-08-19 17:53:12 {'measurement': 'measName', 'fields': {'measV_HV2': -50.0, 'measI_HV2': -3.912317e-08, 'settV_HV2': -50.0, 'settI_HV2': 0.0}, 'tags': {'user': 'root'}}
2022-08-19 17:53:13 {'measurement': 'measName', 'fields': {'measV_HV2': -50.0, 'measI_HV2': -2.90438e-08, 'settV_HV2': -50.0, 'settI_HV2': 0.0}, 'tags': {'user': 'root'}}
2022-08-19 17:53:14 {'measurement': 'measName', 'fields': {'measV_HV2': -50.0, 'measI_HV2': -3.314104e-08, 'settV_HV2': -50.0, 'settI_HV2': 0.0}, 'tags': {'user': 'root'}}
2022-08-19 17:53:14 {'measurement': 'measName', 'fields': {'measV_HV2': -50.0, 'measI_HV2': -4.314546e-08, 'settV_HV2': -50.0, 'settI_HV2': 0.0}, 'tags': {'user': 'root'}}
2022-08-19 17:53:15 {'measurement': 'measName', 'fields': {'measV_HV2': -50.0, 'measI_HV2': -3.760735e-08, 'settV_HV2': -50.0, 'settI_HV2': 0.0}, 'tags': {'user': 'root'}}
2022-08-19 17:53:16 {'measurement': 'measName', 'fields': {'measV_HV2': -50.0, 'measI_HV2': -3.08238e-08, 'settV_HV2': -50.0, 'settI_HV2': 0.0}, 'tags': {'user': 'root'}}
2022-08-19 17:53:16 {'measurement': 'measName', 'fields': {'measV_HV2': -50.0, 'measI_HV2': -3.221075e-08, 'settV_HV2': -50.0, 'settI_HV2': 0.0}, 'tags': {'user': 'root'}}
2022-08-19 17:53:17 {'measurement': 'measName', 'fields': {'measV_HV2': -50.0, 'measI_HV2': -4.297914e-08, 'settV_HV2': -50.0, 'settI_HV2': 0.0}, 'tags': {'user': 'root'}}
2022-08-19 17:53:18 {'measurement': 'measName', 'fields': {'measV_HV2': -50.0, 'measI_HV2': -4.312591e-08, 'settV_HV2': -50.0, 'settI_HV2': 0.0}, 'tags': {'user': 'root'}}
2022-08-19 17:53:18 {'measurement': 'measName', 'fields': {'measV_HV2': -50.0, 'measI_HV2': -2.721931e-08, 'settV_HV2': -50.0, 'settI_HV2': 0.0}, 'tags': {'user': 'root'}}
2022-08-19 17:53:19 {'measurement': 'measName', 'fields': {'measV_HV2': -50.0, 'measI_HV2': -3.369101e-08, 'settV_HV2': -50.0, 'settI_HV2': 0.0}, 'tags': {'user': 'root'}}
2022-08-19 17:53:20 {'measurement': 'measName', 'fields': {'measV_HV2': -50.0, 'measI_HV2': -4.388078e-08, 'settV_HV2': -50.0, 'settI_HV2': 0.0}, 'tags': {'user': 'root'}}
2022-08-19 17:53:20 {'measurement': 'measName', 'fields': {'measV_HV2': -50.0, 'measI_HV2': -3.741764e-08, 'settV_HV2': -50.0, 'settI_HV2': 0.0}, 'tags': {'user': 'root'}}
2022-08-19 17:53:22 {'measurement': 'measName', 'fields': {'measV_HV2': -50.0, 'measI_HV2': -3.99537e-08, 'settV_HV2': -50.0, 'settI_HV2': 0.0}, 'tags': {'user': 'root'}}
2022-08-19 17:53:22 {'measurement': 'measName', 'fields': {'measV_HV2': -50.0, 'measI_HV2': -4.442325e-08, 'settV_HV2': -50.0, 'settI_HV2': 0.0}, 'tags': {'user': 'root'}}
2022-08-19 17:53:23 {'measurement': 'measName', 'fields': {'measV_HV2': -50.0, 'measI_HV2': -3.691606e-08, 'settV_HV2': -50.0, 'settI_HV2': 0.0}, 'tags': {'user': 'root'}}
2022-08-19 17:53:24 {'measurement': 'measName', 'fields': {'measV_HV2': -50.0, 'measI_HV2': -2.837945e-08, 'settV_HV2': -50.0, 'settI_HV2': 0.0}, 'tags': {'user': 'root'}}
2022-08-19 17:53:25 {'measurement': 'measName', 'fields': {'measV_HV2': -50.0, 'measI_HV2': -3.253344e-08, 'settV_HV2': -50.0, 'settI_HV2': 0.0}, 'tags': {'user': 'root'}}
2022-08-19 17:53:25 {'measurement': 'measName', 'fields': {'measV_HV2': -50.0, 'measI_HV2': -4.421864e-08, 'settV_HV2': -50.0, 'settI_HV2': 0.0}, 'tags': {'user': 'root'}}
2022-08-19 17:53:26 {'measurement': 'measName', 'fields': {'measV_HV2': -50.0, 'measI_HV2': -4.060663e-08, 'settV_HV2': -50.0, 'settI_HV2': 0.0}, 'tags': {'user': 'root'}}
2022-08-19 17:53:27 {'measurement': 'measName', 'fields': {'measV_HV2': -50.0, 'measI_HV2': -3.000123e-08, 'settV_HV2': -50.0, 'settI_HV2': 0.0}, 'tags': {'user': 'root'}}
2022-08-19 17:53:27 {'measurement': 'measName', 'fields': {'measV_HV2': -50.0, 'measI_HV2': -3.082998e-08, 'settV_HV2': -50.0, 'settI_HV2': 0.0}, 'tags': {'user': 'root'}}
2022-08-19 17:53:28 {'measurement': 'measName', 'fields': {'measV_HV2': -50.0, 'measI_HV2': -4.3411e-08, 'settV_HV2': -50.0, 'settI_HV2': 0.0}, 'tags': {'user': 'root'}}
2022-08-19 17:53:29 {'measurement': 'measName', 'fields': {'measV_HV2': -50.0, 'measI_HV2': -4.360172e-08, 'settV_HV2': -50.0, 'settI_HV2': 0.0}, 'tags': {'user': 'root'}}
2022-08-19 17:53:29 {'measurement': 'measName', 'fields': {'measV_HV2': -50.0, 'measI_HV2': -3.470905e-08, 'settV_HV2': -50.0, 'settI_HV2': 0.0}, 'tags': {'user': 'root'}}
2022-08-19 17:53:30 {'measurement': 'measName', 'fields': {'measV_HV2': -50.0, 'measI_HV2': -3.064108e-08, 'settV_HV2': -50.0, 'settI_HV2': 0.0}, 'tags': {'user': 'root'}}
2022-08-19 17:53:31 {'measurement': 'measName', 'fields': {'measV_HV2': -50.0, 'measI_HV2': -3.213541e-08, 'settV_HV2': -50.0, 'settI_HV2': 0.0}, 'tags': {'user': 'root'}}
2022-08-19 17:53:31 {'measurement': 'measName', 'fields': {'measV_HV2': -50.0, 'measI_HV2': -4.297667e-08, 'settV_HV2': -50.0, 'settI_HV2': 0.0}, 'tags': {'user': 'root'}}
2022-08-19 17:53:33 {'measurement': 'measName', 'fields': {'measV_HV2': -50.0, 'measI_HV2': -3.116127e-08, 'settV_HV2': -50.0, 'settI_HV2': 0.0}, 'tags': {'user': 'root'}}
2022-08-19 17:53:34 {'measurement': 'measName', 'fields': {'measV_HV2': -50.0, 'measI_HV2': -4.343256e-08, 'settV_HV2': -50.0, 'settI_HV2': 0.0}, 'tags': {'user': 'root'}}
2022-08-19 17:53:34 {'measurement': 'measName', 'fields': {'measV_HV2': -50.0, 'measI_HV2': -2.981495e-08, 'settV_HV2': -50.0, 'settI_HV2': 0.0}, 'tags': {'user': 'root'}}
2022-08-19 17:53:35 {'measurement': 'measName', 'fields': {'measV_HV2': -50.0, 'measI_HV2': -4.050411e-08, 'settV_HV2': -50.0, 'settI_HV2': 0.0}, 'tags': {'user': 'root'}}
2022-08-19 17:53:36 {'measurement': 'measName', 'fields': {'measV_HV2': -50.0, 'measI_HV2': -4.391682e-08, 'settV_HV2': -50.0, 'settI_HV2': 0.0}, 'tags': {'user': 'root'}}
2022-08-19 17:53:36 {'measurement': 'measName', 'fields': {'measV_HV2': -50.0, 'measI_HV2': -3.23426e-08, 'settV_HV2': -50.0, 'settI_HV2': 0.0}, 'tags': {'user': 'root'}}
2022-08-19 17:53:37 {'measurement': 'measName', 'fields': {'measV_HV2': -50.0, 'measI_HV2': -3.070822e-08, 'settV_HV2': -50.0, 'settI_HV2': 0.0}, 'tags': {'user': 'root'}}
2022-08-19 17:53:38 {'measurement': 'measName', 'fields': {'measV_HV2': -50.0, 'measI_HV2': -4.219947e-08, 'settV_HV2': -50.0, 'settI_HV2': 0.0}, 'tags': {'user': 'root'}}
2022-08-19 17:53:38 {'measurement': 'measName', 'fields': {'measV_HV2': -50.0, 'measI_HV2': -4.491087e-08, 'settV_HV2': -50.0, 'settI_HV2': 0.0}, 'tags': {'user': 'root'}}
2022-08-19 17:53:39 {'measurement': 'measName', 'fields': {'measV_HV2': -50.0, 'measI_HV2': -2.998548e-08, 'settV_HV2': -50.0, 'settI_HV2': 0.0}, 'tags': {'user': 'root'}}
2022-08-19 17:53:40 {'measurement': 'measName', 'fields': {'measV_HV2': -50.0, 'measI_HV2': -2.948596e-08, 'settV_HV2': -50.0, 'settI_HV2': 0.0}, 'tags': {'user': 'root'}}
2022-08-19 17:53:40 {'measurement': 'measName', 'fields': {'measV_HV2': -50.0, 'measI_HV2': -4.413431e-08, 'settV_HV2': -50.0, 'settI_HV2': 0.0}, 'tags': {'user': 'root'}}
2022-08-19 17:53:41 {'measurement': 'measName', 'fields': {'measV_HV2': -50.0, 'measI_HV2': -3.911745e-08, 'settV_HV2': -50.0, 'settI_HV2': 0.0}, 'tags': {'user': 'root'}}
2022-08-19 17:53:42 {'measurement': 'measName', 'fields': {'measV_HV2': -50.0, 'measI_HV2': -2.843363e-08, 'settV_HV2': -50.0, 'settI_HV2': 0.0}, 'tags': {'user': 'root'}}
2022-08-19 17:53:43 {'measurement': 'measName', 'fields': {'measV_HV2': -50.0, 'measI_HV2': -3.638966e-08, 'settV_HV2': -50.0, 'settI_HV2': 0.0}, 'tags': {'user': 'root'}}
2022-08-19 17:53:43 {'measurement': 'measName', 'fields': {'measV_HV2': -50.0, 'measI_HV2': -4.501961e-08, 'settV_HV2': -50.0, 'settI_HV2': 0.0}, 'tags': {'user': 'root'}}
2022-08-19 17:53:44 {'measurement': 'measName', 'fields': {'measV_HV2': -50.0, 'measI_HV2': -3.993419e-08, 'settV_HV2': -50.0, 'settI_HV2': 0.0}, 'tags': {'user': 'root'}}
2022-08-19 17:53:45 {'measurement': 'measName', 'fields': {'measV_HV2': -50.0, 'measI_HV2': -3.842705e-08, 'settV_HV2': -50.0, 'settI_HV2': 0.0}, 'tags': {'user': 'root'}}
2022-08-19 17:53:46 {'measurement': 'measName', 'fields': {'measV_HV2': -50.0, 'measI_HV2': -2.850186e-08, 'settV_HV2': -50.0, 'settI_HV2': 0.0}, 'tags': {'user': 'root'}}
2022-08-19 17:53:47 {'measurement': 'measName', 'fields': {'measV_HV2': -50.0, 'measI_HV2': -3.436721e-08, 'settV_HV2': -50.0, 'settI_HV2': 0.0}, 'tags': {'user': 'root'}}
2022-08-19 17:53:47 {'measurement': 'measName', 'fields': {'measV_HV2': -50.0, 'measI_HV2': -4.226149e-08, 'settV_HV2': -50.0, 'settI_HV2': 0.0}, 'tags': {'user': 'root'}}
2022-08-19 17:53:48 {'measurement': 'measName', 'fields': {'measV_HV2': -50.0, 'measI_HV2': -4.175193e-08, 'settV_HV2': -50.0, 'settI_HV2': 0.0}, 'tags': {'user': 'root'}}
2022-08-19 17:53:49 {'measurement': 'measName', 'fields': {'measV_HV2': -50.0, 'measI_HV2': -3.187827e-08, 'settV_HV2': -50.0, 'settI_HV2': 0.0}, 'tags': {'user': 'root'}}
2022-08-19 17:53:49 {'measurement': 'measName', 'fields': {'measV_HV2': -50.0, 'measI_HV2': -3.140608e-08, 'settV_HV2': -50.0, 'settI_HV2': 0.0}, 'tags': {'user': 'root'}}
2022-08-19 17:53:50 {'measurement': 'measName', 'fields': {'measV_HV2': -50.0, 'measI_HV2': -4.510329e-08, 'settV_HV2': -50.0, 'settI_HV2': 0.0}, 'tags': {'user': 'root'}}
2022-08-19 17:53:51 {'measurement': 'measName', 'fields': {'measV_HV2': -50.0, 'measI_HV2': -2.940861e-08, 'settV_HV2': -50.0, 'settI_HV2': 0.0}, 'tags': {'user': 'root'}}
2022-08-19 17:53:52 {'measurement': 'measName', 'fields': {'measV_HV2': -50.0, 'measI_HV2': -3.1604e-08, 'settV_HV2': -50.0, 'settI_HV2': 0.0}, 'tags': {'user': 'root'}}
2022-08-19 17:53:52 {'measurement': 'measName', 'fields': {'measV_HV2': -50.0, 'measI_HV2': -3.919828e-08, 'settV_HV2': -50.0, 'settI_HV2': 0.0}, 'tags': {'user': 'root'}}
2022-08-19 17:53:53 {'measurement': 'measName', 'fields': {'measV_HV2': -50.0, 'measI_HV2': -4.17614e-08, 'settV_HV2': -50.0, 'settI_HV2': 0.0}, 'tags': {'user': 'root'}}
2022-08-19 17:53:54 {'measurement': 'measName', 'fields': {'measV_HV2': -50.0, 'measI_HV2': -3.107445e-08, 'settV_HV2': -50.0, 'settI_HV2': 0.0}, 'tags': {'user': 'root'}}
2022-08-19 17:53:54 {'measurement': 'measName', 'fields': {'measV_HV2': -50.0, 'measI_HV2': -3.120324e-08, 'settV_HV2': -50.0, 'settI_HV2': 0.0}, 'tags': {'user': 'root'}}
2022-08-19 17:53:55 {'measurement': 'measName', 'fields': {'measV_HV2': -50.0, 'measI_HV2': -3.993371e-08, 'settV_HV2': -50.0, 'settI_HV2': 0.0}, 'tags': {'user': 'root'}}
2022-08-19 17:53:56 {'measurement': 'measName', 'fields': {'measV_HV2': -50.0, 'measI_HV2': -2.957088e-08, 'settV_HV2': -50.0, 'settI_HV2': 0.0}, 'tags': {'user': 'root'}}
2022-08-19 17:53:57 {'measurement': 'measName', 'fields': {'measV_HV2': -50.0, 'measI_HV2': -3.207401e-08, 'settV_HV2': -50.0, 'settI_HV2': 0.0}, 'tags': {'user': 'root'}}
2022-08-19 17:53:58 {'measurement': 'measName', 'fields': {'measV_HV2': -50.0, 'measI_HV2': -4.481375e-08, 'settV_HV2': -50.0, 'settI_HV2': 0.0}, 'tags': {'user': 'root'}}
2022-08-19 17:53:58 {'measurement': 'measName', 'fields': {'measV_HV2': -50.0, 'measI_HV2': -3.689164e-08, 'settV_HV2': -50.0, 'settI_HV2': 0.0}, 'tags': {'user': 'root'}}
2022-08-19 17:53:59 {'measurement': 'measName', 'fields': {'measV_HV2': -50.0, 'measI_HV2': -2.906238e-08, 'settV_HV2': -50.0, 'settI_HV2': 0.0}, 'tags': {'user': 'root'}}
2022-08-19 17:54:00 {'measurement': 'measName', 'fields': {'measV_HV2': -50.0, 'measI_HV2': -3.873852e-08, 'settV_HV2': -50.0, 'settI_HV2': 0.0}, 'tags': {'user': 'root'}}
2022-08-19 17:54:00 {'measurement': 'measName', 'fields': {'measV_HV2': -50.0, 'measI_HV2': -4.241693e-08, 'settV_HV2': -50.0, 'settI_HV2': 0.0}, 'tags': {'user': 'root'}}
2022-08-19 17:54:01 {'measurement': 'measName', 'fields': {'measV_HV2': -50.0, 'measI_HV2': -3.295703e-08, 'settV_HV2': -50.0, 'settI_HV2': 0.0}, 'tags': {'user': 'root'}}
2022-08-19 17:54:02 {'measurement': 'measName', 'fields': {'measV_HV2': -50.0, 'measI_HV2': -2.933452e-08, 'settV_HV2': -50.0, 'settI_HV2': 0.0}, 'tags': {'user': 'root'}}
2022-08-19 17:54:03 {'measurement': 'measName', 'fields': {'measV_HV2': -50.0, 'measI_HV2': -4.53459e-08, 'settV_HV2': -50.0, 'settI_HV2': 0.0}, 'tags': {'user': 'root'}}
2022-08-19 17:54:03 {'measurement': 'measName', 'fields': {'measV_HV2': -50.0, 'measI_HV2': -3.424023e-08, 'settV_HV2': -50.0, 'settI_HV2': 0.0}, 'tags': {'user': 'root'}}
2022-08-19 17:54:04 {'measurement': 'measName', 'fields': {'measV_HV2': -50.0, 'measI_HV2': -3.19511e-08, 'settV_HV2': -50.0, 'settI_HV2': 0.0}, 'tags': {'user': 'root'}}
2022-08-19 17:54:05 {'measurement': 'measName', 'fields': {'measV_HV2': -50.0, 'measI_HV2': -3.953119e-08, 'settV_HV2': -50.0, 'settI_HV2': 0.0}, 'tags': {'user': 'root'}}
2022-08-19 17:54:05 {'measurement': 'measName', 'fields': {'measV_HV2': -50.0, 'measI_HV2': -4.518403e-08, 'settV_HV2': -50.0, 'settI_HV2': 0.0}, 'tags': {'user': 'root'}}
2022-08-19 17:54:06 {'measurement': 'measName', 'fields': {'measV_HV2': -50.0, 'measI_HV2': -3.188988e-08, 'settV_HV2': -50.0, 'settI_HV2': 0.0}, 'tags': {'user': 'root'}}
2022-08-19 17:54:07 {'measurement': 'measName', 'fields': {'measV_HV2': -50.0, 'measI_HV2': -4.367556e-08, 'settV_HV2': -50.0, 'settI_HV2': 0.0}, 'tags': {'user': 'root'}}
2022-08-19 17:54:08 {'measurement': 'measName', 'fields': {'measV_HV2': -50.0, 'measI_HV2': -3.347905e-08, 'settV_HV2': -50.0, 'settI_HV2': 0.0}, 'tags': {'user': 'root'}}
2022-08-19 17:54:09 {'measurement': 'measName', 'fields': {'measV_HV2': -50.0, 'measI_HV2': -4.504298e-08, 'settV_HV2': -50.0, 'settI_HV2': 0.0}, 'tags': {'user': 'root'}}
2022-08-19 17:54:09 {'measurement': 'measName', 'fields': {'measV_HV2': -50.0, 'measI_HV2': -3.57089e-08, 'settV_HV2': -50.0, 'settI_HV2': 0.0}, 'tags': {'user': 'root'}}
2022-08-19 17:54:10 {'measurement': 'measName', 'fields': {'measV_HV2': -50.0, 'measI_HV2': -3.032127e-08, 'settV_HV2': -50.0, 'settI_HV2': 0.0}, 'tags': {'user': 'root'}}
2022-08-19 17:54:11 {'measurement': 'measName', 'fields': {'measV_HV2': -50.0, 'measI_HV2': -3.943797e-08, 'settV_HV2': -50.0, 'settI_HV2': 0.0}, 'tags': {'user': 'root'}}
2022-08-19 17:54:12 {'measurement': 'measName', 'fields': {'measV_HV2': -50.0, 'measI_HV2': -4.430806e-08, 'settV_HV2': -50.0, 'settI_HV2': 0.0}, 'tags': {'user': 'root'}}
2022-08-19 17:54:12 {'measurement': 'measName', 'fields': {'measV_HV2': -50.0, 'measI_HV2': -3.601975e-08, 'settV_HV2': -50.0, 'settI_HV2': 0.0}, 'tags': {'user': 'root'}}
2022-08-19 17:54:13 {'measurement': 'measName', 'fields': {'measV_HV2': -50.0, 'measI_HV2': -2.860173e-08, 'settV_HV2': -50.0, 'settI_HV2': 0.0}, 'tags': {'user': 'root'}}
2022-08-19 17:54:14 {'measurement': 'measName', 'fields': {'measV_HV2': -50.0, 'measI_HV2': -3.739934e-08, 'settV_HV2': -50.0, 'settI_HV2': 0.0}, 'tags': {'user': 'root'}}
2022-08-19 17:54:14 {'measurement': 'measName', 'fields': {'measV_HV2': -50.0, 'measI_HV2': -4.349437e-08, 'settV_HV2': -50.0, 'settI_HV2': 0.0}, 'tags': {'user': 'root'}}
2022-08-19 17:54:15 {'measurement': 'measName', 'fields': {'measV_HV2': -50.0, 'measI_HV2': -4.074303e-08, 'settV_HV2': -50.0, 'settI_HV2': 0.0}, 'tags': {'user': 'root'}}
2022-08-19 17:54:16 {'measurement': 'measName', 'fields': {'measV_HV2': -50.0, 'measI_HV2': -2.970348e-08, 'settV_HV2': -50.0, 'settI_HV2': 0.0}, 'tags': {'user': 'root'}}
2022-08-19 17:54:16 {'measurement': 'measName', 'fields': {'measV_HV2': -50.0, 'measI_HV2': -3.422767e-08, 'settV_HV2': -50.0, 'settI_HV2': 0.0}, 'tags': {'user': 'root'}}
2022-08-19 17:54:17 {'measurement': 'measName', 'fields': {'measV_HV2': -50.0, 'measI_HV2': -4.41653e-08, 'settV_HV2': -50.0, 'settI_HV2': 0.0}, 'tags': {'user': 'root'}}
2022-08-19 17:54:18 {'measurement': 'measName', 'fields': {'measV_HV2': -50.0, 'measI_HV2': -4.387353e-08, 'settV_HV2': -50.0, 'settI_HV2': 0.0}, 'tags': {'user': 'root'}}
2022-08-19 17:54:19 {'measurement': 'measName', 'fields': {'measV_HV2': -50.0, 'measI_HV2': -3.102054e-08, 'settV_HV2': -50.0, 'settI_HV2': 0.0}, 'tags': {'user': 'root'}}
2022-08-19 17:54:20 {'measurement': 'measName', 'fields': {'measV_HV2': -50.0, 'measI_HV2': -3.70591e-08, 'settV_HV2': -50.0, 'settI_HV2': 0.0}, 'tags': {'user': 'root'}}
2022-08-19 17:54:21 {'measurement': 'measName', 'fields': {'measV_HV2': -50.0, 'measI_HV2': -2.940315e-08, 'settV_HV2': -50.0, 'settI_HV2': 0.0}, 'tags': {'user': 'root'}}
2022-08-19 17:54:21 {'measurement': 'measName', 'fields': {'measV_HV2': -50.0, 'measI_HV2': -3.583852e-08, 'settV_HV2': -50.0, 'settI_HV2': 0.0}, 'tags': {'user': 'root'}}
2022-08-19 17:54:22 {'measurement': 'measName', 'fields': {'measV_HV2': -50.0, 'measI_HV2': -4.39636e-08, 'settV_HV2': -50.0, 'settI_HV2': 0.0}, 'tags': {'user': 'root'}}
2022-08-19 17:54:23 {'measurement': 'measName', 'fields': {'measV_HV2': -50.0, 'measI_HV2': -4.00156e-08, 'settV_HV2': -50.0, 'settI_HV2': 0.0}, 'tags': {'user': 'root'}}
2022-08-19 17:54:23 {'measurement': 'measName', 'fields': {'measV_HV2': -50.0, 'measI_HV2': -2.844081e-08, 'settV_HV2': -50.0, 'settI_HV2': 0.0}, 'tags': {'user': 'root'}}
2022-08-19 17:54:24 {'measurement': 'measName', 'fields': {'measV_HV2': -50.0, 'measI_HV2': -3.992076e-08, 'settV_HV2': -50.0, 'settI_HV2': 0.0}, 'tags': {'user': 'root'}}
2022-08-19 17:54:25 {'measurement': 'measName', 'fields': {'measV_HV2': -50.0, 'measI_HV2': -4.365917e-08, 'settV_HV2': -50.0, 'settI_HV2': 0.0}, 'tags': {'user': 'root'}}
2022-08-19 17:54:25 {'measurement': 'measName', 'fields': {'measV_HV2': -50.0, 'measI_HV2': -4.050936e-08, 'settV_HV2': -50.0, 'settI_HV2': 0.0}, 'tags': {'user': 'root'}}
2022-08-19 17:54:26 {'measurement': 'measName', 'fields': {'measV_HV2': -50.0, 'measI_HV2': -2.893734e-08, 'settV_HV2': -50.0, 'settI_HV2': 0.0}, 'tags': {'user': 'root'}}
2022-08-19 17:54:27 {'measurement': 'measName', 'fields': {'measV_HV2': -50.0, 'measI_HV2': -3.498903e-08, 'settV_HV2': -50.0, 'settI_HV2': 0.0}, 'tags': {'user': 'root'}}
2022-08-19 17:54:27 {'measurement': 'measName', 'fields': {'measV_HV2': -50.0, 'measI_HV2': -4.079559e-08, 'settV_HV2': -50.0, 'settI_HV2': 0.0}, 'tags': {'user': 'root'}}
2022-08-19 17:54:28 {'measurement': 'measName', 'fields': {'measV_HV2': -50.0, 'measI_HV2': -4.525955e-08, 'settV_HV2': -50.0, 'settI_HV2': 0.0}, 'tags': {'user': 'root'}}
2022-08-19 17:54:29 {'measurement': 'measName', 'fields': {'measV_HV2': -50.0, 'measI_HV2': -3.838423e-08, 'settV_HV2': -50.0, 'settI_HV2': 0.0}, 'tags': {'user': 'root'}}
2022-08-19 17:54:30 {'measurement': 'measName', 'fields': {'measV_HV2': -50.0, 'measI_HV2': -4.358339e-08, 'settV_HV2': -50.0, 'settI_HV2': 0.0}, 'tags': {'user': 'root'}}
2022-08-19 17:54:31 {'measurement': 'measName', 'fields': {'measV_HV2': -50.0, 'measI_HV2': -3.098986e-08, 'settV_HV2': -50.0, 'settI_HV2': 0.0}, 'tags': {'user': 'root'}}
2022-08-19 17:54:32 {'measurement': 'measName', 'fields': {'measV_HV2': -50.0, 'measI_HV2': -3.102507e-08, 'settV_HV2': -50.0, 'settI_HV2': 0.0}, 'tags': {'user': 'root'}}
2022-08-19 17:54:32 {'measurement': 'measName', 'fields': {'measV_HV2': -50.0, 'measI_HV2': -3.394273e-08, 'settV_HV2': -50.0, 'settI_HV2': 0.0}, 'tags': {'user': 'root'}}
2022-08-19 17:54:33 {'measurement': 'measName', 'fields': {'measV_HV2': -50.0, 'measI_HV2': -4.322872e-08, 'settV_HV2': -50.0, 'settI_HV2': 0.0}, 'tags': {'user': 'root'}}
2022-08-19 17:54:34 {'measurement': 'measName', 'fields': {'measV_HV2': -50.0, 'measI_HV2': -4.151294e-08, 'settV_HV2': -50.0, 'settI_HV2': 0.0}, 'tags': {'user': 'root'}}
2022-08-19 17:54:34 {'measurement': 'measName', 'fields': {'measV_HV2': -50.0, 'measI_HV2': -3.076791e-08, 'settV_HV2': -50.0, 'settI_HV2': 0.0}, 'tags': {'user': 'root'}}
2022-08-19 17:54:35 {'measurement': 'measName', 'fields': {'measV_HV2': -50.0, 'measI_HV2': -3.60699e-08, 'settV_HV2': -50.0, 'settI_HV2': 0.0}, 'tags': {'user': 'root'}}
2022-08-19 17:54:36 {'measurement': 'measName', 'fields': {'measV_HV2': -50.0, 'measI_HV2': -4.53513e-08, 'settV_HV2': -50.0, 'settI_HV2': 0.0}, 'tags': {'user': 'root'}}
2022-08-19 17:54:36 {'measurement': 'measName', 'fields': {'measV_HV2': -50.0, 'measI_HV2': -3.818291e-08, 'settV_HV2': -50.0, 'settI_HV2': 0.0}, 'tags': {'user': 'root'}}
2022-08-19 17:54:37 {'measurement': 'measName', 'fields': {'measV_HV2': -50.0, 'measI_HV2': -3.256817e-08, 'settV_HV2': -50.0, 'settI_HV2': 0.0}, 'tags': {'user': 'root'}}
2022-08-19 17:54:38 {'measurement': 'measName', 'fields': {'measV_HV2': -50.0, 'measI_HV2': -2.754479e-08, 'settV_HV2': -50.0, 'settI_HV2': 0.0}, 'tags': {'user': 'root'}}
2022-08-19 17:54:38 {'measurement': 'measName', 'fields': {'measV_HV2': -50.0, 'measI_HV2': -4.054422e-08, 'settV_HV2': -50.0, 'settI_HV2': 0.0}, 'tags': {'user': 'root'}}
2022-08-19 17:54:39 {'measurement': 'measName', 'fields': {'measV_HV2': -50.0, 'measI_HV2': -4.458835e-08, 'settV_HV2': -50.0, 'settI_HV2': 0.0}, 'tags': {'user': 'root'}}
2022-08-19 17:54:40 {'measurement': 'measName', 'fields': {'measV_HV2': -50.0, 'measI_HV2': -4.043977e-08, 'settV_HV2': -50.0, 'settI_HV2': 0.0}, 'tags': {'user': 'root'}}
2022-08-19 17:54:41 {'measurement': 'measName', 'fields': {'measV_HV2': -50.0, 'measI_HV2': -2.940364e-08, 'settV_HV2': -50.0, 'settI_HV2': 0.0}, 'tags': {'user': 'root'}}
2022-08-19 17:54:41 {'measurement': 'measName', 'fields': {'measV_HV2': -50.0, 'measI_HV2': -3.959756e-08, 'settV_HV2': -50.0, 'settI_HV2': 0.0}, 'tags': {'user': 'root'}}
2022-08-19 17:54:42 {'measurement': 'measName', 'fields': {'measV_HV2': -50.0, 'measI_HV2': -4.136174e-08, 'settV_HV2': -50.0, 'settI_HV2': 0.0}, 'tags': {'user': 'root'}}
2022-08-19 17:54:43 {'measurement': 'measName', 'fields': {'measV_HV2': -50.0, 'measI_HV2': -2.993125e-08, 'settV_HV2': -50.0, 'settI_HV2': 0.0}, 'tags': {'user': 'root'}}
2022-08-19 17:54:44 {'measurement': 'measName', 'fields': {'measV_HV2': -50.0, 'measI_HV2': -3.388317e-08, 'settV_HV2': -50.0, 'settI_HV2': 0.0}, 'tags': {'user': 'root'}}
2022-08-19 17:54:45 {'measurement': 'measName', 'fields': {'measV_HV2': -50.0, 'measI_HV2': -4.32026e-08, 'settV_HV2': -50.0, 'settI_HV2': 0.0}, 'tags': {'user': 'root'}}
2022-08-19 17:54:45 {'measurement': 'measName', 'fields': {'measV_HV2': -50.0, 'measI_HV2': -4.131654e-08, 'settV_HV2': -50.0, 'settI_HV2': 0.0}, 'tags': {'user': 'root'}}
2022-08-19 17:54:46 {'measurement': 'measName', 'fields': {'measV_HV2': -50.0, 'measI_HV2': -3.008335e-08, 'settV_HV2': -50.0, 'settI_HV2': 0.0}, 'tags': {'user': 'root'}}
2022-08-19 17:54:47 {'measurement': 'measName', 'fields': {'measV_HV2': -50.0, 'measI_HV2': -3.583698e-08, 'settV_HV2': -50.0, 'settI_HV2': 0.0}, 'tags': {'user': 'root'}}
2022-08-19 17:54:47 {'measurement': 'measName', 'fields': {'measV_HV2': -50.0, 'measI_HV2': -4.5915e-08, 'settV_HV2': -50.0, 'settI_HV2': 0.0}, 'tags': {'user': 'root'}}
2022-08-19 17:54:48 {'measurement': 'measName', 'fields': {'measV_HV2': -50.0, 'measI_HV2': -3.921573e-08, 'settV_HV2': -50.0, 'settI_HV2': 0.0}, 'tags': {'user': 'root'}}
2022-08-19 17:54:49 {'measurement': 'measName', 'fields': {'measV_HV2': -50.0, 'measI_HV2': -3.002764e-08, 'settV_HV2': -50.0, 'settI_HV2': 0.0}, 'tags': {'user': 'root'}}
2022-08-19 17:54:49 {'measurement': 'measName', 'fields': {'measV_HV2': -50.0, 'measI_HV2': -3.837194e-08, 'settV_HV2': -50.0, 'settI_HV2': 0.0}, 'tags': {'user': 'root'}}
2022-08-19 17:54:50 {'measurement': 'measName', 'fields': {'measV_HV2': -50.0, 'measI_HV2': -4.1751e-08, 'settV_HV2': -50.0, 'settI_HV2': 0.0}, 'tags': {'user': 'root'}}
2022-08-19 17:54:51 {'measurement': 'measName', 'fields': {'measV_HV2': -50.0, 'measI_HV2': -3.617809e-08, 'settV_HV2': -50.0, 'settI_HV2': 0.0}, 'tags': {'user': 'root'}}
2022-08-19 17:54:51 {'measurement': 'measName', 'fields': {'measV_HV2': -50.0, 'measI_HV2': -2.938987e-08, 'settV_HV2': -50.0, 'settI_HV2': 0.0}, 'tags': {'user': 'root'}}
2022-08-19 17:54:52 {'measurement': 'measName', 'fields': {'measV_HV2': -50.0, 'measI_HV2': -3.384889e-08, 'settV_HV2': -50.0, 'settI_HV2': 0.0}, 'tags': {'user': 'root'}}
2022-08-19 17:54:53 {'measurement': 'measName', 'fields': {'measV_HV2': -50.0, 'measI_HV2': -4.30779e-08, 'settV_HV2': -50.0, 'settI_HV2': 0.0}, 'tags': {'user': 'root'}}
2022-08-19 17:54:54 {'measurement': 'measName', 'fields': {'measV_HV2': -50.0, 'measI_HV2': -3.113813e-08, 'settV_HV2': -50.0, 'settI_HV2': 0.0}, 'tags': {'user': 'root'}}
2022-08-19 17:54:55 {'measurement': 'measName', 'fields': {'measV_HV2': -50.0, 'measI_HV2': -2.86627e-08, 'settV_HV2': -50.0, 'settI_HV2': 0.0}, 'tags': {'user': 'root'}}
2022-08-19 17:54:56 {'measurement': 'measName', 'fields': {'measV_HV2': -50.0, 'measI_HV2': -3.384008e-08, 'settV_HV2': -50.0, 'settI_HV2': 0.0}, 'tags': {'user': 'root'}}
2022-08-19 17:54:56 {'measurement': 'measName', 'fields': {'measV_HV2': -50.0, 'measI_HV2': -4.193327e-08, 'settV_HV2': -50.0, 'settI_HV2': 0.0}, 'tags': {'user': 'root'}}
2022-08-19 17:54:57 {'measurement': 'measName', 'fields': {'measV_HV2': -50.0, 'measI_HV2': -4.274429e-08, 'settV_HV2': -50.0, 'settI_HV2': 0.0}, 'tags': {'user': 'root'}}
2022-08-19 17:54:58 {'measurement': 'measName', 'fields': {'measV_HV2': -50.0, 'measI_HV2': -3.212176e-08, 'settV_HV2': -50.0, 'settI_HV2': 0.0}, 'tags': {'user': 'root'}}
2022-08-19 17:54:58 {'measurement': 'measName', 'fields': {'measV_HV2': -50.0, 'measI_HV2': -3.119994e-08, 'settV_HV2': -50.0, 'settI_HV2': 0.0}, 'tags': {'user': 'root'}}
2022-08-19 17:54:59 {'measurement': 'measName', 'fields': {'measV_HV2': -50.0, 'measI_HV2': -3.920434e-08, 'settV_HV2': -50.0, 'settI_HV2': 0.0}, 'tags': {'user': 'root'}}
2022-08-19 17:55:00 {'measurement': 'measName', 'fields': {'measV_HV2': -50.0, 'measI_HV2': -4.552309e-08, 'settV_HV2': -50.0, 'settI_HV2': 0.0}, 'tags': {'user': 'root'}}
2022-08-19 17:55:00 {'measurement': 'measName', 'fields': {'measV_HV2': -50.0, 'measI_HV2': -3.492563e-08, 'settV_HV2': -50.0, 'settI_HV2': 0.0}, 'tags': {'user': 'root'}}
2022-08-19 17:55:01 {'measurement': 'measName', 'fields': {'measV_HV2': -50.0, 'measI_HV2': -2.986205e-08, 'settV_HV2': -50.0, 'settI_HV2': 0.0}, 'tags': {'user': 'root'}}
2022-08-19 17:55:02 {'measurement': 'measName', 'fields': {'measV_HV2': -50.0, 'measI_HV2': -4.197329e-08, 'settV_HV2': -50.0, 'settI_HV2': 0.0}, 'tags': {'user': 'root'}}
2022-08-19 17:55:02 {'measurement': 'measName', 'fields': {'measV_HV2': -50.0, 'measI_HV2': -4.359666e-08, 'settV_HV2': -50.0, 'settI_HV2': 0.0}, 'tags': {'user': 'root'}}
2022-08-19 17:55:03 {'measurement': 'measName', 'fields': {'measV_HV2': -50.0, 'measI_HV2': -4.227124e-08, 'settV_HV2': -50.0, 'settI_HV2': 0.0}, 'tags': {'user': 'root'}}
2022-08-19 17:55:04 {'measurement': 'measName', 'fields': {'measV_HV2': -50.0, 'measI_HV2': -3.027907e-08, 'settV_HV2': -50.0, 'settI_HV2': 0.0}, 'tags': {'user': 'root'}}
2022-08-19 17:55:05 {'measurement': 'measName', 'fields': {'measV_HV2': -50.0, 'measI_HV2': -3.533841e-08, 'settV_HV2': -50.0, 'settI_HV2': 0.0}, 'tags': {'user': 'root'}}
2022-08-19 17:55:06 {'measurement': 'measName', 'fields': {'measV_HV2': -50.0, 'measI_HV2': -4.361106e-08, 'settV_HV2': -50.0, 'settI_HV2': 0.0}, 'tags': {'user': 'root'}}
2022-08-19 17:55:07 {'measurement': 'measName', 'fields': {'measV_HV2': -50.0, 'measI_HV2': -3.542093e-08, 'settV_HV2': -50.0, 'settI_HV2': 0.0}, 'tags': {'user': 'root'}}
2022-08-19 17:55:07 {'measurement': 'measName', 'fields': {'measV_HV2': -50.0, 'measI_HV2': -2.852101e-08, 'settV_HV2': -50.0, 'settI_HV2': 0.0}, 'tags': {'user': 'root'}}
2022-08-19 17:55:08 {'measurement': 'measName', 'fields': {'measV_HV2': -50.0, 'measI_HV2': -3.828293e-08, 'settV_HV2': -50.0, 'settI_HV2': 0.0}, 'tags': {'user': 'root'}}
2022-08-19 17:55:09 {'measurement': 'measName', 'fields': {'measV_HV2': -50.0, 'measI_HV2': -4.355013e-08, 'settV_HV2': -50.0, 'settI_HV2': 0.0}, 'tags': {'user': 'root'}}
2022-08-19 17:55:09 {'measurement': 'measName', 'fields': {'measV_HV2': -50.0, 'measI_HV2': -4.347927e-08, 'settV_HV2': -50.0, 'settI_HV2': 0.0}, 'tags': {'user': 'root'}}
2022-08-19 17:55:10 {'measurement': 'measName', 'fields': {'measV_HV2': -50.0, 'measI_HV2': -3.386365e-08, 'settV_HV2': -50.0, 'settI_HV2': 0.0}, 'tags': {'user': 'root'}}
2022-08-19 17:55:11 {'measurement': 'measName', 'fields': {'measV_HV2': -50.0, 'measI_HV2': -3.173954e-08, 'settV_HV2': -50.0, 'settI_HV2': 0.0}, 'tags': {'user': 'root'}}
2022-08-19 17:55:11 {'measurement': 'measName', 'fields': {'measV_HV2': -50.0, 'measI_HV2': -3.638043e-08, 'settV_HV2': -50.0, 'settI_HV2': 0.0}, 'tags': {'user': 'root'}}
2022-08-19 17:55:12 {'measurement': 'measName', 'fields': {'measV_HV2': -50.0, 'measI_HV2': -4.623494e-08, 'settV_HV2': -50.0, 'settI_HV2': 0.0}, 'tags': {'user': 'root'}}
2022-08-19 17:55:13 {'measurement': 'measName', 'fields': {'measV_HV2': -50.0, 'measI_HV2': -3.797553e-08, 'settV_HV2': -50.0, 'settI_HV2': 0.0}, 'tags': {'user': 'root'}}
2022-08-19 17:55:13 {'measurement': 'measName', 'fields': {'measV_HV2': -50.0, 'measI_HV2': -3.125002e-08, 'settV_HV2': -50.0, 'settI_HV2': 0.0}, 'tags': {'user': 'root'}}
2022-08-19 17:55:14 {'measurement': 'measName', 'fields': {'measV_HV2': -50.0, 'measI_HV2': -3.087511e-08, 'settV_HV2': -50.0, 'settI_HV2': 0.0}, 'tags': {'user': 'root'}}
2022-08-19 17:55:15 {'measurement': 'measName', 'fields': {'measV_HV2': -50.0, 'measI_HV2': -4.078177e-08, 'settV_HV2': -50.0, 'settI_HV2': 0.0}, 'tags': {'user': 'root'}}
2022-08-19 17:55:16 {'measurement': 'measName', 'fields': {'measV_HV2': -50.0, 'measI_HV2': -4.474214e-08, 'settV_HV2': -50.0, 'settI_HV2': 0.0}, 'tags': {'user': 'root'}}
2022-08-19 17:55:16 {'measurement': 'measName', 'fields': {'measV_HV2': -50.0, 'measI_HV2': -3.596311e-08, 'settV_HV2': -50.0, 'settI_HV2': 0.0}, 'tags': {'user': 'root'}}
2022-08-19 17:55:17 {'measurement': 'measName', 'fields': {'measV_HV2': -50.0, 'measI_HV2': -4.041878e-08, 'settV_HV2': -50.0, 'settI_HV2': 0.0}, 'tags': {'user': 'root'}}
2022-08-19 17:55:18 {'measurement': 'measName', 'fields': {'measV_HV2': -50.0, 'measI_HV2': -4.506187e-08, 'settV_HV2': -50.0, 'settI_HV2': 0.0}, 'tags': {'user': 'root'}}
2022-08-19 17:55:19 {'measurement': 'measName', 'fields': {'measV_HV2': -50.0, 'measI_HV2': -3.952941e-08, 'settV_HV2': -50.0, 'settI_HV2': 0.0}, 'tags': {'user': 'root'}}
2022-08-19 17:55:20 {'measurement': 'measName', 'fields': {'measV_HV2': -50.0, 'measI_HV2': -3.035245e-08, 'settV_HV2': -50.0, 'settI_HV2': 0.0}, 'tags': {'user': 'root'}}
2022-08-19 17:55:20 {'measurement': 'measName', 'fields': {'measV_HV2': -50.0, 'measI_HV2': -3.222898e-08, 'settV_HV2': -50.0, 'settI_HV2': 0.0}, 'tags': {'user': 'root'}}
2022-08-19 17:55:21 {'measurement': 'measName', 'fields': {'measV_HV2': -50.0, 'measI_HV2': -4.361735e-08, 'settV_HV2': -50.0, 'settI_HV2': 0.0}, 'tags': {'user': 'root'}}
2022-08-19 17:55:22 {'measurement': 'measName', 'fields': {'measV_HV2': -50.0, 'measI_HV2': -4.33823e-08, 'settV_HV2': -50.0, 'settI_HV2': 0.0}, 'tags': {'user': 'root'}}
2022-08-19 17:55:22 {'measurement': 'measName', 'fields': {'measV_HV2': -50.0, 'measI_HV2': -3.647598e-08, 'settV_HV2': -50.0, 'settI_HV2': 0.0}, 'tags': {'user': 'root'}}
2022-08-19 17:55:23 {'measurement': 'measName', 'fields': {'measV_HV2': -50.0, 'measI_HV2': -2.962715e-08, 'settV_HV2': -50.0, 'settI_HV2': 0.0}, 'tags': {'user': 'root'}}
2022-08-19 17:55:24 {'measurement': 'measName', 'fields': {'measV_HV2': -50.0, 'measI_HV2': -3.194075e-08, 'settV_HV2': -50.0, 'settI_HV2': 0.0}, 'tags': {'user': 'root'}}
2022-08-19 17:55:24 {'measurement': 'measName', 'fields': {'measV_HV2': -50.0, 'measI_HV2': -3.930631e-08, 'settV_HV2': -50.0, 'settI_HV2': 0.0}, 'tags': {'user': 'root'}}
2022-08-19 17:55:25 {'measurement': 'measName', 'fields': {'measV_HV2': -50.0, 'measI_HV2': -4.412501e-08, 'settV_HV2': -50.0, 'settI_HV2': 0.0}, 'tags': {'user': 'root'}}
2022-08-19 17:55:26 {'measurement': 'measName', 'fields': {'measV_HV2': -50.0, 'measI_HV2': -4.438676e-08, 'settV_HV2': -50.0, 'settI_HV2': 0.0}, 'tags': {'user': 'root'}}
2022-08-19 17:55:27 {'measurement': 'measName', 'fields': {'measV_HV2': -50.0, 'measI_HV2': -3.828752e-08, 'settV_HV2': -50.0, 'settI_HV2': 0.0}, 'tags': {'user': 'root'}}
