{
    "unit": {
        "Time": "s",
        "Voltage": "V",
        "Current": "A"
    },
    "V_step": -5,
    "Step_duration": 2,
    "N_measurements_per_step": 10,
    "A_Compliance": 1e-05,
    "Sensor_IV": [
        {
            "Time": 47.38201689720154,
            "Voltage": 0.0,
            "Current_mean": -1.5403814599999997e-09,
            "Current_sigma": 1.040262398002303e-08
        },
        {
            "Time": 53.442745208740234,
            "Voltage": -5.0,
            "Current_mean": -3.1209454e-08,
            "Current_sigma": 1.4276289233998588e-08
        },
        {
            "Time": 59.599496603012085,
            "Voltage": -10.0,
            "Current_mean": -3.6547296999999995e-08,
            "Current_sigma": 9.10023732396804e-09
        },
        {
            "Time": 66.02809977531433,
            "Voltage": -13.500000002894074,
            "Current_mean": -3.7710534e-08,
            "Current_sigma": 6.490980572014063e-09
        },
        {
            "Time": 72.02472972869873,
            "Voltage": -20.0,
            "Current_mean": -3.6715654999999995e-08,
            "Current_sigma": 6.791219432728188e-09
        },
        {
            "Time": 78.32526683807373,
            "Voltage": -25.0,
            "Current_mean": -3.633446900000001e-08,
            "Current_sigma": 4.978137395541529e-09
        },
        {
            "Time": 84.3220226764679,
            "Voltage": -30.0,
            "Current_mean": -3.9782334999999996e-08,
            "Current_sigma": 6.029965068745009e-09
        },
        {
            "Time": 90.62254357337952,
            "Voltage": -35.0,
            "Current_mean": -4.0027392000000004e-08,
            "Current_sigma": 5.8669362272037684e-09
        },
        {
            "Time": 96.61934399604797,
            "Voltage": -40.0,
            "Current_mean": -3.802008399999999e-08,
            "Current_sigma": 6.4581390426998386e-09
        },
        {
            "Time": 102.80797982215881,
            "Voltage": -45.0,
            "Current_mean": -4.048306e-08,
            "Current_sigma": 6.274835144408178e-09
        },
        {
            "Time": 108.80466747283936,
            "Voltage": -50.0,
            "Current_mean": -4.0728807e-08,
            "Current_sigma": 5.197349069046738e-09
        },
        {
            "Time": 114.99329233169556,
            "Voltage": -55.0,
            "Current_mean": -3.7483758e-08,
            "Current_sigma": 5.831036386794032e-09
        },
        {
            "Time": 120.98992609977722,
            "Voltage": -60.0,
            "Current_mean": -4.1810751e-08,
            "Current_sigma": 5.728448176013204e-09
        },
        {
            "Time": 127.29039907455444,
            "Voltage": -65.0,
            "Current_mean": -3.9703188e-08,
            "Current_sigma": 6.024423910623821e-09
        },
        {
            "Time": 133.28713655471802,
            "Voltage": -70.0,
            "Current_mean": -4.0086946e-08,
            "Current_sigma": 5.3765450820526e-09
        },
        {
            "Time": 139.58777141571045,
            "Voltage": -75.0,
            "Current_mean": -4.0532687e-08,
            "Current_sigma": 4.901578974130785e-09
        },
        {
            "Time": 145.5844850540161,
            "Voltage": -80.0,
            "Current_mean": -4.1414463e-08,
            "Current_sigma": 4.865182818028629e-09
        },
        {
            "Time": 151.98099660873413,
            "Voltage": -85.0,
            "Current_mean": -4.1089853e-08,
            "Current_sigma": 4.343891125155072e-09
        },
        {
            "Time": 157.97762274742126,
            "Voltage": -90.0,
            "Current_mean": -4.1720877e-08,
            "Current_sigma": 3.684275310540866e-09
        },
        {
            "Time": 163.9743616580963,
            "Voltage": -95.0,
            "Current_mean": -4.1057434e-08,
            "Current_sigma": 4.883322680929861e-09
        },
        {
            "Time": 170.00311589241028,
            "Voltage": -100.0,
            "Current_mean": -4.1998419e-08,
            "Current_sigma": 4.7121719258012014e-09
        },
        {
            "Time": 176.14374661445618,
            "Voltage": -105.0,
            "Current_mean": -4.1436718000000005e-08,
            "Current_sigma": 4.97186675087899e-09
        },
        {
            "Time": 182.26819157600403,
            "Voltage": -110.0,
            "Current_mean": -4.2502472e-08,
            "Current_sigma": 4.353042712427252e-09
        },
        {
            "Time": 188.58480191230774,
            "Voltage": -115.0,
            "Current_mean": -4.1933332e-08,
            "Current_sigma": 4.4192051838849945e-09
        },
        {
            "Time": 195.0132439136505,
            "Voltage": -108.00000000484474,
            "Current_mean": -4.1929085e-08,
            "Current_sigma": 4.132970806672242e-09
        },
        {
            "Time": 201.01000094413757,
            "Voltage": -125.0,
            "Current_mean": -4.2808226e-08,
            "Current_sigma": 4.263858968868927e-09
        },
        {
            "Time": 207.19861578941345,
            "Voltage": -130.0,
            "Current_mean": -4.274526e-08,
            "Current_sigma": 3.957581163299118e-09
        },
        {
            "Time": 213.1951756477356,
            "Voltage": -135.0,
            "Current_mean": -4.3275791999999996e-08,
            "Current_sigma": 5.1083379801003766e-09
        },
        {
            "Time": 219.49564504623413,
            "Voltage": -140.0,
            "Current_mean": -4.3922919e-08,
            "Current_sigma": 4.095978410615588e-09
        },
        {
            "Time": 225.49239563941956,
            "Voltage": -145.0,
            "Current_mean": -4.2412528999999996e-08,
            "Current_sigma": 4.452489094226846e-09
        },
        {
            "Time": 231.79284691810608,
            "Voltage": -150.0,
            "Current_mean": -4.2972374e-08,
            "Current_sigma": 4.419497542961643e-09
        },
        {
            "Time": 237.78946352005005,
            "Voltage": -155.0,
            "Current_mean": -4.3301706000000005e-08,
            "Current_sigma": 4.435003421397101e-09
        },
        {
            "Time": 243.97832655906677,
            "Voltage": -160.0,
            "Current_mean": -4.452061000000001e-08,
            "Current_sigma": 3.900811131780158e-09
        },
        {
            "Time": 249.9749312400818,
            "Voltage": -165.0,
            "Current_mean": -4.36728e-08,
            "Current_sigma": 3.6094987303474695e-09
        },
        {
            "Time": 256.38761353492737,
            "Voltage": -170.0,
            "Current_mean": -4.4615674e-08,
            "Current_sigma": 3.4517222431018394e-09
        },
        {
            "Time": 262.3843574523926,
            "Voltage": -175.0,
            "Current_mean": -4.3825951999999996e-08,
            "Current_sigma": 4.149929409671447e-09
        },
        {
            "Time": 268.5088574886322,
            "Voltage": -180.0,
            "Current_mean": -4.4671683000000006e-08,
            "Current_sigma": 3.714993158534885e-09
        },
        {
            "Time": 274.5056629180908,
            "Voltage": -185.0,
            "Current_mean": -4.4606920000000005e-08,
            "Current_sigma": 3.990780340685265e-09
        },
        {
            "Time": 280.5022270679474,
            "Voltage": -190.0,
            "Current_mean": -4.517958899999999e-08,
            "Current_sigma": 3.6795848985407303e-09
        },
        {
            "Time": 286.5310106277466,
            "Voltage": -195.0,
            "Current_mean": -4.4808703e-08,
            "Current_sigma": 3.743982895241509e-09
        },
        {
            "Time": 292.67167615890503,
            "Voltage": -200.0,
            "Current_mean": -4.5629736e-08,
            "Current_sigma": 4.1035819425112e-09
        }
    ]
}