{
    "unit": {
        "Time": "s",
        "Voltage": "V",
        "Current": "A"
    },
    "V_step": -5,
    "Step_duration": 2,
    "N_measurements_per_step": 10,
    "A_Compliance": 1e-05,
    "Sensor_IV": [
        {
            "Time": 46.851587533950806,
            "Voltage": 0.0,
            "Current_mean": -6.0195708e-08,
            "Current_sigma": 1.1883584123626846e-08
        },
        {
            "Time": 52.84810495376587,
            "Voltage": -5.0,
            "Current_mean": -1.6325484000000002e-07,
            "Current_sigma": 1.5632828892315047e-08
        },
        {
            "Time": 58.940468549728394,
            "Voltage": -10.0,
            "Current_mean": -1.8936208e-07,
            "Current_sigma": 9.10992312687654e-09
        },
        {
            "Time": 65.24078249931335,
            "Voltage": -15.0,
            "Current_mean": -1.9659046999999997e-07,
            "Current_sigma": 5.819712736218173e-09
        },
        {
            "Time": 71.41315817832947,
            "Voltage": -20.0,
            "Current_mean": -1.9952922e-07,
            "Current_sigma": 4.7210261826852865e-09
        },
        {
            "Time": 77.55342245101929,
            "Voltage": -25.0,
            "Current_mean": -1.9658004000000002e-07,
            "Current_sigma": 6.4604825013616414e-09
        },
        {
            "Time": 84.0777575969696,
            "Voltage": -30.0,
            "Current_mean": -1.9443172e-07,
            "Current_sigma": 4.744722769309077e-09
        },
        {
            "Time": 90.07421636581421,
            "Voltage": -35.0,
            "Current_mean": -1.9844314e-07,
            "Current_sigma": 6.545355354936809e-09
        },
        {
            "Time": 96.39063477516174,
            "Voltage": -40.0,
            "Current_mean": -1.9644315000000002e-07,
            "Current_sigma": 3.954335067302714e-09
        },
        {
            "Time": 102.38724088668823,
            "Voltage": -45.0,
            "Current_mean": -2.0472695e-07,
            "Current_sigma": 4.153335998266934e-09
        },
        {
            "Time": 108.68760704994202,
            "Voltage": -50.0,
            "Current_mean": -1.9947149e-07,
            "Current_sigma": 6.380601028500373e-09
        },
        {
            "Time": 114.68399477005005,
            "Voltage": -55.0,
            "Current_mean": -2.0156150999999998e-07,
            "Current_sigma": 4.873033747564239e-09
        },
        {
            "Time": 121.00034046173096,
            "Voltage": -60.0,
            "Current_mean": -2.0122940999999999e-07,
            "Current_sigma": 5.061873053613651e-09
        },
        {
            "Time": 126.99681973457336,
            "Voltage": -65.0,
            "Current_mean": -2.0184851e-07,
            "Current_sigma": 4.8343663109967175e-09
        },
        {
            "Time": 132.9934012889862,
            "Voltage": -70.0,
            "Current_mean": -2.0280016e-07,
            "Current_sigma": 5.472449533106722e-09
        },
        {
            "Time": 139.22980904579163,
            "Voltage": -75.0,
            "Current_mean": -2.0189292999999998e-07,
            "Current_sigma": 5.802653300180873e-09
        },
        {
            "Time": 145.54611468315125,
            "Voltage": -80.0,
            "Current_mean": -2.047313e-07,
            "Current_sigma": 5.191447912288052e-09
        },
        {
            "Time": 151.78238534927368,
            "Voltage": -85.0,
            "Current_mean": -2.036047e-07,
            "Current_sigma": 5.902829687700641e-09
        },
        {
            "Time": 157.92291641235352,
            "Voltage": -90.0,
            "Current_mean": -2.0600332e-07,
            "Current_sigma": 5.7342166660843945e-09
        },
        {
            "Time": 164.33515000343323,
            "Voltage": -95.0,
            "Current_mean": -2.0721228000000003e-07,
            "Current_sigma": 5.127640833911833e-09
        },
        {
            "Time": 170.33155608177185,
            "Voltage": -100.0,
            "Current_mean": -2.0646377e-07,
            "Current_sigma": 4.98240611212093e-09
        },
        {
            "Time": 176.52003931999207,
            "Voltage": -105.0,
            "Current_mean": -2.0674672999999997e-07,
            "Current_sigma": 4.482703517532691e-09
        },
        {
            "Time": 182.51652097702026,
            "Voltage": -110.0,
            "Current_mean": -2.0915324e-07,
            "Current_sigma": 4.830237839113101e-09
        },
        {
            "Time": 188.81671786308289,
            "Voltage": -115.0,
            "Current_mean": -2.0998565e-07,
            "Current_sigma": 5.400844678612782e-09
        },
        {
            "Time": 194.8132517337799,
            "Voltage": -120.0,
            "Current_mean": -2.1024770000000001e-07,
            "Current_sigma": 5.326881889248154e-09
        },
        {
            "Time": 201.11358952522278,
            "Voltage": -125.0,
            "Current_mean": -2.0975471e-07,
            "Current_sigma": 4.3207159076824315e-09
        },
        {
            "Time": 207.10978293418884,
            "Voltage": -130.0,
            "Current_mean": -2.089524e-07,
            "Current_sigma": 4.715308064591323e-09
        },
        {
            "Time": 213.29801726341248,
            "Voltage": -135.0,
            "Current_mean": -2.1139750000000004e-07,
            "Current_sigma": 4.515455122354775e-09
        },
        {
            "Time": 219.294508934021,
            "Voltage": -140.0,
            "Current_mean": -2.1263127000000002e-07,
            "Current_sigma": 4.777881811022537e-09
        },
        {
            "Time": 225.48281598091125,
            "Voltage": -145.0,
            "Current_mean": -2.1247323e-07,
            "Current_sigma": 3.927921869144037e-09
        },
        {
            "Time": 231.47934460639954,
            "Voltage": -150.0,
            "Current_mean": -2.1278238e-07,
            "Current_sigma": 4.7840654117183635e-09
        },
        {
            "Time": 237.77984428405762,
            "Voltage": -155.0,
            "Current_mean": -2.1399281999999998e-07,
            "Current_sigma": 3.623375247141812e-09
        },
        {
            "Time": 243.77628087997437,
            "Voltage": -160.0,
            "Current_mean": -2.1553322000000003e-07,
            "Current_sigma": 4.5891985005663e-09
        },
        {
            "Time": 250.1084713935852,
            "Voltage": -165.0,
            "Current_mean": -2.1438635e-07,
            "Current_sigma": 3.898007947464962e-09
        },
        {
            "Time": 256.105042219162,
            "Voltage": -170.0,
            "Current_mean": -2.1784755000000001e-07,
            "Current_sigma": 3.93973510105692e-09
        },
        {
            "Time": 262.10157799720764,
            "Voltage": -175.0,
            "Current_mean": -2.1656481e-07,
            "Current_sigma": 4.408440310461289e-09
        },
        {
            "Time": 268.09805727005005,
            "Voltage": -180.0,
            "Current_mean": -2.1763367e-07,
            "Current_sigma": 4.1765034586481564e-09
        },
        {
            "Time": 274.3983242511749,
            "Voltage": -185.0,
            "Current_mean": -2.1883104999999998e-07,
            "Current_sigma": 4.055274399162156e-09
        },
        {
            "Time": 280.554767370224,
            "Voltage": -190.0,
            "Current_mean": -2.1863142e-07,
            "Current_sigma": 3.9603974163712465e-09
        },
        {
            "Time": 286.8550543785095,
            "Voltage": -195.0,
            "Current_mean": -2.1895075e-07,
            "Current_sigma": 3.847570113006388e-09
        },
        {
            "Time": 293.2674069404602,
            "Voltage": -200.0,
            "Current_mean": -2.2054978e-07,
            "Current_sigma": 4.361543244036451e-09
        }
    ]
}