{
    "Module": [
	{
	    "ModuleName": "Goe4",
	    "JigTemperature": [23.0, 20.3, 20.3, 10.7, 10.4, -9.4, -10.4],
	    "ModuleNTC":      [23.0, 26.3, 20.4, 16.9, 10.6, -3.3, -10.2],
	    "Current":        [23.0, 26.6, 20.1, 17.1, 10.5, -2.3, -8.6],
	    "eCurrent":       [0.0, 0.2, 0.2, 0.2, 0.2, 1.3, 3.0],
	    "Camera":         [22.5, 25.8, -999, 16.6, -999, -1.6, -999],
	    "Sensor":         [-999, 24.5, -999, 16.2, -999, 1.8, -999]
	},
	{
	    "ModuleName": "Goe5",
	    "JigTemperature": [23.5, 20.5, 20.3, 10.4, 10.9, -11.0, -10.9],
	    "ModuleNTC":      [23.6, 26.9, 20.4, 17.1, 11.3, -4.6, -10.7],
	    "Current":        [23.6, 27.6, 20.7, 18.6, 12.3, -1.7, -7.6],
	    "eCurrent":       [0.0, 0.2, 0.2, 0.2, 0.2, 0.6, 1.7],
	    "Camera":         [22.8, 25.5, -999, 16.1, -999, -5.2, -999],
	    "Sensor":         [-999, 25.8, -999, 15.9, -999, -7.2, -999]
	},
	{
	    "ModuleName": "Goe7",
	    "JigTemperature": [23.5, 20.3, 20.5, 10.7, 10.7, -9.4, -10.4],
	    "ModuleNTC":      [23.5, 26.1, 20.5, 16.6, 10.9, -3.1, -9.7],
	    "Current":        [23.5, 25.4, 20.1, 15.9, 10.4, -3.2, -9.3],
	    "eCurrent":       [0.0, 0.2, 0.2, 0.2, 0.3, 0.8, 1.2],
	    "Camera":         [23.2, 26.3, -999, 17.0, -999, -1.2, -999],
	    "Sensor":         [-999, 25.7, -999, 16.8, -999, -1.5, -999]
	},
	{
	    "ModuleName": "Goe9",
	    "JigTemperature": [23.4, 20.3, 20.5, 10.5, 10.4, -10.6, -10.6],
	    "ModuleNTC":      [23.5, 26.5, 20.5, 16.5, 10.8, -4.5, -10.2],
	    "Current":        [23.5, 26.6, 20.3, 16.3, 10.5, -5.6, -11.6],
	    "eCurrent":       [0.0, 0.3, 0.4, 0.5, 0.6, 2.6, 4.8],
	    "Camera":         [-999, -999, -999, -999, -999, -999, -999],
	    "Sensor":         [-999, 26.3, -999, 14.6, -999, -4.5, -999]
	},
	{
	    "ModuleName": "Goe10",
	    "JigTemperature": [23.5, 20.3, 20.5, 10.4, 10.8, -9.5, -11.0],
	    "ModuleNTC":      [23.6, 27.1, 20.7, 17.2, 11.1, -2.6, -10.5],
	    "Current":        [23.6, 27.8, 20.6, 17.8, 10.7, -2.5, -8.9],
	    "eCurrent":       [0.0, 0.3, 0.3, 0.4, 0.6, 3.2, 6.1],
	    "Camera":         [23.4, 28.5, -999, 20.0, -999, 0.9, -999],
	    "Sensor":         [-999, 29.6, -999, 19.4, -999, 3.0, -999]
	}
    ]
}

