{
    "Module": [
	{
	    "ModuleName": "KEKQ11",
	    "JigTemperature": [23.5, 20.1, 19.8, 10.4, 9.9, -10.9, -10.2],
	    "ModuleNTC":      [23.2, 28.1, 20.9, 18.0, 11.0, -3.3, -9.0],
	    "Current":        [23.2, 27.1, 20.5, 17.5, 11.3, -1.5, -7.0],
	    "eCurrent":       [0.0, 0.1, 0.2, 0.1, 0.2, 0.6, 1.9],
	    "Camera":         [25.9, -999, 28.6, -999, 26.3, -999, 1.2],
	    "Sensor":         [-999, 22.6, -999, 12.5, -999, -9.1, -999]
	},
	{
	    "ModuleName": "KEKQ14",
	    "JigTemperature": [23.3, 20.6, 20.0, 9.9, 9.9, -10.8, -10.2],
	    "ModuleNTC":      [23.6, 26.5, 20.9, 16.0, 11.0, -4.9, -9.1],
	    "Current":        [23.6, 26.7, 20.7, 15.8, 10.6, -6.2, -10.8],
	    "eCurrent":       [ 0.0,  0.2,  0.2,  0.3,  0.3,  3.2,  5.5],
	    "Camera":         [23.3, 26.3, -999, 16.9, -999, -2.3, -999],
	    "Sensor":         [-999, 24.6, -999, 13.1, -999, -8.6, -999]
	},
	{
	    "ModuleName": "KEKQ17 analise",
	    "JigTemperature": [22.9, 20.3, 20.5, 10.4, 10.2, -10.6, -10.2],
	    "ModuleNTC":      [22.9, 27.9, 17.8, 17.8, 11.1, -3.0, -8.9],
	    "Current":        [22.9, 27.8, 21.3, 17.8, 11.1, -4.1, -7.0],
	    "eCurrent":       [0.0, 0.2, 0.3, 0.4, 0.7, 2.6, 3.5],
	    "Camera":         [27.2, 31.0, -999, 29.5, -999, 26.6, -999],
	    "Sensor":         [-999, 26.6, -999, 15.8, -999, -5.1, -999]
	},
	{
	    "ModuleName": "KEKQ18 analise",
	    "JigTemperature": [23.6, 20.1, 20.0, 9.8, 10.0, -10.1, -9.8],
	    "ModuleNTC":      [23.6, 27.9, 20.7, 17.7, 11.1, -1.9, -8.0],
	    "Current":        [23.6, 28.7, 20.4, 18.5, 10.9, -0.3, -6.9],
	    "eCurrent":       [0.0, 0.2, 0.2, 0.3, 0.4, 0.8, 1.8],
	    "Camera":         [22.9, 23.6, -999, 21.4, -999, 17.9, -999],
	    "Sensor":         [-999, 29.8 , -999, 19.1, -999, 0.3, -999]
	},
	{
	    "ModuleName": "KEKQ19",
	    "JigTemperature": [23.9, 20.6, 20.3, 10.2, 10.5, -10.5, -10.8],
	    "ModuleNTC":      [23.6, 27.5, 20.5, 16.9, 10.9, -4.0, -10.4],
	    "Current":        [23.6, 25.8, 21.8, 19.5, 16.6, 9.9, 8.1],
	    "eCurrent":       [0.0, 0.1, 0.1, 0.2, 0.2, 0.2, 0.2],
	    "Camera":         [-999, -999, -999, -999, -999, -999, -999],
	    "Sensor":         [-999, 22.2, -999, 13.5, -999, -7.7, -999]
	},
	{
	    "ModuleName": "KEKQ20",
	    "JigTemperature": [23.4, 20.5, 20.5, 10.7, 10.7, -9.4, -10.7],
	    "ModuleNTC":      [23.5, 25.7, 20.7, 15.9, 10.8, -4.5, -10.9],
	    "Current":        [23.5, 25.0, 20.9, 17.1, 12.5, 0.8, -4.4],
	    "eCurrent":       [0.0, 0.2, 0.2, 0.2, 0.2, 0.7, 0.6],
	    "Camera":         [-999, -999, -999, -999, -999, -999, -999],
	    "Sensor":         [-999, 21.7, -999, 13.4, -999, -9.1, -999]
	},
	{
	    "ModuleName": "KEKQ21",
	    "JigTemperature": [23.7, 20.3, 20.1, 10.5, 10.7, -10.4, -11.0],
	    "ModuleNTC":      [23.8, 25.7, 20.4, 15.9, 10.9, -5.6, -10.8],
	    "Current":        [23.8, 23.6, 21.6, 19.0, 17.0, 11.8, 9.9],
	    "eCurrent":       [0.0, 0.1, 0.1, 0.2, 0.2, 0.3, 0.4],
	    "Camera":         [-999, -999, -999, -999, -999, -999, -999],
	    "Sensor":         [-999, 26.8, -999, 15.5, -999, -3.0, -999]
	}

    ]
}

