{
    "Module": [
	{
	    "ModuleName": "Paris3",
	    "JigTemperature": [23.4, 20.6, 20.5, 10.5, 10.4, -10.9, -9.4],
	    "ModuleNTC":      [23.5, 25.9, 20.5, 16.2, 10.8, -5.3, -8.6],
	    "Current":        [23.5, 26.0, 20.4, 16.0, 10.2, -6.1, -10.2],
	    "eCurrent":       [0.0, 0.2, 0.2, 0.2, 0.3, 1.0, 3.7],
	    "Camera":         [23.1, 25.6, -999, 16.4, -999, -3.5, -999],
	    "Sensor":         [-999, 25.4, -999, 15.9, -999, -4.2, -999]
	},
	{
	    "ModuleName": "Paris6",
	    "JigTemperature": [23.4, 20.6, 20.5, 10.7, 10.5, -9.4, -10.9],
	    "ModuleNTC":      [23.6, 26.9, 20.7, 17.2, 10.9, -2.7, -10.2],
	    "Current":        [23.6, 27.0, 20.3, 16.6, 10.3, -4.8, -13.1],
	    "eCurrent":       [0.0, 0.3, 0.3, 0.6, 0.4, 2.3, 5.2],
	    "Camera":         [23.2, 26.5, -999, 17.3, -999, -1.6, -999],
	    "Sensor":         [-999, 27.2, -999, 16.8, -999, -2.1, -999]
	},
	{
	    "ModuleName": "Paris7 ???",
	    "JigTemperature": [23.5, 20.6, 20.6, 10.8, 10.5, -10.5, -10.7],
	    "ModuleNTC":      [23.6, 26.3, 20.9, 16.6, 10.9, -4.8, -10.6],
	    "Current":        [23.6, 27.1, 20.8, 17.2, 10.7, -5.3, -12.5],
	    "eCurrent":       [0.0, 0.2, 0.3, 0.3, 0.4, 2.1, 3.6],
	    "Camera":         [23.2, 28.5, -999, 18.0, -999, -2.0, -999],
	    "Sensor":         [-999, 27.1, -999, 17.7, -999, -3.8, -999]
	},
	{
	    "ModuleName": "Paris8",
	    "JigTemperature": [23.5, 20.5, 20.5, 10.5, 10.7, -9.5, -10.8],
	    "ModuleNTC":      [23.6, 26.3, 20.7, 16.3, 11.0, -3.9, -10.6],
	    "Current":        [23.6, 26.8, 20.8, 17.1, 11.1, -2.7, -9.3],
	    "eCurrent":       [0.0, 0.2, 0.3, 0.3, 0.5, 2.2, 4.8],
	    "Camera":         [23.2, 26.7, -999, 17.5, -999, -1.7, -999],
	    "Sensor":         [-999, 22.8, -999, 19.0, -999, 3.9, -999]
	},
	{
	    "ModuleName": "Paris9",
	    "JigTemperature": [23.7, 20.5, 20.3, 10.8, 10.3, -10.6, -10.9],
	    "ModuleNTC":      [23.8, 30.0, 20.2, 20.0, 10.4, -1.3, -10.4],
	    "Current":        [23.8, 29.1, 20.4, 19.6, 11.1, 0.3, -9.9],
	    "eCurrent":       [0.0, 0.2, 0.2, 0.2, 0.3, 0.6, 3.3],
	    "Camera":         [22.8, 29.7, -999, 20.9, -999, 0.8, -999],
	    "Sensor":         [-999, 32.1, -999, 22.0, -999, -2.0, -999]
	},
	{
	    "ModuleName": "Paris10",
	    "JigTemperature": [23.4, 20.5, 20.5, 10.7, 10.8, -9.3, -10.5],
	    "ModuleNTC":      [23.5, 26.5, 20.7, 16.6, 10.9, -3.7, -10.6],
	    "Current":        [23.5, 26.5, 20.4, 16.3, 10.7, -4.7, -10.6],
	    "eCurrent":       [0.0, 0.2, 0.3, 0.3, 0.3, 1.7, 2.6],
	    "Camera":         [23.2, 26.3, -999, 17.0, -999, -2.6, -999],
	    "Sensor":         [-999, 26.6, -999, 15.7, -999, -5.9, -999]
	},
	{
	    "ModuleName": "Paris11",
	    "JigTemperature": [22.1, 20.1, 20.3, 10.3, 10.8, -10.8, -10.9],
	    "ModuleNTC":      [22.4, 26.7, 20.5, 16.8, 11.0, -4.6, -10.6],
	    "Current":        [22.4, 26.3, 20.3, 16.7, 11.0, -3.0, -8.6],
	    "eCurrent":       [0.0, 0.2, 0.2, 0.3, 0.3, 0.8, 1.6],
	    "Camera":         [21.5, 25.6, -999, 16.8, -999, -3.5, -999],
	    "Sensor":         [-999, 27.8, -999, 19.3, -999, -3.0, -999]
	},
	{
	    "ModuleName": "Paris12",
	    "JigTemperature": [23.3, 20.3, 20.5, 10.9, 10.5, -10.9, -10.8],
	    "ModuleNTC":      [23.3, 27.3, 20.7, 17.7, 10.9, -3.8, -10.3],
	    "Current":        [23.3, 27.3, 20.3, 17.7, 10.4, -4.3, -11.1],
	    "eCurrent":       [0.0, 0.1, 0.1, 0.1, 0.1, 0.4, 0.6],
	    "Camera":         [22.9, 28.1, -999, 19.0, -999, -1.6, -999],
	    "Sensor":         [-999, 27.7, -999, 17.7, -999, -4.3, -999]
	},
	{
	    "ModuleName": "Paris13",
	    "JigTemperature": [23.0, 20.0, 20.6, 10.4, 10.7, -10.7, -10.9],
	    "ModuleNTC":      [23.1, 26.3, 20.7, 16.8, 11.0, -4.7, -10.4],
	    "Current":        [23.1, 26.5, 20.8, 17.1, 10.8, -5.3, -13.1],
	    "eCurrent":       [0.0, 0.3, 0.4, 0.4, 0.4, 1.7, 3.6],
	    "Camera":         [22.3, 25.2, -999, 16.3, -999, -4.4, -999],
	    "Sensor":         [-999, 24.2, -999, 21.4, -999, 6.8, ]
	},
	{
	    "ModuleName": "Paris16",
	    "JigTemperature": [23.2, 20.1, 20.5, 10.7, 10.5, -10.8, -10.7],
	    "ModuleNTC":      [23.2, 28.7, 20.7, 19.2, 11.0, -1.7, -9.8],
	    "Current":        [23.2, 28.5, 20.3, 19.1, 10.4, -3.3, -9.6],
	    "eCurrent":       [0.0, 0.3, 0.3, 0.3, 0.4, 1.3, 3.0],
	    "Camera":         [22.2, 27.7, -999, 18.8, -999, -1.3, -999],
	    "Sensor":         [-999, 27.7, -999, 18.2, -999, -6.5, -999]

	{
	    "ModuleName": "Paris17",
	    "JigTemperature": [23.5, 20.5, 20.3, 10.5, 10.5, -11.0, -10.8],
	    "ModuleNTC":      [23.8, 26.5, 20.5, 16.5, 11.0, -4.7, -10.1],
	    "Current":        [-999, -999, -999, -999, -999, -999, -999],
	    "eCurrent":       [0, 0, 0, 0, 0, 0, 0],
	    "Camera":         [22.8, 25.4, -999, 16.3, -999, -4.2, -999],
	    "Sensor":         [-999, 25.3, -999, 13.5, -999, -9.5, -999]
	},
	{
	    "ModuleName": "Paris18",
	    "JigTemperature": [23.4, 20.3, 20.5, 10.7, 10.5, -10.7, -10.8],
	    "ModuleNTC":      [23.5, 26.3, 20.5, 16.6, 10.6, -5.1, -10.9],
	    "Current":        [23.5, 25.5, 22.5, 21.2, 18.8, 13.2, 11.4],
	    "eCurrent":       [0.0, 0.1, 0.1, 0.1, 0.1, 0.1, 0.1],
	    "Camera":         [22.3, 25.5, -999, 16.4, -999, -4.8, -999],
	    "Sensor":         [-999, 30.3, -999, 18.7, -999, -8.8, -999]
	}

    ]
}

