{
    "Data": [124.0, 848.0, 4071.0, 5794.0, 4556.0, 3095.0, 2042.0, 1187.0, 804.0, 565.0, 384.0, 313.0, 240.0, 197.0, 159.0, 116.0, 99.0, 110.0, 80.0, 62.0, 63.0, 58.0, 44.0, 57.0, 47.0, 30.0, 28.0, 29.0, 23.0, 13.0, 19.0, 10.0, 12.0, 10.0, 14.0, 7.0, 3.0, 6.0, 5.0, 5.0, 3.0, 3.0, 5.0, 2.0, 0.0, 1.0, 0.0, 5.0, 2.0, 0.0, 0.0],
    "Name": "Chi2Dist-0",
    "Overflow": 0.0,
    "Type": "Histo1d",
    "Underflow": 0.0,
    "x": {
        "AxisTitle": "Fit Chi/ndf",
        "Bins": 51,
        "High": 2.5250000953674318,
        "Low": -0.02500000037252903
    },
    "y": {
        "AxisTitle": "Number of Pixels"
    },
    "z": {
        "AxisTitle": "z"
    }
}