{
    "Data": [0.0, 0.0, 0.0, 0.0, 0.0, 0.0, 0.0, 0.0, 0.0, 0.0, 0.0, 0.0, 0.0, 0.0, 0.0, 0.0, 0.0, 0.0, 2.0, 0.0, 0.0, 0.0, 2.0, 35.0, 41.0, 23.0, 16.0, 27.0, 288.0, 340.0, 132.0, 76.0, 162.0, 1154.0, 1419.0, 570.0, 317.0, 381.0, 1290.0, 1325.0, 646.0, 399.0, 578.0, 1542.0, 1905.0, 1243.0, 667.0, 664.0, 923.0, 1069.0, 836.0, 611.0, 563.0, 679.0, 729.0, 552.0, 398.0, 386.0, 417.0, 413.0, 325.0, 274.0, 242.0, 229.0, 169.0, 129.0, 117.0, 95.0, 84.0, 89.0, 79.0, 73.0, 64.0, 59.0, 42.0, 32.0, 37.0, 32.0, 24.0, 30.0, 17.0, 24.0, 19.0, 17.0, 14.0, 16.0, 15.0, 12.0, 16.0, 11.0, 9.0, 12.0, 9.0, 2.0, 11.0, 2.0, 1.0, 4.0, 6.0, 3.0, 2.0, 6.0, 3.0, 7.0, 3.0, 3.0, 3.0, 1.0, 2.0, 2.0, 3.0, 3.0, 5.0, 4.0, 3.0, 4.0, 2.0, 2.0, 0.0, 3.0, 1.0, 0.0, 3.0, 0.0, 1.0, 0.0, 1.0, 1.0, 0.0, 0.0, 1.0, 0.0, 2.0, 1.0, 0.0, 0.0, 1.0, 1.0, 0.0, 1.0, 0.0, 1.0, 1.0, 1.0, 2.0, 1.0, 0.0, 0.0, 1.0, 0.0, 0.0, 0.0, 1.0, 0.0, 0.0, 0.0, 1.0, 1.0, 0.0, 0.0, 0.0, 0.0, 1.0, 0.0, 0.0, 2.0, 0.0, 1.0, 1.0, 0.0, 0.0, 2.0, 0.0, 0.0, 1.0, 0.0, 0.0, 0.0, 0.0, 0.0, 1.0, 0.0, 0.0, 0.0, 1.0, 0.0, 0.0, 0.0, 0.0, 0.0, 0.0, 0.0, 0.0, 0.0, 0.0, 0.0, 0.0, 0.0, 0.0, 0.0, 0.0],
    "Name": "TimePerFitDist-0",
    "Overflow": 9.0,
    "Type": "Histo1d",
    "Underflow": 0.0,
    "x": {
        "AxisTitle": "Fit Time [us]",
        "Bins": 201,
        "High": 401.0,
        "Low": -1.0
    },
    "y": {
        "AxisTitle": "Number of Pixels"
    },
    "z": {
        "AxisTitle": "z"
    }
}