{
    "Data": [10.0, 1177.0, 4337.0, 4940.0, 3462.0, 1909.0, 1001.0, 539.0, 274.0, 163.0, 127.0, 78.0, 44.0, 45.0, 35.0, 40.0, 23.0, 21.0, 15.0, 12.0, 6.0, 11.0, 10.0, 7.0, 10.0, 10.0, 4.0, 7.0, 4.0, 2.0, 3.0, 5.0, 2.0, 1.0, 1.0, 2.0, 2.0, 2.0, 1.0, 1.0, 0.0, 2.0, 0.0, 1.0, 2.0, 0.0, 1.0, 0.0, 1.0, 2.0, 0.0],
    "Name": "Chi2Dist-0",
    "Overflow": 0.0,
    "Type": "Histo1d",
    "Underflow": 0.0,
    "x": {
        "AxisTitle": "Fit Chi/ndf",
        "Bins": 51,
        "High": 2.5250000953674318,
        "Low": -0.02500000037252903
    },
    "y": {
        "AxisTitle": "Number of Pixels"
    },
    "z": {
        "AxisTitle": "z"
    }
}