{
    "Data": [0.0, 0.0, 0.0, 0.0, 1.0, 1.0, 0.0, 0.0, 0.0, 0.0, 0.0, 0.0, 0.0, 0.0, 0.0, 0.0, 0.0, 1.0, 0.0, 0.0, 0.0, 0.0, 0.0, 1.0, 0.0, 0.0, 0.0, 0.0, 0.0, 0.0, 0.0, 0.0, 0.0, 0.0, 0.0, 1.0, 0.0, 0.0, 0.0, 0.0, 0.0, 0.0, 0.0, 0.0, 0.0, 0.0, 0.0, 0.0, 1.0, 0.0, 0.0, 0.0, 1.0, 0.0, 1.0, 1.0, 1.0, 0.0, 0.0, 0.0, 1.0, 0.0, 0.0, 1.0, 0.0, 0.0, 0.0, 1.0, 1.0, 0.0, 0.0, 0.0, 0.0, 0.0, 0.0, 0.0, 0.0, 0.0, 0.0, 0.0, 0.0, 0.0, 0.0, 0.0, 1.0, 0.0, 0.0, 1.0, 0.0, 1.0, 2.0, 1.0, 0.0, 1.0, 3.0, 5.0, 1.0, 2.0, 2.0, 5.0, 1.0, 2.0, 4.0, 5.0, 11.0, 7.0, 10.0, 5.0, 11.0, 10.0, 13.0, 17.0, 16.0, 20.0, 16.0, 20.0, 20.0, 35.0, 43.0, 52.0, 48.0, 50.0, 66.0, 70.0, 72.0, 81.0, 103.0, 90.0, 137.0, 118.0, 145.0, 156.0, 165.0, 149.0, 193.0, 199.0, 204.0, 210.0, 223.0, 227.0, 237.0, 260.0, 238.0, 257.0, 281.0, 261.0, 297.0, 273.0, 299.0, 284.0, 320.0, 298.0, 267.0, 309.0, 260.0, 309.0, 251.0, 265.0, 250.0, 275.0, 250.0, 275.0, 245.0, 236.0, 230.0, 214.0, 219.0, 220.0, 220.0, 209.0, 187.0, 164.0, 195.0, 172.0, 174.0, 174.0, 183.0, 174.0, 155.0, 152.0, 128.0, 142.0, 154.0, 127.0, 135.0, 140.0, 135.0, 119.0, 106.0, 136.0, 113.0, 119.0, 109.0, 124.0, 136.0, 105.0, 113.0, 121.0, 114.0, 127.0, 90.0, 109.0, 113.0, 96.0, 116.0, 115.0, 88.0, 84.0, 104.0, 94.0, 97.0, 106.0, 96.0, 82.0, 96.0, 101.0, 99.0, 99.0, 82.0, 93.0, 77.0, 78.0, 78.0, 81.0, 72.0, 70.0, 83.0, 96.0, 75.0, 80.0, 73.0, 66.0, 72.0, 71.0, 74.0, 73.0, 73.0, 80.0, 70.0, 84.0, 71.0, 68.0, 67.0, 73.0, 68.0, 66.0, 75.0, 58.0, 66.0, 77.0, 62.0, 62.0, 64.0, 49.0, 58.0, 57.0, 72.0, 76.0, 60.0, 44.0, 56.0, 50.0, 58.0, 62.0, 50.0, 47.0, 48.0, 54.0, 54.0, 69.0, 58.0, 38.0, 56.0, 47.0, 41.0, 58.0, 44.0, 49.0, 38.0, 44.0, 35.0, 43.0, 40.0, 33.0, 47.0, 38.0, 37.0, 36.0, 38.0, 48.0, 32.0, 36.0, 46.0, 41.0, 31.0, 30.0, 25.0, 31.0, 42.0, 39.0, 45.0, 39.0, 38.0, 22.0, 41.0, 34.0, 43.0, 32.0, 36.0, 34.0, 22.0, 28.0, 28.0, 31.0, 30.0, 31.0, 23.0, 21.0, 38.0, 25.0, 25.0, 36.0, 26.0, 24.0, 26.0, 29.0, 32.0, 33.0, 30.0, 19.0, 29.0, 30.0, 31.0, 24.0, 33.0, 20.0, 32.0, 22.0, 31.0, 27.0, 26.0, 20.0, 23.0, 32.0, 28.0, 22.0, 20.0, 21.0, 17.0, 11.0, 24.0, 21.0, 23.0, 29.0, 9.0, 26.0, 23.0, 19.0, 20.0, 20.0, 14.0, 12.0, 20.0, 18.0, 18.0, 12.0, 18.0, 21.0, 16.0, 24.0, 16.0, 19.0, 15.0, 20.0, 14.0, 10.0, 19.0, 16.0, 11.0, 16.0, 11.0, 11.0, 16.0, 15.0, 13.0, 18.0, 18.0, 14.0, 16.0, 12.0, 16.0, 14.0, 13.0, 17.0, 15.0, 18.0, 12.0, 12.0, 14.0, 7.0, 14.0, 10.0, 16.0, 13.0, 12.0, 16.0, 10.0, 9.0, 13.0, 13.0, 7.0, 13.0, 8.0, 10.0, 12.0, 8.0, 7.0, 16.0, 7.0, 10.0, 12.0, 12.0, 16.0, 4.0, 13.0, 7.0, 9.0, 14.0, 7.0, 10.0, 6.0, 9.0, 9.0, 7.0, 6.0, 12.0, 13.0, 12.0, 6.0, 6.0, 12.0, 8.0, 7.0, 6.0, 10.0, 7.0, 6.0, 10.0, 6.0, 9.0, 6.0, 7.0, 7.0, 5.0, 6.0, 8.0, 5.0, 5.0, 8.0, 7.0, 10.0, 6.0, 6.0, 7.0, 7.0, 13.0, 7.0, 4.0, 6.0, 10.0, 8.0, 4.0, 1.0, 7.0, 2.0, 9.0, 2.0, 4.0, 6.0, 9.0, 8.0, 6.0, 7.0, 14.0, 8.0, 6.0, 4.0, 4.0, 6.0, 10.0, 4.0, 10.0, 9.0, 5.0, 5.0, 3.0, 2.0, 2.0, 4.0, 6.0, 4.0, 8.0, 4.0, 3.0, 3.0, 4.0, 8.0, 4.0, 7.0, 8.0, 5.0, 5.0, 3.0, 7.0, 5.0, 6.0, 4.0, 5.0, 5.0, 6.0, 7.0, 4.0, 5.0, 6.0, 3.0, 3.0, 3.0, 2.0, 7.0, 3.0, 3.0, 2.0, 5.0, 4.0, 5.0, 3.0, 1.0, 4.0, 6.0, 3.0, 1.0, 4.0, 4.0, 3.0, 3.0, 1.0, 5.0, 5.0, 3.0, 4.0, 3.0, 2.0, 4.0, 3.0, 3.0, 2.0, 9.0, 5.0, 3.0, 5.0, 5.0, 4.0, 1.0, 1.0, 2.0, 2.0, 2.0, 1.0, 6.0, 7.0, 2.0, 5.0, 2.0, 2.0, 5.0, 1.0, 3.0, 1.0, 1.0, 2.0, 1.0, 0.0, 3.0, 4.0, 2.0, 2.0, 1.0, 1.0, 1.0, 2.0, 1.0, 4.0, 2.0, 3.0, 2.0, 1.0, 2.0, 3.0, 1.0, 2.0, 4.0, 3.0, 1.0, 3.0, 0.0, 3.0, 0.0, 2.0, 3.0, 2.0, 1.0, 4.0, 3.0, 1.0, 3.0, 2.0, 0.0, 2.0, 0.0, 1.0, 4.0, 2.0, 0.0, 3.0, 1.0, 2.0, 0.0, 4.0, 1.0, 3.0, 1.0, 0.0, 1.0, 0.0, 3.0, 1.0, 1.0, 4.0, 2.0, 1.0, 2.0, 0.0, 0.0, 1.0, 2.0, 1.0, 2.0, 2.0, 0.0, 1.0, 4.0, 1.0, 1.0, 1.0, 2.0, 1.0, 1.0, 0.0, 1.0, 4.0, 0.0, 2.0, 0.0, 0.0, 2.0, 3.0, 1.0, 2.0, 2.0, 1.0, 1.0, 1.0, 0.0, 2.0, 0.0, 2.0, 2.0, 2.0, 0.0, 1.0, 1.0, 4.0, 2.0, 5.0, 0.0, 2.0, 2.0, 2.0, 3.0, 2.0, 0.0, 0.0, 0.0, 0.0, 2.0, 1.0, 1.0, 0.0, 0.0, 1.0, 2.0, 2.0, 1.0, 3.0, 0.0, 2.0, 2.0, 0.0, 2.0, 0.0, 2.0, 1.0, 2.0, 0.0, 2.0, 1.0, 2.0, 1.0, 1.0, 1.0, 1.0, 1.0, 4.0, 1.0, 1.0, 1.0, 1.0, 0.0, 1.0, 0.0, 1.0, 1.0, 1.0, 0.0, 0.0, 0.0, 2.0],
    "Name": "NoiseDist-0",
    "Overflow": 119.0,
    "Type": "Histo1d",
    "Underflow": 0.0,
    "x": {
        "AxisTitle": "Noise [e]",
        "Bins": 737,
        "High": 3686.0,
        "Low": -2.0
    },
    "y": {
        "AxisTitle": "Number of Pixels"
    },
    "z": {
        "AxisTitle": "z"
    }
}