{
    "Module": {
	"ModuleID": "CERNQ11",
        "FolderPath": {
	    "Stage1": ".",
            "Stage2": "/eos/atlas/atlascerngroupdisk/det-itk/general/pixels/systemtest/lls-prototype-rd53a-ob/moduledata/CERN_Thin_Q11_20UPGM20025141/1-ReceptionTestCERN/BeforePotting",
            "Stage3": "/eos/atlas/atlascerngroupdisk/det-itk/general/pixels/systemtest/lls-prototype-rd53a-ob/moduledata/CERN_Thin_Q11_20UPGM20025141/1-ReceptionTestCERN/AfterPotting",
	    "Stage4": "/eos/atlas/atlascerngroupdisk/det-itk/general/pixels/systemtest/lls-prototype-rd53a-ob/moduledata/CERN_Thin_Q11_20UPGM20025141/2-AfterLoading/XraySetup161",
            "Stage5": "/eos/atlas/atlascerngroupdisk/det-itk/general/pixels/systemtest/lls-prototype-rd53a-ob/moduledata/CERN_Thin_Q11_20UPGM20025141/2-AfterLoading/Pigtail_Xplus",
            "Stage6": "."
        },
        "IV": {
	    "Stage1": ".",
            "Stage2": "/eos/atlas/atlascerngroupdisk/det-itk/general/pixels/systemtest/lls-prototype-rd53a-ob/moduledata/CERN_Thin_Q11_20UPGM20025141/1-ReceptionTestCERN/BeforePotting",
            "Stage3": "/eos/atlas/atlascerngroupdisk/det-itk/general/pixels/systemtest/lls-prototype-rd53a-ob/moduledata/CERN_Thin_Q11_20UPGM20025141/1-ReceptionTestCERN/AfterPotting",
	    "Stage4": "/eos/atlas/atlascerngroupdisk/det-itk/general/pixels/systemtest/lls-prototype-rd53a-ob/moduledata/CERN_Thin_Q11_20UPGM20025141/2-AfterLoading/XraySetup161",
            "Stage5": "/eos/atlas/atlascerngroupdisk/det-itk/general/pixels/systemtest/lls-prototype-rd53a-ob/moduledata/CERN_Thin_Q11_20UPGM20025141/2-AfterLoading/Pigtail_Xplus",
            "Stage6": "."
        },
        "FWB": {
	    "Stage1": ".",
            "Stage2": "/eos/atlas/atlascerngroupdisk/det-itk/general/pixels/systemtest/lls-prototype-rd53a-ob/moduledata/CERN_Thin_Q11_20UPGM20025141/1-ReceptionTestCERN/BeforePotting",
            "Stage3": "/eos/atlas/atlascerngroupdisk/det-itk/general/pixels/systemtest/lls-prototype-rd53a-ob/moduledata/CERN_Thin_Q11_20UPGM20025141/1-ReceptionTestCERN/AfterPotting",
	    "Stage4": "/eos/atlas/atlascerngroupdisk/det-itk/general/pixels/systemtest/lls-prototype-rd53a-ob/moduledata/CERN_Thin_Q11_20UPGM20025141/2-AfterLoading/XraySetup161",
            "Stage5": "/eos/atlas/atlascerngroupdisk/det-itk/general/pixels/systemtest/lls-prototype-rd53a-ob/moduledata/CERN_Thin_Q11_20UPGM20025141/2-AfterLoading/Pigtail_Xplus",
            "Stage6": "."
        },
	"Temperature": {
	    "Stage1": 1,
	    "Stage2": 298.2,
	    "Stage3": 297.2,
	    "Stage4": 299.2,
	    "Stage5": 293.5,
	    "Stage6": 1 
	},
	"Type": [ "diff", "lin", "syn" ],
	"FE1": "20UPGFC0013622",
	"FE2": "20UPGFC0013607",
	"FE3": "20UPGFC0013722",
	"FE4": "20UPGFC0013623"
    },
    "PlotConfig": "./PlotConfig.json",
    "OutputFormat": [ ".png", ".pdf" ]
}
