{'measurement': 'measName', 'fields': {'measV_HV2': -150.0, 'measI_HV2': -6.017044e-06, 'settV_HV2': -150.0, 'settI_HV2': 0.0}, 'tags': {'user': 'root'}}
{'measurement': 'measName', 'fields': {'measV_HV2': -150.0, 'measI_HV2': -6.040817e-06, 'settV_HV2': -150.0, 'settI_HV2': 0.0}, 'tags': {'user': 'root'}}
{'measurement': 'measName', 'fields': {'measV_HV2': -150.0, 'measI_HV2': -6.024251e-06, 'settV_HV2': -150.0, 'settI_HV2': 0.0}, 'tags': {'user': 'root'}}
{'measurement': 'measName', 'fields': {'measV_HV2': -150.0, 'measI_HV2': -6.017209e-06, 'settV_HV2': -150.0, 'settI_HV2': 0.0}, 'tags': {'user': 'root'}}
{'measurement': 'measName', 'fields': {'measV_HV2': -150.0, 'measI_HV2': -6.042278e-06, 'settV_HV2': -150.0, 'settI_HV2': 0.0}, 'tags': {'user': 'root'}}
{'measurement': 'measName', 'fields': {'measV_HV2': -150.0, 'measI_HV2': -6.01867e-06, 'settV_HV2': -150.0, 'settI_HV2': 0.0}, 'tags': {'user': 'root'}}
{'measurement': 'measName', 'fields': {'measV_HV2': -150.0, 'measI_HV2': -6.027223e-06, 'settV_HV2': -150.0, 'settI_HV2': 0.0}, 'tags': {'user': 'root'}}
{'measurement': 'measName', 'fields': {'measV_HV2': -150.0, 'measI_HV2': -6.025271e-06, 'settV_HV2': -150.0, 'settI_HV2': 0.0}, 'tags': {'user': 'root'}}
{'measurement': 'measName', 'fields': {'measV_HV2': -150.0, 'measI_HV2': -6.013841e-06, 'settV_HV2': -150.0, 'settI_HV2': 0.0}, 'tags': {'user': 'root'}}
{'measurement': 'measName', 'fields': {'measV_HV2': -150.0, 'measI_HV2': -6.033885e-06, 'settV_HV2': -150.0, 'settI_HV2': 0.0}, 'tags': {'user': 'root'}}
{'measurement': 'measName', 'fields': {'measV_HV2': -150.0, 'measI_HV2': -6.070798e-06, 'settV_HV2': -150.0, 'settI_HV2': 0.0}, 'tags': {'user': 'root'}}
{'measurement': 'measName', 'fields': {'measV_HV2': -150.0, 'measI_HV2': -6.070894e-06, 'settV_HV2': -150.0, 'settI_HV2': 0.0}, 'tags': {'user': 'root'}}
{'measurement': 'measName', 'fields': {'measV_HV2': -150.0, 'measI_HV2': -6.055413e-06, 'settV_HV2': -150.0, 'settI_HV2': 0.0}, 'tags': {'user': 'root'}}
{'measurement': 'measName', 'fields': {'measV_HV2': -150.0, 'measI_HV2': -6.064867e-06, 'settV_HV2': -150.0, 'settI_HV2': 0.0}, 'tags': {'user': 'root'}}
{'measurement': 'measName', 'fields': {'measV_HV2': -150.0, 'measI_HV2': -6.067752e-06, 'settV_HV2': -150.0, 'settI_HV2': 0.0}, 'tags': {'user': 'root'}}
{'measurement': 'measName', 'fields': {'measV_HV2': -150.0, 'measI_HV2': -6.075831e-06, 'settV_HV2': -150.0, 'settI_HV2': 0.0}, 'tags': {'user': 'root'}}
{'measurement': 'measName', 'fields': {'measV_HV2': -150.0, 'measI_HV2': -6.008804e-06, 'settV_HV2': -150.0, 'settI_HV2': 0.0}, 'tags': {'user': 'root'}}
{'measurement': 'measName', 'fields': {'measV_HV2': -150.0, 'measI_HV2': -6.029682e-06, 'settV_HV2': -150.0, 'settI_HV2': 0.0}, 'tags': {'user': 'root'}}
{'measurement': 'measName', 'fields': {'measV_HV2': -150.0, 'measI_HV2': -6.034843e-06, 'settV_HV2': -150.0, 'settI_HV2': 0.0}, 'tags': {'user': 'root'}}
{'measurement': 'measName', 'fields': {'measV_HV2': -150.0, 'measI_HV2': -6.023724e-06, 'settV_HV2': -150.0, 'settI_HV2': 0.0}, 'tags': {'user': 'root'}}
{'measurement': 'measName', 'fields': {'measV_HV2': -150.0, 'measI_HV2': -6.036101e-06, 'settV_HV2': -150.0, 'settI_HV2': 0.0}, 'tags': {'user': 'root'}}
{'measurement': 'measName', 'fields': {'measV_HV2': -150.0, 'measI_HV2': -6.032638e-06, 'settV_HV2': -150.0, 'settI_HV2': 0.0}, 'tags': {'user': 'root'}}
{'measurement': 'measName', 'fields': {'measV_HV2': -150.0, 'measI_HV2': -6.032294e-06, 'settV_HV2': -150.0, 'settI_HV2': 0.0}, 'tags': {'user': 'root'}}
{'measurement': 'measName', 'fields': {'measV_HV2': -150.0, 'measI_HV2': -6.028102e-06, 'settV_HV2': -150.0, 'settI_HV2': 0.0}, 'tags': {'user': 'root'}}
{'measurement': 'measName', 'fields': {'measV_HV2': -150.0, 'measI_HV2': -6.018432e-06, 'settV_HV2': -150.0, 'settI_HV2': 0.0}, 'tags': {'user': 'root'}}
{'measurement': 'measName', 'fields': {'measV_HV2': -150.0, 'measI_HV2': -6.025833e-06, 'settV_HV2': -150.0, 'settI_HV2': 0.0}, 'tags': {'user': 'root'}}
{'measurement': 'measName', 'fields': {'measV_HV2': -150.0, 'measI_HV2': -6.058105e-06, 'settV_HV2': -150.0, 'settI_HV2': 0.0}, 'tags': {'user': 'root'}}
{'measurement': 'measName', 'fields': {'measV_HV2': -150.0, 'measI_HV2': -6.064719e-06, 'settV_HV2': -150.0, 'settI_HV2': 0.0}, 'tags': {'user': 'root'}}
{'measurement': 'measName', 'fields': {'measV_HV2': -150.0, 'measI_HV2': -6.06418e-06, 'settV_HV2': -150.0, 'settI_HV2': 0.0}, 'tags': {'user': 'root'}}
{'measurement': 'measName', 'fields': {'measV_HV2': -150.0, 'measI_HV2': -6.041882e-06, 'settV_HV2': -150.0, 'settI_HV2': 0.0}, 'tags': {'user': 'root'}}
{'measurement': 'measName', 'fields': {'measV_HV2': -150.0, 'measI_HV2': -6.067743e-06, 'settV_HV2': -150.0, 'settI_HV2': 0.0}, 'tags': {'user': 'root'}}
{'measurement': 'measName', 'fields': {'measV_HV2': -150.0, 'measI_HV2': -6.017112e-06, 'settV_HV2': -150.0, 'settI_HV2': 0.0}, 'tags': {'user': 'root'}}
{'measurement': 'measName', 'fields': {'measV_HV2': -150.0, 'measI_HV2': -6.005231e-06, 'settV_HV2': -150.0, 'settI_HV2': 0.0}, 'tags': {'user': 'root'}}
{'measurement': 'measName', 'fields': {'measV_HV2': -150.0, 'measI_HV2': -6.00773e-06, 'settV_HV2': -150.0, 'settI_HV2': 0.0}, 'tags': {'user': 'root'}}
{'measurement': 'measName', 'fields': {'measV_HV2': -150.0, 'measI_HV2': -6.01539e-06, 'settV_HV2': -150.0, 'settI_HV2': 0.0}, 'tags': {'user': 'root'}}
{'measurement': 'measName', 'fields': {'measV_HV2': -150.0, 'measI_HV2': -6.021144e-06, 'settV_HV2': -150.0, 'settI_HV2': 0.0}, 'tags': {'user': 'root'}}
{'measurement': 'measName', 'fields': {'measV_HV2': -150.0, 'measI_HV2': -6.025731e-06, 'settV_HV2': -150.0, 'settI_HV2': 0.0}, 'tags': {'user': 'root'}}
{'measurement': 'measName', 'fields': {'measV_HV2': -150.0, 'measI_HV2': -6.05795e-06, 'settV_HV2': -150.0, 'settI_HV2': 0.0}, 'tags': {'user': 'root'}}
{'measurement': 'measName', 'fields': {'measV_HV2': -150.0, 'measI_HV2': -6.063809e-06, 'settV_HV2': -150.0, 'settI_HV2': 0.0}, 'tags': {'user': 'root'}}
{'measurement': 'measName', 'fields': {'measV_HV2': -150.0, 'measI_HV2': -6.06583e-06, 'settV_HV2': -150.0, 'settI_HV2': 0.0}, 'tags': {'user': 'root'}}
{'measurement': 'measName', 'fields': {'measV_HV2': -150.0, 'measI_HV2': -6.027449e-06, 'settV_HV2': -150.0, 'settI_HV2': 0.0}, 'tags': {'user': 'root'}}
{'measurement': 'measName', 'fields': {'measV_HV2': -150.0, 'measI_HV2': -6.010779e-06, 'settV_HV2': -150.0, 'settI_HV2': 0.0}, 'tags': {'user': 'root'}}
{'measurement': 'measName', 'fields': {'measV_HV2': -150.0, 'measI_HV2': -6.015079e-06, 'settV_HV2': -150.0, 'settI_HV2': 0.0}, 'tags': {'user': 'root'}}
{'measurement': 'measName', 'fields': {'measV_HV2': -150.0, 'measI_HV2': -6.012386e-06, 'settV_HV2': -150.0, 'settI_HV2': 0.0}, 'tags': {'user': 'root'}}
{'measurement': 'measName', 'fields': {'measV_HV2': -150.0, 'measI_HV2': -6.016855e-06, 'settV_HV2': -150.0, 'settI_HV2': 0.0}, 'tags': {'user': 'root'}}
{'measurement': 'measName', 'fields': {'measV_HV2': -150.0, 'measI_HV2': -6.069955e-06, 'settV_HV2': -150.0, 'settI_HV2': 0.0}, 'tags': {'user': 'root'}}
{'measurement': 'measName', 'fields': {'measV_HV2': -150.0, 'measI_HV2': -6.050893e-06, 'settV_HV2': -150.0, 'settI_HV2': 0.0}, 'tags': {'user': 'root'}}
{'measurement': 'measName', 'fields': {'measV_HV2': -150.0, 'measI_HV2': -6.059723e-06, 'settV_HV2': -150.0, 'settI_HV2': 0.0}, 'tags': {'user': 'root'}}
{'measurement': 'measName', 'fields': {'measV_HV2': -150.0, 'measI_HV2': -6.064293e-06, 'settV_HV2': -150.0, 'settI_HV2': 0.0}, 'tags': {'user': 'root'}}
{'measurement': 'measName', 'fields': {'measV_HV2': -150.0, 'measI_HV2': -6.016994e-06, 'settV_HV2': -150.0, 'settI_HV2': 0.0}, 'tags': {'user': 'root'}}
{'measurement': 'measName', 'fields': {'measV_HV2': -150.0, 'measI_HV2': -6.01689e-06, 'settV_HV2': -150.0, 'settI_HV2': 0.0}, 'tags': {'user': 'root'}}
{'measurement': 'measName', 'fields': {'measV_HV2': -150.0, 'measI_HV2': -6.023213e-06, 'settV_HV2': -150.0, 'settI_HV2': 0.0}, 'tags': {'user': 'root'}}
{'measurement': 'measName', 'fields': {'measV_HV2': -150.0, 'measI_HV2': -6.051546e-06, 'settV_HV2': -150.0, 'settI_HV2': 0.0}, 'tags': {'user': 'root'}}
{'measurement': 'measName', 'fields': {'measV_HV2': -150.0, 'measI_HV2': -6.037462e-06, 'settV_HV2': -150.0, 'settI_HV2': 0.0}, 'tags': {'user': 'root'}}
{'measurement': 'measName', 'fields': {'measV_HV2': -150.0, 'measI_HV2': -6.046657e-06, 'settV_HV2': -150.0, 'settI_HV2': 0.0}, 'tags': {'user': 'root'}}
{'measurement': 'measName', 'fields': {'measV_HV2': -150.0, 'measI_HV2': -6.020199e-06, 'settV_HV2': -150.0, 'settI_HV2': 0.0}, 'tags': {'user': 'root'}}
{'measurement': 'measName', 'fields': {'measV_HV2': -150.0, 'measI_HV2': -6.015469e-06, 'settV_HV2': -150.0, 'settI_HV2': 0.0}, 'tags': {'user': 'root'}}
{'measurement': 'measName', 'fields': {'measV_HV2': -150.0, 'measI_HV2': -5.999683e-06, 'settV_HV2': -150.0, 'settI_HV2': 0.0}, 'tags': {'user': 'root'}}
{'measurement': 'measName', 'fields': {'measV_HV2': -150.0, 'measI_HV2': -6.011276e-06, 'settV_HV2': -150.0, 'settI_HV2': 0.0}, 'tags': {'user': 'root'}}
{'measurement': 'measName', 'fields': {'measV_HV2': -150.0, 'measI_HV2': -6.021248e-06, 'settV_HV2': -150.0, 'settI_HV2': 0.0}, 'tags': {'user': 'root'}}
{'measurement': 'measName', 'fields': {'measV_HV2': -150.0, 'measI_HV2': -6.017641e-06, 'settV_HV2': -150.0, 'settI_HV2': 0.0}, 'tags': {'user': 'root'}}
{'measurement': 'measName', 'fields': {'measV_HV2': -150.0, 'measI_HV2': -6.011926e-06, 'settV_HV2': -150.0, 'settI_HV2': 0.0}, 'tags': {'user': 'root'}}
{'measurement': 'measName', 'fields': {'measV_HV2': -150.0, 'measI_HV2': -6.022909e-06, 'settV_HV2': -150.0, 'settI_HV2': 0.0}, 'tags': {'user': 'root'}}
{'measurement': 'measName', 'fields': {'measV_HV2': -150.0, 'measI_HV2': -6.008268e-06, 'settV_HV2': -150.0, 'settI_HV2': 0.0}, 'tags': {'user': 'root'}}
{'measurement': 'measName', 'fields': {'measV_HV2': -150.0, 'measI_HV2': -6.022085e-06, 'settV_HV2': -150.0, 'settI_HV2': 0.0}, 'tags': {'user': 'root'}}
{'measurement': 'measName', 'fields': {'measV_HV2': -150.0, 'measI_HV2': -6.017144e-06, 'settV_HV2': -150.0, 'settI_HV2': 0.0}, 'tags': {'user': 'root'}}
{'measurement': 'measName', 'fields': {'measV_HV2': -150.0, 'measI_HV2': -6.026641e-06, 'settV_HV2': -150.0, 'settI_HV2': 0.0}, 'tags': {'user': 'root'}}
{'measurement': 'measName', 'fields': {'measV_HV2': -150.0, 'measI_HV2': -6.018571e-06, 'settV_HV2': -150.0, 'settI_HV2': 0.0}, 'tags': {'user': 'root'}}
{'measurement': 'measName', 'fields': {'measV_HV2': -150.0, 'measI_HV2': -6.010923e-06, 'settV_HV2': -150.0, 'settI_HV2': 0.0}, 'tags': {'user': 'root'}}
{'measurement': 'measName', 'fields': {'measV_HV2': -150.0, 'measI_HV2': -6.022068e-06, 'settV_HV2': -150.0, 'settI_HV2': 0.0}, 'tags': {'user': 'root'}}
{'measurement': 'measName', 'fields': {'measV_HV2': -150.0, 'measI_HV2': -6.004788e-06, 'settV_HV2': -150.0, 'settI_HV2': 0.0}, 'tags': {'user': 'root'}}
{'measurement': 'measName', 'fields': {'measV_HV2': -150.0, 'measI_HV2': -6.007062e-06, 'settV_HV2': -150.0, 'settI_HV2': 0.0}, 'tags': {'user': 'root'}}
{'measurement': 'measName', 'fields': {'measV_HV2': -150.0, 'measI_HV2': -6.019084e-06, 'settV_HV2': -150.0, 'settI_HV2': 0.0}, 'tags': {'user': 'root'}}
{'measurement': 'measName', 'fields': {'measV_HV2': -150.0, 'measI_HV2': -6.008395e-06, 'settV_HV2': -150.0, 'settI_HV2': 0.0}, 'tags': {'user': 'root'}}
{'measurement': 'measName', 'fields': {'measV_HV2': -150.0, 'measI_HV2': -6.000069e-06, 'settV_HV2': -150.0, 'settI_HV2': 0.0}, 'tags': {'user': 'root'}}
{'measurement': 'measName', 'fields': {'measV_HV2': -150.0, 'measI_HV2': -6.01045e-06, 'settV_HV2': -150.0, 'settI_HV2': 0.0}, 'tags': {'user': 'root'}}
{'measurement': 'measName', 'fields': {'measV_HV2': -150.0, 'measI_HV2': -5.998114e-06, 'settV_HV2': -150.0, 'settI_HV2': 0.0}, 'tags': {'user': 'root'}}
{'measurement': 'measName', 'fields': {'measV_HV2': -150.0, 'measI_HV2': -5.992401e-06, 'settV_HV2': -150.0, 'settI_HV2': 0.0}, 'tags': {'user': 'root'}}
{'measurement': 'measName', 'fields': {'measV_HV2': -150.0, 'measI_HV2': -6.06302e-06, 'settV_HV2': -150.0, 'settI_HV2': 0.0}, 'tags': {'user': 'root'}}
{'measurement': 'measName', 'fields': {'measV_HV2': -150.0, 'measI_HV2': -6.014665e-06, 'settV_HV2': -150.0, 'settI_HV2': 0.0}, 'tags': {'user': 'root'}}
{'measurement': 'measName', 'fields': {'measV_HV2': -150.0, 'measI_HV2': -6.014149e-06, 'settV_HV2': -150.0, 'settI_HV2': 0.0}, 'tags': {'user': 'root'}}
{'measurement': 'measName', 'fields': {'measV_HV2': -150.0, 'measI_HV2': -6.010832e-06, 'settV_HV2': -150.0, 'settI_HV2': 0.0}, 'tags': {'user': 'root'}}
{'measurement': 'measName', 'fields': {'measV_HV2': -150.0, 'measI_HV2': -6.026882e-06, 'settV_HV2': -150.0, 'settI_HV2': 0.0}, 'tags': {'user': 'root'}}
{'measurement': 'measName', 'fields': {'measV_HV2': -150.0, 'measI_HV2': -6.033891e-06, 'settV_HV2': -150.0, 'settI_HV2': 0.0}, 'tags': {'user': 'root'}}
{'measurement': 'measName', 'fields': {'measV_HV2': -150.0, 'measI_HV2': -6.015549e-06, 'settV_HV2': -150.0, 'settI_HV2': 0.0}, 'tags': {'user': 'root'}}
{'measurement': 'measName', 'fields': {'measV_HV2': -150.0, 'measI_HV2': -6.015804e-06, 'settV_HV2': -150.0, 'settI_HV2': 0.0}, 'tags': {'user': 'root'}}
{'measurement': 'measName', 'fields': {'measV_HV2': -150.0, 'measI_HV2': -6.01639e-06, 'settV_HV2': -150.0, 'settI_HV2': 0.0}, 'tags': {'user': 'root'}}
{'measurement': 'measName', 'fields': {'measV_HV2': -150.0, 'measI_HV2': -6.007851e-06, 'settV_HV2': -150.0, 'settI_HV2': 0.0}, 'tags': {'user': 'root'}}
{'measurement': 'measName', 'fields': {'measV_HV2': -150.0, 'measI_HV2': -5.994566e-06, 'settV_HV2': -150.0, 'settI_HV2': 0.0}, 'tags': {'user': 'root'}}
{'measurement': 'measName', 'fields': {'measV_HV2': -150.0, 'measI_HV2': -6.018781e-06, 'settV_HV2': -150.0, 'settI_HV2': 0.0}, 'tags': {'user': 'root'}}
{'measurement': 'measName', 'fields': {'measV_HV2': -150.0, 'measI_HV2': -5.984036e-06, 'settV_HV2': -150.0, 'settI_HV2': 0.0}, 'tags': {'user': 'root'}}
{'measurement': 'measName', 'fields': {'measV_HV2': -150.0, 'measI_HV2': -6.003456e-06, 'settV_HV2': -150.0, 'settI_HV2': 0.0}, 'tags': {'user': 'root'}}
{'measurement': 'measName', 'fields': {'measV_HV2': -150.0, 'measI_HV2': -6.01152e-06, 'settV_HV2': -150.0, 'settI_HV2': 0.0}, 'tags': {'user': 'root'}}
{'measurement': 'measName', 'fields': {'measV_HV2': -150.0, 'measI_HV2': -6.008098e-06, 'settV_HV2': -150.0, 'settI_HV2': 0.0}, 'tags': {'user': 'root'}}
{'measurement': 'measName', 'fields': {'measV_HV2': -150.0, 'measI_HV2': -6.05757e-06, 'settV_HV2': -150.0, 'settI_HV2': 0.0}, 'tags': {'user': 'root'}}
{'measurement': 'measName', 'fields': {'measV_HV2': -150.0, 'measI_HV2': -6.056512e-06, 'settV_HV2': -150.0, 'settI_HV2': 0.0}, 'tags': {'user': 'root'}}
{'measurement': 'measName', 'fields': {'measV_HV2': -150.0, 'measI_HV2': -6.039969e-06, 'settV_HV2': -150.0, 'settI_HV2': 0.0}, 'tags': {'user': 'root'}}
{'measurement': 'measName', 'fields': {'measV_HV2': -150.0, 'measI_HV2': -6.047251e-06, 'settV_HV2': -150.0, 'settI_HV2': 0.0}, 'tags': {'user': 'root'}}
{'measurement': 'measName', 'fields': {'measV_HV2': -150.0, 'measI_HV2': -6.050328e-06, 'settV_HV2': -150.0, 'settI_HV2': 0.0}, 'tags': {'user': 'root'}}
{'measurement': 'measName', 'fields': {'measV_HV2': -150.0, 'measI_HV2': -6.051835e-06, 'settV_HV2': -150.0, 'settI_HV2': 0.0}, 'tags': {'user': 'root'}}
{'measurement': 'measName', 'fields': {'measV_HV2': -150.0, 'measI_HV2': -6.043309e-06, 'settV_HV2': -150.0, 'settI_HV2': 0.0}, 'tags': {'user': 'root'}}
{'measurement': 'measName', 'fields': {'measV_HV2': -150.0, 'measI_HV2': -6.046385e-06, 'settV_HV2': -150.0, 'settI_HV2': 0.0}, 'tags': {'user': 'root'}}
{'measurement': 'measName', 'fields': {'measV_HV2': -150.0, 'measI_HV2': -6.06846e-06, 'settV_HV2': -150.0, 'settI_HV2': 0.0}, 'tags': {'user': 'root'}}
{'measurement': 'measName', 'fields': {'measV_HV2': -150.0, 'measI_HV2': -6.065984e-06, 'settV_HV2': -150.0, 'settI_HV2': 0.0}, 'tags': {'user': 'root'}}
{'measurement': 'measName', 'fields': {'measV_HV2': -150.0, 'measI_HV2': -6.0514e-06, 'settV_HV2': -150.0, 'settI_HV2': 0.0}, 'tags': {'user': 'root'}}
{'measurement': 'measName', 'fields': {'measV_HV2': -150.0, 'measI_HV2': -6.06059e-06, 'settV_HV2': -150.0, 'settI_HV2': 0.0}, 'tags': {'user': 'root'}}
{'measurement': 'measName', 'fields': {'measV_HV2': -150.0, 'measI_HV2': -6.017076e-06, 'settV_HV2': -150.0, 'settI_HV2': 0.0}, 'tags': {'user': 'root'}}
{'measurement': 'measName', 'fields': {'measV_HV2': -150.0, 'measI_HV2': -6.045231e-06, 'settV_HV2': -150.0, 'settI_HV2': 0.0}, 'tags': {'user': 'root'}}
{'measurement': 'measName', 'fields': {'measV_HV2': -150.0, 'measI_HV2': -6.055511e-06, 'settV_HV2': -150.0, 'settI_HV2': 0.0}, 'tags': {'user': 'root'}}
{'measurement': 'measName', 'fields': {'measV_HV2': -150.0, 'measI_HV2': -6.059139e-06, 'settV_HV2': -150.0, 'settI_HV2': 0.0}, 'tags': {'user': 'root'}}
{'measurement': 'measName', 'fields': {'measV_HV2': -150.0, 'measI_HV2': -6.045756e-06, 'settV_HV2': -150.0, 'settI_HV2': 0.0}, 'tags': {'user': 'root'}}
{'measurement': 'measName', 'fields': {'measV_HV2': -150.0, 'measI_HV2': -6.065691e-06, 'settV_HV2': -150.0, 'settI_HV2': 0.0}, 'tags': {'user': 'root'}}
{'measurement': 'measName', 'fields': {'measV_HV2': -150.0, 'measI_HV2': -6.059409e-06, 'settV_HV2': -150.0, 'settI_HV2': 0.0}, 'tags': {'user': 'root'}}
{'measurement': 'measName', 'fields': {'measV_HV2': -150.0, 'measI_HV2': -6.04379e-06, 'settV_HV2': -150.0, 'settI_HV2': 0.0}, 'tags': {'user': 'root'}}
{'measurement': 'measName', 'fields': {'measV_HV2': -150.0, 'measI_HV2': -6.074195e-06, 'settV_HV2': -150.0, 'settI_HV2': 0.0}, 'tags': {'user': 'root'}}
{'measurement': 'measName', 'fields': {'measV_HV2': -150.0, 'measI_HV2': -6.060426e-06, 'settV_HV2': -150.0, 'settI_HV2': 0.0}, 'tags': {'user': 'root'}}
{'measurement': 'measName', 'fields': {'measV_HV2': -150.0, 'measI_HV2': -6.043941e-06, 'settV_HV2': -150.0, 'settI_HV2': 0.0}, 'tags': {'user': 'root'}}
{'measurement': 'measName', 'fields': {'measV_HV2': -150.0, 'measI_HV2': -6.074192e-06, 'settV_HV2': -150.0, 'settI_HV2': 0.0}, 'tags': {'user': 'root'}}

