{'measurement': 'measName', 'fields': {'measV_HV2': -100.0, 'measI_HV2': -2.325541e-06, 'settV_HV2': -100.0, 'settI_HV2': 0.0}, 'tags': {'user': 'root'}}
{'measurement': 'measName', 'fields': {'measV_HV2': -100.0, 'measI_HV2': -2.335414e-06, 'settV_HV2': -100.0, 'settI_HV2': 0.0}, 'tags': {'user': 'root'}}
{'measurement': 'measName', 'fields': {'measV_HV2': -100.0, 'measI_HV2': -2.317577e-06, 'settV_HV2': -100.0, 'settI_HV2': 0.0}, 'tags': {'user': 'root'}}
{'measurement': 'measName', 'fields': {'measV_HV2': -100.0, 'measI_HV2': -2.330822e-06, 'settV_HV2': -100.0, 'settI_HV2': 0.0}, 'tags': {'user': 'root'}}
{'measurement': 'measName', 'fields': {'measV_HV2': -100.0, 'measI_HV2': -2.325828e-06, 'settV_HV2': -100.0, 'settI_HV2': 0.0}, 'tags': {'user': 'root'}}
{'measurement': 'measName', 'fields': {'measV_HV2': -100.0, 'measI_HV2': -2.318984e-06, 'settV_HV2': -100.0, 'settI_HV2': 0.0}, 'tags': {'user': 'root'}}
{'measurement': 'measName', 'fields': {'measV_HV2': -100.0, 'measI_HV2': -2.325988e-06, 'settV_HV2': -100.0, 'settI_HV2': 0.0}, 'tags': {'user': 'root'}}
{'measurement': 'measName', 'fields': {'measV_HV2': -100.0, 'measI_HV2': -2.326222e-06, 'settV_HV2': -100.0, 'settI_HV2': 0.0}, 'tags': {'user': 'root'}}
{'measurement': 'measName', 'fields': {'measV_HV2': -100.0, 'measI_HV2': -2.319134e-06, 'settV_HV2': -100.0, 'settI_HV2': 0.0}, 'tags': {'user': 'root'}}
{'measurement': 'measName', 'fields': {'measV_HV2': -100.0, 'measI_HV2': -2.334526e-06, 'settV_HV2': -100.0, 'settI_HV2': 0.0}, 'tags': {'user': 'root'}}
{'measurement': 'measName', 'fields': {'measV_HV2': -100.0, 'measI_HV2': -2.331887e-06, 'settV_HV2': -100.0, 'settI_HV2': 0.0}, 'tags': {'user': 'root'}}
{'measurement': 'measName', 'fields': {'measV_HV2': -100.0, 'measI_HV2': -2.321795e-06, 'settV_HV2': -100.0, 'settI_HV2': 0.0}, 'tags': {'user': 'root'}}
{'measurement': 'measName', 'fields': {'measV_HV2': -100.0, 'measI_HV2': -2.336552e-06, 'settV_HV2': -100.0, 'settI_HV2': 0.0}, 'tags': {'user': 'root'}}
{'measurement': 'measName', 'fields': {'measV_HV2': -100.0, 'measI_HV2': -2.330283e-06, 'settV_HV2': -100.0, 'settI_HV2': 0.0}, 'tags': {'user': 'root'}}
{'measurement': 'measName', 'fields': {'measV_HV2': -100.0, 'measI_HV2': -2.313246e-06, 'settV_HV2': -100.0, 'settI_HV2': 0.0}, 'tags': {'user': 'root'}}
{'measurement': 'measName', 'fields': {'measV_HV2': -100.0, 'measI_HV2': -2.319266e-06, 'settV_HV2': -100.0, 'settI_HV2': 0.0}, 'tags': {'user': 'root'}}
{'measurement': 'measName', 'fields': {'measV_HV2': -100.0, 'measI_HV2': -2.312464e-06, 'settV_HV2': -100.0, 'settI_HV2': 0.0}, 'tags': {'user': 'root'}}
{'measurement': 'measName', 'fields': {'measV_HV2': -100.0, 'measI_HV2': -2.316507e-06, 'settV_HV2': -100.0, 'settI_HV2': 0.0}, 'tags': {'user': 'root'}}
{'measurement': 'measName', 'fields': {'measV_HV2': -100.0, 'measI_HV2': -2.323613e-06, 'settV_HV2': -100.0, 'settI_HV2': 0.0}, 'tags': {'user': 'root'}}
{'measurement': 'measName', 'fields': {'measV_HV2': -100.0, 'measI_HV2': -2.310442e-06, 'settV_HV2': -100.0, 'settI_HV2': 0.0}, 'tags': {'user': 'root'}}
{'measurement': 'measName', 'fields': {'measV_HV2': -100.0, 'measI_HV2': -2.32345e-06, 'settV_HV2': -100.0, 'settI_HV2': 0.0}, 'tags': {'user': 'root'}}
{'measurement': 'measName', 'fields': {'measV_HV2': -100.0, 'measI_HV2': -2.33162e-06, 'settV_HV2': -100.0, 'settI_HV2': 0.0}, 'tags': {'user': 'root'}}
{'measurement': 'measName', 'fields': {'measV_HV2': -100.0, 'measI_HV2': -2.329969e-06, 'settV_HV2': -100.0, 'settI_HV2': 0.0}, 'tags': {'user': 'root'}}
{'measurement': 'measName', 'fields': {'measV_HV2': -100.0, 'measI_HV2': -2.327683e-06, 'settV_HV2': -100.0, 'settI_HV2': 0.0}, 'tags': {'user': 'root'}}
{'measurement': 'measName', 'fields': {'measV_HV2': -100.0, 'measI_HV2': -2.335444e-06, 'settV_HV2': -100.0, 'settI_HV2': 0.0}, 'tags': {'user': 'root'}}
{'measurement': 'measName', 'fields': {'measV_HV2': -100.0, 'measI_HV2': -2.328144e-06, 'settV_HV2': -100.0, 'settI_HV2': 0.0}, 'tags': {'user': 'root'}}
{'measurement': 'measName', 'fields': {'measV_HV2': -100.0, 'measI_HV2': -2.325562e-06, 'settV_HV2': -100.0, 'settI_HV2': 0.0}, 'tags': {'user': 'root'}}
{'measurement': 'measName', 'fields': {'measV_HV2': -100.0, 'measI_HV2': -2.338565e-06, 'settV_HV2': -100.0, 'settI_HV2': 0.0}, 'tags': {'user': 'root'}}
{'measurement': 'measName', 'fields': {'measV_HV2': -100.0, 'measI_HV2': -2.326326e-06, 'settV_HV2': -100.0, 'settI_HV2': 0.0}, 'tags': {'user': 'root'}}
{'measurement': 'measName', 'fields': {'measV_HV2': -100.0, 'measI_HV2': -2.330612e-06, 'settV_HV2': -100.0, 'settI_HV2': 0.0}, 'tags': {'user': 'root'}}
{'measurement': 'measName', 'fields': {'measV_HV2': -100.0, 'measI_HV2': -2.340013e-06, 'settV_HV2': -100.0, 'settI_HV2': 0.0}, 'tags': {'user': 'root'}}
{'measurement': 'measName', 'fields': {'measV_HV2': -100.0, 'measI_HV2': -2.324565e-06, 'settV_HV2': -100.0, 'settI_HV2': 0.0}, 'tags': {'user': 'root'}}
{'measurement': 'measName', 'fields': {'measV_HV2': -100.0, 'measI_HV2': -2.316418e-06, 'settV_HV2': -100.0, 'settI_HV2': 0.0}, 'tags': {'user': 'root'}}
{'measurement': 'measName', 'fields': {'measV_HV2': -100.0, 'measI_HV2': -2.312373e-06, 'settV_HV2': -100.0, 'settI_HV2': 0.0}, 'tags': {'user': 'root'}}
{'measurement': 'measName', 'fields': {'measV_HV2': -100.0, 'measI_HV2': -2.325202e-06, 'settV_HV2': -100.0, 'settI_HV2': 0.0}, 'tags': {'user': 'root'}}
{'measurement': 'measName', 'fields': {'measV_HV2': -100.0, 'measI_HV2': -2.314634e-06, 'settV_HV2': -100.0, 'settI_HV2': 0.0}, 'tags': {'user': 'root'}}
{'measurement': 'measName', 'fields': {'measV_HV2': -100.0, 'measI_HV2': -2.309454e-06, 'settV_HV2': -100.0, 'settI_HV2': 0.0}, 'tags': {'user': 'root'}}
{'measurement': 'measName', 'fields': {'measV_HV2': -100.0, 'measI_HV2': -2.321539e-06, 'settV_HV2': -100.0, 'settI_HV2': 0.0}, 'tags': {'user': 'root'}}
{'measurement': 'measName', 'fields': {'measV_HV2': -100.0, 'measI_HV2': -2.315785e-06, 'settV_HV2': -100.0, 'settI_HV2': 0.0}, 'tags': {'user': 'root'}}
{'measurement': 'measName', 'fields': {'measV_HV2': -100.0, 'measI_HV2': -2.311073e-06, 'settV_HV2': -100.0, 'settI_HV2': 0.0}, 'tags': {'user': 'root'}}
{'measurement': 'measName', 'fields': {'measV_HV2': -100.0, 'measI_HV2': -2.317096e-06, 'settV_HV2': -100.0, 'settI_HV2': 0.0}, 'tags': {'user': 'root'}}
{'measurement': 'measName', 'fields': {'measV_HV2': -100.0, 'measI_HV2': -2.318678e-06, 'settV_HV2': -100.0, 'settI_HV2': 0.0}, 'tags': {'user': 'root'}}
{'measurement': 'measName', 'fields': {'measV_HV2': -100.0, 'measI_HV2': -2.303976e-06, 'settV_HV2': -100.0, 'settI_HV2': 0.0}, 'tags': {'user': 'root'}}
{'measurement': 'measName', 'fields': {'measV_HV2': -100.0, 'measI_HV2': -2.312951e-06, 'settV_HV2': -100.0, 'settI_HV2': 0.0}, 'tags': {'user': 'root'}}
{'measurement': 'measName', 'fields': {'measV_HV2': -100.0, 'measI_HV2': -2.312372e-06, 'settV_HV2': -100.0, 'settI_HV2': 0.0}, 'tags': {'user': 'root'}}
{'measurement': 'measName', 'fields': {'measV_HV2': -100.0, 'measI_HV2': -2.305818e-06, 'settV_HV2': -100.0, 'settI_HV2': 0.0}, 'tags': {'user': 'root'}}
{'measurement': 'measName', 'fields': {'measV_HV2': -100.0, 'measI_HV2': -2.320466e-06, 'settV_HV2': -100.0, 'settI_HV2': 0.0}, 'tags': {'user': 'root'}}
{'measurement': 'measName', 'fields': {'measV_HV2': -100.0, 'measI_HV2': -2.303e-06, 'settV_HV2': -100.0, 'settI_HV2': 0.0}, 'tags': {'user': 'root'}}
{'measurement': 'measName', 'fields': {'measV_HV2': -100.0, 'measI_HV2': -2.316513e-06, 'settV_HV2': -100.0, 'settI_HV2': 0.0}, 'tags': {'user': 'root'}}
{'measurement': 'measName', 'fields': {'measV_HV2': -100.0, 'measI_HV2': -2.319543e-06, 'settV_HV2': -100.0, 'settI_HV2': 0.0}, 'tags': {'user': 'root'}}
{'measurement': 'measName', 'fields': {'measV_HV2': -100.0, 'measI_HV2': -2.303051e-06, 'settV_HV2': -100.0, 'settI_HV2': 0.0}, 'tags': {'user': 'root'}}
{'measurement': 'measName', 'fields': {'measV_HV2': -100.0, 'measI_HV2': -2.305235e-06, 'settV_HV2': -100.0, 'settI_HV2': 0.0}, 'tags': {'user': 'root'}}
{'measurement': 'measName', 'fields': {'measV_HV2': -100.0, 'measI_HV2': -2.331928e-06, 'settV_HV2': -100.0, 'settI_HV2': 0.0}, 'tags': {'user': 'root'}}
{'measurement': 'measName', 'fields': {'measV_HV2': -100.0, 'measI_HV2': -2.31971e-06, 'settV_HV2': -100.0, 'settI_HV2': 0.0}, 'tags': {'user': 'root'}}
{'measurement': 'measName', 'fields': {'measV_HV2': -100.0, 'measI_HV2': -2.321229e-06, 'settV_HV2': -100.0, 'settI_HV2': 0.0}, 'tags': {'user': 'root'}}
{'measurement': 'measName', 'fields': {'measV_HV2': -100.0, 'measI_HV2': -2.3262e-06, 'settV_HV2': -100.0, 'settI_HV2': 0.0}, 'tags': {'user': 'root'}}
{'measurement': 'measName', 'fields': {'measV_HV2': -100.0, 'measI_HV2': -2.311611e-06, 'settV_HV2': -100.0, 'settI_HV2': 0.0}, 'tags': {'user': 'root'}}
{'measurement': 'measName', 'fields': {'measV_HV2': -100.0, 'measI_HV2': -2.319041e-06, 'settV_HV2': -100.0, 'settI_HV2': 0.0}, 'tags': {'user': 'root'}}
{'measurement': 'measName', 'fields': {'measV_HV2': -100.0, 'measI_HV2': -2.318239e-06, 'settV_HV2': -100.0, 'settI_HV2': 0.0}, 'tags': {'user': 'root'}}
{'measurement': 'measName', 'fields': {'measV_HV2': -100.0, 'measI_HV2': -2.314987e-06, 'settV_HV2': -100.0, 'settI_HV2': 0.0}, 'tags': {'user': 'root'}}
{'measurement': 'measName', 'fields': {'measV_HV2': -100.0, 'measI_HV2': -2.322392e-06, 'settV_HV2': -100.0, 'settI_HV2': 0.0}, 'tags': {'user': 'root'}}
{'measurement': 'measName', 'fields': {'measV_HV2': -100.0, 'measI_HV2': -2.32217e-06, 'settV_HV2': -100.0, 'settI_HV2': 0.0}, 'tags': {'user': 'root'}}
{'measurement': 'measName', 'fields': {'measV_HV2': -100.0, 'measI_HV2': -2.292195e-06, 'settV_HV2': -100.0, 'settI_HV2': 0.0}, 'tags': {'user': 'root'}}
{'measurement': 'measName', 'fields': {'measV_HV2': -100.0, 'measI_HV2': -2.297942e-06, 'settV_HV2': -100.0, 'settI_HV2': 0.0}, 'tags': {'user': 'root'}}
{'measurement': 'measName', 'fields': {'measV_HV2': -100.0, 'measI_HV2': -2.307487e-06, 'settV_HV2': -100.0, 'settI_HV2': 0.0}, 'tags': {'user': 'root'}}
{'measurement': 'measName', 'fields': {'measV_HV2': -100.0, 'measI_HV2': -2.293617e-06, 'settV_HV2': -100.0, 'settI_HV2': 0.0}, 'tags': {'user': 'root'}}
{'measurement': 'measName', 'fields': {'measV_HV2': -100.0, 'measI_HV2': -2.300166e-06, 'settV_HV2': -100.0, 'settI_HV2': 0.0}, 'tags': {'user': 'root'}}
{'measurement': 'measName', 'fields': {'measV_HV2': -100.0, 'measI_HV2': -2.306856e-06, 'settV_HV2': -100.0, 'settI_HV2': 0.0}, 'tags': {'user': 'root'}}
{'measurement': 'measName', 'fields': {'measV_HV2': -100.0, 'measI_HV2': -2.293292e-06, 'settV_HV2': -100.0, 'settI_HV2': 0.0}, 'tags': {'user': 'root'}}
{'measurement': 'measName', 'fields': {'measV_HV2': -100.0, 'measI_HV2': -2.306795e-06, 'settV_HV2': -100.0, 'settI_HV2': 0.0}, 'tags': {'user': 'root'}}
{'measurement': 'measName', 'fields': {'measV_HV2': -100.0, 'measI_HV2': -2.309567e-06, 'settV_HV2': -100.0, 'settI_HV2': 0.0}, 'tags': {'user': 'root'}}
{'measurement': 'measName', 'fields': {'measV_HV2': -100.0, 'measI_HV2': -2.29662e-06, 'settV_HV2': -100.0, 'settI_HV2': 0.0}, 'tags': {'user': 'root'}}
{'measurement': 'measName', 'fields': {'measV_HV2': -100.0, 'measI_HV2': -2.306465e-06, 'settV_HV2': -100.0, 'settI_HV2': 0.0}, 'tags': {'user': 'root'}}
{'measurement': 'measName', 'fields': {'measV_HV2': -100.0, 'measI_HV2': -2.304141e-06, 'settV_HV2': -100.0, 'settI_HV2': 0.0}, 'tags': {'user': 'root'}}
{'measurement': 'measName', 'fields': {'measV_HV2': -100.0, 'measI_HV2': -2.291359e-06, 'settV_HV2': -100.0, 'settI_HV2': 0.0}, 'tags': {'user': 'root'}}
{'measurement': 'measName', 'fields': {'measV_HV2': -100.0, 'measI_HV2': -2.302606e-06, 'settV_HV2': -100.0, 'settI_HV2': 0.0}, 'tags': {'user': 'root'}}
{'measurement': 'measName', 'fields': {'measV_HV2': -100.0, 'measI_HV2': -2.306708e-06, 'settV_HV2': -100.0, 'settI_HV2': 0.0}, 'tags': {'user': 'root'}}
{'measurement': 'measName', 'fields': {'measV_HV2': -100.0, 'measI_HV2': -2.289511e-06, 'settV_HV2': -100.0, 'settI_HV2': 0.0}, 'tags': {'user': 'root'}}
{'measurement': 'measName', 'fields': {'measV_HV2': -100.0, 'measI_HV2': -2.307001e-06, 'settV_HV2': -100.0, 'settI_HV2': 0.0}, 'tags': {'user': 'root'}}
{'measurement': 'measName', 'fields': {'measV_HV2': -100.0, 'measI_HV2': -2.296819e-06, 'settV_HV2': -100.0, 'settI_HV2': 0.0}, 'tags': {'user': 'root'}}
{'measurement': 'measName', 'fields': {'measV_HV2': -100.0, 'measI_HV2': -2.30242e-06, 'settV_HV2': -100.0, 'settI_HV2': 0.0}, 'tags': {'user': 'root'}}
{'measurement': 'measName', 'fields': {'measV_HV2': -100.0, 'measI_HV2': -2.311202e-06, 'settV_HV2': -100.0, 'settI_HV2': 0.0}, 'tags': {'user': 'root'}}
{'measurement': 'measName', 'fields': {'measV_HV2': -100.0, 'measI_HV2': -2.300265e-06, 'settV_HV2': -100.0, 'settI_HV2': 0.0}, 'tags': {'user': 'root'}}
{'measurement': 'measName', 'fields': {'measV_HV2': -100.0, 'measI_HV2': -2.292273e-06, 'settV_HV2': -100.0, 'settI_HV2': 0.0}, 'tags': {'user': 'root'}}
{'measurement': 'measName', 'fields': {'measV_HV2': -100.0, 'measI_HV2': -2.297848e-06, 'settV_HV2': -100.0, 'settI_HV2': 0.0}, 'tags': {'user': 'root'}}
{'measurement': 'measName', 'fields': {'measV_HV2': -100.0, 'measI_HV2': -2.304128e-06, 'settV_HV2': -100.0, 'settI_HV2': 0.0}, 'tags': {'user': 'root'}}
{'measurement': 'measName', 'fields': {'measV_HV2': -100.0, 'measI_HV2': -2.295348e-06, 'settV_HV2': -100.0, 'settI_HV2': 0.0}, 'tags': {'user': 'root'}}
{'measurement': 'measName', 'fields': {'measV_HV2': -100.0, 'measI_HV2': -2.315335e-06, 'settV_HV2': -100.0, 'settI_HV2': 0.0}, 'tags': {'user': 'root'}}
{'measurement': 'measName', 'fields': {'measV_HV2': -100.0, 'measI_HV2': -2.31272e-06, 'settV_HV2': -100.0, 'settI_HV2': 0.0}, 'tags': {'user': 'root'}}
{'measurement': 'measName', 'fields': {'measV_HV2': -100.0, 'measI_HV2': -2.304361e-06, 'settV_HV2': -100.0, 'settI_HV2': 0.0}, 'tags': {'user': 'root'}}
{'measurement': 'measName', 'fields': {'measV_HV2': -100.0, 'measI_HV2': -2.313972e-06, 'settV_HV2': -100.0, 'settI_HV2': 0.0}, 'tags': {'user': 'root'}}
{'measurement': 'measName', 'fields': {'measV_HV2': -100.0, 'measI_HV2': -2.31532e-06, 'settV_HV2': -100.0, 'settI_HV2': 0.0}, 'tags': {'user': 'root'}}
{'measurement': 'measName', 'fields': {'measV_HV2': -100.0, 'measI_HV2': -2.299107e-06, 'settV_HV2': -100.0, 'settI_HV2': 0.0}, 'tags': {'user': 'root'}}
{'measurement': 'measName', 'fields': {'measV_HV2': -100.0, 'measI_HV2': -2.308147e-06, 'settV_HV2': -100.0, 'settI_HV2': 0.0}, 'tags': {'user': 'root'}}
{'measurement': 'measName', 'fields': {'measV_HV2': -100.0, 'measI_HV2': -2.323958e-06, 'settV_HV2': -100.0, 'settI_HV2': 0.0}, 'tags': {'user': 'root'}}
{'measurement': 'measName', 'fields': {'measV_HV2': -100.0, 'measI_HV2': -2.309894e-06, 'settV_HV2': -100.0, 'settI_HV2': 0.0}, 'tags': {'user': 'root'}}
{'measurement': 'measName', 'fields': {'measV_HV2': -100.0, 'measI_HV2': -2.316559e-06, 'settV_HV2': -100.0, 'settI_HV2': 0.0}, 'tags': {'user': 'root'}}
{'measurement': 'measName', 'fields': {'measV_HV2': -100.0, 'measI_HV2': -2.320278e-06, 'settV_HV2': -100.0, 'settI_HV2': 0.0}, 'tags': {'user': 'root'}}
{'measurement': 'measName', 'fields': {'measV_HV2': -100.0, 'measI_HV2': -2.308489e-06, 'settV_HV2': -100.0, 'settI_HV2': 0.0}, 'tags': {'user': 'root'}}
{'measurement': 'measName', 'fields': {'measV_HV2': -100.0, 'measI_HV2': -2.320453e-06, 'settV_HV2': -100.0, 'settI_HV2': 0.0}, 'tags': {'user': 'root'}}
{'measurement': 'measName', 'fields': {'measV_HV2': -100.0, 'measI_HV2': -2.308482e-06, 'settV_HV2': -100.0, 'settI_HV2': 0.0}, 'tags': {'user': 'root'}}
{'measurement': 'measName', 'fields': {'measV_HV2': -100.0, 'measI_HV2': -2.307018e-06, 'settV_HV2': -100.0, 'settI_HV2': 0.0}, 'tags': {'user': 'root'}}
{'measurement': 'measName', 'fields': {'measV_HV2': -100.0, 'measI_HV2': -2.299687e-06, 'settV_HV2': -100.0, 'settI_HV2': 0.0}, 'tags': {'user': 'root'}}
{'measurement': 'measName', 'fields': {'measV_HV2': -100.0, 'measI_HV2': -2.28867e-06, 'settV_HV2': -100.0, 'settI_HV2': 0.0}, 'tags': {'user': 'root'}}
{'measurement': 'measName', 'fields': {'measV_HV2': -100.0, 'measI_HV2': -2.294557e-06, 'settV_HV2': -100.0, 'settI_HV2': 0.0}, 'tags': {'user': 'root'}}
{'measurement': 'measName', 'fields': {'measV_HV2': -100.0, 'measI_HV2': -2.300849e-06, 'settV_HV2': -100.0, 'settI_HV2': 0.0}, 'tags': {'user': 'root'}}
{'measurement': 'measName', 'fields': {'measV_HV2': -100.0, 'measI_HV2': -2.291659e-06, 'settV_HV2': -100.0, 'settI_HV2': 0.0}, 'tags': {'user': 'root'}}
{'measurement': 'measName', 'fields': {'measV_HV2': -100.0, 'measI_HV2': -2.298584e-06, 'settV_HV2': -100.0, 'settI_HV2': 0.0}, 'tags': {'user': 'root'}}
{'measurement': 'measName', 'fields': {'measV_HV2': -100.0, 'measI_HV2': -2.304574e-06, 'settV_HV2': -100.0, 'settI_HV2': 0.0}, 'tags': {'user': 'root'}}
{'measurement': 'measName', 'fields': {'measV_HV2': -100.0, 'measI_HV2': -2.289246e-06, 'settV_HV2': -100.0, 'settI_HV2': 0.0}, 'tags': {'user': 'root'}}
{'measurement': 'measName', 'fields': {'measV_HV2': -100.0, 'measI_HV2': -2.293698e-06, 'settV_HV2': -100.0, 'settI_HV2': 0.0}, 'tags': {'user': 'root'}}
{'measurement': 'measName', 'fields': {'measV_HV2': -100.0, 'measI_HV2': -2.301388e-06, 'settV_HV2': -100.0, 'settI_HV2': 0.0}, 'tags': {'user': 'root'}}
{'measurement': 'measName', 'fields': {'measV_HV2': -100.0, 'measI_HV2': -2.296245e-06, 'settV_HV2': -100.0, 'settI_HV2': 0.0}, 'tags': {'user': 'root'}}
{'measurement': 'measName', 'fields': {'measV_HV2': -100.0, 'measI_HV2': -2.290827e-06, 'settV_HV2': -100.0, 'settI_HV2': 0.0}, 'tags': {'user': 'root'}}
{'measurement': 'measName', 'fields': {'measV_HV2': -100.0, 'measI_HV2': -2.290213e-06, 'settV_HV2': -100.0, 'settI_HV2': 0.0}, 'tags': {'user': 'root'}}
{'measurement': 'measName', 'fields': {'measV_HV2': -100.0, 'measI_HV2': -2.303945e-06, 'settV_HV2': -100.0, 'settI_HV2': 0.0}, 'tags': {'user': 'root'}}
{'measurement': 'measName', 'fields': {'measV_HV2': -100.0, 'measI_HV2': -2.298305e-06, 'settV_HV2': -100.0, 'settI_HV2': 0.0}, 'tags': {'user': 'root'}}
{'measurement': 'measName', 'fields': {'measV_HV2': -100.0, 'measI_HV2': -2.292051e-06, 'settV_HV2': -100.0, 'settI_HV2': 0.0}, 'tags': {'user': 'root'}}
{'measurement': 'measName', 'fields': {'measV_HV2': -100.0, 'measI_HV2': -2.300281e-06, 'settV_HV2': -100.0, 'settI_HV2': 0.0}, 'tags': {'user': 'root'}}
{'measurement': 'measName', 'fields': {'measV_HV2': -100.0, 'measI_HV2': -2.295182e-06, 'settV_HV2': -100.0, 'settI_HV2': 0.0}, 'tags': {'user': 'root'}}
{'measurement': 'measName', 'fields': {'measV_HV2': -100.0, 'measI_HV2': -2.289131e-06, 'settV_HV2': -100.0, 'settI_HV2': 0.0}, 'tags': {'user': 'root'}}
{'measurement': 'measName', 'fields': {'measV_HV2': -100.0, 'measI_HV2': -2.297564e-06, 'settV_HV2': -100.0, 'settI_HV2': 0.0}, 'tags': {'user': 'root'}}
{'measurement': 'measName', 'fields': {'measV_HV2': -100.0, 'measI_HV2': -2.294627e-06, 'settV_HV2': -100.0, 'settI_HV2': 0.0}, 'tags': {'user': 'root'}}

