{
    "Data": [0.0, 0.0, 0.0, 0.0, 62732.0, 0.0, 0.0, 0.0, 0.0, 0.0, 0.0, 0.0, 0.0, 2007.0, 0.0, 0.0, 0.0, 1158.0, 0.0, 0.0, 839.0, 0.0, 668.0, 0.0, 545.0, 0.0, 480.0, 1.0, 396.0, 380.0, 354.0, 0.0, 323.0, 342.0, 268.0, 254.0, 245.0, 231.0, 198.0, 191.0, 419.0, 235.0, 380.0, 208.0, 326.0, 349.0, 498.0, 461.0, 461.0, 654.0, 1196.0, 0.0, 0.0, 0.0, 0.0, 0.0, 0.0, 0.0, 0.0, 0.0, 0.0, 0.0, 0.0, 0.0, 0.0, 0.0, 0.0, 0.0, 0.0, 0.0, 0.0, 0.0, 0.0, 0.0, 0.0, 0.0, 0.0, 0.0, 0.0, 0.0, 0.0, 0.0, 0.0, 0.0, 0.0, 0.0, 0.0, 0.0, 0.0, 0.0, 0.0, 0.0, 0.0, 0.0, 0.0, 0.0, 0.0, 0.0, 0.0, 0.0, 0.0],
    "Name": "SigmaTotDist-0",
    "Overflow": 1.0,
    "Type": "Histo1d",
    "Underflow": 0.0,
    "x": {
        "AxisTitle": "Sigma ToT [BC]",
        "Bins": 101,
        "High": 1.0499999523162842,
        "Low": -0.05000000074505806
    },
    "y": {
        "AxisTitle": "Number of Pixels"
    },
    "z": {
        "AxisTitle": "z"
    }
}