{
    "Data": [1027.0, 1.0, 1.0, 0.0, 1.0, 193.0, 12799.0, 2596983.0, 0.0, 1.0, 0.0, 0.0, 0.0, 0.0, 0.0, 0.0],
    "Name": "L1Dist",
    "Overflow": 0.0,
    "Type": "Histo1d",
    "Underflow": 0.0,
    "x": {
        "AxisTitle": "L1Id",
        "Bins": 16,
        "High": 15.5,
        "Low": -0.5
    },
    "y": {
        "AxisTitle": "Hits"
    },
    "z": {
        "AxisTitle": "z"
    }
}