{
    "Data": [0.0, 0.0, 0.0, 0.0, 63424.0, 0.0, 0.0, 0.0, 0.0, 0.0, 0.0, 0.0, 0.0, 1952.0, 0.0, 0.0, 0.0, 1065.0, 0.0, 0.0, 819.0, 0.0, 643.0, 0.0, 526.0, 0.0, 426.0, 0.0, 388.0, 365.0, 321.0, 0.0, 297.0, 256.0, 254.0, 243.0, 237.0, 240.0, 222.0, 217.0, 412.0, 204.0, 329.0, 196.0, 316.0, 328.0, 456.0, 379.0, 454.0, 681.0, 1149.0, 0.0, 0.0, 0.0, 0.0, 0.0, 0.0, 0.0, 0.0, 0.0, 0.0, 0.0, 0.0, 0.0, 0.0, 0.0, 0.0, 0.0, 0.0, 0.0, 0.0, 0.0, 0.0, 0.0, 0.0, 0.0, 0.0, 0.0, 0.0, 0.0, 0.0, 0.0, 0.0, 0.0, 0.0, 0.0, 0.0, 0.0, 0.0, 0.0, 0.0, 0.0, 0.0, 0.0, 0.0, 0.0, 0.0, 0.0, 0.0, 0.0, 0.0],
    "Name": "SigmaTotDist-0",
    "Overflow": 1.0,
    "Type": "Histo1d",
    "Underflow": 0.0,
    "x": {
        "AxisTitle": "Sigma ToT [BC]",
        "Bins": 101,
        "High": 1.0499999523162842,
        "Low": -0.05000000074505806
    },
    "y": {
        "AxisTitle": "Number of Pixels"
    },
    "z": {
        "AxisTitle": "z"
    }
}