[root@jollyroger Yarr]# ./bin/scanConsole -r configs/controller/specCfg-rd53a-16x1.json  -c configs/CERNQ3/connectivity.json -s configs/scans/rd53a/reg_readtemp.json -p
[20:30:02:433][  info  ][               ]: #####################################
[20:30:02:433][  info  ][               ]: # Welcome to the YARR Scan Console! #
[20:30:02:433][  info  ][               ]: #####################################
[20:30:02:433][  info  ][               ]: -> Parsing command line parameters ...
[20:30:02:433][  info  ][               ]: Configuring logger ...
[20:30:02:435][  info  ][  scanConsole  ]: Scan Type/Config configs/scans/rd53a/reg_readtemp.json
[20:30:02:435][  info  ][  scanConsole  ]: Connectivity:
[20:30:02:435][  info  ][  scanConsole  ]:     configs/CERNQ3/connectivity.json
[20:30:02:435][  info  ][  scanConsole  ]: Target ToT: -1
[20:30:02:435][  info  ][  scanConsole  ]: Target Charge: -1
[20:30:02:435][  info  ][  scanConsole  ]: Output Plots: true
[20:30:02:435][  info  ][  scanConsole  ]: Output Directory: ./data/001618_reg_readtemp/
[20:30:02:440][  info  ][  scanConsole  ]: Timestamp: 2022-08-22_20:30:02
[20:30:02:440][  info  ][  scanConsole  ]: Run Number: 1618
[20:30:02:440][  info  ][  scanConsole  ]: #################
[20:30:02:440][  info  ][  scanConsole  ]: # Init Hardware #
[20:30:02:440][  info  ][  scanConsole  ]: #################
[20:30:02:440][  info  ][  scanConsole  ]: -> Opening controller config: configs/controller/specCfg-rd53a-16x1.json
[20:30:02:440][  info  ][  ScanHelper   ]: Loading controller ...
[20:30:02:441][  info  ][  ScanHelper   ]: Found controller of type: spec
[20:30:02:441][  info  ][  ScanHelper   ]: ... loading controler config:
[20:30:02:441][  info  ][  ScanHelper   ]: ~~~ {
[20:30:02:441][  info  ][  ScanHelper   ]: ~~~     "cmdPeriod": 6.250000073038109e-9,
[20:30:02:441][  info  ][  ScanHelper   ]: ~~~     "idle": {
[20:30:02:441][  info  ][  ScanHelper   ]: ~~~         "word": 1768515945
[20:30:02:441][  info  ][  ScanHelper   ]: ~~~     },
[20:30:02:441][  info  ][  ScanHelper   ]: ~~~     "pulse": {
[20:30:02:441][  info  ][  ScanHelper   ]: ~~~         "interval": 500,
[20:30:02:441][  info  ][  ScanHelper   ]: ~~~         "word": 1549575846
[20:30:02:441][  info  ][  ScanHelper   ]: ~~~     },
[20:30:02:441][  info  ][  ScanHelper   ]: ~~~     "rxActiveLanes": 1,
[20:30:02:441][  info  ][  ScanHelper   ]: ~~~     "rxPolarity": 0,
[20:30:02:441][  info  ][  ScanHelper   ]: ~~~     "specNum": 0,
[20:30:02:441][  info  ][  ScanHelper   ]: ~~~     "spiConfig": 541200,
[20:30:02:441][  info  ][  ScanHelper   ]: ~~~     "sync": {
[20:30:02:441][  info  ][  ScanHelper   ]: ~~~         "interval": 32,
[20:30:02:441][  info  ][  ScanHelper   ]: ~~~         "word": 2172551550
[20:30:02:441][  info  ][  ScanHelper   ]: ~~~     },
[20:30:02:441][  info  ][  ScanHelper   ]: ~~~     "txPolarity": 0
[20:30:02:441][  info  ][  ScanHelper   ]: ~~~ }
[20:30:02:441][  info  ][    SpecCom    ]: Opening SPEC with id #0
[20:30:02:441][  info  ][    SpecCom    ]: Mapping BARs ...
[20:30:02:441][  info  ][    SpecCom    ]: ... Mapped BAR0 at 0x7fae5419e000 with size 1048576
[20:30:02:441][warning ][    SpecCom    ]: ... BAR4 not mapped (Mmap failed)
[20:30:02:441][  info  ][    SpecCom    ]: ~~~~~~~~~~~~~~~~~~~~~~~~~~~
[20:30:02:441][  info  ][    SpecCom    ]: Firmware Version: 0x4d9ff6d
[20:30:02:441][  info  ][    SpecCom    ]: Firmware Identifier: 0x4030232
[20:30:02:441][  info  ][    SpecCom    ]: FPGA card: PLDA XpressK7 325
[20:30:02:441][  info  ][    SpecCom    ]: FE Chip Type: RD53A/B
[20:30:02:441][  info  ][    SpecCom    ]: FMC Card Type: Ohio Card (Display Port)
[20:30:02:441][  info  ][    SpecCom    ]: RX Speed: 640Mbps
[20:30:02:441][  info  ][    SpecCom    ]: Channel Configuration: 16x1
[20:30:02:441][  info  ][    SpecCom    ]: ~~~~~~~~~~~~~~~~~~~~~~~~~~~
[20:30:02:441][  info  ][    SpecCom    ]: Flushing buffers ...
[20:30:02:441][  info  ][    SpecCom    ]: Init success!
[20:30:02:441][  info  ][  scanConsole  ]: #######################
[20:30:02:441][  info  ][  scanConsole  ]: ##  Loading Configs  ##
[20:30:02:441][  info  ][  scanConsole  ]: #######################
[20:30:02:441][  info  ][  scanConsole  ]: Opening global config: configs/CERNQ3/connectivity.json
[20:30:02:441][  info  ][  ScanHelper   ]: Chip type: RD53A
[20:30:02:441][  info  ][  ScanHelper   ]: Chip count 4
[20:30:02:441][  info  ][  ScanHelper   ]: Loading chip #0
[20:30:02:442][  info  ][  Bookkeeper   ]: Added FE: Tx(1), Rx(4)
[20:30:02:442][  info  ][  ScanHelper   ]: Loading config file: configs/CERNQ3/20UPGFC0012890.json
[20:30:02:615][  info  ][  ScanHelper   ]: Loading chip #1
[20:30:02:615][  info  ][  Bookkeeper   ]: Added FE: Tx(1), Rx(5)
[20:30:02:615][  info  ][  ScanHelper   ]: Loading config file: configs/CERNQ3/20UPGFC0012922.json
[20:30:02:784][  info  ][  ScanHelper   ]: Loading chip #2
[20:30:02:785][  info  ][  Bookkeeper   ]: Added FE: Tx(1), Rx(6)
[20:30:02:785][  info  ][  ScanHelper   ]: Loading config file: configs/CERNQ3/20UPGFC0012954.json
[20:30:02:956][  info  ][  ScanHelper   ]: Loading chip #3
[20:30:02:956][  info  ][  Bookkeeper   ]: Added FE: Tx(1), Rx(7)
[20:30:02:956][  info  ][  ScanHelper   ]: Loading config file: configs/CERNQ3/20UPGFC0012906.json
[20:30:03:129][  info  ][  scanConsole  ]: #################
[20:30:03:129][  info  ][  scanConsole  ]: # Configure FEs #
[20:30:03:129][  info  ][  scanConsole  ]: #################
[20:30:03:129][  info  ][  scanConsole  ]: Configuring 20UPGFC0012890
[20:30:03:160][  info  ][  scanConsole  ]: Configuring 20UPGFC0012922
[20:30:03:201][  info  ][  scanConsole  ]: Configuring 20UPGFC0012954
[20:30:03:231][  info  ][  scanConsole  ]: Configuring 20UPGFC0012906
[20:30:03:270][  info  ][  scanConsole  ]: Sent configuration to all FEs in 141 ms!
[20:30:03:271][  info  ][  scanConsole  ]: Checking com 20UPGFC0012890
[20:30:03:271][  info  ][    SpecRx     ]: Active Rx channels: 0x10
[20:30:03:271][  info  ][    SpecRx     ]: Active Rx lanes: 0x1
[20:30:03:271][  info  ][    SpecRx     ]: Rx Status 0xf0
[20:30:03:271][  info  ][    SpecRx     ]: Number of lanes: 1
[20:30:03:271][  info  ][    SpecRx     ]: Channel 4 Lane 0 synchronized!
[20:30:03:281][  info  ][  scanConsole  ]: ... success!
[20:30:03:281][  info  ][  scanConsole  ]: Checking com 20UPGFC0012922
[20:30:03:282][  info  ][    SpecRx     ]: Active Rx channels: 0x20
[20:30:03:282][  info  ][    SpecRx     ]: Active Rx lanes: 0x1
[20:30:03:282][  info  ][    SpecRx     ]: Rx Status 0xf0
[20:30:03:282][  info  ][    SpecRx     ]: Number of lanes: 1
[20:30:03:282][  info  ][    SpecRx     ]: Channel 5 Lane 0 synchronized!
[20:30:03:292][  info  ][  scanConsole  ]: ... success!
[20:30:03:292][  info  ][  scanConsole  ]: Checking com 20UPGFC0012954
[20:30:03:292][  info  ][    SpecRx     ]: Active Rx channels: 0x40
[20:30:03:292][  info  ][    SpecRx     ]: Active Rx lanes: 0x1
[20:30:03:292][  info  ][    SpecRx     ]: Rx Status 0xf0
[20:30:03:292][  info  ][    SpecRx     ]: Number of lanes: 1
[20:30:03:292][  info  ][    SpecRx     ]: Channel 6 Lane 0 synchronized!
[20:30:03:303][  info  ][  scanConsole  ]: ... success!
[20:30:03:303][  info  ][  scanConsole  ]: Checking com 20UPGFC0012906
[20:30:03:303][  info  ][    SpecRx     ]: Active Rx channels: 0x80
[20:30:03:303][  info  ][    SpecRx     ]: Active Rx lanes: 0x1
[20:30:03:303][  info  ][    SpecRx     ]: Rx Status 0xf0
[20:30:03:303][  info  ][    SpecRx     ]: Number of lanes: 1
[20:30:03:303][  info  ][    SpecRx     ]: Channel 7 Lane 0 synchronized!
[20:30:03:313][  info  ][  scanConsole  ]: ... success!
[20:30:03:313][  info  ][  scanConsole  ]: Enabling Tx channels
[20:30:03:313][  info  ][  scanConsole  ]: Enabling Tx channel 1
[20:30:03:313][  info  ][  scanConsole  ]: Enabling Tx channel 1
[20:30:03:313][  info  ][  scanConsole  ]: Enabling Tx channel 1
[20:30:03:313][  info  ][  scanConsole  ]: Enabling Tx channel 1
[20:30:03:313][  info  ][  scanConsole  ]: Enabling Rx channels
[20:30:03:313][  info  ][  scanConsole  ]: Enabling Rx channel 4
[20:30:03:313][  info  ][  scanConsole  ]: Enabling Rx channel 5
[20:30:03:313][  info  ][  scanConsole  ]: Enabling Rx channel 6
[20:30:03:313][  info  ][  scanConsole  ]: Enabling Rx channel 7
[20:30:03:313][  info  ][  scanConsole  ]: ##############
[20:30:03:313][  info  ][  scanConsole  ]: # Setup Scan #
[20:30:03:314][  info  ][  scanConsole  ]: ##############
[20:30:03:314][  info  ][  scanConsole  ]: Found Scan config, constructing scan ...
[20:30:03:314][  info  ][  ScanFactory  ]: Loading Scan:
[20:30:03:314][  info  ][  ScanFactory  ]:   Name: AnalogScan
[20:30:03:314][  info  ][  ScanFactory  ]:   Number of Loops: 3
[20:30:03:314][  info  ][  ScanFactory  ]:   Loading Loop #0
[20:30:03:314][  info  ][  ScanFactory  ]:    Type: Rd53aReadRegLoop
[20:30:03:314][  info  ][  ScanFactory  ]:    Loading loop config ... 
[20:30:03:315][  info  ][  ScanFactory  ]: ~~~ {
[20:30:03:315][  info  ][  ScanFactory  ]: ~~~     "CurMux": [],
[20:30:03:315][  info  ][  ScanFactory  ]: ~~~     "EnblRingOsc": 0,
[20:30:03:315][  info  ][  ScanFactory  ]: ~~~     "Registers": [],
[20:30:03:315][  info  ][  ScanFactory  ]: ~~~     "RingOscDur": 9,
[20:30:03:315][  info  ][  ScanFactory  ]: ~~~     "RingOscRep": 10,
[20:30:03:315][  info  ][  ScanFactory  ]: ~~~     "VoltMux": [3, 5, 7, 15]
[20:30:03:315][  info  ][  ScanFactory  ]: ~~~ }
[20:30:03:315][  info  ][  ScanFactory  ]:   Loading Loop #1
[20:30:03:315][  info  ][  ScanFactory  ]:    Type: Rd53aTriggerLoop
[20:30:03:315][  info  ][  ScanFactory  ]:    Loading loop config ... 
[20:30:03:315][  info  ][  ScanFactory  ]: ~~~ {
[20:30:03:315][  info  ][  ScanFactory  ]: ~~~     "count": 1,
[20:30:03:315][  info  ][  ScanFactory  ]: ~~~     "delay": 48,
[20:30:03:315][  info  ][  ScanFactory  ]: ~~~     "extTrig": false,
[20:30:03:315][  info  ][  ScanFactory  ]: ~~~     "frequency": 30000.0,
[20:30:03:315][  info  ][  ScanFactory  ]: ~~~     "noInject": false,
[20:30:03:315][  info  ][  ScanFactory  ]: ~~~     "sendEcr": false,
[20:30:03:315][  info  ][  ScanFactory  ]: ~~~     "time": 0.0,
[20:30:03:315][  info  ][  ScanFactory  ]: ~~~     "trigMultiplier": 16
[20:30:03:315][  info  ][  ScanFactory  ]: ~~~ }
[20:30:03:315][  info  ][  ScanFactory  ]:   Loading Loop #2
[20:30:03:315][  info  ][  ScanFactory  ]:    Type: StdDataLoop
[20:30:03:315][warning ][  ScanFactory  ]: ~~~ Config empty.
[20:30:03:315][  info  ][ScanBuildHistogrammers]: Loading histogrammer ...
[20:30:03:316][  info  ][ScanBuildHistogrammers]: ... done!
[20:30:03:316][  info  ][ScanBuildAnalyses]: Loading analyses ...
[20:30:03:316][  info  ][  scanConsole  ]: Running pre scan!
[20:30:03:316][  info  ][  ScanFactory  ]: Entering pre scan phase ...
[20:30:03:316][  info  ][     Rd53a     ]: Write named register: GlobalPulseRt -> 16384
[20:30:03:316][  info  ][     Rd53a     ]: Write named register: InjEnDig -> 0
[20:30:03:316][  info  ][     Rd53a     ]: Write named register: InjVcalDiff -> 0
[20:30:03:316][  info  ][     Rd53a     ]: Write named register: InjVcalHigh -> 3500
[20:30:03:316][  info  ][     Rd53a     ]: Write named register: InjVcalMed -> 500
[20:30:03:316][  info  ][     Rd53a     ]: Write named register: LatencyConfig -> 48
[20:30:03:316][  info  ][  scanConsole  ]: Starting histogrammer and analysis threads:
[20:30:03:317][  info  ][  scanConsole  ]:  .. started threads of Fe 4
[20:30:03:317][  info  ][  scanConsole  ]:  .. started threads of Fe 5
[20:30:03:317][  info  ][  scanConsole  ]:  .. started threads of Fe 6
[20:30:03:317][  info  ][  scanConsole  ]:  .. started threads of Fe 7
[20:30:03:318][  info  ][Rd53aDataProcessor]:   -> Processor thread #0 started!
[20:30:03:318][  info  ][Rd53aDataProcessor]:   -> Processor thread #1 started!
[20:30:03:318][  info  ][Rd53aDataProcessor]:   -> Processor thread #2 started!
[20:30:03:318][  info  ][Rd53aDataProcessor]:   -> Processor thread #3 started!
[20:30:03:318][  info  ][  scanConsole  ]: ########
[20:30:03:318][  info  ][  scanConsole  ]: # Scan #
[20:30:03:318][  info  ][  scanConsole  ]: ########
[20:30:03:318][  info  ][  scanConsole  ]: Starting scan!
[20:30:03:318][  info  ][Rd53aReadRegLoop]: Measuring for FE 20UPGFC0012890 on Rx 4
[20:30:03:322][  info  ][Rd53aReadRegLoop]: [4][20UPGFC0012890] MON MUX_V: 3 Bias 0 1344 -> 0.282541 V Bias 1 1714 -> 0.356865 V, Temperature 0.0743231 -> -16.0455 C
[20:30:03:326][  info  ][Rd53aReadRegLoop]: [4][20UPGFC0012890] MON MUX_V: 5 Bias 0 1281 -> 0.269886 V Bias 1 1659 -> 0.345817 V, Temperature 0.0759301 -> -46.6429 C
[20:30:03:330][  info  ][Rd53aReadRegLoop]: [4][20UPGFC0012890] MON MUX_V: 7 Bias 0 1282 -> 0.270087 V Bias 1 1667 -> 0.347424 V, Temperature 0.0773363 -> -43.3133 C
[20:30:03:334][  info  ][Rd53aReadRegLoop]: [4][20UPGFC0012890] MON MUX_V: 15 Bias 0 1265 -> 0.266672 V Bias 1 1645 -> 0.343004 V, Temperature 0.0763319 -> -53.9922 C
[20:30:03:369][  info  ][Rd53aReadRegLoop]: Measuring for FE 20UPGFC0012922 on Rx 5
[20:30:03:373][  info  ][Rd53aReadRegLoop]: [5][20UPGFC0012922] MON MUX_V: 3 Bias 0 1330 -> 0.278 V Bias 1 1704 -> 0.3528 V, Temperature 0.0748 -> -11.9 C
[20:30:03:377][  info  ][Rd53aReadRegLoop]: [5][20UPGFC0012922] MON MUX_V: 5 Bias 0 1287 -> 0.2694 V Bias 1 1672 -> 0.3464 V, Temperature 0.077 -> -32.1667 C
[20:30:03:382][  info  ][Rd53aReadRegLoop]: [5][20UPGFC0012922] MON MUX_V: 7 Bias 0 1283 -> 0.2686 V Bias 1 1666 -> 0.3452 V, Temperature 0.0766 -> -37.8295 C
[20:30:03:386][  info  ][Rd53aReadRegLoop]: [5][20UPGFC0012922] MON MUX_V: 15 Bias 0 1276 -> 0.2672 V Bias 1 1662 -> 0.3444 V, Temperature 0.0772 -> -36.9354 C
[20:30:03:420][  info  ][Rd53aReadRegLoop]: Measuring for FE 20UPGFC0012954 on Rx 6
[20:30:03:425][  info  ][Rd53aReadRegLoop]: [6][20UPGFC0012954] MON MUX_V: 3 Bias 0 1335 -> 0.278141 V Bias 1 1707 -> 0.353237 V, Temperature 0.0750964 -> -18.4143 C
[20:30:03:429][  info  ][Rd53aReadRegLoop]: [6][20UPGFC0012954] MON MUX_V: 5 Bias 0 1298 -> 0.270671 V Bias 1 1669 -> 0.345566 V, Temperature 0.0748945 -> -44.3268 C
[20:30:03:433][  info  ][Rd53aReadRegLoop]: [6][20UPGFC0012954] MON MUX_V: 7 Bias 0 1274 -> 0.265827 V Bias 1 1655 -> 0.34274 V, Temperature 0.0769133 -> -36.3887 C
[20:30:03:437][  info  ][Rd53aReadRegLoop]: [6][20UPGFC0012954] MON MUX_V: 15 Bias 0 1276 -> 0.26623 V Bias 1 1655 -> 0.34274 V, Temperature 0.0765095 -> -46.3532 C
[20:30:03:472][  info  ][Rd53aReadRegLoop]: Measuring for FE 20UPGFC0012906 on Rx 7
[20:30:03:476][  info  ][Rd53aReadRegLoop]: [7][20UPGFC0012906] MON MUX_V: 3 Bias 0 1320 -> 0.277339 V Bias 1 1687 -> 0.352188 V, Temperature 0.0748491 -> -13.0693 C
[20:30:03:481][  info  ][Rd53aReadRegLoop]: [7][20UPGFC0012906] MON MUX_V: 5 Bias 0 1281 -> 0.269385 V Bias 1 1644 -> 0.343418 V, Temperature 0.0740333 -> -25.7182 C
[20:30:03:485][  info  ][Rd53aReadRegLoop]: [7][20UPGFC0012906] MON MUX_V: 7 Bias 0 1284 -> 0.269997 V Bias 1 1654 -> 0.345458 V, Temperature 0.075461 -> -27.7908 C
[20:30:03:489][  info  ][Rd53aReadRegLoop]: [7][20UPGFC0012906] MON MUX_V: 15 Bias 0 1258 -> 0.264694 V Bias 1 1634 -> 0.341379 V, Temperature 0.0766847 -> -29.2715 C
[20:30:03:525][  info  ][  scanConsole  ]: Scan done!
[20:30:03:525][  info  ][  scanConsole  ]: Waiting for processors to finish ...
[20:30:03:526][  info  ][  scanConsole  ]: Processor done, waiting for histogrammer ...
[20:30:03:926][  info  ][HistogramAlgorithm]: Histogrammer done!
[20:30:03:926][  info  ][HistogramAlgorithm]: Histogrammer done!
[20:30:03:926][  info  ][HistogramAlgorithm]: Histogrammer done!
[20:30:03:926][  info  ][HistogramAlgorithm]: Histogrammer done!
[20:30:03:926][  info  ][  scanConsole  ]: Processor done, waiting for analysis ...
[20:30:04:326][  info  ][AnalysisAlgorithm]: Analysis done!
[20:30:04:326][  info  ][AnalysisAlgorithm]: Analysis done!
[20:30:04:326][  info  ][AnalysisAlgorithm]: Analysis done!
[20:30:04:326][  info  ][AnalysisAlgorithm]: Analysis done!
[20:30:04:327][  info  ][  scanConsole  ]: All done!
[20:30:04:327][  info  ][  scanConsole  ]: ##########
[20:30:04:327][  info  ][  scanConsole  ]: # Timing #
[20:30:04:327][  info  ][  scanConsole  ]: ##########
[20:30:04:327][  info  ][  scanConsole  ]: -> Configuration: 141 ms
[20:30:04:327][  info  ][  scanConsole  ]: -> Scan:          207 ms
[20:30:04:327][  info  ][  scanConsole  ]: -> Processing:    0 ms
[20:30:04:327][  info  ][  scanConsole  ]: -> Analysis:      800 ms
[20:30:04:327][  info  ][  scanConsole  ]: ###########
[20:30:04:327][  info  ][  scanConsole  ]: # Cleanup #
[20:30:04:327][  info  ][  scanConsole  ]: ###########
[20:30:04:335][  info  ][  scanConsole  ]: Saving config of FE 20UPGFC0012890 to configs/CERNQ3/20UPGFC0012890.json
[20:30:04:543][  info  ][  scanConsole  ]: -> Storing output results of FE 4
[20:30:04:543][warning ][  scanConsole  ]: There were no results for chip 20UPGFC0012890, this usually means that the chip did not send any data at all.
[20:30:04:544][  info  ][  scanConsole  ]: Saving config of FE 20UPGFC0012922 to configs/CERNQ3/20UPGFC0012922.json
[20:30:04:711][  info  ][  scanConsole  ]: -> Storing output results of FE 5
[20:30:04:711][warning ][  scanConsole  ]: There were no results for chip 20UPGFC0012922, this usually means that the chip did not send any data at all.
[20:30:04:712][  info  ][  scanConsole  ]: Saving config of FE 20UPGFC0012954 to configs/CERNQ3/20UPGFC0012954.json
[20:30:04:875][  info  ][  scanConsole  ]: -> Storing output results of FE 6
[20:30:04:875][warning ][  scanConsole  ]: There were no results for chip 20UPGFC0012954, this usually means that the chip did not send any data at all.
[20:30:04:876][  info  ][  scanConsole  ]: Saving config of FE 20UPGFC0012906 to configs/CERNQ3/20UPGFC0012906.json
[20:30:05:039][  info  ][  scanConsole  ]: -> Storing output results of FE 7
[20:30:05:039][warning ][  scanConsole  ]: There were no results for chip 20UPGFC0012906, this usually means that the chip did not send any data at all.
[20:30:05:041][  info  ][  scanConsole  ]: Finishing run: 1618
20UPGFC0012890.json.after
20UPGFC0012890.json.before
20UPGFC0012906.json.after
20UPGFC0012906.json.before
20UPGFC0012922.json.after
20UPGFC0012922.json.before
20UPGFC0012954.json.after
20UPGFC0012954.json.before
reg_readtemp.json
scanLog.json

