time,voltage,current,currentSigma
2022-08-11T14:33:01.825+02:00,10.019448757172,4.2458892721697e-07,3.8611731985181e-09
2022-08-11T14:33:13.275+02:00,14.996429443359,1.0759154406514e-06,1.6802644572592e-09
2022-08-11T14:33:25.294+02:00,19.998021697998,1.443854421268e-06,9.4190009777036e-10
2022-08-11T14:33:36.807+02:00,25.004500961304,1.6289491554744e-06,7.6448021495871e-10
2022-08-11T14:33:48.325+02:00,30.002479171753,1.7085382637561e-06,8.2914835836001e-10
2022-08-11T14:34:00.326+02:00,35.003999710083,1.7386470290148e-06,1.2141699820216e-09
2022-08-11T14:34:11.853+02:00,40.000835418701,1.7584883607924e-06,8.6005986995237e-10
2022-08-11T14:34:23.322+02:00,45.001155471802,1.7720679579725e-06,8.4108947090063e-10
2022-08-11T14:34:35.328+02:00,50.003094100952,1.7822297422754e-06,8.3562957589233e-10
2022-08-11T14:34:46.868+02:00,54.992969894409,1.8052864106721e-06,6.0101855266876e-10
2022-08-11T14:34:58.375+02:00,60.006281280518,1.8591698903947e-06,1.046534601866e-09
2022-08-11T14:35:10.407+02:00,64.997589874268,1.9519438637872e-06,9.158254009141e-10
2022-08-11T14:35:21.873+02:00,70.002800750732,2.0721625332953e-06,1.3793245339565e-09
2022-08-11T14:35:33.402+02:00,75.00277633667,2.2078273104853e-06,1.2255639153747e-09
2022-08-11T14:35:45.466+02:00,80.001065826416,2.354652269787e-06,1.3107566435387e-09
2022-08-11T14:35:56.894+02:00,85.001396179199,2.4997324089782e-06,1.716122956905e-09
2022-08-11T14:36:08.419+02:00,89.99504776001,2.6402677804072e-06,1.6542644168495e-09
2022-08-11T14:36:20.472+02:00,94.995769500732,2.7880812695003e-06,1.1412446487493e-09
2022-08-11T14:36:31.936+02:00,99.995040893555,2.9373953793765e-06,1.7487396392123e-09
