{
    "Data": [2.0, 5.0, 4.0, 5.0, 16.0, 57.0, 156.0, 412.0, 971.0, 1837.0, 2662.0, 3188.0, 2866.0, 2281.0, 1639.0, 1260.0, 965.0, 841.0, 686.0, 592.0, 575.0, 490.0, 422.0, 402.0, 350.0, 308.0, 275.0, 229.0, 197.0, 198.0, 179.0, 165.0, 123.0, 133.0, 92.0, 115.0, 78.0, 75.0, 59.0, 85.0, 38.0, 52.0, 54.0, 56.0, 47.0, 37.0, 29.0, 35.0, 29.0, 27.0, 19.0, 29.0, 24.0, 15.0, 18.0, 17.0, 15.0, 18.0, 11.0, 13.0, 11.0, 8.0],
    "Name": "NoiseDist-0",
    "Overflow": 155.0,
    "Type": "Histo1d",
    "Underflow": 0.0,
    "x": {
        "AxisTitle": "Noise [e]",
        "Bins": 62,
        "High": 311.0,
        "Low": -2.0
    },
    "y": {
        "AxisTitle": "Number of Pixels"
    },
    "z": {
        "AxisTitle": "z"
    }
}