{
    "Data": [0.0, 0.0, 0.0, 0.0, 0.0, 0.0, 0.0, 0.0, 0.0, 0.0, 0.0, 0.0, 0.0, 0.0, 0.0, 0.0, 0.0, 1.0, 0.0, 1.0, 10.0, 40.0, 17.0, 4.0, 10.0, 143.0, 254.0, 247.0, 154.0, 214.0, 921.0, 1231.0, 839.0, 483.0, 631.0, 1431.0, 1229.0, 878.0, 710.0, 1217.0, 2271.0, 1659.0, 972.0, 611.0, 635.0, 765.0, 585.0, 448.0, 438.0, 640.0, 600.0, 497.0, 393.0, 328.0, 319.0, 278.0, 239.0, 239.0, 230.0, 244.0, 207.0, 176.0, 137.0, 140.0, 155.0, 110.0, 112.0, 89.0, 77.0, 98.0, 75.0, 81.0, 80.0, 65.0, 70.0, 54.0, 56.0, 45.0, 46.0, 29.0, 38.0, 37.0, 53.0, 21.0, 23.0, 27.0, 24.0, 18.0, 17.0, 23.0, 17.0, 22.0, 17.0, 20.0, 21.0, 17.0, 10.0, 12.0, 8.0, 17.0, 14.0, 12.0, 10.0, 14.0, 9.0, 13.0, 11.0, 12.0, 6.0, 8.0, 5.0, 4.0, 9.0, 9.0, 1.0, 9.0, 5.0, 3.0, 8.0, 4.0, 7.0, 5.0, 3.0, 4.0, 3.0, 4.0, 3.0, 3.0, 4.0, 3.0, 1.0, 0.0, 1.0, 3.0, 2.0, 0.0, 0.0, 1.0, 0.0, 2.0, 0.0, 2.0, 3.0, 4.0, 1.0, 0.0, 0.0, 1.0, 3.0, 1.0, 0.0, 3.0, 1.0, 2.0, 2.0, 2.0, 1.0, 1.0, 0.0, 1.0, 1.0, 1.0, 1.0, 0.0, 2.0, 0.0, 0.0, 1.0, 0.0, 2.0, 1.0, 0.0, 3.0, 1.0, 0.0, 0.0, 1.0, 1.0, 1.0, 1.0, 1.0, 1.0, 0.0, 1.0, 0.0, 0.0, 0.0, 1.0, 0.0, 1.0, 0.0, 0.0, 0.0, 0.0, 0.0, 0.0, 3.0, 0.0, 0.0, 1.0, 0.0],
    "Name": "TimePerFitDist-0",
    "Overflow": 26.0,
    "Type": "Histo1d",
    "Underflow": 0.0,
    "x": {
        "AxisTitle": "Fit Time [us]",
        "Bins": 201,
        "High": 401.0,
        "Low": -1.0
    },
    "y": {
        "AxisTitle": "Number of Pixels"
    },
    "z": {
        "AxisTitle": "z"
    }
}