{
    "Data": [0.0, 0.0, 0.0, 0.0, 0.0, 0.0, 0.0, 0.0, 0.0, 0.0, 0.0, 0.0, 0.0, 0.0, 0.0, 0.0, 0.0, 0.0, 0.0, 1.0, 15.0, 33.0, 21.0, 5.0, 12.0, 120.0, 254.0, 234.0, 193.0, 188.0, 838.0, 1077.0, 755.0, 564.0, 648.0, 1351.0, 1187.0, 806.0, 701.0, 1285.0, 2464.0, 1657.0, 1004.0, 594.0, 706.0, 783.0, 601.0, 433.0, 462.0, 713.0, 707.0, 527.0, 398.0, 331.0, 353.0, 317.0, 237.0, 197.0, 211.0, 219.0, 220.0, 163.0, 160.0, 162.0, 123.0, 123.0, 95.0, 103.0, 92.0, 79.0, 92.0, 71.0, 69.0, 67.0, 49.0, 44.0, 45.0, 39.0, 40.0, 48.0, 25.0, 37.0, 37.0, 33.0, 30.0, 30.0, 33.0, 15.0, 21.0, 12.0, 22.0, 17.0, 16.0, 20.0, 19.0, 9.0, 19.0, 8.0, 11.0, 10.0, 8.0, 4.0, 13.0, 6.0, 3.0, 8.0, 9.0, 5.0, 5.0, 9.0, 6.0, 7.0, 9.0, 5.0, 4.0, 5.0, 4.0, 5.0, 1.0, 2.0, 4.0, 5.0, 6.0, 5.0, 0.0, 3.0, 3.0, 3.0, 0.0, 4.0, 5.0, 2.0, 1.0, 2.0, 2.0, 2.0, 0.0, 2.0, 1.0, 1.0, 0.0, 2.0, 1.0, 0.0, 0.0, 0.0, 2.0, 2.0, 3.0, 1.0, 0.0, 2.0, 0.0, 2.0, 1.0, 2.0, 0.0, 0.0, 3.0, 2.0, 2.0, 0.0, 1.0, 2.0, 0.0, 0.0, 0.0, 1.0, 1.0, 0.0, 0.0, 2.0, 1.0, 0.0, 0.0, 0.0, 0.0, 0.0, 0.0, 0.0, 2.0, 2.0, 1.0, 0.0, 2.0, 1.0, 1.0, 0.0, 0.0, 0.0, 0.0, 1.0, 2.0, 0.0, 1.0, 0.0, 0.0, 1.0, 0.0, 0.0, 0.0],
    "Name": "TimePerFitDist-0",
    "Overflow": 26.0,
    "Type": "Histo1d",
    "Underflow": 0.0,
    "x": {
        "AxisTitle": "Fit Time [us]",
        "Bins": 201,
        "High": 401.0,
        "Low": -1.0
    },
    "y": {
        "AxisTitle": "Number of Pixels"
    },
    "z": {
        "AxisTitle": "z"
    }
}