{
    "Data": [0.0, 8.0, 7.0, 8.0, 30.0, 54.0, 180.0, 457.0, 1061.0, 2064.0, 2914.0, 3144.0, 2807.0, 2130.0, 1552.0, 1250.0, 1002.0, 842.0, 706.0, 604.0, 528.0, 432.0, 357.0, 339.0, 261.0, 295.0, 246.0, 227.0, 181.0, 147.0, 151.0, 136.0, 131.0, 122.0, 106.0, 107.0, 91.0, 83.0, 74.0, 88.0, 64.0, 56.0, 53.0, 51.0, 42.0, 44.0, 34.0, 39.0, 25.0, 28.0, 30.0, 21.0, 22.0, 29.0, 20.0, 17.0, 24.0, 13.0, 13.0, 10.0, 10.0, 13.0, 12.0, 4.0, 13.0, 9.0, 8.0],
    "Name": "NoiseDist-0",
    "Overflow": 153.0,
    "Type": "Histo1d",
    "Underflow": 0.0,
    "x": {
        "AxisTitle": "Noise [e]",
        "Bins": 67,
        "High": 336.0,
        "Low": -2.0
    },
    "y": {
        "AxisTitle": "Number of Pixels"
    },
    "z": {
        "AxisTitle": "z"
    }
}