[root@jollyroger Yarr]# ./bin/scanConsole -r configs/controller/specCfg-rd53a-16x1.json  -c configs/CERNQ3/connectivity.json -s configs/scans/rd53a/reg_readtemp.json -p
[19:42:53:323][  info  ][               ]: #####################################
[19:42:53:323][  info  ][               ]: # Welcome to the YARR Scan Console! #
[19:42:53:323][  info  ][               ]: #####################################
[19:42:53:323][  info  ][               ]: -> Parsing command line parameters ...
[19:42:53:323][  info  ][               ]: Configuring logger ...
[19:42:53:325][  info  ][  scanConsole  ]: Scan Type/Config configs/scans/rd53a/reg_readtemp.json
[19:42:53:325][  info  ][  scanConsole  ]: Connectivity:
[19:42:53:325][  info  ][  scanConsole  ]:     configs/CERNQ3/connectivity.json
[19:42:53:325][  info  ][  scanConsole  ]: Target ToT: -1
[19:42:53:325][  info  ][  scanConsole  ]: Target Charge: -1
[19:42:53:325][  info  ][  scanConsole  ]: Output Plots: true
[19:42:53:325][  info  ][  scanConsole  ]: Output Directory: ./data/001609_reg_readtemp/
[19:42:53:329][  info  ][  scanConsole  ]: Timestamp: 2022-08-22_19:42:53
[19:42:53:329][  info  ][  scanConsole  ]: Run Number: 1609
[19:42:53:329][  info  ][  scanConsole  ]: #################
[19:42:53:329][  info  ][  scanConsole  ]: # Init Hardware #
[19:42:53:329][  info  ][  scanConsole  ]: #################
[19:42:53:329][  info  ][  scanConsole  ]: -> Opening controller config: configs/controller/specCfg-rd53a-16x1.json
[19:42:53:329][  info  ][  ScanHelper   ]: Loading controller ...
[19:42:53:329][  info  ][  ScanHelper   ]: Found controller of type: spec
[19:42:53:329][  info  ][  ScanHelper   ]: ... loading controler config:
[19:42:53:329][  info  ][  ScanHelper   ]: ~~~ {
[19:42:53:329][  info  ][  ScanHelper   ]: ~~~     "cmdPeriod": 6.250000073038109e-9,
[19:42:53:329][  info  ][  ScanHelper   ]: ~~~     "idle": {
[19:42:53:329][  info  ][  ScanHelper   ]: ~~~         "word": 1768515945
[19:42:53:329][  info  ][  ScanHelper   ]: ~~~     },
[19:42:53:329][  info  ][  ScanHelper   ]: ~~~     "pulse": {
[19:42:53:329][  info  ][  ScanHelper   ]: ~~~         "interval": 500,
[19:42:53:329][  info  ][  ScanHelper   ]: ~~~         "word": 1549575846
[19:42:53:329][  info  ][  ScanHelper   ]: ~~~     },
[19:42:53:329][  info  ][  ScanHelper   ]: ~~~     "rxActiveLanes": 1,
[19:42:53:329][  info  ][  ScanHelper   ]: ~~~     "rxPolarity": 0,
[19:42:53:329][  info  ][  ScanHelper   ]: ~~~     "specNum": 0,
[19:42:53:329][  info  ][  ScanHelper   ]: ~~~     "spiConfig": 541200,
[19:42:53:329][  info  ][  ScanHelper   ]: ~~~     "sync": {
[19:42:53:329][  info  ][  ScanHelper   ]: ~~~         "interval": 32,
[19:42:53:329][  info  ][  ScanHelper   ]: ~~~         "word": 2172551550
[19:42:53:329][  info  ][  ScanHelper   ]: ~~~     },
[19:42:53:329][  info  ][  ScanHelper   ]: ~~~     "txPolarity": 0
[19:42:53:329][  info  ][  ScanHelper   ]: ~~~ }
[19:42:53:329][  info  ][    SpecCom    ]: Opening SPEC with id #0
[19:42:53:330][  info  ][    SpecCom    ]: Mapping BARs ...
[19:42:53:330][  info  ][    SpecCom    ]: ... Mapped BAR0 at 0x7fed855dc000 with size 1048576
[19:42:53:330][warning ][    SpecCom    ]: ... BAR4 not mapped (Mmap failed)
[19:42:53:330][  info  ][    SpecCom    ]: ~~~~~~~~~~~~~~~~~~~~~~~~~~~
[19:42:53:330][  info  ][    SpecCom    ]: Firmware Version: 0x4d9ff6d
[19:42:53:330][  info  ][    SpecCom    ]: Firmware Identifier: 0x4030232
[19:42:53:330][  info  ][    SpecCom    ]: FPGA card: PLDA XpressK7 325
[19:42:53:330][  info  ][    SpecCom    ]: FE Chip Type: RD53A/B
[19:42:53:330][  info  ][    SpecCom    ]: FMC Card Type: Ohio Card (Display Port)
[19:42:53:330][  info  ][    SpecCom    ]: RX Speed: 640Mbps
[19:42:53:330][  info  ][    SpecCom    ]: Channel Configuration: 16x1
[19:42:53:330][  info  ][    SpecCom    ]: ~~~~~~~~~~~~~~~~~~~~~~~~~~~
[19:42:53:330][  info  ][    SpecCom    ]: Flushing buffers ...
[19:42:53:330][  info  ][    SpecCom    ]: Init success!
[19:42:53:330][  info  ][  scanConsole  ]: #######################
[19:42:53:330][  info  ][  scanConsole  ]: ##  Loading Configs  ##
[19:42:53:330][  info  ][  scanConsole  ]: #######################
[19:42:53:330][  info  ][  scanConsole  ]: Opening global config: configs/CERNQ3/connectivity.json
[19:42:53:330][  info  ][  ScanHelper   ]: Chip type: RD53A
[19:42:53:330][  info  ][  ScanHelper   ]: Chip count 4
[19:42:53:330][  info  ][  ScanHelper   ]: Loading chip #0
[19:42:53:331][  info  ][  Bookkeeper   ]: Added FE: Tx(1), Rx(4)
[19:42:53:331][  info  ][  ScanHelper   ]: Loading config file: configs/CERNQ3/20UPGFC0012890.json
[19:42:53:508][  info  ][  ScanHelper   ]: Loading chip #1
[19:42:53:509][  info  ][  Bookkeeper   ]: Added FE: Tx(1), Rx(5)
[19:42:53:509][  info  ][  ScanHelper   ]: Loading config file: configs/CERNQ3/20UPGFC0012922.json
[19:42:53:684][  info  ][  ScanHelper   ]: Loading chip #2
[19:42:53:684][  info  ][  Bookkeeper   ]: Added FE: Tx(1), Rx(6)
[19:42:53:684][  info  ][  ScanHelper   ]: Loading config file: configs/CERNQ3/20UPGFC0012954.json
[19:42:53:864][  info  ][  ScanHelper   ]: Loading chip #3
[19:42:53:864][  info  ][  Bookkeeper   ]: Added FE: Tx(1), Rx(7)
[19:42:53:864][  info  ][  ScanHelper   ]: Loading config file: configs/CERNQ3/20UPGFC0012906.json
[19:42:54:063][  info  ][  scanConsole  ]: #################
[19:42:54:063][  info  ][  scanConsole  ]: # Configure FEs #
[19:42:54:063][  info  ][  scanConsole  ]: #################
[19:42:54:063][  info  ][  scanConsole  ]: Configuring 20UPGFC0012890
[19:42:54:094][  info  ][  scanConsole  ]: Configuring 20UPGFC0012922
[19:42:54:137][  info  ][  scanConsole  ]: Configuring 20UPGFC0012954
[19:42:54:179][  info  ][  scanConsole  ]: Configuring 20UPGFC0012906
[19:42:54:223][  info  ][  scanConsole  ]: Sent configuration to all FEs in 159 ms!
[19:42:54:224][  info  ][  scanConsole  ]: Checking com 20UPGFC0012890
[19:42:54:224][  info  ][    SpecRx     ]: Active Rx channels: 0x10
[19:42:54:224][  info  ][    SpecRx     ]: Active Rx lanes: 0x1
[19:42:54:224][  info  ][    SpecRx     ]: Rx Status 0xf0
[19:42:54:224][  info  ][    SpecRx     ]: Number of lanes: 1
[19:42:54:224][  info  ][    SpecRx     ]: Channel 4 Lane 0 synchronized!
[19:42:54:234][  info  ][  scanConsole  ]: ... success!
[19:42:54:234][  info  ][  scanConsole  ]: Checking com 20UPGFC0012922
[19:42:54:234][  info  ][    SpecRx     ]: Active Rx channels: 0x20
[19:42:54:234][  info  ][    SpecRx     ]: Active Rx lanes: 0x1
[19:42:54:234][  info  ][    SpecRx     ]: Rx Status 0xf0
[19:42:54:234][  info  ][    SpecRx     ]: Number of lanes: 1
[19:42:54:234][  info  ][    SpecRx     ]: Channel 5 Lane 0 synchronized!
[19:42:54:245][  info  ][  scanConsole  ]: ... success!
[19:42:54:245][  info  ][  scanConsole  ]: Checking com 20UPGFC0012954
[19:42:54:245][  info  ][    SpecRx     ]: Active Rx channels: 0x40
[19:42:54:245][  info  ][    SpecRx     ]: Active Rx lanes: 0x1
[19:42:54:245][  info  ][    SpecRx     ]: Rx Status 0xf0
[19:42:54:245][  info  ][    SpecRx     ]: Number of lanes: 1
[19:42:54:245][  info  ][    SpecRx     ]: Channel 6 Lane 0 synchronized!
[19:42:54:255][  info  ][  scanConsole  ]: ... success!
[19:42:54:255][  info  ][  scanConsole  ]: Checking com 20UPGFC0012906
[19:42:54:255][  info  ][    SpecRx     ]: Active Rx channels: 0x80
[19:42:54:255][  info  ][    SpecRx     ]: Active Rx lanes: 0x1
[19:42:54:255][  info  ][    SpecRx     ]: Rx Status 0xf0
[19:42:54:255][  info  ][    SpecRx     ]: Number of lanes: 1
[19:42:54:255][  info  ][    SpecRx     ]: Channel 7 Lane 0 synchronized!
[19:42:54:266][  info  ][  scanConsole  ]: ... success!
[19:42:54:266][  info  ][  scanConsole  ]: Enabling Tx channels
[19:42:54:266][  info  ][  scanConsole  ]: Enabling Tx channel 1
[19:42:54:266][  info  ][  scanConsole  ]: Enabling Tx channel 1
[19:42:54:266][  info  ][  scanConsole  ]: Enabling Tx channel 1
[19:42:54:266][  info  ][  scanConsole  ]: Enabling Tx channel 1
[19:42:54:266][  info  ][  scanConsole  ]: Enabling Rx channels
[19:42:54:266][  info  ][  scanConsole  ]: Enabling Rx channel 4
[19:42:54:266][  info  ][  scanConsole  ]: Enabling Rx channel 5
[19:42:54:266][  info  ][  scanConsole  ]: Enabling Rx channel 6
[19:42:54:266][  info  ][  scanConsole  ]: Enabling Rx channel 7
[19:42:54:266][  info  ][  scanConsole  ]: ##############
[19:42:54:266][  info  ][  scanConsole  ]: # Setup Scan #
[19:42:54:266][  info  ][  scanConsole  ]: ##############
[19:42:54:267][  info  ][  scanConsole  ]: Found Scan config, constructing scan ...
[19:42:54:267][  info  ][  ScanFactory  ]: Loading Scan:
[19:42:54:267][  info  ][  ScanFactory  ]:   Name: AnalogScan
[19:42:54:267][  info  ][  ScanFactory  ]:   Number of Loops: 3
[19:42:54:267][  info  ][  ScanFactory  ]:   Loading Loop #0
[19:42:54:267][  info  ][  ScanFactory  ]:    Type: Rd53aReadRegLoop
[19:42:54:267][  info  ][  ScanFactory  ]:    Loading loop config ... 
[19:42:54:267][  info  ][  ScanFactory  ]: ~~~ {
[19:42:54:267][  info  ][  ScanFactory  ]: ~~~     "CurMux": [],
[19:42:54:267][  info  ][  ScanFactory  ]: ~~~     "EnblRingOsc": 0,
[19:42:54:268][  info  ][  ScanFactory  ]: ~~~     "Registers": [],
[19:42:54:268][  info  ][  ScanFactory  ]: ~~~     "RingOscDur": 9,
[19:42:54:268][  info  ][  ScanFactory  ]: ~~~     "RingOscRep": 10,
[19:42:54:268][  info  ][  ScanFactory  ]: ~~~     "VoltMux": [3, 5, 7, 15]
[19:42:54:268][  info  ][  ScanFactory  ]: ~~~ }
[19:42:54:268][  info  ][  ScanFactory  ]:   Loading Loop #1
[19:42:54:268][  info  ][  ScanFactory  ]:    Type: Rd53aTriggerLoop
[19:42:54:268][  info  ][  ScanFactory  ]:    Loading loop config ... 
[19:42:54:268][  info  ][  ScanFactory  ]: ~~~ {
[19:42:54:268][  info  ][  ScanFactory  ]: ~~~     "count": 1,
[19:42:54:268][  info  ][  ScanFactory  ]: ~~~     "delay": 48,
[19:42:54:268][  info  ][  ScanFactory  ]: ~~~     "extTrig": false,
[19:42:54:268][  info  ][  ScanFactory  ]: ~~~     "frequency": 30000.0,
[19:42:54:268][  info  ][  ScanFactory  ]: ~~~     "noInject": false,
[19:42:54:268][  info  ][  ScanFactory  ]: ~~~     "sendEcr": false,
[19:42:54:268][  info  ][  ScanFactory  ]: ~~~     "time": 0.0,
[19:42:54:268][  info  ][  ScanFactory  ]: ~~~     "trigMultiplier": 16
[19:42:54:268][  info  ][  ScanFactory  ]: ~~~ }
[19:42:54:268][  info  ][  ScanFactory  ]:   Loading Loop #2
[19:42:54:268][  info  ][  ScanFactory  ]:    Type: StdDataLoop
[19:42:54:268][warning ][  ScanFactory  ]: ~~~ Config empty.
[19:42:54:268][  info  ][ScanBuildHistogrammers]: Loading histogrammer ...
[19:42:54:268][  info  ][ScanBuildHistogrammers]: ... done!
[19:42:54:268][  info  ][ScanBuildAnalyses]: Loading analyses ...
[19:42:54:269][  info  ][  scanConsole  ]: Running pre scan!
[19:42:54:269][  info  ][  ScanFactory  ]: Entering pre scan phase ...
[19:42:54:269][  info  ][     Rd53a     ]: Write named register: GlobalPulseRt -> 16384
[19:42:54:269][  info  ][     Rd53a     ]: Write named register: InjEnDig -> 0
[19:42:54:269][  info  ][     Rd53a     ]: Write named register: InjVcalDiff -> 0
[19:42:54:269][  info  ][     Rd53a     ]: Write named register: InjVcalHigh -> 3500
[19:42:54:269][  info  ][     Rd53a     ]: Write named register: InjVcalMed -> 500
[19:42:54:269][  info  ][     Rd53a     ]: Write named register: LatencyConfig -> 48
[19:42:54:269][  info  ][  scanConsole  ]: Starting histogrammer and analysis threads:
[19:42:54:269][  info  ][  scanConsole  ]:  .. started threads of Fe 4
[19:42:54:269][  info  ][  scanConsole  ]:  .. started threads of Fe 5
[19:42:54:270][  info  ][  scanConsole  ]:  .. started threads of Fe 6
[19:42:54:270][  info  ][  scanConsole  ]:  .. started threads of Fe 7
[19:42:54:270][  info  ][Rd53aDataProcessor]:   -> Processor thread #0 started!
[19:42:54:270][  info  ][Rd53aDataProcessor]:   -> Processor thread #1 started!
[19:42:54:270][  info  ][Rd53aDataProcessor]:   -> Processor thread #2 started!
[19:42:54:270][  info  ][Rd53aDataProcessor]:   -> Processor thread #3 started!
[19:42:54:270][  info  ][  scanConsole  ]: ########
[19:42:54:270][  info  ][  scanConsole  ]: # Scan #
[19:42:54:270][  info  ][  scanConsole  ]: ########
[19:42:54:270][  info  ][  scanConsole  ]: Starting scan!
[19:42:54:270][  info  ][Rd53aReadRegLoop]: Measuring for FE 20UPGFC0012890 on Rx 4
[19:42:54:275][  info  ][Rd53aReadRegLoop]: [4][20UPGFC0012890] MON MUX_V: 3 Bias 0 1317 -> 0.277118 V Bias 1 1694 -> 0.352847 V, Temperature 0.0757293 -> -11.209 C
[19:42:54:279][  info  ][Rd53aReadRegLoop]: [4][20UPGFC0012890] MON MUX_V: 5 Bias 0 1256 -> 0.264865 V Bias 1 1642 -> 0.342402 V, Temperature 0.0775371 -> -37.9572 C
[19:42:54:283][  info  ][Rd53aReadRegLoop]: [4][20UPGFC0012890] MON MUX_V: 7 Bias 0 1256 -> 0.264865 V Bias 1 1646 -> 0.343205 V, Temperature 0.0783406 -> -38.2466 C
[19:42:54:287][  info  ][Rd53aReadRegLoop]: [4][20UPGFC0012890] MON MUX_V: 15 Bias 0 1239 -> 0.26145 V Bias 1 1625 -> 0.338987 V, Temperature 0.0775371 -> -46.9767 C
[19:42:54:322][  info  ][Rd53aReadRegLoop]: Measuring for FE 20UPGFC0012922 on Rx 5
[19:42:54:326][  info  ][Rd53aReadRegLoop]: [5][20UPGFC0012922] MON MUX_V: 3 Bias 0 1305 -> 0.273 V Bias 1 1686 -> 0.3492 V, Temperature 0.0762 -> -7.64398 C
[19:42:54:330][  info  ][Rd53aReadRegLoop]: [5][20UPGFC0012922] MON MUX_V: 5 Bias 0 1262 -> 0.2644 V Bias 1 1653 -> 0.3426 V, Temperature 0.0782 -> -27.1001 C
[19:42:54:334][  info  ][Rd53aReadRegLoop]: [5][20UPGFC0012922] MON MUX_V: 7 Bias 0 1257 -> 0.2634 V Bias 1 1646 -> 0.3412 V, Temperature 0.0778 -> -32.4647 C
[19:42:54:338][  info  ][Rd53aReadRegLoop]: [5][20UPGFC0012922] MON MUX_V: 15 Bias 0 1251 -> 0.2622 V Bias 1 1642 -> 0.3404 V, Temperature 0.0782 -> -32.4648 C
[19:42:54:373][  info  ][Rd53aReadRegLoop]: Measuring for FE 20UPGFC0012954 on Rx 6
[19:42:54:377][  info  ][Rd53aReadRegLoop]: [6][20UPGFC0012954] MON MUX_V: 3 Bias 0 1312 -> 0.273498 V Bias 1 1688 -> 0.349402 V, Temperature 0.0759039 -> -15.519 C
[19:42:54:382][  info  ][Rd53aReadRegLoop]: [6][20UPGFC0012954] MON MUX_V: 5 Bias 0 1273 -> 0.265625 V Bias 1 1649 -> 0.341529 V, Temperature 0.0759039 -> -39.26 C
[19:42:54:386][  info  ][Rd53aReadRegLoop]: [6][20UPGFC0012954] MON MUX_V: 7 Bias 0 1248 -> 0.260578 V Bias 1 1636 -> 0.338904 V, Temperature 0.0783264 -> -30.4777 C
[19:42:54:390][  info  ][Rd53aReadRegLoop]: [6][20UPGFC0012954] MON MUX_V: 15 Bias 0 1251 -> 0.261183 V Bias 1 1636 -> 0.338904 V, Temperature 0.0777208 -> -40.2733 C
[19:42:54:425][  info  ][Rd53aReadRegLoop]: Measuring for FE 20UPGFC0012906 on Rx 7
[19:42:54:429][  info  ][Rd53aReadRegLoop]: [7][20UPGFC0012906] MON MUX_V: 3 Bias 0 1297 -> 0.272648 V Bias 1 1670 -> 0.348721 V, Temperature 0.0760728 -> -9.56151 C
[19:42:54:433][  info  ][Rd53aReadRegLoop]: [7][20UPGFC0012906] MON MUX_V: 5 Bias 0 1258 -> 0.264694 V Bias 1 1627 -> 0.339951 V, Temperature 0.075257 -> -21.5727 C
[19:42:54:437][  info  ][Rd53aReadRegLoop]: [7][20UPGFC0012906] MON MUX_V: 7 Bias 0 1260 -> 0.265102 V Bias 1 1635 -> 0.341583 V, Temperature 0.0764807 -> -24.3364 C
[19:42:54:441][  info  ][Rd53aReadRegLoop]: [7][20UPGFC0012906] MON MUX_V: 15 Bias 0 1233 -> 0.259596 V Bias 1 1617 -> 0.337912 V, Temperature 0.0783163 -> -23.4809 C
[19:42:54:477][  info  ][  scanConsole  ]: Scan done!
[19:42:54:477][  info  ][  scanConsole  ]: Waiting for processors to finish ...
[19:42:54:478][  info  ][  scanConsole  ]: Processor done, waiting for histogrammer ...
[19:42:54:878][  info  ][HistogramAlgorithm]: Histogrammer done!
[19:42:54:878][  info  ][HistogramAlgorithm]: Histogrammer done!
[19:42:54:878][  info  ][HistogramAlgorithm]: Histogrammer done!
[19:42:54:878][  info  ][HistogramAlgorithm]: Histogrammer done!
[19:42:54:878][  info  ][  scanConsole  ]: Processor done, waiting for analysis ...
[19:42:55:278][  info  ][AnalysisAlgorithm]: Analysis done!
[19:42:55:279][  info  ][AnalysisAlgorithm]: Analysis done!
[19:42:55:279][  info  ][AnalysisAlgorithm]: Analysis done!
[19:42:55:279][  info  ][AnalysisAlgorithm]: Analysis done!
[19:42:55:279][  info  ][  scanConsole  ]: All done!
[19:42:55:279][  info  ][  scanConsole  ]: ##########
[19:42:55:279][  info  ][  scanConsole  ]: # Timing #
[19:42:55:279][  info  ][  scanConsole  ]: ##########
[19:42:55:279][  info  ][  scanConsole  ]: -> Configuration: 159 ms
[19:42:55:279][  info  ][  scanConsole  ]: -> Scan:          207 ms
[19:42:55:279][  info  ][  scanConsole  ]: -> Processing:    0 ms
[19:42:55:279][  info  ][  scanConsole  ]: -> Analysis:      800 ms
[19:42:55:279][  info  ][  scanConsole  ]: ###########
[19:42:55:279][  info  ][  scanConsole  ]: # Cleanup #
[19:42:55:279][  info  ][  scanConsole  ]: ###########
[19:42:55:287][  info  ][  scanConsole  ]: Saving config of FE 20UPGFC0012890 to configs/CERNQ3/20UPGFC0012890.json
[19:42:55:459][  info  ][  scanConsole  ]: -> Storing output results of FE 4
[19:42:55:459][warning ][  scanConsole  ]: There were no results for chip 20UPGFC0012890, this usually means that the chip did not send any data at all.
[19:42:55:461][  info  ][  scanConsole  ]: Saving config of FE 20UPGFC0012922 to configs/CERNQ3/20UPGFC0012922.json
[19:42:55:624][  info  ][  scanConsole  ]: -> Storing output results of FE 5
[19:42:55:624][warning ][  scanConsole  ]: There were no results for chip 20UPGFC0012922, this usually means that the chip did not send any data at all.
[19:42:55:626][  info  ][  scanConsole  ]: Saving config of FE 20UPGFC0012954 to configs/CERNQ3/20UPGFC0012954.json
[19:42:55:793][  info  ][  scanConsole  ]: -> Storing output results of FE 6
[19:42:55:793][warning ][  scanConsole  ]: There were no results for chip 20UPGFC0012954, this usually means that the chip did not send any data at all.
[19:42:55:795][  info  ][  scanConsole  ]: Saving config of FE 20UPGFC0012906 to configs/CERNQ3/20UPGFC0012906.json
[19:42:55:959][  info  ][  scanConsole  ]: -> Storing output results of FE 7
[19:42:55:959][warning ][  scanConsole  ]: There were no results for chip 20UPGFC0012906, this usually means that the chip did not send any data at all.
[19:42:55:960][  info  ][  scanConsole  ]: Finishing run: 1609
20UPGFC0012890.json.after
20UPGFC0012890.json.before
20UPGFC0012906.json.after
20UPGFC0012906.json.before
20UPGFC0012922.json.after
20UPGFC0012922.json.before
20UPGFC0012954.json.after
20UPGFC0012954.json.before
reg_readtemp.json
scanLog.json

