{
    "Data": [0.0, 0.0, 0.0, 0.0, 0.0, 0.0, 0.0, 0.0, 0.0, 0.0, 0.0, 0.0, 0.0, 0.0, 0.0, 1.0, 3.0, 1.0, 0.0, 2.0, 19.0, 60.0, 13.0, 5.0, 15.0, 97.0, 182.0, 123.0, 53.0, 63.0, 176.0, 355.0, 428.0, 324.0, 202.0, 159.0, 300.0, 512.0, 924.0, 627.0, 439.0, 367.0, 873.0, 1367.0, 1111.0, 722.0, 411.0, 813.0, 1435.0, 1466.0, 975.0, 666.0, 693.0, 842.0, 851.0, 621.0, 522.0, 567.0, 621.0, 636.0, 456.0, 395.0, 378.0, 334.0, 306.0, 241.0, 235.0, 254.0, 275.0, 218.0, 152.0, 150.0, 162.0, 142.0, 129.0, 116.0, 115.0, 104.0, 111.0, 88.0, 82.0, 82.0, 70.0, 66.0, 50.0, 41.0, 42.0, 57.0, 41.0, 35.0, 34.0, 26.0, 37.0, 23.0, 33.0, 22.0, 24.0, 28.0, 21.0, 17.0, 15.0, 14.0, 13.0, 11.0, 12.0, 5.0, 8.0, 9.0, 8.0, 2.0, 9.0, 7.0, 10.0, 5.0, 3.0, 5.0, 3.0, 3.0, 0.0, 7.0, 5.0, 2.0, 2.0, 1.0, 3.0, 2.0, 6.0, 1.0, 3.0, 3.0, 2.0, 0.0, 1.0, 2.0, 1.0, 2.0, 5.0, 3.0, 0.0, 2.0, 2.0, 0.0, 1.0, 1.0, 1.0, 0.0, 0.0, 1.0, 0.0, 0.0, 0.0, 1.0, 1.0, 0.0, 0.0, 0.0, 0.0, 1.0, 0.0, 0.0, 0.0, 0.0, 1.0, 0.0, 0.0, 0.0, 0.0, 1.0, 0.0, 0.0, 0.0, 1.0, 1.0, 0.0, 1.0, 0.0, 1.0, 0.0, 1.0, 0.0, 1.0, 0.0, 1.0, 1.0, 0.0, 0.0, 1.0, 0.0, 0.0, 0.0, 1.0, 0.0, 0.0, 0.0, 0.0, 0.0, 0.0, 0.0, 0.0, 0.0, 0.0],
    "Name": "TimePerFitDist-0",
    "Overflow": 12.0,
    "Type": "Histo1d",
    "Underflow": 0.0,
    "x": {
        "AxisTitle": "Fit Time [us]",
        "Bins": 201,
        "High": 401.0,
        "Low": -1.0
    },
    "y": {
        "AxisTitle": "Number of Pixels"
    },
    "z": {
        "AxisTitle": "z"
    }
}