{
    "Data": [0.0, 0.0, 0.0, 0.0, 0.0, 0.0, 0.0, 0.0, 0.0, 0.0, 0.0, 0.0, 0.0, 0.0, 0.0, 4.0, 10.0, 1.0, 0.0, 5.0, 83.0, 82.0, 22.0, 8.0, 46.0, 241.0, 309.0, 161.0, 81.0, 153.0, 468.0, 642.0, 587.0, 328.0, 237.0, 262.0, 390.0, 626.0, 849.0, 582.0, 473.0, 560.0, 963.0, 1275.0, 907.0, 484.0, 397.0, 888.0, 1471.0, 1279.0, 803.0, 526.0, 682.0, 775.0, 770.0, 567.0, 444.0, 515.0, 563.0, 598.0, 469.0, 362.0, 326.0, 320.0, 262.0, 237.0, 195.0, 205.0, 196.0, 166.0, 140.0, 156.0, 157.0, 152.0, 128.0, 114.0, 102.0, 92.0, 74.0, 86.0, 77.0, 84.0, 65.0, 41.0, 49.0, 38.0, 44.0, 37.0, 34.0, 27.0, 33.0, 27.0, 34.0, 31.0, 26.0, 26.0, 26.0, 19.0, 12.0, 15.0, 9.0, 20.0, 11.0, 13.0, 13.0, 5.0, 13.0, 10.0, 8.0, 8.0, 12.0, 7.0, 2.0, 4.0, 5.0, 5.0, 4.0, 1.0, 5.0, 6.0, 2.0, 1.0, 4.0, 5.0, 2.0, 2.0, 4.0, 7.0, 2.0, 1.0, 4.0, 0.0, 3.0, 2.0, 2.0, 4.0, 2.0, 2.0, 0.0, 0.0, 3.0, 2.0, 2.0, 2.0, 1.0, 0.0, 0.0, 2.0, 0.0, 4.0, 1.0, 1.0, 1.0, 1.0, 0.0, 0.0, 2.0, 1.0, 2.0, 1.0, 1.0, 1.0, 2.0, 0.0, 0.0, 0.0, 0.0, 0.0, 0.0, 1.0, 0.0, 1.0, 3.0, 1.0, 0.0, 1.0, 1.0, 1.0, 1.0, 0.0, 1.0, 1.0, 0.0, 0.0, 0.0, 1.0, 0.0, 1.0, 0.0, 1.0, 0.0, 0.0, 0.0, 0.0, 0.0, 1.0, 0.0, 0.0, 0.0, 0.0, 0.0],
    "Name": "TimePerFitDist-0",
    "Overflow": 33.0,
    "Type": "Histo1d",
    "Underflow": 0.0,
    "x": {
        "AxisTitle": "Fit Time [us]",
        "Bins": 201,
        "High": 401.0,
        "Low": -1.0
    },
    "y": {
        "AxisTitle": "Number of Pixels"
    },
    "z": {
        "AxisTitle": "z"
    }
}