{
    "Data": [0.0, 0.0, 0.0, 1.0, 1.0, 1.0, 5.0, 24.0, 91.0, 204.0, 530.0, 1117.0, 1901.0, 2715.0, 3253.0, 3530.0, 3305.0, 2808.0, 2119.0, 1533.0, 1077.0, 769.0, 471.0, 265.0, 189.0, 80.0, 32.0, 29.0, 13.0, 9.0, 3.0],
    "Name": "NoiseDist-0",
    "Overflow": 7.0,
    "Type": "Histo1d",
    "Underflow": 6.0,
    "x": {
        "AxisTitle": "Noise [e]",
        "Bins": 31,
        "High": 162.0,
        "Low": 7.0
    },
    "y": {
        "AxisTitle": "Number of Pixels"
    },
    "z": {
        "AxisTitle": "z"
    }
}