{
    "Data": [1.0, 2.0, 3.0, 2.0, 0.0, 0.0, 2.0, 6.0, 3.0, 0.0, 5.0, 1.0, 4.0, 5.0, 3.0, 5.0, 2.0, 9.0, 6.0, 9.0, 4.0, 5.0, 4.0, 5.0, 12.0, 4.0, 12.0, 4.0, 8.0, 12.0, 11.0, 7.0, 5.0, 6.0, 4.0, 13.0, 8.0, 16.0, 5.0, 16.0, 13.0, 22.0, 22.0, 20.0, 24.0, 28.0, 36.0, 47.0, 52.0, 53.0, 60.0, 75.0, 72.0, 87.0, 107.0, 110.0, 131.0, 155.0, 185.0, 215.0, 227.0, 243.0, 274.0, 314.0, 341.0, 374.0, 405.0, 470.0, 448.0, 488.0, 521.0, 604.0, 589.0, 601.0, 634.0, 680.0, 720.0, 759.0, 782.0, 782.0, 786.0, 794.0, 766.0, 774.0, 815.0, 766.0, 781.0, 734.0, 712.0, 661.0, 630.0, 603.0, 522.0, 484.0, 432.0, 389.0, 350.0, 306.0, 292.0, 252.0, 223.0, 185.0, 164.0, 140.0, 134.0, 93.0, 101.0, 101.0, 68.0, 69.0, 62.0, 49.0, 49.0, 29.0, 40.0, 45.0, 35.0, 28.0, 32.0, 33.0, 15.0, 33.0, 21.0, 26.0, 15.0, 21.0, 23.0, 24.0, 24.0, 22.0, 17.0, 8.0, 14.0, 16.0, 13.0, 13.0, 11.0, 7.0, 11.0, 8.0, 9.0, 10.0, 9.0, 7.0, 10.0, 9.0, 11.0, 7.0, 6.0, 4.0, 10.0, 7.0, 7.0, 2.0, 5.0, 5.0, 2.0, 4.0, 4.0, 3.0, 2.0],
    "Name": "ThresholdDist-0",
    "Overflow": 58.0,
    "Type": "Histo1d",
    "Underflow": 27.0,
    "x": {
        "AxisTitle": "Threshold [e]",
        "Bins": 161,
        "High": 2205.0,
        "Low": 595.0
    },
    "y": {
        "AxisTitle": "Number of Pixels"
    },
    "z": {
        "AxisTitle": "z"
    }
}