{
    "Data": [0.0, 0.0, 0.0, 0.0, 0.0, 0.0, 0.0, 0.0, 0.0, 0.0, 0.0, 0.0, 0.0, 0.0, 0.0, 0.0, 2.0, 0.0, 1.0, 0.0, 16.0, 31.0, 13.0, 5.0, 6.0, 63.0, 178.0, 115.0, 54.0, 52.0, 160.0, 363.0, 391.0, 258.0, 130.0, 141.0, 376.0, 655.0, 771.0, 519.0, 345.0, 539.0, 1380.0, 1358.0, 935.0, 536.0, 472.0, 1381.0, 1672.0, 1298.0, 825.0, 626.0, 938.0, 830.0, 711.0, 508.0, 459.0, 610.0, 637.0, 533.0, 472.0, 412.0, 409.0, 325.0, 294.0, 227.0, 251.0, 248.0, 237.0, 181.0, 138.0, 149.0, 167.0, 129.0, 119.0, 125.0, 100.0, 103.0, 83.0, 76.0, 62.0, 72.0, 55.0, 55.0, 37.0, 42.0, 39.0, 39.0, 40.0, 23.0, 38.0, 21.0, 19.0, 24.0, 17.0, 23.0, 26.0, 15.0, 12.0, 13.0, 13.0, 13.0, 16.0, 13.0, 11.0, 9.0, 11.0, 12.0, 8.0, 6.0, 9.0, 6.0, 3.0, 5.0, 8.0, 7.0, 6.0, 5.0, 4.0, 7.0, 5.0, 4.0, 4.0, 2.0, 2.0, 2.0, 4.0, 3.0, 0.0, 1.0, 0.0, 0.0, 1.0, 0.0, 0.0, 4.0, 1.0, 1.0, 2.0, 2.0, 0.0, 0.0, 0.0, 3.0, 1.0, 2.0, 1.0, 1.0, 2.0, 1.0, 1.0, 0.0, 0.0, 0.0, 0.0, 2.0, 0.0, 1.0, 0.0, 1.0, 0.0, 0.0, 0.0, 0.0, 0.0, 0.0, 0.0, 0.0, 0.0, 0.0, 0.0, 0.0, 0.0, 0.0, 0.0, 1.0, 0.0, 1.0, 0.0, 2.0, 0.0, 0.0, 1.0, 0.0, 1.0, 0.0, 0.0, 0.0, 0.0, 0.0, 0.0, 0.0, 0.0, 0.0, 0.0, 0.0, 0.0, 0.0, 0.0, 0.0, 0.0],
    "Name": "TimePerFitDist-0",
    "Overflow": 17.0,
    "Type": "Histo1d",
    "Underflow": 0.0,
    "x": {
        "AxisTitle": "Fit Time [us]",
        "Bins": 201,
        "High": 401.0,
        "Low": -1.0
    },
    "y": {
        "AxisTitle": "Number of Pixels"
    },
    "z": {
        "AxisTitle": "z"
    }
}