{
    "SPchains": [
        {
            "Name": "OB/L3/B03/A/SP1",
            "HVGroups": [
                {
                    "HVchannel": 2,
                    "Modules": [
                        {
                            "ModuleID": "ThinQ10",
                            "Position": "A-M-B-1",
                            "singleIVcurveFile": "/eos/atlas/atlascerngroupdisk/det-itk/general/pixels/systemtest/lls-prototype-rd53a-ob/moduledata/CERN_Thin_Q10_20UPGM20025080/2-AfterLoading/XminusBottom_20220705/CERNQ10_i_v_LVon_19_4C.json",
                            "Temperature": 292.55,
                            "refTemperatureInSPchain": 293.55,
                            "refTemperaturError": 0.5,
                            "groundPotentialInSPchain": 1.9
                        },
                        {
                            "ModuleID": "Paris10",
                            "Position": "A-M-T-1",
                            "singleIVcurveFile": "/eos/atlas/atlascerngroupdisk/det-itk/general/pixels/systemtest/lls-prototype-rd53a-ob/moduledata/Paris10/2-AfterLoading/Pigtail_Xplus/output_iv__LVoff_20_2C.json",
                            "Temperature": 293.35,
                            "refTemperatureInSPchain": 295.15,
                            "refTemperaturError": 0.5,
                            "groundPotentialInSPchain": 3.6
                        },
                        {
                            "ModuleID": "Paris3",
                            "Position": "A-M-B-2",
                            "singleIVcurveFile": "/eos/atlas/atlascerngroupdisk/det-itk/general/pixels/systemtest/lls-prototype-rd53a-ob/moduledata/Paris3/3-ReceptionAfterLoading/Paris3_iv_10_3C.json",
                            "Temperature": 283.45,
                            "refTemperatureInSPchain": 293.35,
                            "refTemperaturError": 0.5,
                            "groundPotentialInSPchain": 0.0
                        }
                    ],
                    "commonIVcurveFile": "/home/itkpix/module-dossier/Figure/M6Demonstrator_QualityTracking/OB_L3_R01_T_A_SP2_HV_CH2-2022-08-11_14-36-31.csv"
                },
                {
                    "HVchannel": 1,
                    "Modules": [
                        {
                            "ModuleID": "SiegenQ1",
                            "Position": "A-M-T-2",
                            "singleIVcurveFile": "/eos/atlas/atlascerngroupdisk/det-itk/general/pixels/systemtest/lls-prototype-rd53a-ob/moduledata/SiegenQ1/2-AfterLoading/XplusTopPigtail/Siegen1_iv_LVon_18_5C.json",
                            "Temperature": 293.35,
                            "refTemperatureInSPchain": 295.65,
                            "refTemperaturError": 0.5,
                            "groundPotentialInSPchain": 5.4
                        },
                        {
                            "ModuleID": "Paris12",
                            "Position": "A-M-B-3",
                            "singleIVcurveFile": "/eos/atlas/atlascerngroupdisk/det-itk/general/pixels/systemtest/lls-prototype-rd53a-ob/moduledata/Paris12/2-AfterLoading/Pigtail_Xminus/output_iv_LVoff_20_0C_second.json.json",
                            "Temperature": 293.15,
                            "refTemperatureInSPchain": 296.05,
                            "refTemperaturError": 0.5,
                            "groundPotentialInSPchain": 8.8
                        },
                        {
                            "ModuleID": "SiegenQ2",
                            "Position": "A-M-T-3",
                            "singleIVcurveFile": "/eos/atlas/atlascerngroupdisk/det-itk/general/pixels/systemtest/lls-prototype-rd53a-ob/moduledata/SiegenQ2/2-AfterLoading/XplusTopPigtail/Siegen2_iv_LVon_21_7C.json",
                            "Temperature": 294.85,
                            "refTemperatureInSPchain": 296.25,
                            "refTemperaturError": 0.5,
                            "groundPotentialInSPchain": 7.1
                        }
                    ],
                    "commonIVcurveFile": "/home/itkpix/module-dossier/Figure/M6Demonstrator_QualityTracking/OB_L3_R01_T_A_SP2_HV_CH1-2022-08-11_14-36-23.csv"
                }
            ]
        }
    ]
}
