{
    "Data": [5.0, 6.0, 1.0, 3.0, 6.0, 7.0, 25599.0, 2432007.0, 2.0, 3.0, 2.0, 1.0, 2.0, 6.0, 6.0, 3.0],
    "Name": "L1Dist",
    "Overflow": 0.0,
    "Type": "Histo1d",
    "Underflow": 0.0,
    "x": {
        "AxisTitle": "L1Id",
        "Bins": 16,
        "High": 15.5,
        "Low": -0.5
    },
    "y": {
        "AxisTitle": "Hits"
    },
    "z": {
        "AxisTitle": "z"
    }
}