{
    "Data": [0.0, 0.0, 0.0, 0.0, 64300.0, 0.0, 0.0, 0.0, 0.0, 0.0, 0.0, 0.0, 0.0, 1773.0, 0.0, 0.0, 0.0, 1002.0, 0.0, 0.0, 731.0, 0.0, 588.0, 0.0, 458.0, 4.0, 425.0, 0.0, 368.0, 317.0, 309.0, 1.0, 291.0, 283.0, 232.0, 228.0, 214.0, 214.0, 198.0, 213.0, 363.0, 191.0, 351.0, 160.0, 347.0, 295.0, 421.0, 416.0, 422.0, 625.0, 1034.0, 13.0, 10.0, 0.0, 1.0, 1.0, 0.0, 0.0, 0.0, 0.0, 0.0, 0.0, 0.0, 0.0, 0.0, 0.0, 0.0, 0.0, 0.0, 0.0, 0.0, 0.0, 0.0, 0.0, 0.0, 0.0, 0.0, 0.0, 0.0, 0.0, 0.0, 0.0, 0.0, 0.0, 0.0, 0.0, 0.0, 0.0, 0.0, 0.0, 0.0, 0.0, 0.0, 0.0, 0.0, 0.0, 0.0, 0.0, 0.0, 0.0, 0.0],
    "Name": "SigmaTotDist-0",
    "Overflow": 1.0,
    "Type": "Histo1d",
    "Underflow": 0.0,
    "x": {
        "AxisTitle": "Sigma ToT [BC]",
        "Bins": 101,
        "High": 1.0499999523162842,
        "Low": -0.05000000074505806
    },
    "y": {
        "AxisTitle": "Number of Pixels"
    },
    "z": {
        "AxisTitle": "z"
    }
}