{
	"Module": {
		"ModuleID": "ThinQ11",
		"FolderPath": {
			"Stage1": "/eos/atlas/atlascerngroupdisk/det-itk/general/pixels/systemtest/lls-prototype-rd53a-ob/moduledata/CERN_Thin_Q11_20UPGM20025141/1-ReceptionTestCERN/AfterPotting",
			"Stage2": "/eos/atlas/atlascerngroupdisk/det-itk/general/pixels/systemtest/lls-prototype-rd53a-ob/moduledata/CERN_Thin_Q11_20UPGM20025141/2-AfterLoading/XraySetup161",
			"Stage3": "/eos/atlas/atlascerngroupdisk/det-itk/general/pixels/systemtest/lls-prototype-rd53a-ob/moduledata/CERN_Thin_Q11_20UPGM20025141/2-AfterLoading/Pigtail_Xplus",
			"Stage4": "/home/itkpix/YARRs/YARR_FELIX_MASTER/data/M12Demonstrator",
			"Stage5": "/home/itkpix/YARRs/YARR_FELIX_MASTER/data/M6M12DemonstratorRealisticServices",
			"Stage6": ""
		},
		"FWB": {
			"Stage1": "/eos/atlas/atlascerngroupdisk/det-itk/general/pixels/systemtest/lls-prototype-rd53a-ob/moduledata/CERN_Thin_Q11_20UPGM20025141/1-ReceptionTestCERN/AfterPotting/fwb",
			"Stage2": "/eos/atlas/atlascerngroupdisk/det-itk/general/pixels/systemtest/lls-prototype-rd53a-ob/moduledata/CERN_Thin_Q11_20UPGM20025141/2-AfterLoading/XraySetup161/fwb",
			"Stage3": "",
			"Stage4": "",
			"Stage5": "",
			"Stage6": ""
		},
		"Temperature": {
			"Stage1": 298.2,
			"Stage2": 299.2,
			"Stage3": 293.35,
			"Stage4": 294.2,
			"Stage5": 1,
			"Stage6": 1
		},
		"Type": [
			"diff",
			"lin",
			"syn"
		],
		"FE1": "20UPGFC0013622",
		"FE2": "20UPGFC0013607",
		"FE3": "20UPGFC0013722",
		"FE4": "20UPGFC0013623"
	},
	"PlotConfig": "./PlotConfig.json",
	"OutputFormat": [
		".png",
		".pdf"
	]
}
