{
	"Module": {
		"ModuleID": "KEKQ20",
		"FolderPath": {
			"Stage1": "/eos/atlas/atlascerngroupdisk/det-itk/general/pixels/systemtest/lls-prototype-rd53a-ob/moduledata/KEKQ20/1-ReceptionTestCERN/AfterReceptionFromJP",
			"Stage2": "/eos/atlas/atlascerngroupdisk/det-itk/general/pixels/systemtest/lls-prototype-rd53a-ob/moduledata/KEKQ20/4-AfterTabCutLoaded",
			"Stage3": "/eos/atlas/atlascerngroupdisk/det-itk/general/pixels/systemtest/lls-prototype-rd53a-ob/moduledata/KEKQ20/2-AfterLoading/XminusBottom",
			"Stage4": "/home/itkpix/YARRs/YARR_FELIX_MASTER/data/M12Demonstrator",
			"Stage5": "/home/itkpix/YARRs/YARR_FELIX_MASTER/data/M6M12DemonstratorRealisticServices",
			"Stage6": ""
		},
		"FWB": {
			"Stage1": "/eos/atlas/atlascerngroupdisk/det-itk/general/pixels/systemtest/lls-prototype-rd53a-ob/moduledata/KEKQ20/1-ReceptionTestCERN/AfterReceptionFromJP/fwb",
			"Stage2": "",
			"Stage3": "",
			"Stage4": "",
			"Stage5": "",
			"Stage6": ""
		},
		"Temperature": {
			"Stage1": 293.2,
			"Stage2": 293.2,
			"Stage3": 293.65,
			"Stage4": 294.55,
			"Stage5": 1,
			"Stage6": 1
		},
		"Type": [
			"diff",
			"lin",
			"syn"
		],
		"FE1": "20UPGFC0005672",
		"FE2": "20UPGFC0005704",
		"FE3": "20UPGFC0005736",
		"FE4": "20UPGFC0005720"
	},
	"PlotConfig": "./PlotConfig.json",
	"OutputFormat": [
		".png",
		".pdf"
	]
}
