{
    "Module": {
	"ModuleID": "SiegenQ1",
	"FolderPath": {
	    "Stage1": "/eos/atlas/atlascerngroupdisk/det-itk/general/pixels/systemtest/lls-prototype-rd53a-ob/moduledata/SiegenQ1/1-ReceptionTestCERN/AfterPotting",
	    "Stage2": "/eos/atlas/atlascerngroupdisk/det-itk/general/pixels/systemtest/lls-prototype-rd53a-ob/moduledata/SiegenQ1/2-AfterLoading/AfterLoading",
	    "Stage3": "/eos/atlas/atlascerngroupdisk/det-itk/general/pixels/systemtest/lls-prototype-rd53a-ob/moduledata/SiegenQ1/2-AfterLoading/XplusTopPigtail",
	    "Stage4": "/home/itkpix/YARRs/YARR_FELIX_MASTER/data/M6Demonstrator",
	    "Stage5": "/home/itkpix/YARRs/YARR_FELIX_MASTER/data/M6M12DemonstratorRealisticServices",
		"Stage6": ""
	},
	"FWB": {
	    "Stage1": "/eos/atlas/atlascerngroupdisk/det-itk/general/pixels/systemtest/lls-prototype-rd53a-ob/moduledata/SiegenQ1/1-ReceptionTestCERN/AfterPotting/fwb",
	    "Stage2": "/eos/atlas/atlascerngroupdisk/det-itk/general/pixels/systemtest/lls-prototype-rd53a-ob/moduledata/SiegenQ1/2-AfterLoading/AfterLoading/fwb",
	    "Stage3": "",
	    "Stage4": "",
	    "Stage5": "",
		"Stage6": ""
	}, 
	"Temperature": {
	    "Stage1": 297.15,
	    "Stage2": 293.15,
	    "Stage3": 1,
	    "Stage4": 1,
	    "Stage5": 1,
		"Stage6": 1
	},
	"Type": [ "diff", "lin", "syn" ],
	"FE1": "20UPGFC0012435",
	"FE2": "20UPGFC0012405",
	"FE3": "20UPGFC0012340",
	"FE4": "20UPGFC0012420"
    },
    "PlotConfig": "./PlotConfig.json",
    "OutputFormat": [ ".png", ".pdf" ]
}
