{
    "Module": {
	"ModuleID": "Paris3",
	"FolderPath": {
	    "Stage1": "/eos/atlas/atlascerngroupdisk/det-itk/general/pixels/systemtest/lls-prototype-rd53a-ob/moduledata/Paris3/Initial-ModuleQCAtParis/AfterTCBurnIn",
	    "Stage2": "/eos/atlas/atlascerngroupdisk/det-itk/general/pixels/systemtest/lls-prototype-rd53a-ob/moduledata/Paris3/1-ReceptionTestCERN/AfterPotting125",
	    "Stage3": "/eos/atlas/atlascerngroupdisk/det-itk/general/pixels/systemtest/lls-prototype-rd53a-ob/moduledata/Paris3/1-ReceptionTestCERN/AfterTabCutting"
	},
	"FWB": {
	    "Stage1": "/eos/atlas/atlascerngroupdisk/det-itk/general/pixels/systemtest/lls-prototype-rd53a-ob/moduledata/Paris3/Initial-ModuleQCAtParis/AfterTCBurnIn/fwb",
	    "Stage2": "/eos/atlas/atlascerngroupdisk/det-itk/general/pixels/systemtest/lls-prototype-rd53a-ob/moduledata/Paris3/1-ReceptionTestCERN/AfterPotting125/fwb",
	    "Stage3": ""
	}, 
	"Temperature": {
	    "Stage1": 303.15,
	    "Stage2": 284.15,
	    "Stage3": 298.15
	},
	"Type": [ "diff", "lin", "syn" ],
	"FE1": "20UPGFC0012627",
	"FE2": "20UPGFC0012659",
	"FE3": "20UPGFC0012580",
	"FE4": "20UPGFC0012675"
    },
    "PlotConfig": "./PlotConfig.json",
    "OutputFormat": [ ".png", ".pdf" ]
}
