{
	"Module": {
		"ModuleID": "Goe10",
		"FolderPath": {
			"Stage1": "/eos/atlas/atlascerngroupdisk/det-itk/general/pixels/systemtest/lls-prototype-rd53a-ob/moduledata/Goe10/1-ReceptionTestCERN/BeforePotting",
			"Stage2": "/eos/atlas/atlascerngroupdisk/det-itk/general/pixels/systemtest/lls-prototype-rd53a-ob/moduledata/Goe10/2-AfterLoading/BeforeTC/XraySetupWarm",
			"Stage3": "/eos/atlas/atlascerngroupdisk/det-itk/general/pixels/systemtest/lls-prototype-rd53a-ob/moduledata/Goe10/2-AfterLoading/Pigtail_Xminus",
			"Stage4": "/home/itkpix/YARRs/YARR_FELIX_MASTER/data/M12Demonstrator",
			"Stage5": "/home/itkpix/YARRs/YARR_FELIX_MASTER/data/M6M12DemonstratorRealisticServices",
			"Stage6": ""
		},
		"FWB": {
			"Stage1": "/eos/atlas/atlascerngroupdisk/det-itk/general/pixels/systemtest/lls-prototype-rd53a-ob/moduledata/Goe10/1-ReceptionTestCERN/BeforePotting/fwb",
			"Stage2": "/eos/atlas/atlascerngroupdisk/det-itk/general/pixels/systemtest/lls-prototype-rd53a-ob/moduledata/Goe10/2-AfterLoading/BeforeTC/XraySetupWarm/fwb",
			"Stage3": "",
			"Stage4": "",
			"Stage5": "",
			"Stage6": ""
		},
		"Temperature": {
			"Stage1": 288.2,
			"Stage2": 293.2,
			"Stage3": 293.4,
			"Stage4": 295.65,
			"Stage5": 1,
			"Stage6": 1
		},
		"Type": [
			"diff",
			"lin",
			"syn"
		],
		"FE1": "20UPGFC0010115",
		"FE2": "20UPGFC0010020",
		"FE3": "20UPGFC0010036",
		"FE4": "20UPGFC0010052"
	},
	"PlotConfig": "./PlotConfig.json",
	"OutputFormat": [
		".png",
		".pdf"
	]
}
