{
    "Data": [2872.0, 479.0, 239.0, 0.0, 2.0, 480.0, 32469.0, 7643459.0, 0.0, 0.0, 0.0, 0.0, 0.0, 0.0, 0.0, 0.0],
    "Name": "L1Dist",
    "Overflow": 0.0,
    "Type": "Histo1d",
    "Underflow": 0.0,
    "x": {
        "AxisTitle": "L1Id",
        "Bins": 16,
        "High": 15.5,
        "Low": -0.5
    },
    "y": {
        "AxisTitle": "Hits"
    },
    "z": {
        "AxisTitle": "z"
    }
}