{'measurement': 'measName', 'fields': {'measV_HV2': -50.0, 'measI_HV2': -9.403364e-08, 'settV_HV2': -50.0, 'settI_HV2': 0.0}, 'tags': {'user': 'root'}}
{'measurement': 'measName', 'fields': {'measV_HV2': -50.0, 'measI_HV2': -1.051701e-07, 'settV_HV2': -50.0, 'settI_HV2': 0.0}, 'tags': {'user': 'root'}}
{'measurement': 'measName', 'fields': {'measV_HV2': -50.0, 'measI_HV2': -9.905086e-08, 'settV_HV2': -50.0, 'settI_HV2': 0.0}, 'tags': {'user': 'root'}}
{'measurement': 'measName', 'fields': {'measV_HV2': -50.0, 'measI_HV2': -1.004115e-07, 'settV_HV2': -50.0, 'settI_HV2': 0.0}, 'tags': {'user': 'root'}}
{'measurement': 'measName', 'fields': {'measV_HV2': -50.0, 'measI_HV2': -1.0878e-07, 'settV_HV2': -50.0, 'settI_HV2': 0.0}, 'tags': {'user': 'root'}}
{'measurement': 'measName', 'fields': {'measV_HV2': -50.0, 'measI_HV2': -9.320737e-08, 'settV_HV2': -50.0, 'settI_HV2': 0.0}, 'tags': {'user': 'root'}}
{'measurement': 'measName', 'fields': {'measV_HV2': -50.0, 'measI_HV2': -1.095773e-07, 'settV_HV2': -50.0, 'settI_HV2': 0.0}, 'tags': {'user': 'root'}}
{'measurement': 'measName', 'fields': {'measV_HV2': -50.0, 'measI_HV2': -9.511916e-08, 'settV_HV2': -50.0, 'settI_HV2': 0.0}, 'tags': {'user': 'root'}}
{'measurement': 'measName', 'fields': {'measV_HV2': -50.0, 'measI_HV2': -1.054516e-07, 'settV_HV2': -50.0, 'settI_HV2': 0.0}, 'tags': {'user': 'root'}}
{'measurement': 'measName', 'fields': {'measV_HV2': -50.0, 'measI_HV2': -1.01961e-07, 'settV_HV2': -50.0, 'settI_HV2': 0.0}, 'tags': {'user': 'root'}}
{'measurement': 'measName', 'fields': {'measV_HV2': -50.0, 'measI_HV2': -9.791779e-08, 'settV_HV2': -50.0, 'settI_HV2': 0.0}, 'tags': {'user': 'root'}}
{'measurement': 'measName', 'fields': {'measV_HV2': -50.0, 'measI_HV2': -1.080174e-07, 'settV_HV2': -50.0, 'settI_HV2': 0.0}, 'tags': {'user': 'root'}}
{'measurement': 'measName', 'fields': {'measV_HV2': -50.0, 'measI_HV2': -9.503771e-08, 'settV_HV2': -50.0, 'settI_HV2': 0.0}, 'tags': {'user': 'root'}}
{'measurement': 'measName', 'fields': {'measV_HV2': -50.0, 'measI_HV2': -1.098163e-07, 'settV_HV2': -50.0, 'settI_HV2': 0.0}, 'tags': {'user': 'root'}}
{'measurement': 'measName', 'fields': {'measV_HV2': -50.0, 'measI_HV2': -9.385885e-08, 'settV_HV2': -50.0, 'settI_HV2': 0.0}, 'tags': {'user': 'root'}}
{'measurement': 'measName', 'fields': {'measV_HV2': -50.0, 'measI_HV2': -1.096269e-07, 'settV_HV2': -50.0, 'settI_HV2': 0.0}, 'tags': {'user': 'root'}}
{'measurement': 'measName', 'fields': {'measV_HV2': -50.0, 'measI_HV2': -9.418349e-08, 'settV_HV2': -50.0, 'settI_HV2': 0.0}, 'tags': {'user': 'root'}}
{'measurement': 'measName', 'fields': {'measV_HV2': -50.0, 'measI_HV2': -1.100885e-07, 'settV_HV2': -50.0, 'settI_HV2': 0.0}, 'tags': {'user': 'root'}}
{'measurement': 'measName', 'fields': {'measV_HV2': -50.0, 'measI_HV2': -9.409582e-08, 'settV_HV2': -50.0, 'settI_HV2': 0.0}, 'tags': {'user': 'root'}}
{'measurement': 'measName', 'fields': {'measV_HV2': -50.0, 'measI_HV2': -1.083157e-07, 'settV_HV2': -50.0, 'settI_HV2': 0.0}, 'tags': {'user': 'root'}}
{'measurement': 'measName', 'fields': {'measV_HV2': -50.0, 'measI_HV2': -1.010541e-07, 'settV_HV2': -50.0, 'settI_HV2': 0.0}, 'tags': {'user': 'root'}}
{'measurement': 'measName', 'fields': {'measV_HV2': -50.0, 'measI_HV2': -9.819753e-08, 'settV_HV2': -50.0, 'settI_HV2': 0.0}, 'tags': {'user': 'root'}}
{'measurement': 'measName', 'fields': {'measV_HV2': -50.0, 'measI_HV2': -1.097482e-07, 'settV_HV2': -50.0, 'settI_HV2': 0.0}, 'tags': {'user': 'root'}}
{'measurement': 'measName', 'fields': {'measV_HV2': -50.0, 'measI_HV2': -9.381498e-08, 'settV_HV2': -50.0, 'settI_HV2': 0.0}, 'tags': {'user': 'root'}}
{'measurement': 'measName', 'fields': {'measV_HV2': -50.0, 'measI_HV2': -1.093138e-07, 'settV_HV2': -50.0, 'settI_HV2': 0.0}, 'tags': {'user': 'root'}}
{'measurement': 'measName', 'fields': {'measV_HV2': -50.0, 'measI_HV2': -9.447359e-08, 'settV_HV2': -50.0, 'settI_HV2': 0.0}, 'tags': {'user': 'root'}}
{'measurement': 'measName', 'fields': {'measV_HV2': -50.0, 'measI_HV2': -1.094892e-07, 'settV_HV2': -50.0, 'settI_HV2': 0.0}, 'tags': {'user': 'root'}}
{'measurement': 'measName', 'fields': {'measV_HV2': -50.0, 'measI_HV2': -9.342386e-08, 'settV_HV2': -50.0, 'settI_HV2': 0.0}, 'tags': {'user': 'root'}}
{'measurement': 'measName', 'fields': {'measV_HV2': -50.0, 'measI_HV2': -1.088993e-07, 'settV_HV2': -50.0, 'settI_HV2': 0.0}, 'tags': {'user': 'root'}}
{'measurement': 'measName', 'fields': {'measV_HV2': -50.0, 'measI_HV2': -9.605765e-08, 'settV_HV2': -50.0, 'settI_HV2': 0.0}, 'tags': {'user': 'root'}}
{'measurement': 'measName', 'fields': {'measV_HV2': -50.0, 'measI_HV2': -1.039474e-07, 'settV_HV2': -50.0, 'settI_HV2': 0.0}, 'tags': {'user': 'root'}}
{'measurement': 'measName', 'fields': {'measV_HV2': -50.0, 'measI_HV2': -1.048013e-07, 'settV_HV2': -50.0, 'settI_HV2': 0.0}, 'tags': {'user': 'root'}}
{'measurement': 'measName', 'fields': {'measV_HV2': -50.0, 'measI_HV2': -9.875262e-08, 'settV_HV2': -50.0, 'settI_HV2': 0.0}, 'tags': {'user': 'root'}}
{'measurement': 'measName', 'fields': {'measV_HV2': -50.0, 'measI_HV2': -1.084859e-07, 'settV_HV2': -50.0, 'settI_HV2': 0.0}, 'tags': {'user': 'root'}}
{'measurement': 'measName', 'fields': {'measV_HV2': -50.0, 'measI_HV2': -9.368178e-08, 'settV_HV2': -50.0, 'settI_HV2': 0.0}, 'tags': {'user': 'root'}}
{'measurement': 'measName', 'fields': {'measV_HV2': -50.0, 'measI_HV2': -1.084957e-07, 'settV_HV2': -50.0, 'settI_HV2': 0.0}, 'tags': {'user': 'root'}}
{'measurement': 'measName', 'fields': {'measV_HV2': -50.0, 'measI_HV2': -9.953968e-08, 'settV_HV2': -50.0, 'settI_HV2': 0.0}, 'tags': {'user': 'root'}}
{'measurement': 'measName', 'fields': {'measV_HV2': -50.0, 'measI_HV2': -1.001295e-07, 'settV_HV2': -50.0, 'settI_HV2': 0.0}, 'tags': {'user': 'root'}}
{'measurement': 'measName', 'fields': {'measV_HV2': -50.0, 'measI_HV2': -1.049625e-07, 'settV_HV2': -50.0, 'settI_HV2': 0.0}, 'tags': {'user': 'root'}}
{'measurement': 'measName', 'fields': {'measV_HV2': -50.0, 'measI_HV2': -9.483644e-08, 'settV_HV2': -50.0, 'settI_HV2': 0.0}, 'tags': {'user': 'root'}}
{'measurement': 'measName', 'fields': {'measV_HV2': -50.0, 'measI_HV2': -1.086636e-07, 'settV_HV2': -50.0, 'settI_HV2': 0.0}, 'tags': {'user': 'root'}}
{'measurement': 'measName', 'fields': {'measV_HV2': -50.0, 'measI_HV2': -9.364442e-08, 'settV_HV2': -50.0, 'settI_HV2': 0.0}, 'tags': {'user': 'root'}}
{'measurement': 'measName', 'fields': {'measV_HV2': -50.0, 'measI_HV2': -1.091075e-07, 'settV_HV2': -50.0, 'settI_HV2': 0.0}, 'tags': {'user': 'root'}}
{'measurement': 'measName', 'fields': {'measV_HV2': -50.0, 'measI_HV2': -9.477477e-08, 'settV_HV2': -50.0, 'settI_HV2': 0.0}, 'tags': {'user': 'root'}}
{'measurement': 'measName', 'fields': {'measV_HV2': -50.0, 'measI_HV2': -1.089731e-07, 'settV_HV2': -50.0, 'settI_HV2': 0.0}, 'tags': {'user': 'root'}}
{'measurement': 'measName', 'fields': {'measV_HV2': -50.0, 'measI_HV2': -1.004199e-07, 'settV_HV2': -50.0, 'settI_HV2': 0.0}, 'tags': {'user': 'root'}}
{'measurement': 'measName', 'fields': {'measV_HV2': -50.0, 'measI_HV2': -9.490372e-08, 'settV_HV2': -50.0, 'settI_HV2': 0.0}, 'tags': {'user': 'root'}}
{'measurement': 'measName', 'fields': {'measV_HV2': -50.0, 'measI_HV2': -1.09945e-07, 'settV_HV2': -50.0, 'settI_HV2': 0.0}, 'tags': {'user': 'root'}}
{'measurement': 'measName', 'fields': {'measV_HV2': -50.0, 'measI_HV2': -9.604228e-08, 'settV_HV2': -50.0, 'settI_HV2': 0.0}, 'tags': {'user': 'root'}}
{'measurement': 'measName', 'fields': {'measV_HV2': -50.0, 'measI_HV2': -1.004619e-07, 'settV_HV2': -50.0, 'settI_HV2': 0.0}, 'tags': {'user': 'root'}}
{'measurement': 'measName', 'fields': {'measV_HV2': -50.0, 'measI_HV2': -1.06395e-07, 'settV_HV2': -50.0, 'settI_HV2': 0.0}, 'tags': {'user': 'root'}}
{'measurement': 'measName', 'fields': {'measV_HV2': -50.0, 'measI_HV2': -9.681748e-08, 'settV_HV2': -50.0, 'settI_HV2': 0.0}, 'tags': {'user': 'root'}}
{'measurement': 'measName', 'fields': {'measV_HV2': -50.0, 'measI_HV2': -1.061059e-07, 'settV_HV2': -50.0, 'settI_HV2': 0.0}, 'tags': {'user': 'root'}}
{'measurement': 'measName', 'fields': {'measV_HV2': -50.0, 'measI_HV2': -9.528116e-08, 'settV_HV2': -50.0, 'settI_HV2': 0.0}, 'tags': {'user': 'root'}}
{'measurement': 'measName', 'fields': {'measV_HV2': -50.0, 'measI_HV2': -1.099748e-07, 'settV_HV2': -50.0, 'settI_HV2': 0.0}, 'tags': {'user': 'root'}}
{'measurement': 'measName', 'fields': {'measV_HV2': -50.0, 'measI_HV2': -9.322428e-08, 'settV_HV2': -50.0, 'settI_HV2': 0.0}, 'tags': {'user': 'root'}}
{'measurement': 'measName', 'fields': {'measV_HV2': -50.0, 'measI_HV2': -1.090378e-07, 'settV_HV2': -50.0, 'settI_HV2': 0.0}, 'tags': {'user': 'root'}}
{'measurement': 'measName', 'fields': {'measV_HV2': -50.0, 'measI_HV2': -9.440129e-08, 'settV_HV2': -50.0, 'settI_HV2': 0.0}, 'tags': {'user': 'root'}}
{'measurement': 'measName', 'fields': {'measV_HV2': -50.0, 'measI_HV2': -1.087567e-07, 'settV_HV2': -50.0, 'settI_HV2': 0.0}, 'tags': {'user': 'root'}}
{'measurement': 'measName', 'fields': {'measV_HV2': -50.0, 'measI_HV2': -9.334128e-08, 'settV_HV2': -50.0, 'settI_HV2': 0.0}, 'tags': {'user': 'root'}}
{'measurement': 'measName', 'fields': {'measV_HV2': -50.0, 'measI_HV2': -1.071512e-07, 'settV_HV2': -50.0, 'settI_HV2': 0.0}, 'tags': {'user': 'root'}}
{'measurement': 'measName', 'fields': {'measV_HV2': -50.0, 'measI_HV2': -9.532906e-08, 'settV_HV2': -50.0, 'settI_HV2': 0.0}, 'tags': {'user': 'root'}}
{'measurement': 'measName', 'fields': {'measV_HV2': -50.0, 'measI_HV2': -1.034022e-07, 'settV_HV2': -50.0, 'settI_HV2': 0.0}, 'tags': {'user': 'root'}}
{'measurement': 'measName', 'fields': {'measV_HV2': -50.0, 'measI_HV2': -1.046745e-07, 'settV_HV2': -50.0, 'settI_HV2': 0.0}, 'tags': {'user': 'root'}}
{'measurement': 'measName', 'fields': {'measV_HV2': -50.0, 'measI_HV2': -9.468231e-08, 'settV_HV2': -50.0, 'settI_HV2': 0.0}, 'tags': {'user': 'root'}}
{'measurement': 'measName', 'fields': {'measV_HV2': -50.0, 'measI_HV2': -1.099576e-07, 'settV_HV2': -50.0, 'settI_HV2': 0.0}, 'tags': {'user': 'root'}}
{'measurement': 'measName', 'fields': {'measV_HV2': -50.0, 'measI_HV2': -9.522443e-08, 'settV_HV2': -50.0, 'settI_HV2': 0.0}, 'tags': {'user': 'root'}}
{'measurement': 'measName', 'fields': {'measV_HV2': -50.0, 'measI_HV2': -9.941034e-08, 'settV_HV2': -50.0, 'settI_HV2': 0.0}, 'tags': {'user': 'root'}}
{'measurement': 'measName', 'fields': {'measV_HV2': -50.0, 'measI_HV2': -1.057658e-07, 'settV_HV2': -50.0, 'settI_HV2': 0.0}, 'tags': {'user': 'root'}}
{'measurement': 'measName', 'fields': {'measV_HV2': -50.0, 'measI_HV2': -9.676357e-08, 'settV_HV2': -50.0, 'settI_HV2': 0.0}, 'tags': {'user': 'root'}}
{'measurement': 'measName', 'fields': {'measV_HV2': -50.0, 'measI_HV2': -1.094696e-07, 'settV_HV2': -50.0, 'settI_HV2': 0.0}, 'tags': {'user': 'root'}}
{'measurement': 'measName', 'fields': {'measV_HV2': -50.0, 'measI_HV2': -9.404716e-08, 'settV_HV2': -50.0, 'settI_HV2': 0.0}, 'tags': {'user': 'root'}}
{'measurement': 'measName', 'fields': {'measV_HV2': -50.0, 'measI_HV2': -1.061245e-07, 'settV_HV2': -50.0, 'settI_HV2': 0.0}, 'tags': {'user': 'root'}}
{'measurement': 'measName', 'fields': {'measV_HV2': -50.0, 'measI_HV2': -9.851475e-08, 'settV_HV2': -50.0, 'settI_HV2': 0.0}, 'tags': {'user': 'root'}}
{'measurement': 'measName', 'fields': {'measV_HV2': -50.0, 'measI_HV2': -9.843145e-08, 'settV_HV2': -50.0, 'settI_HV2': 0.0}, 'tags': {'user': 'root'}}
{'measurement': 'measName', 'fields': {'measV_HV2': -50.0, 'measI_HV2': -1.093947e-07, 'settV_HV2': -50.0, 'settI_HV2': 0.0}, 'tags': {'user': 'root'}}
{'measurement': 'measName', 'fields': {'measV_HV2': -50.0, 'measI_HV2': -9.333949e-08, 'settV_HV2': -50.0, 'settI_HV2': 0.0}, 'tags': {'user': 'root'}}
{'measurement': 'measName', 'fields': {'measV_HV2': -50.0, 'measI_HV2': -1.057609e-07, 'settV_HV2': -50.0, 'settI_HV2': 0.0}, 'tags': {'user': 'root'}}
{'measurement': 'measName', 'fields': {'measV_HV2': -50.0, 'measI_HV2': -9.954656e-08, 'settV_HV2': -50.0, 'settI_HV2': 0.0}, 'tags': {'user': 'root'}}
{'measurement': 'measName', 'fields': {'measV_HV2': -50.0, 'measI_HV2': -9.876037e-08, 'settV_HV2': -50.0, 'settI_HV2': 0.0}, 'tags': {'user': 'root'}}
{'measurement': 'measName', 'fields': {'measV_HV2': -50.0, 'measI_HV2': -1.083293e-07, 'settV_HV2': -50.0, 'settI_HV2': 0.0}, 'tags': {'user': 'root'}}
{'measurement': 'measName', 'fields': {'measV_HV2': -50.0, 'measI_HV2': -9.403259e-08, 'settV_HV2': -50.0, 'settI_HV2': 0.0}, 'tags': {'user': 'root'}}
{'measurement': 'measName', 'fields': {'measV_HV2': -50.0, 'measI_HV2': -1.075315e-07, 'settV_HV2': -50.0, 'settI_HV2': 0.0}, 'tags': {'user': 'root'}}
{'measurement': 'measName', 'fields': {'measV_HV2': -50.0, 'measI_HV2': -1.024407e-07, 'settV_HV2': -50.0, 'settI_HV2': 0.0}, 'tags': {'user': 'root'}}
{'measurement': 'measName', 'fields': {'measV_HV2': -50.0, 'measI_HV2': -9.520948e-08, 'settV_HV2': -50.0, 'settI_HV2': 0.0}, 'tags': {'user': 'root'}}
{'measurement': 'measName', 'fields': {'measV_HV2': -50.0, 'measI_HV2': -1.091857e-07, 'settV_HV2': -50.0, 'settI_HV2': 0.0}, 'tags': {'user': 'root'}}
{'measurement': 'measName', 'fields': {'measV_HV2': -50.0, 'measI_HV2': -9.318574e-08, 'settV_HV2': -50.0, 'settI_HV2': 0.0}, 'tags': {'user': 'root'}}
{'measurement': 'measName', 'fields': {'measV_HV2': -50.0, 'measI_HV2': -1.083073e-07, 'settV_HV2': -50.0, 'settI_HV2': 0.0}, 'tags': {'user': 'root'}}
{'measurement': 'measName', 'fields': {'measV_HV2': -50.0, 'measI_HV2': -9.552189e-08, 'settV_HV2': -50.0, 'settI_HV2': 0.0}, 'tags': {'user': 'root'}}
{'measurement': 'measName', 'fields': {'measV_HV2': -50.0, 'measI_HV2': -1.059184e-07, 'settV_HV2': -50.0, 'settI_HV2': 0.0}, 'tags': {'user': 'root'}}
{'measurement': 'measName', 'fields': {'measV_HV2': -50.0, 'measI_HV2': -9.690925e-08, 'settV_HV2': -50.0, 'settI_HV2': 0.0}, 'tags': {'user': 'root'}}
{'measurement': 'measName', 'fields': {'measV_HV2': -50.0, 'measI_HV2': -1.06593e-07, 'settV_HV2': -50.0, 'settI_HV2': 0.0}, 'tags': {'user': 'root'}}
{'measurement': 'measName', 'fields': {'measV_HV2': -50.0, 'measI_HV2': -9.822503e-08, 'settV_HV2': -50.0, 'settI_HV2': 0.0}, 'tags': {'user': 'root'}}
{'measurement': 'measName', 'fields': {'measV_HV2': -50.0, 'measI_HV2': -1.026176e-07, 'settV_HV2': -50.0, 'settI_HV2': 0.0}, 'tags': {'user': 'root'}}
{'measurement': 'measName', 'fields': {'measV_HV2': -50.0, 'measI_HV2': -9.981385e-08, 'settV_HV2': -50.0, 'settI_HV2': 0.0}, 'tags': {'user': 'root'}}
{'measurement': 'measName', 'fields': {'measV_HV2': -50.0, 'measI_HV2': -9.964205e-08, 'settV_HV2': -50.0, 'settI_HV2': 0.0}, 'tags': {'user': 'root'}}
{'measurement': 'measName', 'fields': {'measV_HV2': -50.0, 'measI_HV2': -1.037748e-07, 'settV_HV2': -50.0, 'settI_HV2': 0.0}, 'tags': {'user': 'root'}}
{'measurement': 'measName', 'fields': {'measV_HV2': -50.0, 'measI_HV2': -9.599957e-08, 'settV_HV2': -50.0, 'settI_HV2': 0.0}, 'tags': {'user': 'root'}}
{'measurement': 'measName', 'fields': {'measV_HV2': -50.0, 'measI_HV2': -1.070574e-07, 'settV_HV2': -50.0, 'settI_HV2': 0.0}, 'tags': {'user': 'root'}}
{'measurement': 'measName', 'fields': {'measV_HV2': -50.0, 'measI_HV2': -9.425533e-08, 'settV_HV2': -50.0, 'settI_HV2': 0.0}, 'tags': {'user': 'root'}}
{'measurement': 'measName', 'fields': {'measV_HV2': -50.0, 'measI_HV2': -1.101831e-07, 'settV_HV2': -50.0, 'settI_HV2': 0.0}, 'tags': {'user': 'root'}}
{'measurement': 'measName', 'fields': {'measV_HV2': -50.0, 'measI_HV2': -9.256272e-08, 'settV_HV2': -50.0, 'settI_HV2': 0.0}, 'tags': {'user': 'root'}}
{'measurement': 'measName', 'fields': {'measV_HV2': -50.0, 'measI_HV2': -1.062302e-07, 'settV_HV2': -50.0, 'settI_HV2': 0.0}, 'tags': {'user': 'root'}}
{'measurement': 'measName', 'fields': {'measV_HV2': -50.0, 'measI_HV2': -9.729407e-08, 'settV_HV2': -50.0, 'settI_HV2': 0.0}, 'tags': {'user': 'root'}}
{'measurement': 'measName', 'fields': {'measV_HV2': -50.0, 'measI_HV2': -1.021038e-07, 'settV_HV2': -50.0, 'settI_HV2': 0.0}, 'tags': {'user': 'root'}}
{'measurement': 'measName', 'fields': {'measV_HV2': -50.0, 'measI_HV2': -1.006918e-07, 'settV_HV2': -50.0, 'settI_HV2': 0.0}, 'tags': {'user': 'root'}}
{'measurement': 'measName', 'fields': {'measV_HV2': -50.0, 'measI_HV2': -1.004643e-07, 'settV_HV2': -50.0, 'settI_HV2': 0.0}, 'tags': {'user': 'root'}}
{'measurement': 'measName', 'fields': {'measV_HV2': -50.0, 'measI_HV2': -1.064476e-07, 'settV_HV2': -50.0, 'settI_HV2': 0.0}, 'tags': {'user': 'root'}}
{'measurement': 'measName', 'fields': {'measV_HV2': -50.0, 'measI_HV2': -9.523264e-08, 'settV_HV2': -50.0, 'settI_HV2': 0.0}, 'tags': {'user': 'root'}}
{'measurement': 'measName', 'fields': {'measV_HV2': -50.0, 'measI_HV2': -1.101135e-07, 'settV_HV2': -50.0, 'settI_HV2': 0.0}, 'tags': {'user': 'root'}}
{'measurement': 'measName', 'fields': {'measV_HV2': -50.0, 'measI_HV2': -9.601457e-08, 'settV_HV2': -50.0, 'settI_HV2': 0.0}, 'tags': {'user': 'root'}}
{'measurement': 'measName', 'fields': {'measV_HV2': -50.0, 'measI_HV2': -1.072859e-07, 'settV_HV2': -50.0, 'settI_HV2': 0.0}, 'tags': {'user': 'root'}}
{'measurement': 'measName', 'fields': {'measV_HV2': -50.0, 'measI_HV2': -9.612696e-08, 'settV_HV2': -50.0, 'settI_HV2': 0.0}, 'tags': {'user': 'root'}}
{'measurement': 'measName', 'fields': {'measV_HV2': -50.0, 'measI_HV2': -1.050824e-07, 'settV_HV2': -50.0, 'settI_HV2': 0.0}, 'tags': {'user': 'root'}}
{'measurement': 'measName', 'fields': {'measV_HV2': -50.0, 'measI_HV2': -1.071181e-07, 'settV_HV2': -50.0, 'settI_HV2': 0.0}, 'tags': {'user': 'root'}}
{'measurement': 'measName', 'fields': {'measV_HV2': -50.0, 'measI_HV2': -9.464684e-08, 'settV_HV2': -50.0, 'settI_HV2': 0.0}, 'tags': {'user': 'root'}}
{'measurement': 'measName', 'fields': {'measV_HV2': -50.0, 'measI_HV2': -1.097813e-07, 'settV_HV2': -50.0, 'settI_HV2': 0.0}, 'tags': {'user': 'root'}}
{'measurement': 'measName', 'fields': {'measV_HV2': -50.0, 'measI_HV2': -9.419009e-08, 'settV_HV2': -50.0, 'settI_HV2': 0.0}, 'tags': {'user': 'root'}}
{'measurement': 'measName', 'fields': {'measV_HV2': -50.0, 'measI_HV2': -1.088486e-07, 'settV_HV2': -50.0, 'settI_HV2': 0.0}, 'tags': {'user': 'root'}}
{'measurement': 'measName', 'fields': {'measV_HV2': -50.0, 'measI_HV2': -9.467269e-08, 'settV_HV2': -50.0, 'settI_HV2': 0.0}, 'tags': {'user': 'root'}}
{'measurement': 'measName', 'fields': {'measV_HV2': -50.0, 'measI_HV2': -1.047497e-07, 'settV_HV2': -50.0, 'settI_HV2': 0.0}, 'tags': {'user': 'root'}}
{'measurement': 'measName', 'fields': {'measV_HV2': -50.0, 'measI_HV2': -1.026262e-07, 'settV_HV2': -50.0, 'settI_HV2': 0.0}, 'tags': {'user': 'root'}}
{'measurement': 'measName', 'fields': {'measV_HV2': -50.0, 'measI_HV2': -9.925228e-08, 'settV_HV2': -50.0, 'settI_HV2': 0.0}, 'tags': {'user': 'root'}}
{'measurement': 'measName', 'fields': {'measV_HV2': -50.0, 'measI_HV2': -1.048661e-07, 'settV_HV2': -50.0, 'settI_HV2': 0.0}, 'tags': {'user': 'root'}}
{'measurement': 'measName', 'fields': {'measV_HV2': -50.0, 'measI_HV2': -9.522928e-08, 'settV_HV2': -50.0, 'settI_HV2': 0.0}, 'tags': {'user': 'root'}}
{'measurement': 'measName', 'fields': {'measV_HV2': -50.0, 'measI_HV2': -1.087054e-07, 'settV_HV2': -50.0, 'settI_HV2': 0.0}, 'tags': {'user': 'root'}}
{'measurement': 'measName', 'fields': {'measV_HV2': -50.0, 'measI_HV2': -9.391928e-08, 'settV_HV2': -50.0, 'settI_HV2': 0.0}, 'tags': {'user': 'root'}}
{'measurement': 'measName', 'fields': {'measV_HV2': -50.0, 'measI_HV2': -1.105315e-07, 'settV_HV2': -50.0, 'settI_HV2': 0.0}, 'tags': {'user': 'root'}}
{'measurement': 'measName', 'fields': {'measV_HV2': -50.0, 'measI_HV2': -9.563997e-08, 'settV_HV2': -50.0, 'settI_HV2': 0.0}, 'tags': {'user': 'root'}}
{'measurement': 'measName', 'fields': {'measV_HV2': -50.0, 'measI_HV2': -1.081428e-07, 'settV_HV2': -50.0, 'settI_HV2': 0.0}, 'tags': {'user': 'root'}}
{'measurement': 'measName', 'fields': {'measV_HV2': -50.0, 'measI_HV2': -1.01348e-07, 'settV_HV2': -50.0, 'settI_HV2': 0.0}, 'tags': {'user': 'root'}}
{'measurement': 'measName', 'fields': {'measV_HV2': -50.0, 'measI_HV2': -1.003339e-07, 'settV_HV2': -50.0, 'settI_HV2': 0.0}, 'tags': {'user': 'root'}}
{'measurement': 'measName', 'fields': {'measV_HV2': -50.0, 'measI_HV2': -1.053118e-07, 'settV_HV2': -50.0, 'settI_HV2': 0.0}, 'tags': {'user': 'root'}}
{'measurement': 'measName', 'fields': {'measV_HV2': -50.0, 'measI_HV2': -9.894968e-08, 'settV_HV2': -50.0, 'settI_HV2': 0.0}, 'tags': {'user': 'root'}}
{'measurement': 'measName', 'fields': {'measV_HV2': -50.0, 'measI_HV2': -1.051805e-07, 'settV_HV2': -50.0, 'settI_HV2': 0.0}, 'tags': {'user': 'root'}}
{'measurement': 'measName', 'fields': {'measV_HV2': -50.0, 'measI_HV2': -9.659944e-08, 'settV_HV2': -50.0, 'settI_HV2': 0.0}, 'tags': {'user': 'root'}}
{'measurement': 'measName', 'fields': {'measV_HV2': -50.0, 'measI_HV2': -1.074696e-07, 'settV_HV2': -50.0, 'settI_HV2': 0.0}, 'tags': {'user': 'root'}}
{'measurement': 'measName', 'fields': {'measV_HV2': -50.0, 'measI_HV2': -9.377857e-08, 'settV_HV2': -50.0, 'settI_HV2': 0.0}, 'tags': {'user': 'root'}}
{'measurement': 'measName', 'fields': {'measV_HV2': -50.0, 'measI_HV2': -1.098675e-07, 'settV_HV2': -50.0, 'settI_HV2': 0.0}, 'tags': {'user': 'root'}}
{'measurement': 'measName', 'fields': {'measV_HV2': -50.0, 'measI_HV2': -9.415021e-08, 'settV_HV2': -50.0, 'settI_HV2': 0.0}, 'tags': {'user': 'root'}}
{'measurement': 'measName', 'fields': {'measV_HV2': -50.0, 'measI_HV2': -1.079658e-07, 'settV_HV2': -50.0, 'settI_HV2': 0.0}, 'tags': {'user': 'root'}}
{'measurement': 'measName', 'fields': {'measV_HV2': -50.0, 'measI_HV2': -9.773203e-08, 'settV_HV2': -50.0, 'settI_HV2': 0.0}, 'tags': {'user': 'root'}}
{'measurement': 'measName', 'fields': {'measV_HV2': -50.0, 'measI_HV2': -1.020861e-07, 'settV_HV2': -50.0, 'settI_HV2': 0.0}, 'tags': {'user': 'root'}}
{'measurement': 'measName', 'fields': {'measV_HV2': -50.0, 'measI_HV2': -1.013963e-07, 'settV_HV2': -50.0, 'settI_HV2': 0.0}, 'tags': {'user': 'root'}}

