{'measurement': 'measName', 'fields': {'measV_HV2': -100.0, 'measI_HV2': -8.55612e-08, 'settV_HV2': -100.0, 'settI_HV2': 0.0}, 'tags': {'user': 'root'}}
{'measurement': 'measName', 'fields': {'measV_HV2': -100.0, 'measI_HV2': -7.319716e-08, 'settV_HV2': -100.0, 'settI_HV2': 0.0}, 'tags': {'user': 'root'}}
{'measurement': 'measName', 'fields': {'measV_HV2': -100.0, 'measI_HV2': -8.571155e-08, 'settV_HV2': -100.0, 'settI_HV2': 0.0}, 'tags': {'user': 'root'}}
{'measurement': 'measName', 'fields': {'measV_HV2': -100.0, 'measI_HV2': -7.296543e-08, 'settV_HV2': -100.0, 'settI_HV2': 0.0}, 'tags': {'user': 'root'}}
{'measurement': 'measName', 'fields': {'measV_HV2': -100.0, 'measI_HV2': -8.401619e-08, 'settV_HV2': -100.0, 'settI_HV2': 0.0}, 'tags': {'user': 'root'}}
{'measurement': 'measName', 'fields': {'measV_HV2': -100.0, 'measI_HV2': -7.48776e-08, 'settV_HV2': -100.0, 'settI_HV2': 0.0}, 'tags': {'user': 'root'}}
{'measurement': 'measName', 'fields': {'measV_HV2': -100.0, 'measI_HV2': -7.906866e-08, 'settV_HV2': -100.0, 'settI_HV2': 0.0}, 'tags': {'user': 'root'}}
{'measurement': 'measName', 'fields': {'measV_HV2': -100.0, 'measI_HV2': -8.022546e-08, 'settV_HV2': -100.0, 'settI_HV2': 0.0}, 'tags': {'user': 'root'}}
{'measurement': 'measName', 'fields': {'measV_HV2': -100.0, 'measI_HV2': -7.996591e-08, 'settV_HV2': -100.0, 'settI_HV2': 0.0}, 'tags': {'user': 'root'}}
{'measurement': 'measName', 'fields': {'measV_HV2': -100.0, 'measI_HV2': -7.793935e-08, 'settV_HV2': -100.0, 'settI_HV2': 0.0}, 'tags': {'user': 'root'}}
{'measurement': 'measName', 'fields': {'measV_HV2': -100.0, 'measI_HV2': -8.006725e-08, 'settV_HV2': -100.0, 'settI_HV2': 0.0}, 'tags': {'user': 'root'}}
{'measurement': 'measName', 'fields': {'measV_HV2': -100.0, 'measI_HV2': -7.539428e-08, 'settV_HV2': -100.0, 'settI_HV2': 0.0}, 'tags': {'user': 'root'}}
{'measurement': 'measName', 'fields': {'measV_HV2': -100.0, 'measI_HV2': -8.057589e-08, 'settV_HV2': -100.0, 'settI_HV2': 0.0}, 'tags': {'user': 'root'}}
{'measurement': 'measName', 'fields': {'measV_HV2': -100.0, 'measI_HV2': -7.549961e-08, 'settV_HV2': -100.0, 'settI_HV2': 0.0}, 'tags': {'user': 'root'}}
{'measurement': 'measName', 'fields': {'measV_HV2': -100.0, 'measI_HV2': -8.110732e-08, 'settV_HV2': -100.0, 'settI_HV2': 0.0}, 'tags': {'user': 'root'}}
{'measurement': 'measName', 'fields': {'measV_HV2': -100.0, 'measI_HV2': -7.74516e-08, 'settV_HV2': -100.0, 'settI_HV2': 0.0}, 'tags': {'user': 'root'}}
{'measurement': 'measName', 'fields': {'measV_HV2': -100.0, 'measI_HV2': -7.543851e-08, 'settV_HV2': -100.0, 'settI_HV2': 0.0}, 'tags': {'user': 'root'}}
{'measurement': 'measName', 'fields': {'measV_HV2': -100.0, 'measI_HV2': -8.427165e-08, 'settV_HV2': -100.0, 'settI_HV2': 0.0}, 'tags': {'user': 'root'}}
{'measurement': 'measName', 'fields': {'measV_HV2': -100.0, 'measI_HV2': -7.296345e-08, 'settV_HV2': -100.0, 'settI_HV2': 0.0}, 'tags': {'user': 'root'}}
{'measurement': 'measName', 'fields': {'measV_HV2': -100.0, 'measI_HV2': -8.48778e-08, 'settV_HV2': -100.0, 'settI_HV2': 0.0}, 'tags': {'user': 'root'}}
{'measurement': 'measName', 'fields': {'measV_HV2': -100.0, 'measI_HV2': -7.304497e-08, 'settV_HV2': -100.0, 'settI_HV2': 0.0}, 'tags': {'user': 'root'}}
{'measurement': 'measName', 'fields': {'measV_HV2': -100.0, 'measI_HV2': -8.485789e-08, 'settV_HV2': -100.0, 'settI_HV2': 0.0}, 'tags': {'user': 'root'}}
{'measurement': 'measName', 'fields': {'measV_HV2': -100.0, 'measI_HV2': -7.23986e-08, 'settV_HV2': -100.0, 'settI_HV2': 0.0}, 'tags': {'user': 'root'}}
{'measurement': 'measName', 'fields': {'measV_HV2': -100.0, 'measI_HV2': -8.32731e-08, 'settV_HV2': -100.0, 'settI_HV2': 0.0}, 'tags': {'user': 'root'}}
{'measurement': 'measName', 'fields': {'measV_HV2': -100.0, 'measI_HV2': -7.765524e-08, 'settV_HV2': -100.0, 'settI_HV2': 0.0}, 'tags': {'user': 'root'}}
{'measurement': 'measName', 'fields': {'measV_HV2': -100.0, 'measI_HV2': -7.994716e-08, 'settV_HV2': -100.0, 'settI_HV2': 0.0}, 'tags': {'user': 'root'}}
{'measurement': 'measName', 'fields': {'measV_HV2': -100.0, 'measI_HV2': -8.041253e-08, 'settV_HV2': -100.0, 'settI_HV2': 0.0}, 'tags': {'user': 'root'}}
{'measurement': 'measName', 'fields': {'measV_HV2': -100.0, 'measI_HV2': -7.653842e-08, 'settV_HV2': -100.0, 'settI_HV2': 0.0}, 'tags': {'user': 'root'}}
{'measurement': 'measName', 'fields': {'measV_HV2': -100.0, 'measI_HV2': -8.574277e-08, 'settV_HV2': -100.0, 'settI_HV2': 0.0}, 'tags': {'user': 'root'}}
{'measurement': 'measName', 'fields': {'measV_HV2': -100.0, 'measI_HV2': -7.238858e-08, 'settV_HV2': -100.0, 'settI_HV2': 0.0}, 'tags': {'user': 'root'}}
{'measurement': 'measName', 'fields': {'measV_HV2': -100.0, 'measI_HV2': -8.618402e-08, 'settV_HV2': -100.0, 'settI_HV2': 0.0}, 'tags': {'user': 'root'}}
{'measurement': 'measName', 'fields': {'measV_HV2': -100.0, 'measI_HV2': -7.456029e-08, 'settV_HV2': -100.0, 'settI_HV2': 0.0}, 'tags': {'user': 'root'}}
{'measurement': 'measName', 'fields': {'measV_HV2': -100.0, 'measI_HV2': -8.333492e-08, 'settV_HV2': -100.0, 'settI_HV2': 0.0}, 'tags': {'user': 'root'}}
{'measurement': 'measName', 'fields': {'measV_HV2': -100.0, 'measI_HV2': -7.930785e-08, 'settV_HV2': -100.0, 'settI_HV2': 0.0}, 'tags': {'user': 'root'}}
{'measurement': 'measName', 'fields': {'measV_HV2': -100.0, 'measI_HV2': -7.964805e-08, 'settV_HV2': -100.0, 'settI_HV2': 0.0}, 'tags': {'user': 'root'}}
{'measurement': 'measName', 'fields': {'measV_HV2': -100.0, 'measI_HV2': -7.821828e-08, 'settV_HV2': -100.0, 'settI_HV2': 0.0}, 'tags': {'user': 'root'}}
{'measurement': 'measName', 'fields': {'measV_HV2': -100.0, 'measI_HV2': -8.13757e-08, 'settV_HV2': -100.0, 'settI_HV2': 0.0}, 'tags': {'user': 'root'}}
{'measurement': 'measName', 'fields': {'measV_HV2': -100.0, 'measI_HV2': -7.548709e-08, 'settV_HV2': -100.0, 'settI_HV2': 0.0}, 'tags': {'user': 'root'}}
{'measurement': 'measName', 'fields': {'measV_HV2': -100.0, 'measI_HV2': -8.20953e-08, 'settV_HV2': -100.0, 'settI_HV2': 0.0}, 'tags': {'user': 'root'}}
{'measurement': 'measName', 'fields': {'measV_HV2': -100.0, 'measI_HV2': -7.595388e-08, 'settV_HV2': -100.0, 'settI_HV2': 0.0}, 'tags': {'user': 'root'}}
{'measurement': 'measName', 'fields': {'measV_HV2': -100.0, 'measI_HV2': -8.352158e-08, 'settV_HV2': -100.0, 'settI_HV2': 0.0}, 'tags': {'user': 'root'}}
{'measurement': 'measName', 'fields': {'measV_HV2': -100.0, 'measI_HV2': -7.544758e-08, 'settV_HV2': -100.0, 'settI_HV2': 0.0}, 'tags': {'user': 'root'}}
{'measurement': 'measName', 'fields': {'measV_HV2': -100.0, 'measI_HV2': -8.362007e-08, 'settV_HV2': -100.0, 'settI_HV2': 0.0}, 'tags': {'user': 'root'}}
{'measurement': 'measName', 'fields': {'measV_HV2': -100.0, 'measI_HV2': -7.25311e-08, 'settV_HV2': -100.0, 'settI_HV2': 0.0}, 'tags': {'user': 'root'}}
{'measurement': 'measName', 'fields': {'measV_HV2': -100.0, 'measI_HV2': -8.553793e-08, 'settV_HV2': -100.0, 'settI_HV2': 0.0}, 'tags': {'user': 'root'}}
{'measurement': 'measName', 'fields': {'measV_HV2': -100.0, 'measI_HV2': -7.46089e-08, 'settV_HV2': -100.0, 'settI_HV2': 0.0}, 'tags': {'user': 'root'}}
{'measurement': 'measName', 'fields': {'measV_HV2': -100.0, 'measI_HV2': -7.83918e-08, 'settV_HV2': -100.0, 'settI_HV2': 0.0}, 'tags': {'user': 'root'}}
{'measurement': 'measName', 'fields': {'measV_HV2': -100.0, 'measI_HV2': -8.308382e-08, 'settV_HV2': -100.0, 'settI_HV2': 0.0}, 'tags': {'user': 'root'}}
{'measurement': 'measName', 'fields': {'measV_HV2': -100.0, 'measI_HV2': -7.545184e-08, 'settV_HV2': -100.0, 'settI_HV2': 0.0}, 'tags': {'user': 'root'}}
{'measurement': 'measName', 'fields': {'measV_HV2': -100.0, 'measI_HV2': -8.591297e-08, 'settV_HV2': -100.0, 'settI_HV2': 0.0}, 'tags': {'user': 'root'}}
{'measurement': 'measName', 'fields': {'measV_HV2': -100.0, 'measI_HV2': -7.123371e-08, 'settV_HV2': -100.0, 'settI_HV2': 0.0}, 'tags': {'user': 'root'}}
{'measurement': 'measName', 'fields': {'measV_HV2': -100.0, 'measI_HV2': -8.601123e-08, 'settV_HV2': -100.0, 'settI_HV2': 0.0}, 'tags': {'user': 'root'}}
{'measurement': 'measName', 'fields': {'measV_HV2': -100.0, 'measI_HV2': -7.303988e-08, 'settV_HV2': -100.0, 'settI_HV2': 0.0}, 'tags': {'user': 'root'}}
{'measurement': 'measName', 'fields': {'measV_HV2': -100.0, 'measI_HV2': -8.407275e-08, 'settV_HV2': -100.0, 'settI_HV2': 0.0}, 'tags': {'user': 'root'}}
{'measurement': 'measName', 'fields': {'measV_HV2': -100.0, 'measI_HV2': -7.559616e-08, 'settV_HV2': -100.0, 'settI_HV2': 0.0}, 'tags': {'user': 'root'}}
{'measurement': 'measName', 'fields': {'measV_HV2': -100.0, 'measI_HV2': -8.13487e-08, 'settV_HV2': -100.0, 'settI_HV2': 0.0}, 'tags': {'user': 'root'}}
{'measurement': 'measName', 'fields': {'measV_HV2': -100.0, 'measI_HV2': -7.872141e-08, 'settV_HV2': -100.0, 'settI_HV2': 0.0}, 'tags': {'user': 'root'}}
{'measurement': 'measName', 'fields': {'measV_HV2': -100.0, 'measI_HV2': -7.409345e-08, 'settV_HV2': -100.0, 'settI_HV2': 0.0}, 'tags': {'user': 'root'}}
{'measurement': 'measName', 'fields': {'measV_HV2': -100.0, 'measI_HV2': -8.405233e-08, 'settV_HV2': -100.0, 'settI_HV2': 0.0}, 'tags': {'user': 'root'}}
{'measurement': 'measName', 'fields': {'measV_HV2': -100.0, 'measI_HV2': -7.233961e-08, 'settV_HV2': -100.0, 'settI_HV2': 0.0}, 'tags': {'user': 'root'}}
{'measurement': 'measName', 'fields': {'measV_HV2': -100.0, 'measI_HV2': -8.279706e-08, 'settV_HV2': -100.0, 'settI_HV2': 0.0}, 'tags': {'user': 'root'}}
{'measurement': 'measName', 'fields': {'measV_HV2': -100.0, 'measI_HV2': -7.713462e-08, 'settV_HV2': -100.0, 'settI_HV2': 0.0}, 'tags': {'user': 'root'}}
{'measurement': 'measName', 'fields': {'measV_HV2': -100.0, 'measI_HV2': -7.909274e-08, 'settV_HV2': -100.0, 'settI_HV2': 0.0}, 'tags': {'user': 'root'}}
{'measurement': 'measName', 'fields': {'measV_HV2': -100.0, 'measI_HV2': -8.415861e-08, 'settV_HV2': -100.0, 'settI_HV2': 0.0}, 'tags': {'user': 'root'}}
{'measurement': 'measName', 'fields': {'measV_HV2': -100.0, 'measI_HV2': -7.381988e-08, 'settV_HV2': -100.0, 'settI_HV2': 0.0}, 'tags': {'user': 'root'}}
{'measurement': 'measName', 'fields': {'measV_HV2': -100.0, 'measI_HV2': -8.641039e-08, 'settV_HV2': -100.0, 'settI_HV2': 0.0}, 'tags': {'user': 'root'}}
{'measurement': 'measName', 'fields': {'measV_HV2': -100.0, 'measI_HV2': -7.240497e-08, 'settV_HV2': -100.0, 'settI_HV2': 0.0}, 'tags': {'user': 'root'}}
{'measurement': 'measName', 'fields': {'measV_HV2': -100.0, 'measI_HV2': -8.572285e-08, 'settV_HV2': -100.0, 'settI_HV2': 0.0}, 'tags': {'user': 'root'}}
{'measurement': 'measName', 'fields': {'measV_HV2': -100.0, 'measI_HV2': -7.152663e-08, 'settV_HV2': -100.0, 'settI_HV2': 0.0}, 'tags': {'user': 'root'}}
{'measurement': 'measName', 'fields': {'measV_HV2': -100.0, 'measI_HV2': -8.564753e-08, 'settV_HV2': -100.0, 'settI_HV2': 0.0}, 'tags': {'user': 'root'}}
{'measurement': 'measName', 'fields': {'measV_HV2': -100.0, 'measI_HV2': -7.18234e-08, 'settV_HV2': -100.0, 'settI_HV2': 0.0}, 'tags': {'user': 'root'}}
{'measurement': 'measName', 'fields': {'measV_HV2': -100.0, 'measI_HV2': -8.576805e-08, 'settV_HV2': -100.0, 'settI_HV2': 0.0}, 'tags': {'user': 'root'}}
{'measurement': 'measName', 'fields': {'measV_HV2': -100.0, 'measI_HV2': -7.186147e-08, 'settV_HV2': -100.0, 'settI_HV2': 0.0}, 'tags': {'user': 'root'}}
{'measurement': 'measName', 'fields': {'measV_HV2': -100.0, 'measI_HV2': -8.150117e-08, 'settV_HV2': -100.0, 'settI_HV2': 0.0}, 'tags': {'user': 'root'}}
{'measurement': 'measName', 'fields': {'measV_HV2': -100.0, 'measI_HV2': -8.034605e-08, 'settV_HV2': -100.0, 'settI_HV2': 0.0}, 'tags': {'user': 'root'}}
{'measurement': 'measName', 'fields': {'measV_HV2': -100.0, 'measI_HV2': -7.421941e-08, 'settV_HV2': -100.0, 'settI_HV2': 0.0}, 'tags': {'user': 'root'}}
{'measurement': 'measName', 'fields': {'measV_HV2': -100.0, 'measI_HV2': -8.475499e-08, 'settV_HV2': -100.0, 'settI_HV2': 0.0}, 'tags': {'user': 'root'}}
{'measurement': 'measName', 'fields': {'measV_HV2': -100.0, 'measI_HV2': -7.2224e-08, 'settV_HV2': -100.0, 'settI_HV2': 0.0}, 'tags': {'user': 'root'}}
{'measurement': 'measName', 'fields': {'measV_HV2': -100.0, 'measI_HV2': -8.527157e-08, 'settV_HV2': -100.0, 'settI_HV2': 0.0}, 'tags': {'user': 'root'}}
{'measurement': 'measName', 'fields': {'measV_HV2': -100.0, 'measI_HV2': -7.931024e-08, 'settV_HV2': -100.0, 'settI_HV2': 0.0}, 'tags': {'user': 'root'}}
{'measurement': 'measName', 'fields': {'measV_HV2': -100.0, 'measI_HV2': -7.502226e-08, 'settV_HV2': -100.0, 'settI_HV2': 0.0}, 'tags': {'user': 'root'}}
{'measurement': 'measName', 'fields': {'measV_HV2': -100.0, 'measI_HV2': -8.43676e-08, 'settV_HV2': -100.0, 'settI_HV2': 0.0}, 'tags': {'user': 'root'}}
{'measurement': 'measName', 'fields': {'measV_HV2': -100.0, 'measI_HV2': -7.299785e-08, 'settV_HV2': -100.0, 'settI_HV2': 0.0}, 'tags': {'user': 'root'}}
{'measurement': 'measName', 'fields': {'measV_HV2': -100.0, 'measI_HV2': -8.641173e-08, 'settV_HV2': -100.0, 'settI_HV2': 0.0}, 'tags': {'user': 'root'}}
{'measurement': 'measName', 'fields': {'measV_HV2': -100.0, 'measI_HV2': -7.299207e-08, 'settV_HV2': -100.0, 'settI_HV2': 0.0}, 'tags': {'user': 'root'}}
{'measurement': 'measName', 'fields': {'measV_HV2': -100.0, 'measI_HV2': -8.578311e-08, 'settV_HV2': -100.0, 'settI_HV2': 0.0}, 'tags': {'user': 'root'}}
{'measurement': 'measName', 'fields': {'measV_HV2': -100.0, 'measI_HV2': -7.165526e-08, 'settV_HV2': -100.0, 'settI_HV2': 0.0}, 'tags': {'user': 'root'}}
{'measurement': 'measName', 'fields': {'measV_HV2': -100.0, 'measI_HV2': -8.619699e-08, 'settV_HV2': -100.0, 'settI_HV2': 0.0}, 'tags': {'user': 'root'}}
{'measurement': 'measName', 'fields': {'measV_HV2': -100.0, 'measI_HV2': -7.301952e-08, 'settV_HV2': -100.0, 'settI_HV2': 0.0}, 'tags': {'user': 'root'}}
{'measurement': 'measName', 'fields': {'measV_HV2': -100.0, 'measI_HV2': -8.293947e-08, 'settV_HV2': -100.0, 'settI_HV2': 0.0}, 'tags': {'user': 'root'}}
{'measurement': 'measName', 'fields': {'measV_HV2': -100.0, 'measI_HV2': -7.437589e-08, 'settV_HV2': -100.0, 'settI_HV2': 0.0}, 'tags': {'user': 'root'}}
{'measurement': 'measName', 'fields': {'measV_HV2': -100.0, 'measI_HV2': -7.540338e-08, 'settV_HV2': -100.0, 'settI_HV2': 0.0}, 'tags': {'user': 'root'}}
{'measurement': 'measName', 'fields': {'measV_HV2': -100.0, 'measI_HV2': -8.499558e-08, 'settV_HV2': -100.0, 'settI_HV2': 0.0}, 'tags': {'user': 'root'}}
{'measurement': 'measName', 'fields': {'measV_HV2': -100.0, 'measI_HV2': -7.153228e-08, 'settV_HV2': -100.0, 'settI_HV2': 0.0}, 'tags': {'user': 'root'}}
{'measurement': 'measName', 'fields': {'measV_HV2': -100.0, 'measI_HV2': -8.41196e-08, 'settV_HV2': -100.0, 'settI_HV2': 0.0}, 'tags': {'user': 'root'}}
{'measurement': 'measName', 'fields': {'measV_HV2': -100.0, 'measI_HV2': -7.618365e-08, 'settV_HV2': -100.0, 'settI_HV2': 0.0}, 'tags': {'user': 'root'}}
{'measurement': 'measName', 'fields': {'measV_HV2': -100.0, 'measI_HV2': -7.893106e-08, 'settV_HV2': -100.0, 'settI_HV2': 0.0}, 'tags': {'user': 'root'}}
{'measurement': 'measName', 'fields': {'measV_HV2': -100.0, 'measI_HV2': -8.419234e-08, 'settV_HV2': -100.0, 'settI_HV2': 0.0}, 'tags': {'user': 'root'}}
{'measurement': 'measName', 'fields': {'measV_HV2': -100.0, 'measI_HV2': -7.219418e-08, 'settV_HV2': -100.0, 'settI_HV2': 0.0}, 'tags': {'user': 'root'}}
{'measurement': 'measName', 'fields': {'measV_HV2': -100.0, 'measI_HV2': -8.638394e-08, 'settV_HV2': -100.0, 'settI_HV2': 0.0}, 'tags': {'user': 'root'}}
{'measurement': 'measName', 'fields': {'measV_HV2': -100.0, 'measI_HV2': -7.127349e-08, 'settV_HV2': -100.0, 'settI_HV2': 0.0}, 'tags': {'user': 'root'}}
{'measurement': 'measName', 'fields': {'measV_HV2': -100.0, 'measI_HV2': -8.489077e-08, 'settV_HV2': -100.0, 'settI_HV2': 0.0}, 'tags': {'user': 'root'}}
{'measurement': 'measName', 'fields': {'measV_HV2': -100.0, 'measI_HV2': -7.363154e-08, 'settV_HV2': -100.0, 'settI_HV2': 0.0}, 'tags': {'user': 'root'}}
{'measurement': 'measName', 'fields': {'measV_HV2': -100.0, 'measI_HV2': -8.431056e-08, 'settV_HV2': -100.0, 'settI_HV2': 0.0}, 'tags': {'user': 'root'}}
{'measurement': 'measName', 'fields': {'measV_HV2': -100.0, 'measI_HV2': -7.737187e-08, 'settV_HV2': -100.0, 'settI_HV2': 0.0}, 'tags': {'user': 'root'}}
{'measurement': 'measName', 'fields': {'measV_HV2': -100.0, 'measI_HV2': -7.672595e-08, 'settV_HV2': -100.0, 'settI_HV2': 0.0}, 'tags': {'user': 'root'}}
{'measurement': 'measName', 'fields': {'measV_HV2': -100.0, 'measI_HV2': -8.237798e-08, 'settV_HV2': -100.0, 'settI_HV2': 0.0}, 'tags': {'user': 'root'}}
{'measurement': 'measName', 'fields': {'measV_HV2': -100.0, 'measI_HV2': -7.663632e-08, 'settV_HV2': -100.0, 'settI_HV2': 0.0}, 'tags': {'user': 'root'}}
{'measurement': 'measName', 'fields': {'measV_HV2': -100.0, 'measI_HV2': -7.665097e-08, 'settV_HV2': -100.0, 'settI_HV2': 0.0}, 'tags': {'user': 'root'}}
{'measurement': 'measName', 'fields': {'measV_HV2': -100.0, 'measI_HV2': -7.799813e-08, 'settV_HV2': -100.0, 'settI_HV2': 0.0}, 'tags': {'user': 'root'}}
{'measurement': 'measName', 'fields': {'measV_HV2': -100.0, 'measI_HV2': -7.869655e-08, 'settV_HV2': -100.0, 'settI_HV2': 0.0}, 'tags': {'user': 'root'}}
{'measurement': 'measName', 'fields': {'measV_HV2': -100.0, 'measI_HV2': -7.79279e-08, 'settV_HV2': -100.0, 'settI_HV2': 0.0}, 'tags': {'user': 'root'}}
{'measurement': 'measName', 'fields': {'measV_HV2': -100.0, 'measI_HV2': -7.615755e-08, 'settV_HV2': -100.0, 'settI_HV2': 0.0}, 'tags': {'user': 'root'}}
{'measurement': 'measName', 'fields': {'measV_HV2': -100.0, 'measI_HV2': -7.966479e-08, 'settV_HV2': -100.0, 'settI_HV2': 0.0}, 'tags': {'user': 'root'}}
{'measurement': 'measName', 'fields': {'measV_HV2': -100.0, 'measI_HV2': -7.97431e-08, 'settV_HV2': -100.0, 'settI_HV2': 0.0}, 'tags': {'user': 'root'}}
{'measurement': 'measName', 'fields': {'measV_HV2': -100.0, 'measI_HV2': -7.568416e-08, 'settV_HV2': -100.0, 'settI_HV2': 0.0}, 'tags': {'user': 'root'}}
{'measurement': 'measName', 'fields': {'measV_HV2': -100.0, 'measI_HV2': -8.54689e-08, 'settV_HV2': -100.0, 'settI_HV2': 0.0}, 'tags': {'user': 'root'}}
{'measurement': 'measName', 'fields': {'measV_HV2': -100.0, 'measI_HV2': -7.274627e-08, 'settV_HV2': -100.0, 'settI_HV2': 0.0}, 'tags': {'user': 'root'}}
{'measurement': 'measName', 'fields': {'measV_HV2': -100.0, 'measI_HV2': -7.803491e-08, 'settV_HV2': -100.0, 'settI_HV2': 0.0}, 'tags': {'user': 'root'}}
{'measurement': 'measName', 'fields': {'measV_HV2': -100.0, 'measI_HV2': -8.129692e-08, 'settV_HV2': -100.0, 'settI_HV2': 0.0}, 'tags': {'user': 'root'}}
{'measurement': 'measName', 'fields': {'measV_HV2': -100.0, 'measI_HV2': -7.531382e-08, 'settV_HV2': -100.0, 'settI_HV2': 0.0}, 'tags': {'user': 'root'}}
{'measurement': 'measName', 'fields': {'measV_HV2': -100.0, 'measI_HV2': -8.548607e-08, 'settV_HV2': -100.0, 'settI_HV2': 0.0}, 'tags': {'user': 'root'}}
{'measurement': 'measName', 'fields': {'measV_HV2': -100.0, 'measI_HV2': -7.094484e-08, 'settV_HV2': -100.0, 'settI_HV2': 0.0}, 'tags': {'user': 'root'}}
{'measurement': 'measName', 'fields': {'measV_HV2': -100.0, 'measI_HV2': -8.567716e-08, 'settV_HV2': -100.0, 'settI_HV2': 0.0}, 'tags': {'user': 'root'}}
{'measurement': 'measName', 'fields': {'measV_HV2': -100.0, 'measI_HV2': -7.328244e-08, 'settV_HV2': -100.0, 'settI_HV2': 0.0}, 'tags': {'user': 'root'}}
{'measurement': 'measName', 'fields': {'measV_HV2': -100.0, 'measI_HV2': -8.35737e-08, 'settV_HV2': -100.0, 'settI_HV2': 0.0}, 'tags': {'user': 'root'}}
{'measurement': 'measName', 'fields': {'measV_HV2': -100.0, 'measI_HV2': -7.616631e-08, 'settV_HV2': -100.0, 'settI_HV2': 0.0}, 'tags': {'user': 'root'}}
{'measurement': 'measName', 'fields': {'measV_HV2': -100.0, 'measI_HV2': -7.700374e-08, 'settV_HV2': -100.0, 'settI_HV2': 0.0}, 'tags': {'user': 'root'}}
{'measurement': 'measName', 'fields': {'measV_HV2': -100.0, 'measI_HV2': -8.101355e-08, 'settV_HV2': -100.0, 'settI_HV2': 0.0}, 'tags': {'user': 'root'}}
{'measurement': 'measName', 'fields': {'measV_HV2': -100.0, 'measI_HV2': -7.220076e-08, 'settV_HV2': -100.0, 'settI_HV2': 0.0}, 'tags': {'user': 'root'}}
{'measurement': 'measName', 'fields': {'measV_HV2': -100.0, 'measI_HV2': -8.60641e-08, 'settV_HV2': -100.0, 'settI_HV2': 0.0}, 'tags': {'user': 'root'}}
{'measurement': 'measName', 'fields': {'measV_HV2': -100.0, 'measI_HV2': -7.484302e-08, 'settV_HV2': -100.0, 'settI_HV2': 0.0}, 'tags': {'user': 'root'}}
{'measurement': 'measName', 'fields': {'measV_HV2': -100.0, 'measI_HV2': -8.299919e-08, 'settV_HV2': -100.0, 'settI_HV2': 0.0}, 'tags': {'user': 'root'}}
{'measurement': 'measName', 'fields': {'measV_HV2': -100.0, 'measI_HV2': -7.480515e-08, 'settV_HV2': -100.0, 'settI_HV2': 0.0}, 'tags': {'user': 'root'}}
{'measurement': 'measName', 'fields': {'measV_HV2': -100.0, 'measI_HV2': -7.653471e-08, 'settV_HV2': -100.0, 'settI_HV2': 0.0}, 'tags': {'user': 'root'}}
{'measurement': 'measName', 'fields': {'measV_HV2': -100.0, 'measI_HV2': -8.344709e-08, 'settV_HV2': -100.0, 'settI_HV2': 0.0}, 'tags': {'user': 'root'}}
{'measurement': 'measName', 'fields': {'measV_HV2': -100.0, 'measI_HV2': -7.17838e-08, 'settV_HV2': -100.0, 'settI_HV2': 0.0}, 'tags': {'user': 'root'}}
{'measurement': 'measName', 'fields': {'measV_HV2': -100.0, 'measI_HV2': -8.568102e-08, 'settV_HV2': -100.0, 'settI_HV2': 0.0}, 'tags': {'user': 'root'}}
{'measurement': 'measName', 'fields': {'measV_HV2': -100.0, 'measI_HV2': -7.378197e-08, 'settV_HV2': -100.0, 'settI_HV2': 0.0}, 'tags': {'user': 'root'}}
{'measurement': 'measName', 'fields': {'measV_HV2': -100.0, 'measI_HV2': -8.445332e-08, 'settV_HV2': -100.0, 'settI_HV2': 0.0}, 'tags': {'user': 'root'}}
{'measurement': 'measName', 'fields': {'measV_HV2': -100.0, 'measI_HV2': -7.923406e-08, 'settV_HV2': -100.0, 'settI_HV2': 0.0}, 'tags': {'user': 'root'}}
{'measurement': 'measName', 'fields': {'measV_HV2': -100.0, 'measI_HV2': -7.675741e-08, 'settV_HV2': -100.0, 'settI_HV2': 0.0}, 'tags': {'user': 'root'}}
{'measurement': 'measName', 'fields': {'measV_HV2': -100.0, 'measI_HV2': -8.086451e-08, 'settV_HV2': -100.0, 'settI_HV2': 0.0}, 'tags': {'user': 'root'}}
{'measurement': 'measName', 'fields': {'measV_HV2': -100.0, 'measI_HV2': -7.311197e-08, 'settV_HV2': -100.0, 'settI_HV2': 0.0}, 'tags': {'user': 'root'}}
{'measurement': 'measName', 'fields': {'measV_HV2': -100.0, 'measI_HV2': -8.508272e-08, 'settV_HV2': -100.0, 'settI_HV2': 0.0}, 'tags': {'user': 'root'}}
{'measurement': 'measName', 'fields': {'measV_HV2': -100.0, 'measI_HV2': -7.309633e-08, 'settV_HV2': -100.0, 'settI_HV2': 0.0}, 'tags': {'user': 'root'}}
{'measurement': 'measName', 'fields': {'measV_HV2': -100.0, 'measI_HV2': -8.377793e-08, 'settV_HV2': -100.0, 'settI_HV2': 0.0}, 'tags': {'user': 'root'}}
{'measurement': 'measName', 'fields': {'measV_HV2': -100.0, 'measI_HV2': -7.746241e-08, 'settV_HV2': -100.0, 'settI_HV2': 0.0}, 'tags': {'user': 'root'}}
{'measurement': 'measName', 'fields': {'measV_HV2': -100.0, 'measI_HV2': -7.761704e-08, 'settV_HV2': -100.0, 'settI_HV2': 0.0}, 'tags': {'user': 'root'}}
{'measurement': 'measName', 'fields': {'measV_HV2': -100.0, 'measI_HV2': -8.246672e-08, 'settV_HV2': -100.0, 'settI_HV2': 0.0}, 'tags': {'user': 'root'}}
{'measurement': 'measName', 'fields': {'measV_HV2': -100.0, 'measI_HV2': -7.410645e-08, 'settV_HV2': -100.0, 'settI_HV2': 0.0}, 'tags': {'user': 'root'}}
{'measurement': 'measName', 'fields': {'measV_HV2': -100.0, 'measI_HV2': -8.540047e-08, 'settV_HV2': -100.0, 'settI_HV2': 0.0}, 'tags': {'user': 'root'}}
{'measurement': 'measName', 'fields': {'measV_HV2': -100.0, 'measI_HV2': -7.277976e-08, 'settV_HV2': -100.0, 'settI_HV2': 0.0}, 'tags': {'user': 'root'}}
{'measurement': 'measName', 'fields': {'measV_HV2': -100.0, 'measI_HV2': -8.329729e-08, 'settV_HV2': -100.0, 'settI_HV2': 0.0}, 'tags': {'user': 'root'}}
{'measurement': 'measName', 'fields': {'measV_HV2': -100.0, 'measI_HV2': -7.623667e-08, 'settV_HV2': -100.0, 'settI_HV2': 0.0}, 'tags': {'user': 'root'}}
{'measurement': 'measName', 'fields': {'measV_HV2': -100.0, 'measI_HV2': -7.647048e-08, 'settV_HV2': -100.0, 'settI_HV2': 0.0}, 'tags': {'user': 'root'}}
{'measurement': 'measName', 'fields': {'measV_HV2': -100.0, 'measI_HV2': -8.415532e-08, 'settV_HV2': -100.0, 'settI_HV2': 0.0}, 'tags': {'user': 'root'}}
{'measurement': 'measName', 'fields': {'measV_HV2': -100.0, 'measI_HV2': -7.336274e-08, 'settV_HV2': -100.0, 'settI_HV2': 0.0}, 'tags': {'user': 'root'}}
{'measurement': 'measName', 'fields': {'measV_HV2': -100.0, 'measI_HV2': -8.302536e-08, 'settV_HV2': -100.0, 'settI_HV2': 0.0}, 'tags': {'user': 'root'}}
{'measurement': 'measName', 'fields': {'measV_HV2': -100.0, 'measI_HV2': -7.274863e-08, 'settV_HV2': -100.0, 'settI_HV2': 0.0}, 'tags': {'user': 'root'}}
{'measurement': 'measName', 'fields': {'measV_HV2': -100.0, 'measI_HV2': -8.34241e-08, 'settV_HV2': -100.0, 'settI_HV2': 0.0}, 'tags': {'user': 'root'}}
{'measurement': 'measName', 'fields': {'measV_HV2': -100.0, 'measI_HV2': -7.170713e-08, 'settV_HV2': -100.0, 'settI_HV2': 0.0}, 'tags': {'user': 'root'}}
{'measurement': 'measName', 'fields': {'measV_HV2': -100.0, 'measI_HV2': -8.556931e-08, 'settV_HV2': -100.0, 'settI_HV2': 0.0}, 'tags': {'user': 'root'}}
{'measurement': 'measName', 'fields': {'measV_HV2': -100.0, 'measI_HV2': -7.267479e-08, 'settV_HV2': -100.0, 'settI_HV2': 0.0}, 'tags': {'user': 'root'}}
{'measurement': 'measName', 'fields': {'measV_HV2': -100.0, 'measI_HV2': -8.610918e-08, 'settV_HV2': -100.0, 'settI_HV2': 0.0}, 'tags': {'user': 'root'}}
{'measurement': 'measName', 'fields': {'measV_HV2': -100.0, 'measI_HV2': -7.169862e-08, 'settV_HV2': -100.0, 'settI_HV2': 0.0}, 'tags': {'user': 'root'}}
{'measurement': 'measName', 'fields': {'measV_HV2': -100.0, 'measI_HV2': -8.515359e-08, 'settV_HV2': -100.0, 'settI_HV2': 0.0}, 'tags': {'user': 'root'}}
{'measurement': 'measName', 'fields': {'measV_HV2': -100.0, 'measI_HV2': -7.17119e-08, 'settV_HV2': -100.0, 'settI_HV2': 0.0}, 'tags': {'user': 'root'}}
{'measurement': 'measName', 'fields': {'measV_HV2': -100.0, 'measI_HV2': -8.510887e-08, 'settV_HV2': -100.0, 'settI_HV2': 0.0}, 'tags': {'user': 'root'}}
{'measurement': 'measName', 'fields': {'measV_HV2': -100.0, 'measI_HV2': -7.130496e-08, 'settV_HV2': -100.0, 'settI_HV2': 0.0}, 'tags': {'user': 'root'}}
{'measurement': 'measName', 'fields': {'measV_HV2': -100.0, 'measI_HV2': -8.367276e-08, 'settV_HV2': -100.0, 'settI_HV2': 0.0}, 'tags': {'user': 'root'}}
{'measurement': 'measName', 'fields': {'measV_HV2': -100.0, 'measI_HV2': -7.533254e-08, 'settV_HV2': -100.0, 'settI_HV2': 0.0}, 'tags': {'user': 'root'}}
{'measurement': 'measName', 'fields': {'measV_HV2': -100.0, 'measI_HV2': -8.502324e-08, 'settV_HV2': -100.0, 'settI_HV2': 0.0}, 'tags': {'user': 'root'}}
{'measurement': 'measName', 'fields': {'measV_HV2': -100.0, 'measI_HV2': -7.166744e-08, 'settV_HV2': -100.0, 'settI_HV2': 0.0}, 'tags': {'user': 'root'}}
{'measurement': 'measName', 'fields': {'measV_HV2': -100.0, 'measI_HV2': -8.671908e-08, 'settV_HV2': -100.0, 'settI_HV2': 0.0}, 'tags': {'user': 'root'}}
{'measurement': 'measName', 'fields': {'measV_HV2': -100.0, 'measI_HV2': -7.310879e-08, 'settV_HV2': -100.0, 'settI_HV2': 0.0}, 'tags': {'user': 'root'}}
{'measurement': 'measName', 'fields': {'measV_HV2': -100.0, 'measI_HV2': -8.542207e-08, 'settV_HV2': -100.0, 'settI_HV2': 0.0}, 'tags': {'user': 'root'}}
{'measurement': 'measName', 'fields': {'measV_HV2': -100.0, 'measI_HV2': -7.30269e-08, 'settV_HV2': -100.0, 'settI_HV2': 0.0}, 'tags': {'user': 'root'}}
{'measurement': 'measName', 'fields': {'measV_HV2': -100.0, 'measI_HV2': -8.293361e-08, 'settV_HV2': -100.0, 'settI_HV2': 0.0}, 'tags': {'user': 'root'}}
{'measurement': 'measName', 'fields': {'measV_HV2': -100.0, 'measI_HV2': -8.17339e-08, 'settV_HV2': -100.0, 'settI_HV2': 0.0}, 'tags': {'user': 'root'}}
{'measurement': 'measName', 'fields': {'measV_HV2': -100.0, 'measI_HV2': -7.50242e-08, 'settV_HV2': -100.0, 'settI_HV2': 0.0}, 'tags': {'user': 'root'}}
{'measurement': 'measName', 'fields': {'measV_HV2': -100.0, 'measI_HV2': -8.399705e-08, 'settV_HV2': -100.0, 'settI_HV2': 0.0}, 'tags': {'user': 'root'}}
{'measurement': 'measName', 'fields': {'measV_HV2': -100.0, 'measI_HV2': -7.216788e-08, 'settV_HV2': -100.0, 'settI_HV2': 0.0}, 'tags': {'user': 'root'}}
{'measurement': 'measName', 'fields': {'measV_HV2': -100.0, 'measI_HV2': -8.590771e-08, 'settV_HV2': -100.0, 'settI_HV2': 0.0}, 'tags': {'user': 'root'}}

