{'measurement': 'measName', 'fields': {'measV_HV2': -100.0, 'measI_HV2': -1.006607e-07, 'settV_HV2': -100.0, 'settI_HV2': 0.0}, 'tags': {'user': 'root'}}
{'measurement': 'measName', 'fields': {'measV_HV2': -100.0, 'measI_HV2': -9.882135e-08, 'settV_HV2': -100.0, 'settI_HV2': 0.0}, 'tags': {'user': 'root'}}
{'measurement': 'measName', 'fields': {'measV_HV2': -100.0, 'measI_HV2': -8.928351e-08, 'settV_HV2': -100.0, 'settI_HV2': 0.0}, 'tags': {'user': 'root'}}
{'measurement': 'measName', 'fields': {'measV_HV2': -100.0, 'measI_HV2': -9.614796e-08, 'settV_HV2': -100.0, 'settI_HV2': 0.0}, 'tags': {'user': 'root'}}
{'measurement': 'measName', 'fields': {'measV_HV2': -100.0, 'measI_HV2': -1.027244e-07, 'settV_HV2': -100.0, 'settI_HV2': 0.0}, 'tags': {'user': 'root'}}
{'measurement': 'measName', 'fields': {'measV_HV2': -100.0, 'measI_HV2': -9.133918e-08, 'settV_HV2': -100.0, 'settI_HV2': 0.0}, 'tags': {'user': 'root'}}
{'measurement': 'measName', 'fields': {'measV_HV2': -100.0, 'measI_HV2': -9.499686e-08, 'settV_HV2': -100.0, 'settI_HV2': 0.0}, 'tags': {'user': 'root'}}
{'measurement': 'measName', 'fields': {'measV_HV2': -100.0, 'measI_HV2': -1.037067e-07, 'settV_HV2': -100.0, 'settI_HV2': 0.0}, 'tags': {'user': 'root'}}
{'measurement': 'measName', 'fields': {'measV_HV2': -100.0, 'measI_HV2': -8.95202e-08, 'settV_HV2': -100.0, 'settI_HV2': 0.0}, 'tags': {'user': 'root'}}
{'measurement': 'measName', 'fields': {'measV_HV2': -100.0, 'measI_HV2': -9.809249e-08, 'settV_HV2': -100.0, 'settI_HV2': 0.0}, 'tags': {'user': 'root'}}
{'measurement': 'measName', 'fields': {'measV_HV2': -100.0, 'measI_HV2': -1.012791e-07, 'settV_HV2': -100.0, 'settI_HV2': 0.0}, 'tags': {'user': 'root'}}
{'measurement': 'measName', 'fields': {'measV_HV2': -100.0, 'measI_HV2': -8.879747e-08, 'settV_HV2': -100.0, 'settI_HV2': 0.0}, 'tags': {'user': 'root'}}
{'measurement': 'measName', 'fields': {'measV_HV2': -100.0, 'measI_HV2': -1.000203e-07, 'settV_HV2': -100.0, 'settI_HV2': 0.0}, 'tags': {'user': 'root'}}
{'measurement': 'measName', 'fields': {'measV_HV2': -100.0, 'measI_HV2': -9.702568e-08, 'settV_HV2': -100.0, 'settI_HV2': 0.0}, 'tags': {'user': 'root'}}
{'measurement': 'measName', 'fields': {'measV_HV2': -100.0, 'measI_HV2': -8.920126e-08, 'settV_HV2': -100.0, 'settI_HV2': 0.0}, 'tags': {'user': 'root'}}
{'measurement': 'measName', 'fields': {'measV_HV2': -100.0, 'measI_HV2': -9.886851e-08, 'settV_HV2': -100.0, 'settI_HV2': 0.0}, 'tags': {'user': 'root'}}
{'measurement': 'measName', 'fields': {'measV_HV2': -100.0, 'measI_HV2': -1.013844e-07, 'settV_HV2': -100.0, 'settI_HV2': 0.0}, 'tags': {'user': 'root'}}
{'measurement': 'measName', 'fields': {'measV_HV2': -100.0, 'measI_HV2': -8.894846e-08, 'settV_HV2': -100.0, 'settI_HV2': 0.0}, 'tags': {'user': 'root'}}
{'measurement': 'measName', 'fields': {'measV_HV2': -100.0, 'measI_HV2': -1.016042e-07, 'settV_HV2': -100.0, 'settI_HV2': 0.0}, 'tags': {'user': 'root'}}
{'measurement': 'measName', 'fields': {'measV_HV2': -100.0, 'measI_HV2': -9.9258e-08, 'settV_HV2': -100.0, 'settI_HV2': 0.0}, 'tags': {'user': 'root'}}
{'measurement': 'measName', 'fields': {'measV_HV2': -100.0, 'measI_HV2': -9.014174e-08, 'settV_HV2': -100.0, 'settI_HV2': 0.0}, 'tags': {'user': 'root'}}
{'measurement': 'measName', 'fields': {'measV_HV2': -100.0, 'measI_HV2': -9.821074e-08, 'settV_HV2': -100.0, 'settI_HV2': 0.0}, 'tags': {'user': 'root'}}
{'measurement': 'measName', 'fields': {'measV_HV2': -100.0, 'measI_HV2': -9.980007e-08, 'settV_HV2': -100.0, 'settI_HV2': 0.0}, 'tags': {'user': 'root'}}
{'measurement': 'measName', 'fields': {'measV_HV2': -100.0, 'measI_HV2': -8.976555e-08, 'settV_HV2': -100.0, 'settI_HV2': 0.0}, 'tags': {'user': 'root'}}
{'measurement': 'measName', 'fields': {'measV_HV2': -100.0, 'measI_HV2': -9.769657e-08, 'settV_HV2': -100.0, 'settI_HV2': 0.0}, 'tags': {'user': 'root'}}
{'measurement': 'measName', 'fields': {'measV_HV2': -100.0, 'measI_HV2': -1.030871e-07, 'settV_HV2': -100.0, 'settI_HV2': 0.0}, 'tags': {'user': 'root'}}
{'measurement': 'measName', 'fields': {'measV_HV2': -100.0, 'measI_HV2': -9.574914e-08, 'settV_HV2': -100.0, 'settI_HV2': 0.0}, 'tags': {'user': 'root'}}
{'measurement': 'measName', 'fields': {'measV_HV2': -100.0, 'measI_HV2': -9.106106e-08, 'settV_HV2': -100.0, 'settI_HV2': 0.0}, 'tags': {'user': 'root'}}
{'measurement': 'measName', 'fields': {'measV_HV2': -100.0, 'measI_HV2': -1.007323e-07, 'settV_HV2': -100.0, 'settI_HV2': 0.0}, 'tags': {'user': 'root'}}
{'measurement': 'measName', 'fields': {'measV_HV2': -100.0, 'measI_HV2': -9.797808e-08, 'settV_HV2': -100.0, 'settI_HV2': 0.0}, 'tags': {'user': 'root'}}
{'measurement': 'measName', 'fields': {'measV_HV2': -100.0, 'measI_HV2': -8.950799e-08, 'settV_HV2': -100.0, 'settI_HV2': 0.0}, 'tags': {'user': 'root'}}
{'measurement': 'measName', 'fields': {'measV_HV2': -100.0, 'measI_HV2': -9.452533e-08, 'settV_HV2': -100.0, 'settI_HV2': 0.0}, 'tags': {'user': 'root'}}
{'measurement': 'measName', 'fields': {'measV_HV2': -100.0, 'measI_HV2': -1.033139e-07, 'settV_HV2': -100.0, 'settI_HV2': 0.0}, 'tags': {'user': 'root'}}
{'measurement': 'measName', 'fields': {'measV_HV2': -100.0, 'measI_HV2': -9.361766e-08, 'settV_HV2': -100.0, 'settI_HV2': 0.0}, 'tags': {'user': 'root'}}
{'measurement': 'measName', 'fields': {'measV_HV2': -100.0, 'measI_HV2': -9.343418e-08, 'settV_HV2': -100.0, 'settI_HV2': 0.0}, 'tags': {'user': 'root'}}
{'measurement': 'measName', 'fields': {'measV_HV2': -100.0, 'measI_HV2': -1.030444e-07, 'settV_HV2': -100.0, 'settI_HV2': 0.0}, 'tags': {'user': 'root'}}
{'measurement': 'measName', 'fields': {'measV_HV2': -100.0, 'measI_HV2': -9.972677e-08, 'settV_HV2': -100.0, 'settI_HV2': 0.0}, 'tags': {'user': 'root'}}
{'measurement': 'measName', 'fields': {'measV_HV2': -100.0, 'measI_HV2': -9.020819e-08, 'settV_HV2': -100.0, 'settI_HV2': 0.0}, 'tags': {'user': 'root'}}
{'measurement': 'measName', 'fields': {'measV_HV2': -100.0, 'measI_HV2': -1.010011e-07, 'settV_HV2': -100.0, 'settI_HV2': 0.0}, 'tags': {'user': 'root'}}
{'measurement': 'measName', 'fields': {'measV_HV2': -100.0, 'measI_HV2': -9.888961e-08, 'settV_HV2': -100.0, 'settI_HV2': 0.0}, 'tags': {'user': 'root'}}
{'measurement': 'measName', 'fields': {'measV_HV2': -100.0, 'measI_HV2': -8.923727e-08, 'settV_HV2': -100.0, 'settI_HV2': 0.0}, 'tags': {'user': 'root'}}
{'measurement': 'measName', 'fields': {'measV_HV2': -100.0, 'measI_HV2': -9.349235e-08, 'settV_HV2': -100.0, 'settI_HV2': 0.0}, 'tags': {'user': 'root'}}
{'measurement': 'measName', 'fields': {'measV_HV2': -100.0, 'measI_HV2': -1.03564e-07, 'settV_HV2': -100.0, 'settI_HV2': 0.0}, 'tags': {'user': 'root'}}
{'measurement': 'measName', 'fields': {'measV_HV2': -100.0, 'measI_HV2': -9.326149e-08, 'settV_HV2': -100.0, 'settI_HV2': 0.0}, 'tags': {'user': 'root'}}
{'measurement': 'measName', 'fields': {'measV_HV2': -100.0, 'measI_HV2': -9.007776e-08, 'settV_HV2': -100.0, 'settI_HV2': 0.0}, 'tags': {'user': 'root'}}
{'measurement': 'measName', 'fields': {'measV_HV2': -100.0, 'measI_HV2': -1.020045e-07, 'settV_HV2': -100.0, 'settI_HV2': 0.0}, 'tags': {'user': 'root'}}
{'measurement': 'measName', 'fields': {'measV_HV2': -100.0, 'measI_HV2': -1.01954e-07, 'settV_HV2': -100.0, 'settI_HV2': 0.0}, 'tags': {'user': 'root'}}
{'measurement': 'measName', 'fields': {'measV_HV2': -100.0, 'measI_HV2': -8.960522e-08, 'settV_HV2': -100.0, 'settI_HV2': 0.0}, 'tags': {'user': 'root'}}
{'measurement': 'measName', 'fields': {'measV_HV2': -100.0, 'measI_HV2': -9.162766e-08, 'settV_HV2': -100.0, 'settI_HV2': 0.0}, 'tags': {'user': 'root'}}
{'measurement': 'measName', 'fields': {'measV_HV2': -100.0, 'measI_HV2': -1.033516e-07, 'settV_HV2': -100.0, 'settI_HV2': 0.0}, 'tags': {'user': 'root'}}
{'measurement': 'measName', 'fields': {'measV_HV2': -100.0, 'measI_HV2': -1.009089e-07, 'settV_HV2': -100.0, 'settI_HV2': 0.0}, 'tags': {'user': 'root'}}
{'measurement': 'measName', 'fields': {'measV_HV2': -100.0, 'measI_HV2': -9.017591e-08, 'settV_HV2': -100.0, 'settI_HV2': 0.0}, 'tags': {'user': 'root'}}
{'measurement': 'measName', 'fields': {'measV_HV2': -100.0, 'measI_HV2': -9.33229e-08, 'settV_HV2': -100.0, 'settI_HV2': 0.0}, 'tags': {'user': 'root'}}
{'measurement': 'measName', 'fields': {'measV_HV2': -100.0, 'measI_HV2': -1.028183e-07, 'settV_HV2': -100.0, 'settI_HV2': 0.0}, 'tags': {'user': 'root'}}
{'measurement': 'measName', 'fields': {'measV_HV2': -100.0, 'measI_HV2': -9.417965e-08, 'settV_HV2': -100.0, 'settI_HV2': 0.0}, 'tags': {'user': 'root'}}
{'measurement': 'measName', 'fields': {'measV_HV2': -100.0, 'measI_HV2': -9.082196e-08, 'settV_HV2': -100.0, 'settI_HV2': 0.0}, 'tags': {'user': 'root'}}
{'measurement': 'measName', 'fields': {'measV_HV2': -100.0, 'measI_HV2': -1.016216e-07, 'settV_HV2': -100.0, 'settI_HV2': 0.0}, 'tags': {'user': 'root'}}
{'measurement': 'measName', 'fields': {'measV_HV2': -100.0, 'measI_HV2': -1.024128e-07, 'settV_HV2': -100.0, 'settI_HV2': 0.0}, 'tags': {'user': 'root'}}
{'measurement': 'measName', 'fields': {'measV_HV2': -100.0, 'measI_HV2': -9.172707e-08, 'settV_HV2': -100.0, 'settI_HV2': 0.0}, 'tags': {'user': 'root'}}
{'measurement': 'measName', 'fields': {'measV_HV2': -100.0, 'measI_HV2': -9.150184e-08, 'settV_HV2': -100.0, 'settI_HV2': 0.0}, 'tags': {'user': 'root'}}
{'measurement': 'measName', 'fields': {'measV_HV2': -100.0, 'measI_HV2': -1.014049e-07, 'settV_HV2': -100.0, 'settI_HV2': 0.0}, 'tags': {'user': 'root'}}
{'measurement': 'measName', 'fields': {'measV_HV2': -100.0, 'measI_HV2': -9.881529e-08, 'settV_HV2': -100.0, 'settI_HV2': 0.0}, 'tags': {'user': 'root'}}
{'measurement': 'measName', 'fields': {'measV_HV2': -100.0, 'measI_HV2': -8.959407e-08, 'settV_HV2': -100.0, 'settI_HV2': 0.0}, 'tags': {'user': 'root'}}
{'measurement': 'measName', 'fields': {'measV_HV2': -100.0, 'measI_HV2': -9.467761e-08, 'settV_HV2': -100.0, 'settI_HV2': 0.0}, 'tags': {'user': 'root'}}
{'measurement': 'measName', 'fields': {'measV_HV2': -100.0, 'measI_HV2': -1.037043e-07, 'settV_HV2': -100.0, 'settI_HV2': 0.0}, 'tags': {'user': 'root'}}
{'measurement': 'measName', 'fields': {'measV_HV2': -100.0, 'measI_HV2': -9.330748e-08, 'settV_HV2': -100.0, 'settI_HV2': 0.0}, 'tags': {'user': 'root'}}
{'measurement': 'measName', 'fields': {'measV_HV2': -100.0, 'measI_HV2': -9.239856e-08, 'settV_HV2': -100.0, 'settI_HV2': 0.0}, 'tags': {'user': 'root'}}
{'measurement': 'measName', 'fields': {'measV_HV2': -100.0, 'measI_HV2': -1.030712e-07, 'settV_HV2': -100.0, 'settI_HV2': 0.0}, 'tags': {'user': 'root'}}
{'measurement': 'measName', 'fields': {'measV_HV2': -100.0, 'measI_HV2': -9.618219e-08, 'settV_HV2': -100.0, 'settI_HV2': 0.0}, 'tags': {'user': 'root'}}
{'measurement': 'measName', 'fields': {'measV_HV2': -100.0, 'measI_HV2': -8.991304e-08, 'settV_HV2': -100.0, 'settI_HV2': 0.0}, 'tags': {'user': 'root'}}
{'measurement': 'measName', 'fields': {'measV_HV2': -100.0, 'measI_HV2': -9.916406e-08, 'settV_HV2': -100.0, 'settI_HV2': 0.0}, 'tags': {'user': 'root'}}
{'measurement': 'measName', 'fields': {'measV_HV2': -100.0, 'measI_HV2': -1.022004e-07, 'settV_HV2': -100.0, 'settI_HV2': 0.0}, 'tags': {'user': 'root'}}
{'measurement': 'measName', 'fields': {'measV_HV2': -100.0, 'measI_HV2': -9.382249e-08, 'settV_HV2': -100.0, 'settI_HV2': 0.0}, 'tags': {'user': 'root'}}
{'measurement': 'measName', 'fields': {'measV_HV2': -100.0, 'measI_HV2': -9.20439e-08, 'settV_HV2': -100.0, 'settI_HV2': 0.0}, 'tags': {'user': 'root'}}
{'measurement': 'measName', 'fields': {'measV_HV2': -100.0, 'measI_HV2': -1.000027e-07, 'settV_HV2': -100.0, 'settI_HV2': 0.0}, 'tags': {'user': 'root'}}
{'measurement': 'measName', 'fields': {'measV_HV2': -100.0, 'measI_HV2': -1.018881e-07, 'settV_HV2': -100.0, 'settI_HV2': 0.0}, 'tags': {'user': 'root'}}
{'measurement': 'measName', 'fields': {'measV_HV2': -100.0, 'measI_HV2': -8.95539e-08, 'settV_HV2': -100.0, 'settI_HV2': 0.0}, 'tags': {'user': 'root'}}
{'measurement': 'measName', 'fields': {'measV_HV2': -100.0, 'measI_HV2': -9.403658e-08, 'settV_HV2': -100.0, 'settI_HV2': 0.0}, 'tags': {'user': 'root'}}
{'measurement': 'measName', 'fields': {'measV_HV2': -100.0, 'measI_HV2': -1.026481e-07, 'settV_HV2': -100.0, 'settI_HV2': 0.0}, 'tags': {'user': 'root'}}
{'measurement': 'measName', 'fields': {'measV_HV2': -100.0, 'measI_HV2': -9.480483e-08, 'settV_HV2': -100.0, 'settI_HV2': 0.0}, 'tags': {'user': 'root'}}
{'measurement': 'measName', 'fields': {'measV_HV2': -100.0, 'measI_HV2': -9.047781e-08, 'settV_HV2': -100.0, 'settI_HV2': 0.0}, 'tags': {'user': 'root'}}
{'measurement': 'measName', 'fields': {'measV_HV2': -100.0, 'measI_HV2': -1.000396e-07, 'settV_HV2': -100.0, 'settI_HV2': 0.0}, 'tags': {'user': 'root'}}
{'measurement': 'measName', 'fields': {'measV_HV2': -100.0, 'measI_HV2': -1.024837e-07, 'settV_HV2': -100.0, 'settI_HV2': 0.0}, 'tags': {'user': 'root'}}
{'measurement': 'measName', 'fields': {'measV_HV2': -100.0, 'measI_HV2': -9.08535e-08, 'settV_HV2': -100.0, 'settI_HV2': 0.0}, 'tags': {'user': 'root'}}
{'measurement': 'measName', 'fields': {'measV_HV2': -100.0, 'measI_HV2': -9.358414e-08, 'settV_HV2': -100.0, 'settI_HV2': 0.0}, 'tags': {'user': 'root'}}
{'measurement': 'measName', 'fields': {'measV_HV2': -100.0, 'measI_HV2': -1.025441e-07, 'settV_HV2': -100.0, 'settI_HV2': 0.0}, 'tags': {'user': 'root'}}
{'measurement': 'measName', 'fields': {'measV_HV2': -100.0, 'measI_HV2': -1.015792e-07, 'settV_HV2': -100.0, 'settI_HV2': 0.0}, 'tags': {'user': 'root'}}
{'measurement': 'measName', 'fields': {'measV_HV2': -100.0, 'measI_HV2': -9.119037e-08, 'settV_HV2': -100.0, 'settI_HV2': 0.0}, 'tags': {'user': 'root'}}
{'measurement': 'measName', 'fields': {'measV_HV2': -100.0, 'measI_HV2': -9.78585e-08, 'settV_HV2': -100.0, 'settI_HV2': 0.0}, 'tags': {'user': 'root'}}
{'measurement': 'measName', 'fields': {'measV_HV2': -100.0, 'measI_HV2': -1.035066e-07, 'settV_HV2': -100.0, 'settI_HV2': 0.0}, 'tags': {'user': 'root'}}
{'measurement': 'measName', 'fields': {'measV_HV2': -100.0, 'measI_HV2': -9.067755e-08, 'settV_HV2': -100.0, 'settI_HV2': 0.0}, 'tags': {'user': 'root'}}
{'measurement': 'measName', 'fields': {'measV_HV2': -100.0, 'measI_HV2': -9.288134e-08, 'settV_HV2': -100.0, 'settI_HV2': 0.0}, 'tags': {'user': 'root'}}
{'measurement': 'measName', 'fields': {'measV_HV2': -100.0, 'measI_HV2': -1.03287e-07, 'settV_HV2': -100.0, 'settI_HV2': 0.0}, 'tags': {'user': 'root'}}
{'measurement': 'measName', 'fields': {'measV_HV2': -100.0, 'measI_HV2': -9.51532e-08, 'settV_HV2': -100.0, 'settI_HV2': 0.0}, 'tags': {'user': 'root'}}
{'measurement': 'measName', 'fields': {'measV_HV2': -100.0, 'measI_HV2': -9.351398e-08, 'settV_HV2': -100.0, 'settI_HV2': 0.0}, 'tags': {'user': 'root'}}
{'measurement': 'measName', 'fields': {'measV_HV2': -100.0, 'measI_HV2': -1.032905e-07, 'settV_HV2': -100.0, 'settI_HV2': 0.0}, 'tags': {'user': 'root'}}
{'measurement': 'measName', 'fields': {'measV_HV2': -100.0, 'measI_HV2': -9.262131e-08, 'settV_HV2': -100.0, 'settI_HV2': 0.0}, 'tags': {'user': 'root'}}
{'measurement': 'measName', 'fields': {'measV_HV2': -100.0, 'measI_HV2': -9.928279e-08, 'settV_HV2': -100.0, 'settI_HV2': 0.0}, 'tags': {'user': 'root'}}
{'measurement': 'measName', 'fields': {'measV_HV2': -100.0, 'measI_HV2': -9.804315e-08, 'settV_HV2': -100.0, 'settI_HV2': 0.0}, 'tags': {'user': 'root'}}
{'measurement': 'measName', 'fields': {'measV_HV2': -100.0, 'measI_HV2': -9.192443e-08, 'settV_HV2': -100.0, 'settI_HV2': 0.0}, 'tags': {'user': 'root'}}
{'measurement': 'measName', 'fields': {'measV_HV2': -100.0, 'measI_HV2': -1.036913e-07, 'settV_HV2': -100.0, 'settI_HV2': 0.0}, 'tags': {'user': 'root'}}
{'measurement': 'measName', 'fields': {'measV_HV2': -100.0, 'measI_HV2': -9.171134e-08, 'settV_HV2': -100.0, 'settI_HV2': 0.0}, 'tags': {'user': 'root'}}
{'measurement': 'measName', 'fields': {'measV_HV2': -100.0, 'measI_HV2': -9.18123e-08, 'settV_HV2': -100.0, 'settI_HV2': 0.0}, 'tags': {'user': 'root'}}
{'measurement': 'measName', 'fields': {'measV_HV2': -100.0, 'measI_HV2': -1.029175e-07, 'settV_HV2': -100.0, 'settI_HV2': 0.0}, 'tags': {'user': 'root'}}
{'measurement': 'measName', 'fields': {'measV_HV2': -100.0, 'measI_HV2': -9.752421e-08, 'settV_HV2': -100.0, 'settI_HV2': 0.0}, 'tags': {'user': 'root'}}
{'measurement': 'measName', 'fields': {'measV_HV2': -100.0, 'measI_HV2': -9.048416e-08, 'settV_HV2': -100.0, 'settI_HV2': 0.0}, 'tags': {'user': 'root'}}
{'measurement': 'measName', 'fields': {'measV_HV2': -100.0, 'measI_HV2': -1.002535e-07, 'settV_HV2': -100.0, 'settI_HV2': 0.0}, 'tags': {'user': 'root'}}
{'measurement': 'measName', 'fields': {'measV_HV2': -100.0, 'measI_HV2': -9.890318e-08, 'settV_HV2': -100.0, 'settI_HV2': 0.0}, 'tags': {'user': 'root'}}
{'measurement': 'measName', 'fields': {'measV_HV2': -100.0, 'measI_HV2': -8.995355e-08, 'settV_HV2': -100.0, 'settI_HV2': 0.0}, 'tags': {'user': 'root'}}
{'measurement': 'measName', 'fields': {'measV_HV2': -100.0, 'measI_HV2': -1.011041e-07, 'settV_HV2': -100.0, 'settI_HV2': 0.0}, 'tags': {'user': 'root'}}
{'measurement': 'measName', 'fields': {'measV_HV2': -100.0, 'measI_HV2': -1.007825e-07, 'settV_HV2': -100.0, 'settI_HV2': 0.0}, 'tags': {'user': 'root'}}
{'measurement': 'measName', 'fields': {'measV_HV2': -100.0, 'measI_HV2': -8.938546e-08, 'settV_HV2': -100.0, 'settI_HV2': 0.0}, 'tags': {'user': 'root'}}
{'measurement': 'measName', 'fields': {'measV_HV2': -100.0, 'measI_HV2': -1.020294e-07, 'settV_HV2': -100.0, 'settI_HV2': 0.0}, 'tags': {'user': 'root'}}
{'measurement': 'measName', 'fields': {'measV_HV2': -100.0, 'measI_HV2': -9.634181e-08, 'settV_HV2': -100.0, 'settI_HV2': 0.0}, 'tags': {'user': 'root'}}
{'measurement': 'measName', 'fields': {'measV_HV2': -100.0, 'measI_HV2': -8.975691e-08, 'settV_HV2': -100.0, 'settI_HV2': 0.0}, 'tags': {'user': 'root'}}
{'measurement': 'measName', 'fields': {'measV_HV2': -100.0, 'measI_HV2': -1.014623e-07, 'settV_HV2': -100.0, 'settI_HV2': 0.0}, 'tags': {'user': 'root'}}
{'measurement': 'measName', 'fields': {'measV_HV2': -100.0, 'measI_HV2': -9.900607e-08, 'settV_HV2': -100.0, 'settI_HV2': 0.0}, 'tags': {'user': 'root'}}
{'measurement': 'measName', 'fields': {'measV_HV2': -100.0, 'measI_HV2': -9.191626e-08, 'settV_HV2': -100.0, 'settI_HV2': 0.0}, 'tags': {'user': 'root'}}
{'measurement': 'measName', 'fields': {'measV_HV2': -100.0, 'measI_HV2': -1.035948e-07, 'settV_HV2': -100.0, 'settI_HV2': 0.0}, 'tags': {'user': 'root'}}
{'measurement': 'measName', 'fields': {'measV_HV2': -100.0, 'measI_HV2': -9.176469e-08, 'settV_HV2': -100.0, 'settI_HV2': 0.0}, 'tags': {'user': 'root'}}
{'measurement': 'measName', 'fields': {'measV_HV2': -100.0, 'measI_HV2': -9.556734e-08, 'settV_HV2': -100.0, 'settI_HV2': 0.0}, 'tags': {'user': 'root'}}
{'measurement': 'measName', 'fields': {'measV_HV2': -100.0, 'measI_HV2': -9.898603e-08, 'settV_HV2': -100.0, 'settI_HV2': 0.0}, 'tags': {'user': 'root'}}
{'measurement': 'measName', 'fields': {'measV_HV2': -100.0, 'measI_HV2': -9.025355e-08, 'settV_HV2': -100.0, 'settI_HV2': 0.0}, 'tags': {'user': 'root'}}
{'measurement': 'measName', 'fields': {'measV_HV2': -100.0, 'measI_HV2': -9.543349e-08, 'settV_HV2': -100.0, 'settI_HV2': 0.0}, 'tags': {'user': 'root'}}
{'measurement': 'measName', 'fields': {'measV_HV2': -100.0, 'measI_HV2': -1.020949e-07, 'settV_HV2': -100.0, 'settI_HV2': 0.0}, 'tags': {'user': 'root'}}
{'measurement': 'measName', 'fields': {'measV_HV2': -100.0, 'measI_HV2': -9.292755e-08, 'settV_HV2': -100.0, 'settI_HV2': 0.0}, 'tags': {'user': 'root'}}
{'measurement': 'measName', 'fields': {'measV_HV2': -100.0, 'measI_HV2': -9.234682e-08, 'settV_HV2': -100.0, 'settI_HV2': 0.0}, 'tags': {'user': 'root'}}
{'measurement': 'measName', 'fields': {'measV_HV2': -100.0, 'measI_HV2': -1.032238e-07, 'settV_HV2': -100.0, 'settI_HV2': 0.0}, 'tags': {'user': 'root'}}
{'measurement': 'measName', 'fields': {'measV_HV2': -100.0, 'measI_HV2': -9.236349e-08, 'settV_HV2': -100.0, 'settI_HV2': 0.0}, 'tags': {'user': 'root'}}
{'measurement': 'measName', 'fields': {'measV_HV2': -100.0, 'measI_HV2': -9.122935e-08, 'settV_HV2': -100.0, 'settI_HV2': 0.0}, 'tags': {'user': 'root'}}
{'measurement': 'measName', 'fields': {'measV_HV2': -100.0, 'measI_HV2': -1.018374e-07, 'settV_HV2': -100.0, 'settI_HV2': 0.0}, 'tags': {'user': 'root'}}
{'measurement': 'measName', 'fields': {'measV_HV2': -100.0, 'measI_HV2': -9.401212e-08, 'settV_HV2': -100.0, 'settI_HV2': 0.0}, 'tags': {'user': 'root'}}
{'measurement': 'measName', 'fields': {'measV_HV2': -100.0, 'measI_HV2': -8.999001e-08, 'settV_HV2': -100.0, 'settI_HV2': 0.0}, 'tags': {'user': 'root'}}
{'measurement': 'measName', 'fields': {'measV_HV2': -100.0, 'measI_HV2': -1.008571e-07, 'settV_HV2': -100.0, 'settI_HV2': 0.0}, 'tags': {'user': 'root'}}
{'measurement': 'measName', 'fields': {'measV_HV2': -100.0, 'measI_HV2': -9.756334e-08, 'settV_HV2': -100.0, 'settI_HV2': 0.0}, 'tags': {'user': 'root'}}
{'measurement': 'measName', 'fields': {'measV_HV2': -100.0, 'measI_HV2': -8.991586e-08, 'settV_HV2': -100.0, 'settI_HV2': 0.0}, 'tags': {'user': 'root'}}
{'measurement': 'measName', 'fields': {'measV_HV2': -100.0, 'measI_HV2': -9.628972e-08, 'settV_HV2': -100.0, 'settI_HV2': 0.0}, 'tags': {'user': 'root'}}
{'measurement': 'measName', 'fields': {'measV_HV2': -100.0, 'measI_HV2': -1.026951e-07, 'settV_HV2': -100.0, 'settI_HV2': 0.0}, 'tags': {'user': 'root'}}
{'measurement': 'measName', 'fields': {'measV_HV2': -100.0, 'measI_HV2': -9.504006e-08, 'settV_HV2': -100.0, 'settI_HV2': 0.0}, 'tags': {'user': 'root'}}
{'measurement': 'measName', 'fields': {'measV_HV2': -100.0, 'measI_HV2': -8.903323e-08, 'settV_HV2': -100.0, 'settI_HV2': 0.0}, 'tags': {'user': 'root'}}
{'measurement': 'measName', 'fields': {'measV_HV2': -100.0, 'measI_HV2': -9.769378e-08, 'settV_HV2': -100.0, 'settI_HV2': 0.0}, 'tags': {'user': 'root'}}
{'measurement': 'measName', 'fields': {'measV_HV2': -100.0, 'measI_HV2': -1.022577e-07, 'settV_HV2': -100.0, 'settI_HV2': 0.0}, 'tags': {'user': 'root'}}
{'measurement': 'measName', 'fields': {'measV_HV2': -100.0, 'measI_HV2': -9.084045e-08, 'settV_HV2': -100.0, 'settI_HV2': 0.0}, 'tags': {'user': 'root'}}
{'measurement': 'measName', 'fields': {'measV_HV2': -100.0, 'measI_HV2': -9.176576e-08, 'settV_HV2': -100.0, 'settI_HV2': 0.0}, 'tags': {'user': 'root'}}
{'measurement': 'measName', 'fields': {'measV_HV2': -100.0, 'measI_HV2': -1.011131e-07, 'settV_HV2': -100.0, 'settI_HV2': 0.0}, 'tags': {'user': 'root'}}
{'measurement': 'measName', 'fields': {'measV_HV2': -100.0, 'measI_HV2': -1.005035e-07, 'settV_HV2': -100.0, 'settI_HV2': 0.0}, 'tags': {'user': 'root'}}
{'measurement': 'measName', 'fields': {'measV_HV2': -100.0, 'measI_HV2': -8.959406e-08, 'settV_HV2': -100.0, 'settI_HV2': 0.0}, 'tags': {'user': 'root'}}
{'measurement': 'measName', 'fields': {'measV_HV2': -100.0, 'measI_HV2': -9.612539e-08, 'settV_HV2': -100.0, 'settI_HV2': 0.0}, 'tags': {'user': 'root'}}
{'measurement': 'measName', 'fields': {'measV_HV2': -100.0, 'measI_HV2': -1.031149e-07, 'settV_HV2': -100.0, 'settI_HV2': 0.0}, 'tags': {'user': 'root'}}
{'measurement': 'measName', 'fields': {'measV_HV2': -100.0, 'measI_HV2': -9.730154e-08, 'settV_HV2': -100.0, 'settI_HV2': 0.0}, 'tags': {'user': 'root'}}
{'measurement': 'measName', 'fields': {'measV_HV2': -100.0, 'measI_HV2': -8.891045e-08, 'settV_HV2': -100.0, 'settI_HV2': 0.0}, 'tags': {'user': 'root'}}
{'measurement': 'measName', 'fields': {'measV_HV2': -100.0, 'measI_HV2': -9.77188e-08, 'settV_HV2': -100.0, 'settI_HV2': 0.0}, 'tags': {'user': 'root'}}
{'measurement': 'measName', 'fields': {'measV_HV2': -100.0, 'measI_HV2': -1.029802e-07, 'settV_HV2': -100.0, 'settI_HV2': 0.0}, 'tags': {'user': 'root'}}
{'measurement': 'measName', 'fields': {'measV_HV2': -100.0, 'measI_HV2': -9.318226e-08, 'settV_HV2': -100.0, 'settI_HV2': 0.0}, 'tags': {'user': 'root'}}
{'measurement': 'measName', 'fields': {'measV_HV2': -100.0, 'measI_HV2': -9.308289e-08, 'settV_HV2': -100.0, 'settI_HV2': 0.0}, 'tags': {'user': 'root'}}
{'measurement': 'measName', 'fields': {'measV_HV2': -100.0, 'measI_HV2': -1.023611e-07, 'settV_HV2': -100.0, 'settI_HV2': 0.0}, 'tags': {'user': 'root'}}
{'measurement': 'measName', 'fields': {'measV_HV2': -100.0, 'measI_HV2': -9.653854e-08, 'settV_HV2': -100.0, 'settI_HV2': 0.0}, 'tags': {'user': 'root'}}
{'measurement': 'measName', 'fields': {'measV_HV2': -100.0, 'measI_HV2': -8.898623e-08, 'settV_HV2': -100.0, 'settI_HV2': 0.0}, 'tags': {'user': 'root'}}
{'measurement': 'measName', 'fields': {'measV_HV2': -100.0, 'measI_HV2': -1.004679e-07, 'settV_HV2': -100.0, 'settI_HV2': 0.0}, 'tags': {'user': 'root'}}
{'measurement': 'measName', 'fields': {'measV_HV2': -100.0, 'measI_HV2': -9.920863e-08, 'settV_HV2': -100.0, 'settI_HV2': 0.0}, 'tags': {'user': 'root'}}
{'measurement': 'measName', 'fields': {'measV_HV2': -100.0, 'measI_HV2': -8.8509e-08, 'settV_HV2': -100.0, 'settI_HV2': 0.0}, 'tags': {'user': 'root'}}
{'measurement': 'measName', 'fields': {'measV_HV2': -100.0, 'measI_HV2': -9.686668e-08, 'settV_HV2': -100.0, 'settI_HV2': 0.0}, 'tags': {'user': 'root'}}
{'measurement': 'measName', 'fields': {'measV_HV2': -100.0, 'measI_HV2': -1.016971e-07, 'settV_HV2': -100.0, 'settI_HV2': 0.0}, 'tags': {'user': 'root'}}
{'measurement': 'measName', 'fields': {'measV_HV2': -100.0, 'measI_HV2': -9.954738e-08, 'settV_HV2': -100.0, 'settI_HV2': 0.0}, 'tags': {'user': 'root'}}
{'measurement': 'measName', 'fields': {'measV_HV2': -100.0, 'measI_HV2': -9.13566e-08, 'settV_HV2': -100.0, 'settI_HV2': 0.0}, 'tags': {'user': 'root'}}
{'measurement': 'measName', 'fields': {'measV_HV2': -100.0, 'measI_HV2': -9.687777e-08, 'settV_HV2': -100.0, 'settI_HV2': 0.0}, 'tags': {'user': 'root'}}
{'measurement': 'measName', 'fields': {'measV_HV2': -100.0, 'measI_HV2': -1.036589e-07, 'settV_HV2': -100.0, 'settI_HV2': 0.0}, 'tags': {'user': 'root'}}
{'measurement': 'measName', 'fields': {'measV_HV2': -100.0, 'measI_HV2': -9.47598e-08, 'settV_HV2': -100.0, 'settI_HV2': 0.0}, 'tags': {'user': 'root'}}
{'measurement': 'measName', 'fields': {'measV_HV2': -100.0, 'measI_HV2': -9.067279e-08, 'settV_HV2': -100.0, 'settI_HV2': 0.0}, 'tags': {'user': 'root'}}
{'measurement': 'measName', 'fields': {'measV_HV2': -100.0, 'measI_HV2': -9.88716e-08, 'settV_HV2': -100.0, 'settI_HV2': 0.0}, 'tags': {'user': 'root'}}
{'measurement': 'measName', 'fields': {'measV_HV2': -100.0, 'measI_HV2': -9.868063e-08, 'settV_HV2': -100.0, 'settI_HV2': 0.0}, 'tags': {'user': 'root'}}
{'measurement': 'measName', 'fields': {'measV_HV2': -100.0, 'measI_HV2': -9.009655e-08, 'settV_HV2': -100.0, 'settI_HV2': 0.0}, 'tags': {'user': 'root'}}
{'measurement': 'measName', 'fields': {'measV_HV2': -100.0, 'measI_HV2': -9.723451e-08, 'settV_HV2': -100.0, 'settI_HV2': 0.0}, 'tags': {'user': 'root'}}
{'measurement': 'measName', 'fields': {'measV_HV2': -100.0, 'measI_HV2': -1.012035e-07, 'settV_HV2': -100.0, 'settI_HV2': 0.0}, 'tags': {'user': 'root'}}
{'measurement': 'measName', 'fields': {'measV_HV2': -100.0, 'measI_HV2': -9.39861e-08, 'settV_HV2': -100.0, 'settI_HV2': 0.0}, 'tags': {'user': 'root'}}
{'measurement': 'measName', 'fields': {'measV_HV2': -100.0, 'measI_HV2': -9.509291e-08, 'settV_HV2': -100.0, 'settI_HV2': 0.0}, 'tags': {'user': 'root'}}
{'measurement': 'measName', 'fields': {'measV_HV2': -100.0, 'measI_HV2': -1.033033e-07, 'settV_HV2': -100.0, 'settI_HV2': 0.0}, 'tags': {'user': 'root'}}
{'measurement': 'measName', 'fields': {'measV_HV2': -100.0, 'measI_HV2': -9.22165e-08, 'settV_HV2': -100.0, 'settI_HV2': 0.0}, 'tags': {'user': 'root'}}
{'measurement': 'measName', 'fields': {'measV_HV2': -100.0, 'measI_HV2': -9.098982e-08, 'settV_HV2': -100.0, 'settI_HV2': 0.0}, 'tags': {'user': 'root'}}
{'measurement': 'measName', 'fields': {'measV_HV2': -100.0, 'measI_HV2': -1.028704e-07, 'settV_HV2': -100.0, 'settI_HV2': 0.0}, 'tags': {'user': 'root'}}
{'measurement': 'measName', 'fields': {'measV_HV2': -100.0, 'measI_HV2': -9.095487e-08, 'settV_HV2': -100.0, 'settI_HV2': 0.0}, 'tags': {'user': 'root'}}
{'measurement': 'measName', 'fields': {'measV_HV2': -100.0, 'measI_HV2': -9.086266e-08, 'settV_HV2': -100.0, 'settI_HV2': 0.0}, 'tags': {'user': 'root'}}

