{'measurement': 'measName', 'fields': {'measV_HV2': -150.0, 'measI_HV2': -9.215399e-08, 'settV_HV2': -150.0, 'settI_HV2': 0.0}, 'tags': {'user': 'root'}}
{'measurement': 'measName', 'fields': {'measV_HV2': -150.0, 'measI_HV2': -9.967064e-08, 'settV_HV2': -150.0, 'settI_HV2': 0.0}, 'tags': {'user': 'root'}}
{'measurement': 'measName', 'fields': {'measV_HV2': -150.0, 'measI_HV2': -1.03276e-07, 'settV_HV2': -150.0, 'settI_HV2': 0.0}, 'tags': {'user': 'root'}}
{'measurement': 'measName', 'fields': {'measV_HV2': -150.0, 'measI_HV2': -9.65579e-08, 'settV_HV2': -150.0, 'settI_HV2': 0.0}, 'tags': {'user': 'root'}}
{'measurement': 'measName', 'fields': {'measV_HV2': -150.0, 'measI_HV2': -9.139293e-08, 'settV_HV2': -150.0, 'settI_HV2': 0.0}, 'tags': {'user': 'root'}}
{'measurement': 'measName', 'fields': {'measV_HV2': -150.0, 'measI_HV2': -9.976588e-08, 'settV_HV2': -150.0, 'settI_HV2': 0.0}, 'tags': {'user': 'root'}}
{'measurement': 'measName', 'fields': {'measV_HV2': -150.0, 'measI_HV2': -1.041145e-07, 'settV_HV2': -150.0, 'settI_HV2': 0.0}, 'tags': {'user': 'root'}}
{'measurement': 'measName', 'fields': {'measV_HV2': -150.0, 'measI_HV2': -9.43013e-08, 'settV_HV2': -150.0, 'settI_HV2': 0.0}, 'tags': {'user': 'root'}}
{'measurement': 'measName', 'fields': {'measV_HV2': -150.0, 'measI_HV2': -9.39242e-08, 'settV_HV2': -150.0, 'settI_HV2': 0.0}, 'tags': {'user': 'root'}}
{'measurement': 'measName', 'fields': {'measV_HV2': -150.0, 'measI_HV2': -1.033743e-07, 'settV_HV2': -150.0, 'settI_HV2': 0.0}, 'tags': {'user': 'root'}}
{'measurement': 'measName', 'fields': {'measV_HV2': -150.0, 'measI_HV2': -9.562065e-08, 'settV_HV2': -150.0, 'settI_HV2': 0.0}, 'tags': {'user': 'root'}}
{'measurement': 'measName', 'fields': {'measV_HV2': -150.0, 'measI_HV2': -9.235503e-08, 'settV_HV2': -150.0, 'settI_HV2': 0.0}, 'tags': {'user': 'root'}}
{'measurement': 'measName', 'fields': {'measV_HV2': -150.0, 'measI_HV2': -9.892491e-08, 'settV_HV2': -150.0, 'settI_HV2': 0.0}, 'tags': {'user': 'root'}}
{'measurement': 'measName', 'fields': {'measV_HV2': -150.0, 'measI_HV2': -1.04279e-07, 'settV_HV2': -150.0, 'settI_HV2': 0.0}, 'tags': {'user': 'root'}}
{'measurement': 'measName', 'fields': {'measV_HV2': -150.0, 'measI_HV2': -9.383465e-08, 'settV_HV2': -150.0, 'settI_HV2': 0.0}, 'tags': {'user': 'root'}}
{'measurement': 'measName', 'fields': {'measV_HV2': -150.0, 'measI_HV2': -9.402393e-08, 'settV_HV2': -150.0, 'settI_HV2': 0.0}, 'tags': {'user': 'root'}}
{'measurement': 'measName', 'fields': {'measV_HV2': -150.0, 'measI_HV2': -1.033681e-07, 'settV_HV2': -150.0, 'settI_HV2': 0.0}, 'tags': {'user': 'root'}}
{'measurement': 'measName', 'fields': {'measV_HV2': -150.0, 'measI_HV2': -9.721195e-08, 'settV_HV2': -150.0, 'settI_HV2': 0.0}, 'tags': {'user': 'root'}}
{'measurement': 'measName', 'fields': {'measV_HV2': -150.0, 'measI_HV2': -9.196782e-08, 'settV_HV2': -150.0, 'settI_HV2': 0.0}, 'tags': {'user': 'root'}}
{'measurement': 'measName', 'fields': {'measV_HV2': -150.0, 'measI_HV2': -1.043161e-07, 'settV_HV2': -150.0, 'settI_HV2': 0.0}, 'tags': {'user': 'root'}}
{'measurement': 'measName', 'fields': {'measV_HV2': -150.0, 'measI_HV2': -9.525202e-08, 'settV_HV2': -150.0, 'settI_HV2': 0.0}, 'tags': {'user': 'root'}}
{'measurement': 'measName', 'fields': {'measV_HV2': -150.0, 'measI_HV2': -9.651973e-08, 'settV_HV2': -150.0, 'settI_HV2': 0.0}, 'tags': {'user': 'root'}}
{'measurement': 'measName', 'fields': {'measV_HV2': -150.0, 'measI_HV2': -1.043108e-07, 'settV_HV2': -150.0, 'settI_HV2': 0.0}, 'tags': {'user': 'root'}}
{'measurement': 'measName', 'fields': {'measV_HV2': -150.0, 'measI_HV2': -9.506203e-08, 'settV_HV2': -150.0, 'settI_HV2': 0.0}, 'tags': {'user': 'root'}}
{'measurement': 'measName', 'fields': {'measV_HV2': -150.0, 'measI_HV2': -9.222871e-08, 'settV_HV2': -150.0, 'settI_HV2': 0.0}, 'tags': {'user': 'root'}}
{'measurement': 'measName', 'fields': {'measV_HV2': -150.0, 'measI_HV2': -1.045459e-07, 'settV_HV2': -150.0, 'settI_HV2': 0.0}, 'tags': {'user': 'root'}}
{'measurement': 'measName', 'fields': {'measV_HV2': -150.0, 'measI_HV2': -9.916826e-08, 'settV_HV2': -150.0, 'settI_HV2': 0.0}, 'tags': {'user': 'root'}}
{'measurement': 'measName', 'fields': {'measV_HV2': -150.0, 'measI_HV2': -9.341498e-08, 'settV_HV2': -150.0, 'settI_HV2': 0.0}, 'tags': {'user': 'root'}}
{'measurement': 'measName', 'fields': {'measV_HV2': -150.0, 'measI_HV2': -1.031673e-07, 'settV_HV2': -150.0, 'settI_HV2': 0.0}, 'tags': {'user': 'root'}}
{'measurement': 'measName', 'fields': {'measV_HV2': -150.0, 'measI_HV2': -9.600755e-08, 'settV_HV2': -150.0, 'settI_HV2': 0.0}, 'tags': {'user': 'root'}}
{'measurement': 'measName', 'fields': {'measV_HV2': -150.0, 'measI_HV2': -9.539667e-08, 'settV_HV2': -150.0, 'settI_HV2': 0.0}, 'tags': {'user': 'root'}}
{'measurement': 'measName', 'fields': {'measV_HV2': -150.0, 'measI_HV2': -1.04255e-07, 'settV_HV2': -150.0, 'settI_HV2': 0.0}, 'tags': {'user': 'root'}}
{'measurement': 'measName', 'fields': {'measV_HV2': -150.0, 'measI_HV2': -9.309478e-08, 'settV_HV2': -150.0, 'settI_HV2': 0.0}, 'tags': {'user': 'root'}}
{'measurement': 'measName', 'fields': {'measV_HV2': -150.0, 'measI_HV2': -9.953525e-08, 'settV_HV2': -150.0, 'settI_HV2': 0.0}, 'tags': {'user': 'root'}}
{'measurement': 'measName', 'fields': {'measV_HV2': -150.0, 'measI_HV2': -1.028549e-07, 'settV_HV2': -150.0, 'settI_HV2': 0.0}, 'tags': {'user': 'root'}}
{'measurement': 'measName', 'fields': {'measV_HV2': -150.0, 'measI_HV2': -9.18223e-08, 'settV_HV2': -150.0, 'settI_HV2': 0.0}, 'tags': {'user': 'root'}}
{'measurement': 'measName', 'fields': {'measV_HV2': -150.0, 'measI_HV2': -9.972868e-08, 'settV_HV2': -150.0, 'settI_HV2': 0.0}, 'tags': {'user': 'root'}}
{'measurement': 'measName', 'fields': {'measV_HV2': -150.0, 'measI_HV2': -1.014535e-07, 'settV_HV2': -150.0, 'settI_HV2': 0.0}, 'tags': {'user': 'root'}}
{'measurement': 'measName', 'fields': {'measV_HV2': -150.0, 'measI_HV2': -9.458878e-08, 'settV_HV2': -150.0, 'settI_HV2': 0.0}, 'tags': {'user': 'root'}}
{'measurement': 'measName', 'fields': {'measV_HV2': -150.0, 'measI_HV2': -1.041317e-07, 'settV_HV2': -150.0, 'settI_HV2': 0.0}, 'tags': {'user': 'root'}}
{'measurement': 'measName', 'fields': {'measV_HV2': -150.0, 'measI_HV2': -9.384456e-08, 'settV_HV2': -150.0, 'settI_HV2': 0.0}, 'tags': {'user': 'root'}}
{'measurement': 'measName', 'fields': {'measV_HV2': -150.0, 'measI_HV2': -9.557349e-08, 'settV_HV2': -150.0, 'settI_HV2': 0.0}, 'tags': {'user': 'root'}}
{'measurement': 'measName', 'fields': {'measV_HV2': -150.0, 'measI_HV2': -1.037831e-07, 'settV_HV2': -150.0, 'settI_HV2': 0.0}, 'tags': {'user': 'root'}}
{'measurement': 'measName', 'fields': {'measV_HV2': -150.0, 'measI_HV2': -9.473442e-08, 'settV_HV2': -150.0, 'settI_HV2': 0.0}, 'tags': {'user': 'root'}}
{'measurement': 'measName', 'fields': {'measV_HV2': -150.0, 'measI_HV2': -9.460905e-08, 'settV_HV2': -150.0, 'settI_HV2': 0.0}, 'tags': {'user': 'root'}}
{'measurement': 'measName', 'fields': {'measV_HV2': -150.0, 'measI_HV2': -1.039707e-07, 'settV_HV2': -150.0, 'settI_HV2': 0.0}, 'tags': {'user': 'root'}}
{'measurement': 'measName', 'fields': {'measV_HV2': -150.0, 'measI_HV2': -9.286253e-08, 'settV_HV2': -150.0, 'settI_HV2': 0.0}, 'tags': {'user': 'root'}}
{'measurement': 'measName', 'fields': {'measV_HV2': -150.0, 'measI_HV2': -9.521685e-08, 'settV_HV2': -150.0, 'settI_HV2': 0.0}, 'tags': {'user': 'root'}}
{'measurement': 'measName', 'fields': {'measV_HV2': -150.0, 'measI_HV2': -1.03971e-07, 'settV_HV2': -150.0, 'settI_HV2': 0.0}, 'tags': {'user': 'root'}}
{'measurement': 'measName', 'fields': {'measV_HV2': -150.0, 'measI_HV2': -9.206929e-08, 'settV_HV2': -150.0, 'settI_HV2': 0.0}, 'tags': {'user': 'root'}}
{'measurement': 'measName', 'fields': {'measV_HV2': -150.0, 'measI_HV2': -9.939541e-08, 'settV_HV2': -150.0, 'settI_HV2': 0.0}, 'tags': {'user': 'root'}}
{'measurement': 'measName', 'fields': {'measV_HV2': -150.0, 'measI_HV2': -1.015325e-07, 'settV_HV2': -150.0, 'settI_HV2': 0.0}, 'tags': {'user': 'root'}}
{'measurement': 'measName', 'fields': {'measV_HV2': -150.0, 'measI_HV2': -9.163048e-08, 'settV_HV2': -150.0, 'settI_HV2': 0.0}, 'tags': {'user': 'root'}}
{'measurement': 'measName', 'fields': {'measV_HV2': -150.0, 'measI_HV2': -1.00141e-07, 'settV_HV2': -150.0, 'settI_HV2': 0.0}, 'tags': {'user': 'root'}}
{'measurement': 'measName', 'fields': {'measV_HV2': -150.0, 'measI_HV2': -1.023735e-07, 'settV_HV2': -150.0, 'settI_HV2': 0.0}, 'tags': {'user': 'root'}}
{'measurement': 'measName', 'fields': {'measV_HV2': -150.0, 'measI_HV2': -9.234174e-08, 'settV_HV2': -150.0, 'settI_HV2': 0.0}, 'tags': {'user': 'root'}}
{'measurement': 'measName', 'fields': {'measV_HV2': -150.0, 'measI_HV2': -9.847025e-08, 'settV_HV2': -150.0, 'settI_HV2': 0.0}, 'tags': {'user': 'root'}}
{'measurement': 'measName', 'fields': {'measV_HV2': -150.0, 'measI_HV2': -1.042327e-07, 'settV_HV2': -150.0, 'settI_HV2': 0.0}, 'tags': {'user': 'root'}}
{'measurement': 'measName', 'fields': {'measV_HV2': -150.0, 'measI_HV2': -9.409483e-08, 'settV_HV2': -150.0, 'settI_HV2': 0.0}, 'tags': {'user': 'root'}}
{'measurement': 'measName', 'fields': {'measV_HV2': -150.0, 'measI_HV2': -9.515875e-08, 'settV_HV2': -150.0, 'settI_HV2': 0.0}, 'tags': {'user': 'root'}}
{'measurement': 'measName', 'fields': {'measV_HV2': -150.0, 'measI_HV2': -1.050088e-07, 'settV_HV2': -150.0, 'settI_HV2': 0.0}, 'tags': {'user': 'root'}}
{'measurement': 'measName', 'fields': {'measV_HV2': -150.0, 'measI_HV2': -9.592579e-08, 'settV_HV2': -150.0, 'settI_HV2': 0.0}, 'tags': {'user': 'root'}}
{'measurement': 'measName', 'fields': {'measV_HV2': -150.0, 'measI_HV2': -9.963272e-08, 'settV_HV2': -150.0, 'settI_HV2': 0.0}, 'tags': {'user': 'root'}}
{'measurement': 'measName', 'fields': {'measV_HV2': -150.0, 'measI_HV2': -1.030144e-07, 'settV_HV2': -150.0, 'settI_HV2': 0.0}, 'tags': {'user': 'root'}}
{'measurement': 'measName', 'fields': {'measV_HV2': -150.0, 'measI_HV2': -9.340088e-08, 'settV_HV2': -150.0, 'settI_HV2': 0.0}, 'tags': {'user': 'root'}}
{'measurement': 'measName', 'fields': {'measV_HV2': -150.0, 'measI_HV2': -9.516005e-08, 'settV_HV2': -150.0, 'settI_HV2': 0.0}, 'tags': {'user': 'root'}}
{'measurement': 'measName', 'fields': {'measV_HV2': -150.0, 'measI_HV2': -1.042356e-07, 'settV_HV2': -150.0, 'settI_HV2': 0.0}, 'tags': {'user': 'root'}}
{'measurement': 'measName', 'fields': {'measV_HV2': -150.0, 'measI_HV2': -9.386224e-08, 'settV_HV2': -150.0, 'settI_HV2': 0.0}, 'tags': {'user': 'root'}}
{'measurement': 'measName', 'fields': {'measV_HV2': -150.0, 'measI_HV2': -1.010241e-07, 'settV_HV2': -150.0, 'settI_HV2': 0.0}, 'tags': {'user': 'root'}}
{'measurement': 'measName', 'fields': {'measV_HV2': -150.0, 'measI_HV2': -1.006312e-07, 'settV_HV2': -150.0, 'settI_HV2': 0.0}, 'tags': {'user': 'root'}}
{'measurement': 'measName', 'fields': {'measV_HV2': -150.0, 'measI_HV2': -9.22388e-08, 'settV_HV2': -150.0, 'settI_HV2': 0.0}, 'tags': {'user': 'root'}}
{'measurement': 'measName', 'fields': {'measV_HV2': -150.0, 'measI_HV2': -1.012678e-07, 'settV_HV2': -150.0, 'settI_HV2': 0.0}, 'tags': {'user': 'root'}}
{'measurement': 'measName', 'fields': {'measV_HV2': -150.0, 'measI_HV2': -9.842951e-08, 'settV_HV2': -150.0, 'settI_HV2': 0.0}, 'tags': {'user': 'root'}}
{'measurement': 'measName', 'fields': {'measV_HV2': -150.0, 'measI_HV2': -9.282888e-08, 'settV_HV2': -150.0, 'settI_HV2': 0.0}, 'tags': {'user': 'root'}}
{'measurement': 'measName', 'fields': {'measV_HV2': -150.0, 'measI_HV2': -9.955114e-08, 'settV_HV2': -150.0, 'settI_HV2': 0.0}, 'tags': {'user': 'root'}}
{'measurement': 'measName', 'fields': {'measV_HV2': -150.0, 'measI_HV2': -1.043652e-07, 'settV_HV2': -150.0, 'settI_HV2': 0.0}, 'tags': {'user': 'root'}}
{'measurement': 'measName', 'fields': {'measV_HV2': -150.0, 'measI_HV2': -9.277089e-08, 'settV_HV2': -150.0, 'settI_HV2': 0.0}, 'tags': {'user': 'root'}}
{'measurement': 'measName', 'fields': {'measV_HV2': -150.0, 'measI_HV2': -9.666781e-08, 'settV_HV2': -150.0, 'settI_HV2': 0.0}, 'tags': {'user': 'root'}}
{'measurement': 'measName', 'fields': {'measV_HV2': -150.0, 'measI_HV2': -1.045927e-07, 'settV_HV2': -150.0, 'settI_HV2': 0.0}, 'tags': {'user': 'root'}}
{'measurement': 'measName', 'fields': {'measV_HV2': -150.0, 'measI_HV2': -9.353626e-08, 'settV_HV2': -150.0, 'settI_HV2': 0.0}, 'tags': {'user': 'root'}}
{'measurement': 'measName', 'fields': {'measV_HV2': -150.0, 'measI_HV2': -9.658257e-08, 'settV_HV2': -150.0, 'settI_HV2': 0.0}, 'tags': {'user': 'root'}}
{'measurement': 'measName', 'fields': {'measV_HV2': -150.0, 'measI_HV2': -1.040105e-07, 'settV_HV2': -150.0, 'settI_HV2': 0.0}, 'tags': {'user': 'root'}}
{'measurement': 'measName', 'fields': {'measV_HV2': -150.0, 'measI_HV2': -9.670283e-08, 'settV_HV2': -150.0, 'settI_HV2': 0.0}, 'tags': {'user': 'root'}}
{'measurement': 'measName', 'fields': {'measV_HV2': -150.0, 'measI_HV2': -9.177282e-08, 'settV_HV2': -150.0, 'settI_HV2': 0.0}, 'tags': {'user': 'root'}}
{'measurement': 'measName', 'fields': {'measV_HV2': -150.0, 'measI_HV2': -9.879258e-08, 'settV_HV2': -150.0, 'settI_HV2': 0.0}, 'tags': {'user': 'root'}}
{'measurement': 'measName', 'fields': {'measV_HV2': -150.0, 'measI_HV2': -1.043032e-07, 'settV_HV2': -150.0, 'settI_HV2': 0.0}, 'tags': {'user': 'root'}}
{'measurement': 'measName', 'fields': {'measV_HV2': -150.0, 'measI_HV2': -1.024658e-07, 'settV_HV2': -150.0, 'settI_HV2': 0.0}, 'tags': {'user': 'root'}}
{'measurement': 'measName', 'fields': {'measV_HV2': -150.0, 'measI_HV2': -9.502875e-08, 'settV_HV2': -150.0, 'settI_HV2': 0.0}, 'tags': {'user': 'root'}}
{'measurement': 'measName', 'fields': {'measV_HV2': -150.0, 'measI_HV2': -9.253197e-08, 'settV_HV2': -150.0, 'settI_HV2': 0.0}, 'tags': {'user': 'root'}}
{'measurement': 'measName', 'fields': {'measV_HV2': -150.0, 'measI_HV2': -1.025648e-07, 'settV_HV2': -150.0, 'settI_HV2': 0.0}, 'tags': {'user': 'root'}}
{'measurement': 'measName', 'fields': {'measV_HV2': -150.0, 'measI_HV2': -1.033003e-07, 'settV_HV2': -150.0, 'settI_HV2': 0.0}, 'tags': {'user': 'root'}}
{'measurement': 'measName', 'fields': {'measV_HV2': -150.0, 'measI_HV2': -9.227306e-08, 'settV_HV2': -150.0, 'settI_HV2': 0.0}, 'tags': {'user': 'root'}}
{'measurement': 'measName', 'fields': {'measV_HV2': -150.0, 'measI_HV2': -9.436829e-08, 'settV_HV2': -150.0, 'settI_HV2': 0.0}, 'tags': {'user': 'root'}}
{'measurement': 'measName', 'fields': {'measV_HV2': -150.0, 'measI_HV2': -1.026224e-07, 'settV_HV2': -150.0, 'settI_HV2': 0.0}, 'tags': {'user': 'root'}}
{'measurement': 'measName', 'fields': {'measV_HV2': -150.0, 'measI_HV2': -1.013007e-07, 'settV_HV2': -150.0, 'settI_HV2': 0.0}, 'tags': {'user': 'root'}}
{'measurement': 'measName', 'fields': {'measV_HV2': -150.0, 'measI_HV2': -9.317164e-08, 'settV_HV2': -150.0, 'settI_HV2': 0.0}, 'tags': {'user': 'root'}}
{'measurement': 'measName', 'fields': {'measV_HV2': -150.0, 'measI_HV2': -9.499954e-08, 'settV_HV2': -150.0, 'settI_HV2': 0.0}, 'tags': {'user': 'root'}}
{'measurement': 'measName', 'fields': {'measV_HV2': -150.0, 'measI_HV2': -1.048714e-07, 'settV_HV2': -150.0, 'settI_HV2': 0.0}, 'tags': {'user': 'root'}}
{'measurement': 'measName', 'fields': {'measV_HV2': -150.0, 'measI_HV2': -9.760954e-08, 'settV_HV2': -150.0, 'settI_HV2': 0.0}, 'tags': {'user': 'root'}}
{'measurement': 'measName', 'fields': {'measV_HV2': -150.0, 'measI_HV2': -9.283243e-08, 'settV_HV2': -150.0, 'settI_HV2': 0.0}, 'tags': {'user': 'root'}}
{'measurement': 'measName', 'fields': {'measV_HV2': -150.0, 'measI_HV2': -1.02046e-07, 'settV_HV2': -150.0, 'settI_HV2': 0.0}, 'tags': {'user': 'root'}}
{'measurement': 'measName', 'fields': {'measV_HV2': -150.0, 'measI_HV2': -1.037965e-07, 'settV_HV2': -150.0, 'settI_HV2': 0.0}, 'tags': {'user': 'root'}}
{'measurement': 'measName', 'fields': {'measV_HV2': -150.0, 'measI_HV2': -9.506638e-08, 'settV_HV2': -150.0, 'settI_HV2': 0.0}, 'tags': {'user': 'root'}}
{'measurement': 'measName', 'fields': {'measV_HV2': -150.0, 'measI_HV2': -9.345137e-08, 'settV_HV2': -150.0, 'settI_HV2': 0.0}, 'tags': {'user': 'root'}}
{'measurement': 'measName', 'fields': {'measV_HV2': -150.0, 'measI_HV2': -1.046087e-07, 'settV_HV2': -150.0, 'settI_HV2': 0.0}, 'tags': {'user': 'root'}}
{'measurement': 'measName', 'fields': {'measV_HV2': -150.0, 'measI_HV2': -1.021621e-07, 'settV_HV2': -150.0, 'settI_HV2': 0.0}, 'tags': {'user': 'root'}}
{'measurement': 'measName', 'fields': {'measV_HV2': -150.0, 'measI_HV2': -9.181186e-08, 'settV_HV2': -150.0, 'settI_HV2': 0.0}, 'tags': {'user': 'root'}}
{'measurement': 'measName', 'fields': {'measV_HV2': -150.0, 'measI_HV2': -9.968815e-08, 'settV_HV2': -150.0, 'settI_HV2': 0.0}, 'tags': {'user': 'root'}}
{'measurement': 'measName', 'fields': {'measV_HV2': -150.0, 'measI_HV2': -1.048163e-07, 'settV_HV2': -150.0, 'settI_HV2': 0.0}, 'tags': {'user': 'root'}}
{'measurement': 'measName', 'fields': {'measV_HV2': -150.0, 'measI_HV2': -9.564992e-08, 'settV_HV2': -150.0, 'settI_HV2': 0.0}, 'tags': {'user': 'root'}}
{'measurement': 'measName', 'fields': {'measV_HV2': -150.0, 'measI_HV2': -9.364548e-08, 'settV_HV2': -150.0, 'settI_HV2': 0.0}, 'tags': {'user': 'root'}}
{'measurement': 'measName', 'fields': {'measV_HV2': -150.0, 'measI_HV2': -1.037682e-07, 'settV_HV2': -150.0, 'settI_HV2': 0.0}, 'tags': {'user': 'root'}}
{'measurement': 'measName', 'fields': {'measV_HV2': -150.0, 'measI_HV2': -9.779789e-08, 'settV_HV2': -150.0, 'settI_HV2': 0.0}, 'tags': {'user': 'root'}}
{'measurement': 'measName', 'fields': {'measV_HV2': -150.0, 'measI_HV2': -9.138883e-08, 'settV_HV2': -150.0, 'settI_HV2': 0.0}, 'tags': {'user': 'root'}}
{'measurement': 'measName', 'fields': {'measV_HV2': -150.0, 'measI_HV2': -1.01054e-07, 'settV_HV2': -150.0, 'settI_HV2': 0.0}, 'tags': {'user': 'root'}}
{'measurement': 'measName', 'fields': {'measV_HV2': -150.0, 'measI_HV2': -1.044971e-07, 'settV_HV2': -150.0, 'settI_HV2': 0.0}, 'tags': {'user': 'root'}}
{'measurement': 'measName', 'fields': {'measV_HV2': -150.0, 'measI_HV2': -9.981341e-08, 'settV_HV2': -150.0, 'settI_HV2': 0.0}, 'tags': {'user': 'root'}}
{'measurement': 'measName', 'fields': {'measV_HV2': -150.0, 'measI_HV2': -9.259566e-08, 'settV_HV2': -150.0, 'settI_HV2': 0.0}, 'tags': {'user': 'root'}}
{'measurement': 'measName', 'fields': {'measV_HV2': -150.0, 'measI_HV2': -1.000268e-07, 'settV_HV2': -150.0, 'settI_HV2': 0.0}, 'tags': {'user': 'root'}}
{'measurement': 'measName', 'fields': {'measV_HV2': -150.0, 'measI_HV2': -1.019265e-07, 'settV_HV2': -150.0, 'settI_HV2': 0.0}, 'tags': {'user': 'root'}}
{'measurement': 'measName', 'fields': {'measV_HV2': -150.0, 'measI_HV2': -9.594057e-08, 'settV_HV2': -150.0, 'settI_HV2': 0.0}, 'tags': {'user': 'root'}}
{'measurement': 'measName', 'fields': {'measV_HV2': -150.0, 'measI_HV2': -9.411891e-08, 'settV_HV2': -150.0, 'settI_HV2': 0.0}, 'tags': {'user': 'root'}}
{'measurement': 'measName', 'fields': {'measV_HV2': -150.0, 'measI_HV2': -1.02047e-07, 'settV_HV2': -150.0, 'settI_HV2': 0.0}, 'tags': {'user': 'root'}}
{'measurement': 'measName', 'fields': {'measV_HV2': -150.0, 'measI_HV2': -9.949837e-08, 'settV_HV2': -150.0, 'settI_HV2': 0.0}, 'tags': {'user': 'root'}}
{'measurement': 'measName', 'fields': {'measV_HV2': -150.0, 'measI_HV2': -9.244019e-08, 'settV_HV2': -150.0, 'settI_HV2': 0.0}, 'tags': {'user': 'root'}}
{'measurement': 'measName', 'fields': {'measV_HV2': -150.0, 'measI_HV2': -1.031246e-07, 'settV_HV2': -150.0, 'settI_HV2': 0.0}, 'tags': {'user': 'root'}}
{'measurement': 'measName', 'fields': {'measV_HV2': -150.0, 'measI_HV2': -9.931212e-08, 'settV_HV2': -150.0, 'settI_HV2': 0.0}, 'tags': {'user': 'root'}}
{'measurement': 'measName', 'fields': {'measV_HV2': -150.0, 'measI_HV2': -9.159627e-08, 'settV_HV2': -150.0, 'settI_HV2': 0.0}, 'tags': {'user': 'root'}}
{'measurement': 'measName', 'fields': {'measV_HV2': -150.0, 'measI_HV2': -1.009121e-07, 'settV_HV2': -150.0, 'settI_HV2': 0.0}, 'tags': {'user': 'root'}}
{'measurement': 'measName', 'fields': {'measV_HV2': -150.0, 'measI_HV2': -1.001926e-07, 'settV_HV2': -150.0, 'settI_HV2': 0.0}, 'tags': {'user': 'root'}}
{'measurement': 'measName', 'fields': {'measV_HV2': -150.0, 'measI_HV2': -9.197305e-08, 'settV_HV2': -150.0, 'settI_HV2': 0.0}, 'tags': {'user': 'root'}}
{'measurement': 'measName', 'fields': {'measV_HV2': -150.0, 'measI_HV2': -9.736911e-08, 'settV_HV2': -150.0, 'settI_HV2': 0.0}, 'tags': {'user': 'root'}}
{'measurement': 'measName', 'fields': {'measV_HV2': -150.0, 'measI_HV2': -1.03328e-07, 'settV_HV2': -150.0, 'settI_HV2': 0.0}, 'tags': {'user': 'root'}}
{'measurement': 'measName', 'fields': {'measV_HV2': -150.0, 'measI_HV2': -9.556906e-08, 'settV_HV2': -150.0, 'settI_HV2': 0.0}, 'tags': {'user': 'root'}}
{'measurement': 'measName', 'fields': {'measV_HV2': -150.0, 'measI_HV2': -9.273096e-08, 'settV_HV2': -150.0, 'settI_HV2': 0.0}, 'tags': {'user': 'root'}}
{'measurement': 'measName', 'fields': {'measV_HV2': -150.0, 'measI_HV2': -1.006111e-07, 'settV_HV2': -150.0, 'settI_HV2': 0.0}, 'tags': {'user': 'root'}}
{'measurement': 'measName', 'fields': {'measV_HV2': -150.0, 'measI_HV2': -1.024367e-07, 'settV_HV2': -150.0, 'settI_HV2': 0.0}, 'tags': {'user': 'root'}}
{'measurement': 'measName', 'fields': {'measV_HV2': -150.0, 'measI_HV2': -9.385364e-08, 'settV_HV2': -150.0, 'settI_HV2': 0.0}, 'tags': {'user': 'root'}}
{'measurement': 'measName', 'fields': {'measV_HV2': -150.0, 'measI_HV2': -9.478197e-08, 'settV_HV2': -150.0, 'settI_HV2': 0.0}, 'tags': {'user': 'root'}}
{'measurement': 'measName', 'fields': {'measV_HV2': -150.0, 'measI_HV2': -1.004857e-07, 'settV_HV2': -150.0, 'settI_HV2': 0.0}, 'tags': {'user': 'root'}}
{'measurement': 'measName', 'fields': {'measV_HV2': -150.0, 'measI_HV2': -1.025855e-07, 'settV_HV2': -150.0, 'settI_HV2': 0.0}, 'tags': {'user': 'root'}}
{'measurement': 'measName', 'fields': {'measV_HV2': -150.0, 'measI_HV2': -9.38573e-08, 'settV_HV2': -150.0, 'settI_HV2': 0.0}, 'tags': {'user': 'root'}}
{'measurement': 'measName', 'fields': {'measV_HV2': -150.0, 'measI_HV2': -9.290257e-08, 'settV_HV2': -150.0, 'settI_HV2': 0.0}, 'tags': {'user': 'root'}}
{'measurement': 'measName', 'fields': {'measV_HV2': -150.0, 'measI_HV2': -1.03117e-07, 'settV_HV2': -150.0, 'settI_HV2': 0.0}, 'tags': {'user': 'root'}}
{'measurement': 'measName', 'fields': {'measV_HV2': -150.0, 'measI_HV2': -1.026131e-07, 'settV_HV2': -150.0, 'settI_HV2': 0.0}, 'tags': {'user': 'root'}}
{'measurement': 'measName', 'fields': {'measV_HV2': -150.0, 'measI_HV2': -9.284588e-08, 'settV_HV2': -150.0, 'settI_HV2': 0.0}, 'tags': {'user': 'root'}}
{'measurement': 'measName', 'fields': {'measV_HV2': -150.0, 'measI_HV2': -9.333775e-08, 'settV_HV2': -150.0, 'settI_HV2': 0.0}, 'tags': {'user': 'root'}}

