{
    "Data": [0.0, 2.0, 46.0, 476.0, 1585.0, 2912.0, 3750.0, 3741.0, 3378.0, 2855.0, 2131.0, 1538.0, 1116.0, 723.0, 498.0, 286.0, 187.0, 128.0, 92.0, 76.0, 43.0, 51.0, 45.0, 39.0, 28.0, 27.0, 20.0, 31.0, 28.0, 19.0, 9.0, 12.0, 12.0, 5.0, 6.0, 6.0, 7.0, 10.0, 4.0, 5.0, 2.0, 2.0, 0.0, 1.0, 0.0, 0.0, 2.0, 0.0, 0.0, 0.0, 0.0],
    "Name": "Chi2Dist-0",
    "Overflow": 0.0,
    "Type": "Histo1d",
    "Underflow": 0.0,
    "x": {
        "AxisTitle": "Fit Chi/ndf",
        "Bins": 51,
        "High": 2.5250000953674318,
        "Low": -0.02500000037252903
    },
    "y": {
        "AxisTitle": "Number of Pixels"
    },
    "z": {
        "AxisTitle": "z"
    }
}