{
    "Data": [0.0, 0.0, 1.0, 0.0, 0.0, 0.0, 0.0, 0.0, 0.0, 0.0, 0.0, 0.0, 0.0, 0.0, 0.0, 0.0, 0.0, 0.0, 0.0, 0.0, 0.0, 0.0, 0.0, 0.0, 0.0, 0.0, 0.0, 0.0, 0.0, 0.0, 0.0, 0.0, 0.0, 0.0, 0.0, 0.0, 0.0, 0.0, 0.0, 0.0, 0.0, 0.0, 0.0, 0.0, 0.0, 0.0, 0.0, 0.0, 0.0, 0.0, 0.0, 0.0, 0.0, 0.0, 0.0, 0.0, 0.0, 0.0, 0.0, 0.0, 0.0, 0.0, 0.0, 0.0, 0.0, 0.0, 0.0, 0.0, 0.0, 0.0, 0.0, 0.0, 0.0, 0.0, 0.0, 0.0, 0.0, 0.0, 0.0, 0.0, 0.0, 0.0, 0.0, 0.0, 0.0, 0.0, 0.0, 0.0, 0.0, 0.0, 0.0, 0.0, 1.0, 0.0, 0.0, 0.0, 0.0, 0.0, 0.0, 1.0, 0.0, 0.0, 0.0, 0.0, 0.0, 0.0, 0.0, 0.0, 0.0, 0.0, 0.0, 1.0, 0.0, 0.0, 0.0, 1.0, 0.0, 0.0, 0.0, 0.0, 1.0, 0.0, 0.0, 0.0, 0.0, 0.0, 0.0, 0.0, 0.0, 0.0, 0.0, 1.0, 0.0, 0.0, 0.0, 0.0, 0.0, 1.0, 0.0, 0.0, 0.0, 1.0, 0.0, 2.0, 1.0, 1.0, 1.0, 0.0, 0.0, 1.0, 0.0, 0.0, 1.0, 0.0, 2.0, 1.0, 2.0, 1.0, 3.0, 2.0, 2.0, 0.0, 1.0, 2.0, 0.0, 0.0, 1.0, 0.0, 3.0, 1.0, 1.0, 1.0, 4.0, 2.0, 6.0, 2.0, 3.0, 3.0, 4.0, 3.0, 2.0, 5.0, 3.0, 3.0, 9.0, 11.0, 5.0, 9.0, 13.0, 6.0, 9.0, 11.0, 13.0, 12.0, 14.0, 11.0, 17.0, 17.0, 21.0, 22.0, 27.0, 21.0, 25.0, 33.0, 26.0, 27.0, 30.0, 39.0, 45.0, 56.0, 39.0, 45.0, 56.0, 56.0, 60.0, 60.0, 69.0, 68.0, 85.0, 88.0, 75.0, 75.0, 87.0, 87.0, 119.0, 107.0, 129.0, 109.0, 136.0, 126.0, 135.0, 148.0, 145.0, 139.0, 162.0, 159.0, 173.0, 190.0, 208.0, 180.0, 181.0, 200.0, 207.0, 221.0, 234.0, 233.0, 274.0, 264.0, 252.0, 271.0, 266.0, 233.0, 270.0, 266.0, 261.0, 265.0, 261.0, 292.0, 257.0, 274.0, 314.0, 290.0, 278.0, 287.0, 278.0, 293.0, 286.0, 284.0, 263.0, 294.0, 282.0, 301.0, 294.0, 286.0, 251.0, 245.0, 263.0, 260.0, 262.0, 258.0, 251.0, 252.0, 244.0, 232.0, 224.0, 220.0, 181.0, 221.0, 203.0, 212.0, 203.0, 197.0, 199.0, 190.0, 197.0, 159.0, 163.0, 169.0, 152.0, 136.0, 157.0, 143.0, 151.0, 146.0, 154.0, 117.0, 119.0, 130.0, 141.0, 116.0, 106.0, 122.0, 108.0, 112.0, 111.0, 93.0, 96.0, 85.0, 90.0, 88.0, 96.0, 88.0, 90.0, 89.0, 91.0, 74.0, 74.0, 72.0, 71.0, 60.0, 59.0, 60.0, 62.0, 62.0, 58.0, 76.0, 54.0, 51.0, 61.0, 47.0, 53.0, 50.0, 52.0, 50.0, 55.0, 62.0, 55.0, 46.0, 52.0, 57.0, 70.0, 51.0, 48.0, 44.0, 41.0, 65.0, 39.0, 43.0, 48.0, 45.0, 42.0, 41.0, 46.0, 32.0, 31.0, 44.0, 47.0, 34.0, 43.0, 43.0, 30.0, 43.0, 36.0, 38.0, 28.0, 31.0, 41.0, 33.0, 34.0, 40.0, 26.0, 35.0, 36.0, 35.0, 40.0, 41.0, 34.0, 20.0, 27.0, 26.0, 32.0, 33.0, 22.0, 28.0, 26.0, 24.0, 22.0, 25.0, 28.0, 29.0, 30.0, 24.0, 25.0, 19.0, 24.0, 26.0, 29.0, 16.0, 17.0, 21.0, 20.0, 23.0, 19.0, 14.0, 16.0, 16.0, 17.0, 23.0, 14.0, 14.0, 20.0, 12.0, 24.0, 23.0, 19.0, 22.0, 10.0, 14.0, 15.0, 13.0, 7.0, 17.0, 8.0, 8.0, 14.0, 10.0, 11.0, 9.0, 6.0, 7.0, 12.0, 8.0, 7.0, 5.0, 11.0, 7.0, 7.0, 7.0, 10.0, 6.0, 7.0, 6.0, 14.0, 4.0, 7.0, 9.0, 6.0, 10.0, 5.0, 10.0, 7.0, 5.0, 5.0, 11.0, 4.0, 5.0, 5.0, 3.0, 5.0, 6.0, 4.0, 5.0, 4.0, 8.0, 8.0, 6.0, 0.0, 3.0, 6.0, 6.0, 5.0, 2.0, 2.0, 3.0, 5.0, 2.0, 2.0, 5.0, 5.0, 4.0, 2.0, 2.0, 2.0, 4.0, 2.0, 1.0, 3.0, 4.0, 2.0, 3.0, 4.0, 1.0, 4.0, 6.0, 5.0, 1.0, 1.0, 4.0, 3.0, 3.0, 1.0, 1.0, 5.0, 2.0, 1.0, 3.0, 2.0, 2.0, 5.0, 2.0, 2.0, 3.0, 0.0, 1.0, 0.0, 2.0, 2.0, 1.0, 1.0, 1.0, 1.0, 0.0, 1.0, 2.0, 1.0, 1.0, 1.0, 1.0, 1.0, 1.0, 5.0, 1.0, 0.0, 1.0, 1.0, 3.0, 2.0, 1.0, 3.0, 1.0, 1.0, 2.0, 3.0, 0.0, 1.0, 2.0, 1.0, 1.0, 1.0, 2.0, 0.0, 1.0, 0.0, 1.0, 0.0, 0.0, 1.0, 0.0, 0.0, 1.0, 1.0],
    "Name": "NoiseDist-0",
    "Overflow": 80.0,
    "Type": "Histo1d",
    "Underflow": 0.0,
    "x": {
        "AxisTitle": "Noise [e]",
        "Bins": 571,
        "High": 3107.0,
        "Low": 252.0
    },
    "y": {
        "AxisTitle": "Number of Pixels"
    },
    "z": {
        "AxisTitle": "z"
    }
}