{
    "Data": [0.0, 3.0, 54.0, 562.0, 1811.0, 3184.0, 3850.0, 3741.0, 3313.0, 2816.0, 1986.0, 1417.0, 1047.0, 668.0, 444.0, 232.0, 170.0, 102.0, 87.0, 46.0, 55.0, 32.0, 31.0, 21.0, 18.0, 26.0, 18.0, 17.0, 20.0, 15.0, 17.0, 19.0, 16.0, 17.0, 9.0, 6.0, 11.0, 9.0, 8.0, 8.0, 6.0, 5.0, 6.0, 1.0, 2.0, 4.0, 0.0, 1.0, 2.0, 0.0, 1.0],
    "Name": "Chi2Dist-0",
    "Overflow": 0.0,
    "Type": "Histo1d",
    "Underflow": 0.0,
    "x": {
        "AxisTitle": "Fit Chi/ndf",
        "Bins": 51,
        "High": 2.5250000953674318,
        "Low": -0.02500000037252903
    },
    "y": {
        "AxisTitle": "Number of Pixels"
    },
    "z": {
        "AxisTitle": "z"
    }
}