{
    "Data": [0.0, 0.0, 0.0, 0.0, 0.0, 0.0, 0.0, 0.0, 0.0, 0.0, 1.0, 0.0, 0.0, 0.0, 0.0, 0.0, 0.0, 0.0, 0.0, 0.0, 0.0, 0.0, 0.0, 0.0, 0.0, 0.0, 1.0, 0.0, 0.0, 0.0, 0.0, 0.0, 0.0, 0.0, 0.0, 0.0, 0.0, 0.0, 0.0, 0.0, 0.0, 0.0, 0.0, 0.0, 0.0, 0.0, 0.0, 0.0, 1.0, 0.0, 0.0, 0.0, 0.0, 0.0, 0.0, 0.0, 0.0, 0.0, 0.0, 1.0, 0.0, 0.0, 0.0, 0.0, 0.0, 0.0, 0.0, 0.0, 0.0, 0.0, 1.0, 0.0, 0.0, 0.0, 0.0, 0.0, 0.0, 0.0, 0.0, 0.0, 0.0, 0.0, 1.0, 1.0, 0.0, 1.0, 0.0, 0.0, 0.0, 0.0, 0.0, 0.0, 0.0, 0.0, 0.0, 0.0, 0.0, 0.0, 0.0, 0.0, 0.0, 0.0, 0.0, 0.0, 0.0, 1.0, 0.0, 1.0, 1.0, 0.0, 0.0, 0.0, 0.0, 1.0, 0.0, 0.0, 0.0, 0.0, 0.0, 0.0, 0.0, 0.0, 0.0, 0.0, 0.0, 0.0, 0.0, 0.0, 0.0, 0.0, 1.0, 1.0, 0.0, 0.0, 0.0, 0.0, 1.0, 0.0, 0.0, 0.0, 1.0, 0.0, 0.0, 0.0, 0.0, 0.0, 0.0, 0.0, 0.0, 0.0, 0.0, 0.0, 0.0, 1.0, 0.0, 0.0, 0.0, 0.0, 0.0, 0.0, 0.0, 2.0, 0.0, 0.0, 1.0, 1.0, 0.0, 0.0, 0.0, 0.0, 1.0, 0.0, 0.0, 0.0, 0.0, 0.0, 1.0, 0.0, 0.0, 0.0, 0.0, 0.0, 0.0, 0.0, 0.0, 0.0, 0.0, 1.0, 0.0, 0.0, 0.0, 0.0, 1.0, 0.0, 1.0, 0.0, 1.0, 0.0, 0.0, 0.0, 0.0, 1.0, 0.0, 0.0, 0.0, 0.0, 0.0, 0.0, 0.0, 0.0, 0.0, 1.0, 0.0, 0.0, 0.0, 0.0, 0.0, 0.0, 0.0, 0.0, 0.0, 0.0, 0.0, 0.0, 0.0, 0.0, 0.0, 1.0, 0.0, 0.0, 0.0, 0.0, 0.0, 0.0, 0.0, 0.0, 0.0, 0.0, 0.0, 0.0, 0.0, 0.0, 1.0, 1.0, 0.0, 0.0, 0.0, 0.0, 0.0, 0.0, 1.0, 0.0, 0.0, 0.0, 0.0, 0.0, 0.0, 0.0, 0.0, 1.0, 0.0, 0.0, 0.0, 0.0, 0.0, 0.0, 1.0, 0.0, 0.0, 0.0, 1.0, 0.0, 1.0, 0.0, 0.0, 0.0, 0.0, 0.0, 0.0, 0.0, 0.0, 0.0, 1.0, 0.0, 2.0, 1.0, 0.0, 1.0, 0.0, 0.0, 0.0, 0.0, 0.0, 0.0, 0.0, 0.0, 2.0, 0.0, 0.0, 0.0, 1.0, 1.0, 0.0, 0.0, 0.0, 0.0, 0.0, 1.0, 1.0, 0.0, 1.0, 1.0, 0.0, 0.0, 0.0, 0.0, 0.0, 0.0, 0.0, 0.0, 0.0, 0.0, 0.0, 0.0, 0.0, 0.0, 0.0, 0.0, 0.0, 0.0, 0.0, 0.0, 0.0, 0.0, 0.0, 0.0, 0.0, 0.0, 0.0, 1.0, 0.0, 0.0, 0.0, 0.0, 0.0, 1.0, 0.0, 1.0, 0.0, 0.0, 0.0, 0.0, 0.0, 0.0, 1.0, 0.0, 3.0, 0.0, 0.0, 0.0, 1.0, 0.0, 0.0, 0.0, 0.0, 0.0, 0.0, 0.0, 0.0, 0.0, 0.0, 0.0, 0.0, 1.0, 0.0, 0.0, 0.0, 0.0, 0.0, 1.0, 1.0, 0.0, 1.0, 0.0, 0.0, 1.0, 0.0, 0.0, 1.0, 0.0, 1.0, 0.0, 0.0, 0.0, 0.0, 0.0, 0.0, 0.0, 0.0, 1.0, 0.0, 0.0, 0.0, 0.0, 0.0, 1.0, 1.0, 0.0, 0.0, 0.0, 0.0, 0.0, 1.0, 0.0, 0.0, 0.0, 0.0, 0.0, 0.0, 0.0, 0.0, 0.0, 2.0, 0.0, 0.0, 0.0, 0.0, 0.0, 1.0, 0.0, 0.0, 0.0, 0.0, 0.0, 0.0, 0.0, 1.0, 0.0, 0.0, 0.0, 0.0, 0.0, 0.0, 0.0, 1.0, 0.0, 0.0, 0.0, 1.0, 0.0, 0.0, 0.0, 1.0, 0.0, 0.0, 0.0, 0.0, 2.0, 0.0, 0.0, 1.0, 0.0, 0.0, 0.0, 0.0, 0.0, 1.0, 0.0, 0.0, 0.0, 0.0, 1.0, 0.0, 2.0, 1.0, 0.0, 1.0, 2.0, 1.0, 1.0, 1.0, 0.0, 0.0, 1.0, 1.0, 0.0, 0.0, 1.0, 1.0, 0.0, 0.0, 0.0, 0.0, 0.0, 1.0, 0.0, 0.0, 0.0, 0.0, 0.0, 0.0, 0.0, 1.0, 0.0, 1.0, 1.0, 0.0, 0.0, 0.0, 0.0, 0.0, 1.0, 0.0, 0.0, 1.0, 1.0, 0.0, 2.0, 0.0, 0.0, 0.0, 0.0, 1.0, 0.0, 0.0, 1.0, 1.0, 1.0, 0.0, 0.0, 0.0, 0.0, 1.0, 0.0, 0.0, 0.0, 1.0, 0.0, 0.0, 0.0, 0.0, 0.0, 0.0, 0.0, 0.0, 2.0, 0.0, 0.0, 1.0, 3.0, 1.0, 1.0, 0.0, 0.0, 1.0, 0.0, 1.0, 0.0, 0.0, 0.0, 1.0, 0.0, 0.0, 0.0, 0.0, 0.0, 0.0, 1.0, 1.0, 0.0, 0.0, 0.0, 0.0, 1.0, 1.0, 0.0, 0.0, 2.0, 0.0, 0.0, 1.0, 0.0, 0.0, 0.0, 2.0, 0.0, 0.0, 1.0, 0.0, 0.0, 0.0, 1.0, 0.0, 0.0, 1.0, 3.0, 1.0, 0.0, 1.0, 1.0, 1.0, 0.0, 0.0, 0.0, 0.0, 0.0, 1.0, 2.0, 1.0, 0.0, 0.0, 1.0, 0.0, 0.0, 0.0, 1.0, 0.0, 0.0, 1.0, 0.0, 0.0, 0.0, 0.0, 1.0, 0.0, 0.0, 1.0, 0.0, 0.0, 0.0, 0.0, 1.0, 0.0, 0.0, 1.0, 0.0, 3.0, 0.0, 0.0, 0.0, 0.0, 0.0, 1.0, 0.0, 0.0, 0.0, 0.0, 2.0, 0.0, 0.0, 0.0, 1.0, 0.0, 0.0, 1.0, 0.0, 0.0, 0.0, 1.0, 2.0, 0.0, 1.0, 0.0, 1.0, 0.0, 0.0, 0.0, 1.0, 0.0, 0.0, 0.0, 0.0, 1.0, 1.0, 0.0, 1.0, 0.0, 0.0, 2.0, 2.0, 0.0, 3.0, 1.0, 0.0, 0.0, 0.0, 1.0, 3.0, 1.0, 1.0, 0.0, 1.0, 1.0, 0.0, 0.0, 1.0, 2.0, 1.0, 0.0, 0.0, 2.0, 0.0, 0.0, 1.0, 0.0, 0.0, 0.0, 1.0, 0.0, 1.0, 0.0, 2.0, 0.0, 1.0, 2.0, 0.0, 3.0, 0.0, 0.0, 0.0, 0.0, 0.0, 1.0, 1.0, 1.0, 0.0, 0.0, 0.0, 1.0, 0.0, 0.0, 0.0, 0.0, 1.0, 1.0, 2.0, 0.0, 2.0, 3.0, 0.0, 1.0, 0.0, 2.0, 0.0, 1.0, 2.0, 0.0, 1.0, 0.0, 3.0, 2.0, 1.0, 0.0, 1.0, 1.0, 2.0, 0.0, 3.0, 0.0, 3.0, 1.0, 1.0, 1.0, 2.0, 1.0, 2.0, 0.0, 0.0, 2.0, 1.0, 2.0, 0.0, 2.0, 0.0, 0.0, 0.0, 1.0, 2.0, 1.0, 2.0, 0.0, 5.0, 1.0, 0.0, 1.0, 0.0, 1.0, 1.0, 1.0, 0.0, 0.0, 0.0, 1.0, 0.0, 1.0, 0.0, 0.0, 2.0, 2.0, 2.0, 1.0, 1.0, 1.0, 0.0, 1.0, 1.0, 0.0, 1.0, 0.0, 1.0, 1.0, 0.0, 1.0, 0.0, 2.0, 0.0, 1.0, 3.0, 1.0, 0.0, 0.0, 0.0, 0.0, 1.0, 1.0, 1.0, 0.0, 0.0, 1.0, 2.0, 1.0, 1.0, 1.0, 2.0, 1.0, 2.0, 1.0, 1.0, 0.0, 2.0, 3.0, 0.0, 0.0, 4.0, 3.0, 0.0, 1.0, 0.0, 0.0, 2.0, 1.0, 1.0, 4.0, 1.0, 2.0, 2.0, 2.0, 1.0, 1.0, 0.0, 0.0, 2.0, 0.0, 2.0, 4.0, 2.0, 1.0, 0.0, 0.0, 0.0, 1.0, 3.0, 0.0, 0.0, 1.0, 3.0, 1.0, 1.0, 1.0, 0.0, 0.0, 0.0, 3.0, 0.0, 0.0, 0.0, 4.0, 2.0, 2.0, 0.0, 1.0, 2.0, 1.0, 1.0, 2.0, 1.0, 1.0, 2.0, 1.0, 2.0, 0.0, 2.0, 2.0, 0.0, 5.0, 1.0, 2.0, 1.0, 3.0, 1.0, 0.0, 1.0, 1.0, 2.0, 0.0, 1.0, 0.0, 1.0, 5.0, 0.0, 2.0, 1.0, 1.0, 3.0, 3.0, 2.0, 1.0, 2.0, 0.0, 1.0, 1.0, 0.0, 0.0, 2.0, 3.0, 5.0, 4.0, 0.0, 3.0, 0.0, 2.0, 3.0, 1.0, 4.0, 2.0, 0.0, 1.0, 2.0, 2.0, 2.0, 1.0, 2.0, 1.0, 1.0, 1.0, 1.0, 1.0, 3.0, 2.0, 3.0, 1.0, 4.0, 2.0, 4.0, 1.0, 2.0, 1.0, 2.0, 3.0, 5.0, 3.0, 1.0, 2.0, 3.0, 2.0, 1.0, 5.0, 2.0, 2.0, 2.0, 3.0, 2.0, 6.0, 2.0, 1.0, 2.0, 2.0, 1.0, 3.0, 1.0, 2.0, 4.0, 1.0, 2.0, 2.0, 5.0, 4.0, 2.0, 2.0, 2.0, 2.0, 3.0, 4.0, 0.0, 5.0, 4.0, 2.0, 4.0, 5.0, 1.0, 4.0, 5.0, 3.0, 5.0, 0.0, 1.0, 1.0, 2.0, 3.0, 3.0, 2.0, 4.0, 3.0, 1.0, 0.0, 5.0, 5.0, 4.0, 2.0, 1.0, 3.0, 5.0, 3.0, 5.0, 3.0, 10.0, 3.0, 5.0, 1.0, 1.0, 3.0, 1.0, 3.0, 5.0, 1.0, 6.0, 6.0, 4.0, 4.0, 1.0, 3.0, 2.0, 6.0, 2.0, 4.0, 6.0, 7.0, 3.0, 4.0, 0.0, 2.0, 5.0, 2.0, 3.0, 6.0, 2.0, 1.0, 3.0, 2.0, 9.0, 9.0, 3.0, 3.0, 3.0, 3.0, 4.0, 1.0, 5.0, 5.0, 4.0, 10.0, 3.0, 4.0, 4.0, 5.0, 4.0, 8.0, 3.0, 3.0, 5.0, 3.0, 3.0, 1.0, 5.0, 2.0, 4.0, 7.0, 8.0, 2.0, 8.0, 2.0, 6.0, 4.0, 3.0, 5.0, 2.0, 4.0, 2.0, 6.0, 10.0, 0.0, 6.0, 5.0, 7.0, 4.0, 4.0, 7.0, 8.0, 8.0, 6.0, 10.0, 6.0, 4.0, 3.0, 4.0, 9.0, 13.0, 6.0, 5.0, 1.0, 10.0, 10.0, 7.0, 3.0, 8.0, 11.0, 7.0, 11.0, 5.0, 6.0, 9.0, 5.0, 11.0, 10.0, 5.0, 1.0, 3.0, 7.0, 6.0, 5.0, 10.0, 3.0, 5.0, 7.0, 4.0, 6.0, 7.0, 2.0, 7.0, 7.0, 10.0, 7.0, 6.0, 9.0, 9.0, 11.0, 7.0, 9.0, 8.0, 8.0, 4.0, 6.0, 7.0, 4.0, 7.0, 9.0, 15.0, 5.0, 13.0, 5.0, 10.0, 12.0, 7.0, 10.0, 12.0, 1.0, 6.0, 13.0, 6.0, 6.0, 14.0, 7.0, 12.0, 7.0, 14.0, 11.0, 6.0, 8.0, 5.0, 11.0, 10.0, 7.0, 11.0, 15.0, 10.0, 9.0, 8.0, 8.0, 13.0, 9.0, 13.0, 11.0, 4.0, 5.0, 12.0, 9.0, 12.0, 14.0, 13.0, 15.0, 16.0, 15.0, 9.0, 12.0, 15.0, 12.0, 19.0, 19.0, 13.0, 10.0, 12.0, 7.0, 11.0, 9.0, 11.0, 15.0, 17.0, 11.0, 14.0, 14.0, 17.0, 27.0, 13.0, 20.0, 15.0, 12.0, 13.0, 17.0, 15.0, 21.0, 10.0, 14.0, 21.0, 17.0, 10.0, 14.0, 7.0, 18.0, 12.0, 10.0, 20.0, 14.0, 18.0, 13.0, 21.0, 19.0, 14.0, 11.0, 12.0, 21.0, 16.0, 10.0, 17.0, 11.0, 16.0, 15.0, 19.0, 17.0, 17.0, 20.0, 16.0, 12.0, 20.0, 14.0, 20.0, 22.0, 21.0, 17.0, 23.0, 18.0, 10.0, 7.0, 19.0, 15.0, 22.0, 16.0, 23.0, 20.0, 17.0, 13.0, 23.0, 20.0, 17.0, 18.0, 16.0, 14.0, 13.0, 16.0, 25.0, 22.0, 22.0, 21.0, 9.0, 21.0, 11.0, 21.0, 16.0, 28.0, 19.0, 19.0, 22.0, 26.0, 21.0, 13.0, 15.0, 18.0, 22.0, 21.0, 26.0, 23.0, 30.0, 26.0, 29.0, 22.0, 25.0, 23.0, 21.0, 22.0, 21.0, 25.0, 31.0, 23.0, 21.0, 11.0, 19.0, 33.0, 25.0, 24.0, 25.0, 30.0, 24.0, 23.0, 23.0, 26.0, 16.0, 24.0, 26.0, 26.0, 26.0, 22.0, 32.0, 26.0, 25.0, 25.0, 26.0, 19.0, 25.0, 27.0, 31.0, 31.0, 32.0, 20.0, 27.0, 22.0, 38.0, 29.0, 25.0, 28.0, 18.0, 22.0, 17.0, 27.0, 26.0, 29.0, 33.0, 20.0, 18.0, 36.0, 25.0, 35.0, 22.0, 34.0, 26.0, 29.0, 31.0, 29.0, 23.0, 33.0, 25.0, 39.0, 39.0, 35.0, 32.0, 30.0, 21.0, 33.0, 39.0, 32.0, 34.0, 31.0, 32.0, 36.0, 31.0, 35.0, 29.0, 27.0, 30.0, 39.0, 40.0, 43.0, 29.0, 37.0, 40.0, 50.0, 39.0, 39.0, 30.0, 28.0, 30.0, 39.0, 37.0, 45.0, 34.0, 33.0, 25.0, 40.0, 38.0, 38.0, 45.0, 33.0, 43.0, 34.0, 33.0, 36.0, 41.0, 35.0, 40.0, 33.0, 49.0, 29.0, 28.0, 33.0, 42.0, 45.0, 32.0, 39.0, 32.0, 36.0, 36.0, 32.0, 44.0, 36.0, 34.0, 41.0, 44.0, 32.0, 40.0, 37.0, 43.0, 32.0, 43.0, 41.0, 33.0, 51.0, 48.0, 37.0, 42.0, 44.0, 36.0, 42.0, 45.0, 34.0, 43.0, 56.0, 43.0, 48.0, 41.0, 41.0, 43.0, 47.0, 58.0, 37.0, 40.0, 43.0, 46.0, 36.0, 43.0, 42.0, 42.0, 43.0, 42.0, 42.0, 37.0, 53.0, 37.0, 39.0, 32.0, 55.0, 43.0, 42.0, 38.0, 44.0, 41.0, 44.0, 36.0, 42.0, 49.0, 44.0, 42.0, 50.0, 46.0, 42.0, 37.0, 41.0, 48.0, 43.0, 38.0, 45.0, 46.0, 49.0, 49.0, 46.0, 42.0, 42.0, 46.0, 41.0, 32.0, 50.0, 47.0, 43.0, 46.0, 45.0, 44.0, 51.0, 45.0, 41.0, 31.0, 31.0, 40.0, 51.0, 37.0, 44.0, 56.0, 41.0, 50.0, 48.0, 44.0, 61.0, 52.0, 40.0, 39.0, 34.0, 41.0, 36.0, 41.0, 41.0, 42.0, 52.0, 49.0, 42.0, 49.0, 49.0, 54.0, 35.0, 37.0, 42.0, 51.0, 45.0, 41.0, 46.0, 36.0, 50.0, 54.0, 49.0, 47.0, 48.0, 37.0, 46.0, 49.0, 46.0, 31.0, 44.0, 43.0, 54.0, 51.0, 54.0, 37.0, 51.0, 44.0, 40.0, 42.0, 37.0, 36.0, 34.0, 34.0, 47.0, 47.0, 44.0, 36.0, 49.0, 40.0, 45.0, 40.0, 36.0, 37.0, 34.0, 39.0, 51.0, 42.0, 32.0, 41.0, 32.0, 47.0, 48.0, 42.0, 47.0, 43.0, 51.0, 41.0, 51.0, 40.0, 38.0, 29.0, 41.0, 46.0, 52.0, 43.0, 40.0, 40.0, 44.0, 44.0, 42.0, 40.0, 28.0, 48.0, 34.0, 53.0, 46.0, 34.0, 41.0, 42.0, 34.0, 44.0, 26.0, 31.0, 45.0, 29.0, 26.0, 40.0, 41.0, 33.0, 36.0, 40.0, 42.0, 51.0, 45.0, 32.0, 40.0, 35.0, 48.0, 27.0, 37.0, 40.0, 38.0, 39.0, 37.0, 38.0, 39.0, 40.0, 32.0, 41.0, 39.0, 32.0, 31.0, 31.0, 35.0, 32.0, 41.0, 32.0, 49.0, 32.0, 35.0, 32.0, 37.0, 35.0, 36.0, 28.0, 41.0, 25.0, 42.0, 35.0, 34.0, 34.0, 38.0, 33.0, 42.0, 37.0, 36.0, 38.0, 40.0, 36.0, 38.0, 33.0, 42.0, 32.0, 27.0, 33.0, 35.0, 35.0, 35.0, 25.0, 25.0, 28.0, 27.0, 30.0, 39.0, 39.0, 37.0, 35.0, 40.0, 29.0, 29.0, 36.0, 32.0, 35.0, 34.0, 43.0, 28.0, 40.0, 24.0, 24.0, 30.0, 31.0, 30.0, 33.0, 29.0, 29.0, 35.0, 31.0, 24.0, 26.0, 30.0, 34.0, 27.0, 28.0, 22.0, 22.0, 25.0, 40.0, 30.0, 30.0, 36.0, 31.0, 25.0, 25.0, 23.0, 25.0, 27.0, 38.0, 22.0, 27.0, 31.0, 28.0, 28.0, 29.0, 33.0, 21.0, 25.0, 27.0, 32.0, 34.0, 28.0, 24.0, 25.0, 17.0, 25.0, 35.0, 28.0, 28.0, 33.0, 24.0, 21.0, 23.0, 23.0, 21.0, 19.0, 26.0, 17.0, 18.0, 38.0, 22.0, 16.0, 29.0, 21.0, 24.0, 35.0, 31.0, 20.0, 27.0, 32.0, 27.0, 31.0, 15.0, 17.0, 21.0, 28.0, 21.0, 23.0, 24.0, 23.0, 22.0, 15.0, 20.0, 14.0, 18.0, 28.0, 27.0, 20.0, 22.0, 27.0, 21.0, 16.0, 25.0, 19.0, 14.0, 28.0, 27.0, 28.0, 25.0, 17.0, 22.0, 25.0, 23.0, 22.0, 18.0, 17.0, 17.0, 9.0, 16.0, 29.0, 27.0, 20.0, 28.0, 21.0, 24.0, 19.0, 13.0, 19.0, 14.0, 25.0, 17.0, 15.0, 17.0, 23.0, 14.0, 20.0, 16.0, 10.0, 14.0, 17.0, 20.0, 15.0, 13.0, 15.0, 15.0, 19.0, 16.0, 22.0, 17.0, 15.0, 13.0, 16.0, 15.0, 16.0, 18.0, 17.0, 11.0, 13.0, 18.0, 12.0, 20.0, 20.0, 19.0, 10.0, 20.0, 15.0, 14.0, 16.0, 18.0, 12.0, 13.0, 16.0, 19.0, 11.0, 19.0, 9.0, 15.0, 19.0, 11.0, 13.0, 15.0, 12.0, 20.0, 20.0, 17.0, 14.0, 15.0, 16.0, 14.0, 18.0, 15.0, 17.0, 18.0, 14.0, 12.0, 16.0, 16.0, 17.0, 15.0, 15.0, 17.0, 10.0, 9.0, 11.0, 12.0, 12.0, 9.0, 8.0, 9.0, 10.0, 11.0, 17.0, 6.0, 18.0, 16.0, 8.0, 15.0, 20.0, 6.0, 12.0, 13.0, 7.0, 13.0, 14.0, 6.0, 15.0, 12.0, 8.0, 11.0, 7.0, 10.0, 10.0, 13.0, 11.0, 7.0, 10.0, 18.0, 16.0, 9.0, 14.0, 8.0, 11.0, 8.0, 7.0, 15.0, 10.0, 10.0, 11.0, 13.0, 11.0, 10.0, 13.0, 10.0, 13.0, 7.0, 16.0, 9.0, 9.0, 8.0, 8.0, 8.0, 8.0, 9.0, 15.0, 13.0, 12.0, 7.0, 9.0, 12.0, 11.0, 4.0, 10.0, 14.0, 9.0, 8.0, 7.0, 3.0, 11.0, 11.0, 12.0, 10.0, 14.0, 3.0, 12.0, 6.0, 9.0, 5.0, 8.0, 1.0, 7.0, 5.0, 12.0, 9.0, 3.0, 6.0, 5.0, 10.0, 10.0, 5.0, 8.0, 8.0, 8.0, 5.0, 7.0, 7.0, 4.0, 8.0, 4.0, 6.0, 8.0, 6.0, 6.0, 9.0, 12.0, 10.0, 5.0, 9.0, 10.0, 7.0, 10.0, 6.0, 7.0, 5.0, 3.0, 12.0, 9.0, 5.0, 9.0, 5.0, 6.0, 3.0, 5.0, 6.0, 6.0, 7.0, 2.0, 7.0, 7.0, 4.0, 4.0, 9.0, 8.0, 5.0, 6.0, 3.0, 3.0, 10.0, 10.0, 9.0, 6.0, 3.0, 4.0, 8.0, 5.0, 5.0, 4.0, 8.0, 12.0, 2.0, 3.0, 3.0, 4.0, 6.0, 2.0, 6.0, 6.0, 6.0, 7.0, 7.0, 3.0, 5.0, 5.0, 4.0, 5.0, 5.0, 5.0, 4.0, 4.0, 3.0, 3.0, 3.0, 3.0, 7.0, 3.0, 3.0, 7.0, 4.0, 4.0, 2.0, 8.0, 5.0, 7.0, 3.0, 1.0, 3.0, 4.0, 4.0, 6.0, 5.0, 6.0, 7.0, 5.0, 1.0, 3.0, 5.0, 2.0, 7.0, 3.0, 1.0, 3.0, 3.0, 6.0, 0.0, 3.0, 2.0, 1.0, 3.0, 2.0, 4.0, 1.0, 5.0, 5.0, 2.0, 0.0, 3.0, 4.0, 2.0, 2.0, 4.0, 0.0, 2.0, 5.0, 6.0, 5.0, 0.0, 2.0, 4.0, 2.0, 3.0, 7.0, 4.0, 4.0, 5.0, 6.0, 4.0, 4.0, 4.0, 4.0, 12.0, 3.0, 3.0, 1.0, 4.0, 4.0, 8.0, 2.0, 6.0, 3.0, 4.0, 3.0, 5.0, 3.0, 4.0, 4.0, 4.0, 2.0, 4.0, 2.0, 2.0, 4.0, 5.0, 2.0, 3.0, 6.0, 3.0, 2.0, 6.0, 2.0, 6.0, 3.0, 2.0, 2.0, 3.0, 2.0, 2.0, 4.0, 2.0, 1.0, 3.0, 2.0, 2.0, 4.0, 4.0, 2.0, 2.0, 4.0, 3.0, 3.0, 4.0, 2.0, 1.0, 0.0, 7.0, 4.0, 3.0, 1.0, 2.0, 5.0, 1.0, 1.0, 3.0, 5.0, 4.0, 1.0, 2.0, 0.0, 2.0, 1.0, 0.0, 2.0, 4.0, 2.0, 1.0, 4.0, 3.0, 2.0, 2.0, 2.0, 2.0, 0.0, 3.0, 3.0, 2.0, 2.0, 1.0, 2.0, 2.0, 4.0, 3.0, 2.0, 0.0, 2.0, 2.0, 0.0, 2.0, 1.0, 5.0, 4.0, 2.0, 2.0, 2.0, 1.0, 3.0, 4.0, 2.0, 1.0, 4.0, 2.0, 2.0, 2.0, 2.0, 3.0, 1.0, 3.0, 2.0, 1.0, 5.0, 1.0, 3.0, 2.0, 4.0, 2.0, 2.0, 2.0, 1.0, 0.0, 2.0, 2.0, 2.0, 4.0, 0.0, 1.0, 1.0, 1.0, 3.0, 3.0, 0.0, 0.0, 4.0, 1.0, 0.0, 3.0, 4.0, 2.0, 1.0, 1.0, 2.0, 0.0, 2.0, 2.0, 2.0, 2.0, 1.0, 0.0, 1.0, 0.0, 2.0, 1.0, 2.0, 1.0, 0.0, 3.0, 0.0, 4.0, 2.0, 2.0, 3.0, 0.0, 0.0, 1.0, 0.0, 2.0, 3.0, 1.0, 1.0, 2.0, 2.0, 1.0, 2.0, 0.0, 0.0, 0.0, 2.0, 1.0, 0.0, 0.0, 1.0, 1.0, 2.0, 2.0, 2.0, 1.0, 1.0, 2.0, 3.0, 1.0, 3.0, 1.0, 2.0, 2.0, 1.0, 2.0, 2.0, 2.0, 2.0, 0.0, 0.0, 1.0, 3.0, 3.0, 0.0, 0.0, 2.0, 3.0, 4.0, 1.0, 1.0, 2.0, 2.0, 2.0, 5.0, 1.0, 0.0, 1.0, 2.0, 3.0, 1.0, 0.0, 0.0, 2.0, 1.0, 0.0, 1.0, 1.0, 2.0, 0.0, 2.0, 2.0, 1.0, 2.0, 4.0, 4.0, 3.0, 1.0, 2.0, 0.0, 0.0, 2.0, 1.0, 1.0, 3.0, 1.0, 1.0, 1.0, 2.0, 1.0, 5.0, 0.0, 2.0, 2.0, 0.0, 4.0, 0.0, 0.0, 0.0, 1.0, 0.0, 1.0, 0.0, 1.0, 2.0, 4.0, 1.0, 0.0, 1.0, 1.0, 0.0, 1.0, 0.0, 2.0, 3.0, 0.0, 0.0, 0.0, 0.0, 0.0, 1.0, 0.0, 0.0, 3.0, 1.0, 2.0, 2.0, 0.0, 4.0, 2.0, 0.0, 1.0, 0.0, 1.0, 1.0, 1.0, 0.0, 0.0, 0.0, 1.0, 3.0, 2.0, 1.0, 0.0, 0.0, 2.0, 3.0, 0.0, 0.0, 0.0, 2.0, 4.0, 2.0, 1.0, 0.0, 3.0, 0.0, 1.0, 3.0, 1.0, 1.0, 3.0, 3.0, 1.0, 3.0, 1.0, 0.0, 0.0, 1.0, 1.0, 1.0, 0.0, 3.0, 2.0, 1.0, 1.0, 1.0, 0.0, 2.0, 4.0, 2.0, 0.0, 0.0, 3.0, 2.0, 1.0, 0.0, 0.0, 0.0, 0.0, 4.0, 3.0, 1.0, 2.0, 1.0, 1.0, 0.0, 0.0, 1.0, 3.0, 0.0, 2.0, 2.0, 1.0, 3.0, 1.0, 1.0, 1.0, 1.0, 0.0, 1.0, 0.0, 1.0, 0.0, 0.0, 2.0, 1.0, 2.0, 2.0, 1.0, 1.0, 1.0, 0.0, 0.0, 2.0, 5.0, 1.0, 1.0, 0.0, 1.0, 3.0, 1.0, 1.0, 0.0, 1.0, 0.0, 1.0, 1.0, 1.0, 1.0, 2.0, 1.0, 1.0, 1.0, 1.0, 0.0, 0.0, 2.0, 1.0, 2.0, 0.0, 1.0, 1.0, 0.0, 1.0, 2.0, 3.0, 1.0, 3.0, 0.0, 2.0, 1.0, 1.0, 0.0, 0.0, 1.0, 1.0, 2.0, 1.0, 0.0, 1.0, 1.0, 1.0, 0.0, 1.0, 2.0, 0.0, 1.0, 1.0, 2.0, 0.0, 0.0, 0.0, 0.0, 0.0, 0.0, 1.0, 2.0, 0.0, 4.0, 0.0, 2.0, 0.0, 1.0, 0.0, 3.0, 3.0, 1.0, 1.0, 2.0, 0.0, 2.0, 2.0, 1.0, 1.0, 1.0, 1.0, 1.0, 1.0, 1.0, 1.0, 1.0, 1.0, 0.0, 0.0, 1.0, 2.0, 0.0, 3.0, 2.0, 3.0, 1.0, 1.0, 0.0, 0.0, 1.0, 2.0, 1.0, 0.0, 1.0, 0.0, 0.0, 0.0, 0.0, 1.0, 0.0, 1.0, 1.0, 0.0, 1.0, 1.0, 1.0, 1.0, 1.0, 2.0, 0.0, 0.0, 2.0, 1.0, 2.0, 0.0, 4.0, 2.0, 1.0, 2.0, 1.0, 2.0, 0.0, 4.0, 2.0, 4.0, 1.0, 2.0, 2.0, 0.0, 2.0, 0.0, 1.0, 3.0, 1.0, 1.0, 2.0, 1.0, 0.0, 1.0, 1.0, 0.0, 1.0, 1.0, 2.0, 2.0, 0.0, 2.0, 1.0, 1.0, 1.0, 0.0, 1.0, 1.0, 0.0, 0.0, 1.0, 1.0, 1.0, 2.0, 1.0, 3.0, 1.0, 1.0, 0.0, 1.0, 2.0, 2.0, 0.0, 1.0, 0.0, 1.0, 1.0, 0.0, 2.0, 1.0, 1.0, 1.0, 0.0, 1.0, 2.0, 0.0, 2.0, 0.0, 0.0, 0.0, 0.0, 0.0, 0.0, 0.0, 0.0, 3.0, 0.0, 0.0, 1.0, 1.0, 0.0, 1.0, 0.0, 1.0, 0.0, 1.0, 1.0, 1.0, 0.0, 0.0, 0.0, 1.0, 0.0, 0.0, 1.0, 1.0, 0.0, 1.0, 1.0, 0.0, 2.0, 1.0, 1.0, 0.0, 0.0, 2.0, 0.0, 0.0, 1.0, 0.0, 1.0, 2.0, 1.0, 3.0, 0.0, 1.0, 2.0, 0.0, 1.0, 2.0, 0.0, 0.0, 1.0, 0.0, 0.0, 0.0, 0.0, 1.0, 0.0, 1.0, 0.0, 0.0, 0.0, 3.0, 2.0, 1.0, 0.0, 0.0, 1.0, 0.0, 1.0, 0.0, 1.0, 2.0, 1.0, 1.0, 1.0, 0.0, 0.0, 4.0, 0.0, 4.0, 0.0, 1.0, 1.0, 1.0, 0.0, 0.0, 1.0, 1.0, 1.0, 0.0, 0.0, 1.0, 1.0, 1.0, 0.0, 0.0, 0.0, 0.0, 1.0, 0.0, 0.0, 1.0, 1.0, 1.0, 0.0, 0.0, 0.0, 0.0, 2.0, 1.0, 0.0, 0.0, 1.0, 2.0, 3.0, 0.0, 1.0, 0.0, 0.0, 1.0, 0.0, 0.0, 0.0, 0.0, 0.0, 1.0, 1.0, 0.0, 0.0, 0.0, 0.0, 0.0, 1.0, 0.0, 0.0, 1.0, 0.0, 0.0, 2.0, 0.0, 0.0, 0.0, 0.0, 0.0, 0.0, 0.0, 0.0, 0.0, 2.0, 1.0, 0.0, 0.0, 1.0, 1.0, 0.0, 1.0, 2.0, 1.0, 3.0, 0.0, 1.0, 0.0, 0.0, 0.0, 0.0, 1.0, 0.0, 1.0, 0.0, 1.0, 1.0, 0.0, 0.0, 2.0, 0.0, 0.0, 1.0, 1.0, 1.0, 0.0, 0.0, 0.0, 0.0, 0.0, 1.0, 0.0, 0.0, 2.0, 1.0, 0.0, 0.0, 0.0, 1.0, 0.0, 2.0, 1.0, 0.0, 1.0, 0.0, 2.0, 1.0, 0.0, 0.0, 0.0, 1.0, 0.0, 1.0, 0.0, 0.0, 0.0, 2.0, 0.0, 0.0, 0.0, 0.0, 0.0, 0.0, 0.0, 0.0, 0.0, 1.0, 0.0, 0.0, 0.0, 1.0, 0.0, 0.0, 0.0, 1.0, 0.0, 0.0, 0.0, 0.0, 0.0, 0.0, 1.0, 0.0, 0.0, 0.0, 1.0, 0.0, 0.0, 0.0, 0.0, 0.0, 0.0, 0.0, 0.0, 0.0, 0.0, 0.0, 0.0, 0.0, 0.0, 0.0, 0.0, 0.0, 0.0, 0.0, 0.0, 0.0, 1.0, 0.0, 1.0, 0.0, 0.0, 0.0, 2.0, 0.0, 0.0, 0.0, 0.0, 0.0, 0.0, 0.0, 0.0, 0.0, 0.0, 0.0, 0.0, 1.0, 0.0, 0.0, 0.0, 0.0, 0.0, 0.0, 0.0, 0.0, 0.0, 0.0, 0.0, 0.0, 0.0, 0.0, 1.0, 0.0, 1.0, 0.0, 0.0, 0.0, 1.0, 0.0, 0.0, 0.0, 0.0, 0.0, 0.0, 0.0, 0.0, 1.0, 0.0, 0.0, 0.0, 0.0, 0.0, 0.0, 0.0, 0.0, 0.0, 0.0, 1.0, 0.0, 0.0, 0.0, 0.0, 1.0, 0.0, 0.0, 0.0, 0.0, 0.0, 0.0, 0.0, 0.0, 0.0, 0.0, 0.0, 0.0, 0.0, 0.0, 0.0, 0.0, 1.0, 0.0, 0.0, 0.0, 0.0, 0.0, 0.0, 0.0, 1.0, 0.0, 1.0, 0.0, 1.0, 0.0, 0.0, 0.0, 0.0, 0.0, 0.0, 0.0, 0.0, 0.0, 0.0, 0.0, 0.0, 0.0, 0.0, 0.0, 0.0, 0.0, 0.0, 0.0, 0.0, 0.0, 0.0, 0.0, 0.0, 0.0, 0.0, 0.0, 0.0, 0.0, 0.0, 0.0, 0.0, 0.0, 0.0, 0.0, 0.0, 0.0, 0.0, 0.0, 0.0, 0.0, 0.0, 0.0, 0.0, 0.0, 0.0, 0.0, 0.0, 0.0, 0.0, 0.0, 0.0, 0.0, 0.0, 0.0, 0.0, 0.0, 0.0, 0.0, 0.0, 0.0, 0.0, 0.0, 0.0, 0.0, 0.0, 0.0, 0.0, 0.0, 0.0, 0.0, 0.0, 0.0, 0.0, 0.0, 0.0],
    "Name": "ThresholdDist-0",
    "Overflow": 1.0,
    "Type": "Histo1d",
    "Underflow": 26.0,
    "x": {
        "AxisTitle": "Threshold [e]",
        "Bins": 3201,
        "High": 43625.0,
        "Low": 11615.0
    },
    "y": {
        "AxisTitle": "Number of Pixels"
    },
    "z": {
        "AxisTitle": "z"
    }
}