{
    "Data": [0.0, 0.0, 0.0, 0.0, 0.0, 0.0, 0.0, 0.0, 0.0, 0.0, 0.0, 0.0, 0.0, 0.0, 0.0, 0.0, 0.0, 0.0, 5.0, 34.0, 5.0, 4.0, 0.0, 1.0, 283.0, 1464.0, 369.0, 86.0, 51.0, 66.0, 1193.0, 2595.0, 1388.0, 375.0, 202.0, 539.0, 1743.0, 1940.0, 1218.0, 677.0, 440.0, 898.0, 1113.0, 643.0, 568.0, 693.0, 756.0, 730.0, 517.0, 339.0, 441.0, 561.0, 584.0, 355.0, 234.0, 231.0, 285.0, 311.0, 280.0, 177.0, 143.0, 163.0, 152.0, 159.0, 121.0, 84.0, 68.0, 57.0, 71.0, 58.0, 64.0, 45.0, 44.0, 24.0, 21.0, 26.0, 33.0, 32.0, 19.0, 22.0, 17.0, 13.0, 12.0, 11.0, 11.0, 13.0, 11.0, 9.0, 5.0, 8.0, 7.0, 7.0, 3.0, 1.0, 4.0, 4.0, 4.0, 7.0, 6.0, 3.0, 2.0, 3.0, 5.0, 2.0, 4.0, 3.0, 2.0, 0.0, 3.0, 0.0, 1.0, 2.0, 1.0, 0.0, 1.0, 0.0, 0.0, 1.0, 2.0, 2.0, 1.0, 0.0, 0.0, 0.0, 1.0, 1.0, 0.0, 0.0, 1.0, 1.0, 0.0, 1.0, 0.0, 0.0, 0.0, 1.0, 1.0, 0.0, 1.0, 0.0, 0.0, 0.0, 0.0, 0.0, 0.0, 0.0, 0.0, 0.0, 0.0, 0.0, 1.0, 0.0, 0.0, 0.0, 0.0, 0.0, 0.0, 0.0, 0.0, 0.0, 0.0, 0.0, 0.0, 0.0, 0.0, 0.0, 0.0, 1.0, 0.0, 0.0, 0.0, 0.0, 0.0, 0.0, 0.0, 1.0, 0.0, 0.0, 0.0, 0.0, 0.0, 0.0, 0.0, 0.0, 0.0, 1.0, 0.0, 0.0, 0.0, 0.0, 0.0, 0.0, 0.0, 0.0, 0.0, 0.0, 1.0, 0.0, 0.0, 0.0, 0.0],
    "Name": "TimePerFitDist-0",
    "Overflow": 6.0,
    "Type": "Histo1d",
    "Underflow": 0.0,
    "x": {
        "AxisTitle": "Fit Time [us]",
        "Bins": 201,
        "High": 401.0,
        "Low": -1.0
    },
    "y": {
        "AxisTitle": "Number of Pixels"
    },
    "z": {
        "AxisTitle": "z"
    }
}