{
    "unit": {
        "Time": "s",
        "Voltage": "V",
        "Current": "A"
    },
    "V_step": -5,
    "Step_duration": 2,
    "N_measurements_per_step": 10,
    "A_Compliance": 1e-05,
    "Sensor_IV": [
        {
            "Time": 6.105730295181274,
            "Voltage": 0.0,
            "Current_mean": 8.2580497e-09,
            "Current_sigma": 1.1017780657069953e-08
        },
        {
            "Time": 12.09966778755188,
            "Voltage": -5.0,
            "Current_mean": -2.2176787999999997e-07,
            "Current_sigma": 1.3235571104927812e-08
        },
        {
            "Time": 18.093515396118164,
            "Voltage": -10.0,
            "Current_mean": -2.1196544e-07,
            "Current_sigma": 7.330155820881299e-09
        },
        {
            "Time": 24.08739995956421,
            "Voltage": -15.0,
            "Current_mean": -2.3866988000000005e-07,
            "Current_sigma": 5.512955154506524e-09
        },
        {
            "Time": 30.081263065338135,
            "Voltage": -20.0,
            "Current_mean": -2.2557068e-07,
            "Current_sigma": 6.06792056309243e-10
        },
        {
            "Time": 36.07515001296997,
            "Voltage": -25.0,
            "Current_mean": -2.2902955000000002e-07,
            "Current_sigma": 1.5286108865568131e-09
        },
        {
            "Time": 42.06924867630005,
            "Voltage": -30.0,
            "Current_mean": -2.4059752000000003e-07,
            "Current_sigma": 6.3206593000730555e-09
        },
        {
            "Time": 48.06339716911316,
            "Voltage": -35.0,
            "Current_mean": -2.3284943999999998e-07,
            "Current_sigma": 3.3140278750185538e-09
        },
        {
            "Time": 54.05756378173828,
            "Voltage": -40.0,
            "Current_mean": -2.4314086e-07,
            "Current_sigma": 3.5506258829113482e-09
        },
        {
            "Time": 60.05139231681824,
            "Voltage": -45.0,
            "Current_mean": -2.3461826999999996e-07,
            "Current_sigma": 3.0514871574529053e-09
        },
        {
            "Time": 66.04553508758545,
            "Voltage": -50.0,
            "Current_mean": -2.3989842000000006e-07,
            "Current_sigma": 5.4660164545672565e-09
        },
        {
            "Time": 72.03959226608276,
            "Voltage": -55.0,
            "Current_mean": -2.3669324000000004e-07,
            "Current_sigma": 5.246250378927789e-09
        },
        {
            "Time": 78.03340530395508,
            "Voltage": -60.0,
            "Current_mean": -2.3506659000000002e-07,
            "Current_sigma": 3.2651974786986466e-09
        },
        {
            "Time": 84.02742862701416,
            "Voltage": -65.0,
            "Current_mean": -2.3625405e-07,
            "Current_sigma": 5.348944392728346e-09
        },
        {
            "Time": 90.02135610580444,
            "Voltage": -70.0,
            "Current_mean": -2.3672454999999998e-07,
            "Current_sigma": 5.125785979974195e-09
        },
        {
            "Time": 96.01550936698914,
            "Voltage": -75.0,
            "Current_mean": -2.4092660000000003e-07,
            "Current_sigma": 5.101987838676215e-09
        },
        {
            "Time": 102.00951552391052,
            "Voltage": -80.0,
            "Current_mean": -2.4107695999999997e-07,
            "Current_sigma": 4.251613930074086e-09
        },
        {
            "Time": 108.0036358833313,
            "Voltage": -85.0,
            "Current_mean": -2.4210427e-07,
            "Current_sigma": 4.185079680018047e-09
        },
        {
            "Time": 113.99770021438599,
            "Voltage": -90.0,
            "Current_mean": -2.4385097999999996e-07,
            "Current_sigma": 2.9275727986849517e-09
        },
        {
            "Time": 119.99176359176636,
            "Voltage": -95.0,
            "Current_mean": -2.4365777999999994e-07,
            "Current_sigma": 3.963819988546402e-09
        },
        {
            "Time": 125.985915184021,
            "Voltage": -100.0,
            "Current_mean": -2.4248864e-07,
            "Current_sigma": 4.915286462089467e-09
        },
        {
            "Time": 131.98004364967346,
            "Voltage": -105.0,
            "Current_mean": -2.4254161e-07,
            "Current_sigma": 4.944140095598016e-09
        },
        {
            "Time": 137.9740128517151,
            "Voltage": -110.0,
            "Current_mean": -2.4468708000000005e-07,
            "Current_sigma": 3.122192749911496e-09
        },
        {
            "Time": 143.9679732322693,
            "Voltage": -115.0,
            "Current_mean": -2.4986319e-07,
            "Current_sigma": 4.058851780602488e-09
        },
        {
            "Time": 149.96195602416992,
            "Voltage": -120.0,
            "Current_mean": -2.5252297e-07,
            "Current_sigma": 3.1045658166803254e-09
        },
        {
            "Time": 155.95604872703552,
            "Voltage": -125.0,
            "Current_mean": -2.6174695e-07,
            "Current_sigma": 5.015804186020432e-09
        },
        {
            "Time": 161.95014762878418,
            "Voltage": -130.0,
            "Current_mean": -2.662402e-07,
            "Current_sigma": 4.474114225408199e-09
        },
        {
            "Time": 167.94404816627502,
            "Voltage": -135.0,
            "Current_mean": -2.7153147e-07,
            "Current_sigma": 2.577474340531832e-09
        },
        {
            "Time": 173.9381971359253,
            "Voltage": -140.0,
            "Current_mean": -2.7184991e-07,
            "Current_sigma": 5.05232074881435e-09
        },
        {
            "Time": 179.93186855316162,
            "Voltage": -145.0,
            "Current_mean": -2.7617220000000006e-07,
            "Current_sigma": 4.347983587595518e-09
        },
        {
            "Time": 185.92605805397034,
            "Voltage": -150.0,
            "Current_mean": -2.7933644e-07,
            "Current_sigma": 4.443999672862282e-09
        },
        {
            "Time": 191.92027354240417,
            "Voltage": -155.0,
            "Current_mean": -2.8319502000000004e-07,
            "Current_sigma": 4.971628693054222e-09
        },
        {
            "Time": 197.9144446849823,
            "Voltage": -160.0,
            "Current_mean": -2.877496799999999e-07,
            "Current_sigma": 4.680378461150337e-09
        },
        {
            "Time": 203.9082808494568,
            "Voltage": -165.0,
            "Current_mean": -2.9068095999999994e-07,
            "Current_sigma": 3.6063666428137956e-09
        },
        {
            "Time": 209.90217852592468,
            "Voltage": -170.0,
            "Current_mean": -2.9122484999999995e-07,
            "Current_sigma": 2.718016743601854e-09
        },
        {
            "Time": 215.8963372707367,
            "Voltage": -175.0,
            "Current_mean": -2.9413247e-07,
            "Current_sigma": 2.346238171222181e-09
        },
        {
            "Time": 221.89028000831604,
            "Voltage": -180.0,
            "Current_mean": -2.9745168e-07,
            "Current_sigma": 3.359495276912884e-09
        },
        {
            "Time": 227.88429760932922,
            "Voltage": -185.0,
            "Current_mean": -2.9932836000000005e-07,
            "Current_sigma": 2.8131587645207704e-09
        },
        {
            "Time": 233.87845134735107,
            "Voltage": -190.0,
            "Current_mean": -3.0074586000000006e-07,
            "Current_sigma": 2.6058267625458063e-09
        },
        {
            "Time": 239.87243485450745,
            "Voltage": -195.0,
            "Current_mean": -3.0353205e-07,
            "Current_sigma": 2.3792054040162248e-09
        },
        {
            "Time": 245.86621761322021,
            "Voltage": -200.0,
            "Current_mean": -3.0599988e-07,
            "Current_sigma": 4.342767964743226e-09
        }
    ]
}