{
    "unit": {
        "Time": "s",
        "Voltage": "V",
        "Current": "A"
    },
    "V_step": -5,
    "Step_duration": 2,
    "N_measurements_per_step": 10,
    "A_Compliance": 1e-05,
    "Sensor_IV": [
        {
            "Time": 33.245718479156494,
            "Voltage": 0.0,
            "Current_mean": 2.2759444e-08,
            "Current_sigma": 1.5181327965115571e-09
        },
        {
            "Time": 39.23965573310852,
            "Voltage": -5.0,
            "Current_mean": -3.3223094e-07,
            "Current_sigma": 3.536026989206962e-09
        },
        {
            "Time": 45.23355460166931,
            "Voltage": -10.0,
            "Current_mean": -4.0957314999999997e-07,
            "Current_sigma": 5.980456938102637e-09
        },
        {
            "Time": 51.22730326652527,
            "Voltage": -15.0,
            "Current_mean": -4.4481483e-07,
            "Current_sigma": 2.6424502723987066e-09
        },
        {
            "Time": 57.221473932266235,
            "Voltage": -20.0,
            "Current_mean": -4.516935699999999e-07,
            "Current_sigma": 2.906319104657985e-09
        },
        {
            "Time": 63.215412616729736,
            "Voltage": -25.0,
            "Current_mean": -4.7527962e-07,
            "Current_sigma": 3.446557288019439e-09
        },
        {
            "Time": 69.22530841827393,
            "Voltage": -30.0,
            "Current_mean": -4.9742791e-07,
            "Current_sigma": 4.133616090410424e-09
        },
        {
            "Time": 75.21939730644226,
            "Voltage": -35.0,
            "Current_mean": -5.0868547e-07,
            "Current_sigma": 8.97467230655243e-10
        },
        {
            "Time": 81.21332550048828,
            "Voltage": -40.0,
            "Current_mean": -5.3021047e-07,
            "Current_sigma": 9.06826377042497e-10
        },
        {
            "Time": 87.20725774765015,
            "Voltage": -45.0,
            "Current_mean": -5.6137256e-07,
            "Current_sigma": 3.6035293863655485e-09
        },
        {
            "Time": 93.20135712623596,
            "Voltage": -50.0,
            "Current_mean": -5.835821e-07,
            "Current_sigma": 4.989759308022779e-09
        },
        {
            "Time": 99.19551849365234,
            "Voltage": -55.0,
            "Current_mean": -6.0367239e-07,
            "Current_sigma": 4.172555680742928e-09
        },
        {
            "Time": 105.18934988975525,
            "Voltage": -60.0,
            "Current_mean": -6.246458100000001e-07,
            "Current_sigma": 5.535518977557573e-09
        },
        {
            "Time": 111.18331789970398,
            "Voltage": -65.0,
            "Current_mean": -6.4357284e-07,
            "Current_sigma": 4.3826242851059055e-09
        },
        {
            "Time": 117.17727828025818,
            "Voltage": -70.0,
            "Current_mean": -6.6948182e-07,
            "Current_sigma": 4.807134180319915e-09
        },
        {
            "Time": 123.17127227783203,
            "Voltage": -75.0,
            "Current_mean": -6.9852552e-07,
            "Current_sigma": 6.537976267898203e-09
        },
        {
            "Time": 129.16532802581787,
            "Voltage": -80.0,
            "Current_mean": -7.2659837e-07,
            "Current_sigma": 2.76823433294581e-09
        },
        {
            "Time": 135.1592574119568,
            "Voltage": -85.0,
            "Current_mean": -7.5965653e-07,
            "Current_sigma": 5.830515420621067e-09
        },
        {
            "Time": 141.15295672416687,
            "Voltage": -90.0,
            "Current_mean": -7.917762799999999e-07,
            "Current_sigma": 2.592937826790282e-09
        },
        {
            "Time": 147.14682841300964,
            "Voltage": -95.0,
            "Current_mean": -8.2964923e-07,
            "Current_sigma": 3.8645229628118385e-09
        },
        {
            "Time": 153.14061737060547,
            "Voltage": -100.0,
            "Current_mean": -8.7433398e-07,
            "Current_sigma": 6.414459481795796e-09
        },
        {
            "Time": 159.1346035003662,
            "Voltage": -105.0,
            "Current_mean": -9.161253200000002e-07,
            "Current_sigma": 5.745385459096717e-09
        },
        {
            "Time": 165.12839269638062,
            "Voltage": -110.0,
            "Current_mean": -9.6138766e-07,
            "Current_sigma": 4.617504626570519e-09
        },
        {
            "Time": 171.1224935054779,
            "Voltage": -115.0,
            "Current_mean": -1.0081547e-06,
            "Current_sigma": 3.0055501676065702e-09
        },
        {
            "Time": 177.11666893959045,
            "Voltage": -120.0,
            "Current_mean": -1.0511361e-06,
            "Current_sigma": 2.80756593689265e-09
        },
        {
            "Time": 183.1103971004486,
            "Voltage": -125.0,
            "Current_mean": -1.1156085999999998e-06,
            "Current_sigma": 4.664703446093902e-09
        },
        {
            "Time": 189.10458850860596,
            "Voltage": -130.0,
            "Current_mean": -1.1651648e-06,
            "Current_sigma": 7.0478260449588094e-09
        },
        {
            "Time": 195.0986819267273,
            "Voltage": -135.0,
            "Current_mean": -1.2266443e-06,
            "Current_sigma": 4.760330199681554e-09
        },
        {
            "Time": 201.09273314476013,
            "Voltage": -140.0,
            "Current_mean": -1.2891950999999999e-06,
            "Current_sigma": 4.9873818672726665e-09
        },
        {
            "Time": 207.08670234680176,
            "Voltage": -145.0,
            "Current_mean": -1.3518707e-06,
            "Current_sigma": 5.283630911598573e-09
        },
        {
            "Time": 213.0805344581604,
            "Voltage": -150.0,
            "Current_mean": -1.4214491e-06,
            "Current_sigma": 4.9675895653727315e-09
        },
        {
            "Time": 219.0746567249298,
            "Voltage": -155.0,
            "Current_mean": -1.4963579999999999e-06,
            "Current_sigma": 6.059759054615945e-09
        },
        {
            "Time": 225.08454036712646,
            "Voltage": -160.0,
            "Current_mean": -1.5737912e-06,
            "Current_sigma": 4.7389588054761445e-09
        },
        {
            "Time": 231.078382730484,
            "Voltage": -165.0,
            "Current_mean": -1.6476498e-06,
            "Current_sigma": 3.4272815699910494e-09
        },
        {
            "Time": 237.0724287033081,
            "Voltage": -170.0,
            "Current_mean": -1.7377615000000002e-06,
            "Current_sigma": 7.790146856767228e-09
        },
        {
            "Time": 243.06623601913452,
            "Voltage": -175.0,
            "Current_mean": -1.8273298000000002e-06,
            "Current_sigma": 3.731088200512016e-09
        },
        {
            "Time": 249.06022834777832,
            "Voltage": -180.0,
            "Current_mean": -1.9222488e-06,
            "Current_sigma": 6.615063624788503e-09
        },
        {
            "Time": 255.05417609214783,
            "Voltage": -185.0,
            "Current_mean": -2.0239160000000002e-06,
            "Current_sigma": 3.4512006896151073e-09
        },
        {
            "Time": 261.0481450557709,
            "Voltage": -190.0,
            "Current_mean": -2.1300889999999996e-06,
            "Current_sigma": 6.141171630886085e-09
        },
        {
            "Time": 267.04225969314575,
            "Voltage": -195.0,
            "Current_mean": -2.2295881000000002e-06,
            "Current_sigma": 3.783491203901514e-09
        },
        {
            "Time": 273.0362501144409,
            "Voltage": -200.0,
            "Current_mean": -2.3426707e-06,
            "Current_sigma": 6.436572737878498e-09
        }
    ]
}