{
    "unit": {
        "Time": "s",
        "Voltage": "V",
        "Current": "A"
    },
    "V_step": -5,
    "Step_duration": 2,
    "N_measurements_per_step": 10,
    "A_Compliance": 1e-05,
    "Sensor_IV": [
        {
            "Time": 6.105257034301758,
            "Voltage": 0.0,
            "Current_mean": -1.55796187e-08,
            "Current_sigma": 2.7439438401379887e-09
        },
        {
            "Time": 12.09929370880127,
            "Voltage": -5.0,
            "Current_mean": -1.2629110999999998e-07,
            "Current_sigma": 1.4790109173528772e-08
        },
        {
            "Time": 18.093312740325928,
            "Voltage": -10.0,
            "Current_mean": -1.5490324999999997e-07,
            "Current_sigma": 1.2169963400047673e-08
        },
        {
            "Time": 24.087398767471313,
            "Voltage": -15.0,
            "Current_mean": -1.5830242e-07,
            "Current_sigma": 5.568480242902906e-09
        },
        {
            "Time": 30.081342697143555,
            "Voltage": -20.0,
            "Current_mean": -1.5373795e-07,
            "Current_sigma": 5.271415605935466e-09
        },
        {
            "Time": 36.075138092041016,
            "Voltage": -25.0,
            "Current_mean": -1.6739669e-07,
            "Current_sigma": 3.150571871724249e-09
        },
        {
            "Time": 42.069287061691284,
            "Voltage": -30.0,
            "Current_mean": -1.6197836e-07,
            "Current_sigma": 5.719411270436845e-09
        },
        {
            "Time": 48.063371419906616,
            "Voltage": -35.0,
            "Current_mean": -1.6911952999999998e-07,
            "Current_sigma": 2.3281987260755866e-09
        },
        {
            "Time": 54.057310342788696,
            "Voltage": -40.0,
            "Current_mean": -1.5973798e-07,
            "Current_sigma": 5.3055921563572895e-09
        },
        {
            "Time": 60.05134153366089,
            "Voltage": -45.0,
            "Current_mean": -1.5724559e-07,
            "Current_sigma": 3.7051074466066415e-09
        },
        {
            "Time": 66.04544854164124,
            "Voltage": -50.0,
            "Current_mean": -1.6420871999999998e-07,
            "Current_sigma": 6.201262766695186e-09
        },
        {
            "Time": 72.03957033157349,
            "Voltage": -55.0,
            "Current_mean": -1.6284394999999998e-07,
            "Current_sigma": 4.422348237814382e-09
        },
        {
            "Time": 78.03358912467957,
            "Voltage": -60.0,
            "Current_mean": -1.5868164e-07,
            "Current_sigma": 2.663275753353375e-09
        },
        {
            "Time": 84.02749991416931,
            "Voltage": -65.0,
            "Current_mean": -1.6369787e-07,
            "Current_sigma": 6.435473153242114e-09
        },
        {
            "Time": 90.02176833152771,
            "Voltage": -70.0,
            "Current_mean": -1.6236618e-07,
            "Current_sigma": 5.939629067677544e-09
        },
        {
            "Time": 96.0156238079071,
            "Voltage": -75.0,
            "Current_mean": -1.6312361000000001e-07,
            "Current_sigma": 6.071567246345872e-09
        },
        {
            "Time": 102.00983548164368,
            "Voltage": -80.0,
            "Current_mean": -1.6503101e-07,
            "Current_sigma": 5.541767080534877e-09
        },
        {
            "Time": 108.00361776351929,
            "Voltage": -85.0,
            "Current_mean": -1.6815825e-07,
            "Current_sigma": 3.4594199508732666e-09
        },
        {
            "Time": 113.99744844436646,
            "Voltage": -90.0,
            "Current_mean": -1.6820623000000003e-07,
            "Current_sigma": 3.4329906819127827e-09
        },
        {
            "Time": 119.9915189743042,
            "Voltage": -95.0,
            "Current_mean": -1.6683208e-07,
            "Current_sigma": 4.833215933682253e-09
        },
        {
            "Time": 125.98552322387695,
            "Voltage": -100.0,
            "Current_mean": -1.6891492999999999e-07,
            "Current_sigma": 3.1345383137074615e-09
        },
        {
            "Time": 131.97966289520264,
            "Voltage": -105.0,
            "Current_mean": -1.684054e-07,
            "Current_sigma": 4.3617483065853276e-09
        },
        {
            "Time": 137.9737730026245,
            "Voltage": -110.0,
            "Current_mean": -1.6905243e-07,
            "Current_sigma": 4.257520913172356e-09
        },
        {
            "Time": 143.9676263332367,
            "Voltage": -115.0,
            "Current_mean": -1.6598658999999998e-07,
            "Current_sigma": 5.0264746350598465e-09
        },
        {
            "Time": 149.96164226531982,
            "Voltage": -120.0,
            "Current_mean": -1.6351929000000002e-07,
            "Current_sigma": 2.9248911981302833e-09
        },
        {
            "Time": 155.9556758403778,
            "Voltage": -125.0,
            "Current_mean": -1.6333505e-07,
            "Current_sigma": 3.1243580659873175e-09
        },
        {
            "Time": 161.9496693611145,
            "Voltage": -130.0,
            "Current_mean": -1.6484567e-07,
            "Current_sigma": 2.9260318330633374e-09
        },
        {
            "Time": 167.94378519058228,
            "Voltage": -135.0,
            "Current_mean": -1.6427401e-07,
            "Current_sigma": 3.4065029662250396e-09
        },
        {
            "Time": 173.9378204345703,
            "Voltage": -140.0,
            "Current_mean": -1.6737067999999997e-07,
            "Current_sigma": 4.811599520907784e-09
        },
        {
            "Time": 179.93175053596497,
            "Voltage": -145.0,
            "Current_mean": -1.6831013e-07,
            "Current_sigma": 5.459128265767348e-09
        },
        {
            "Time": 185.9255838394165,
            "Voltage": -150.0,
            "Current_mean": -1.7083429999999998e-07,
            "Current_sigma": 4.6840455051162754e-09
        },
        {
            "Time": 191.91949319839478,
            "Voltage": -155.0,
            "Current_mean": -1.7283162e-07,
            "Current_sigma": 2.4926563211963287e-09
        },
        {
            "Time": 197.91520309448242,
            "Voltage": -160.0,
            "Current_mean": -1.7145818e-07,
            "Current_sigma": 3.769689526419915e-09
        },
        {
            "Time": 203.90744924545288,
            "Voltage": -165.0,
            "Current_mean": -1.6945234e-07,
            "Current_sigma": 4.4299278358004885e-09
        },
        {
            "Time": 209.90145802497864,
            "Voltage": -170.0,
            "Current_mean": -1.6934673e-07,
            "Current_sigma": 4.74545895589668e-09
        },
        {
            "Time": 215.8953037261963,
            "Voltage": -175.0,
            "Current_mean": -1.7193067e-07,
            "Current_sigma": 4.7830969421599665e-09
        },
        {
            "Time": 221.88948822021484,
            "Voltage": -180.0,
            "Current_mean": -1.7486487e-07,
            "Current_sigma": 2.6927226411385185e-09
        },
        {
            "Time": 227.88351345062256,
            "Voltage": -185.0,
            "Current_mean": -1.7299019000000002e-07,
            "Current_sigma": 3.5276465354255694e-09
        },
        {
            "Time": 233.87761807441711,
            "Voltage": -190.0,
            "Current_mean": -1.7178179999999999e-07,
            "Current_sigma": 4.374121138697465e-09
        },
        {
            "Time": 239.8714485168457,
            "Voltage": -195.0,
            "Current_mean": -1.7017054000000002e-07,
            "Current_sigma": 2.930576646395725e-09
        },
        {
            "Time": 245.8656039237976,
            "Voltage": -200.0,
            "Current_mean": -1.7054111e-07,
            "Current_sigma": 2.4235879643412965e-09
        }
    ]
}