{
    "unit": {
        "Time": "s",
        "Voltage": "V",
        "Current": "A"
    },
    "V_step": -5,
    "Step_duration": 2,
    "N_measurements_per_step": 10,
    "A_Compliance": 1e-05,
    "Sensor_IV": [
        {
            "Time": 20.298398971557617,
            "Voltage": 0.0,
            "Current_mean": -3.0307968e-08,
            "Current_sigma": 1.0662595626982954e-08
        },
        {
            "Time": 26.292187929153442,
            "Voltage": -5.0,
            "Current_mean": -9.309512600000001e-08,
            "Current_sigma": 1.3388061892694699e-08
        },
        {
            "Time": 32.28587889671326,
            "Voltage": -10.0,
            "Current_mean": -1.0266313800000002e-07,
            "Current_sigma": 8.540859460126717e-09
        },
        {
            "Time": 38.27969765663147,
            "Voltage": -15.0,
            "Current_mean": -1.0144693199999999e-07,
            "Current_sigma": 6.697471959113828e-09
        },
        {
            "Time": 44.27342772483826,
            "Voltage": -20.0,
            "Current_mean": -1.0387128099999998e-07,
            "Current_sigma": 7.116626527381425e-09
        },
        {
            "Time": 50.26719665527344,
            "Voltage": -25.0,
            "Current_mean": -1.02788898e-07,
            "Current_sigma": 6.582392107147371e-09
        },
        {
            "Time": 56.260886430740356,
            "Voltage": -30.0,
            "Current_mean": -1.0314647799999999e-07,
            "Current_sigma": 6.296932327377833e-09
        },
        {
            "Time": 62.25467371940613,
            "Voltage": -35.0,
            "Current_mean": -1.0656587200000001e-07,
            "Current_sigma": 5.409244133587983e-09
        },
        {
            "Time": 68.24857449531555,
            "Voltage": -40.0,
            "Current_mean": -1.0580414000000002e-07,
            "Current_sigma": 5.635037117684316e-09
        },
        {
            "Time": 74.24225449562073,
            "Voltage": -45.0,
            "Current_mean": -1.04296975e-07,
            "Current_sigma": 5.6040432981790055e-09
        },
        {
            "Time": 80.23572206497192,
            "Voltage": -50.0,
            "Current_mean": -1.01557284e-07,
            "Current_sigma": 2.5170458440449564e-09
        },
        {
            "Time": 86.2293951511383,
            "Voltage": -55.0,
            "Current_mean": -1.0659590900000001e-07,
            "Current_sigma": 5.1887883262404335e-09
        },
        {
            "Time": 92.22299289703369,
            "Voltage": -60.0,
            "Current_mean": -1.0259453799999999e-07,
            "Current_sigma": 3.6483802878806367e-09
        },
        {
            "Time": 98.21684455871582,
            "Voltage": -65.0,
            "Current_mean": -1.04333787e-07,
            "Current_sigma": 4.941836144341596e-09
        },
        {
            "Time": 104.21061110496521,
            "Voltage": -70.0,
            "Current_mean": -1.0680551800000001e-07,
            "Current_sigma": 5.98095807734647e-09
        },
        {
            "Time": 110.20418548583984,
            "Voltage": -75.0,
            "Current_mean": -1.0291209e-07,
            "Current_sigma": 1.5834432161905908e-09
        },
        {
            "Time": 116.19803476333618,
            "Voltage": -80.0,
            "Current_mean": -1.1080389000000002e-07,
            "Current_sigma": 3.712305702511579e-09
        },
        {
            "Time": 122.19181036949158,
            "Voltage": -85.0,
            "Current_mean": -1.0253466999999999e-07,
            "Current_sigma": 2.749607196691921e-09
        },
        {
            "Time": 128.1856644153595,
            "Voltage": -90.0,
            "Current_mean": -1.0766137999999999e-07,
            "Current_sigma": 4.4066860847580245e-09
        },
        {
            "Time": 134.17949271202087,
            "Voltage": -95.0,
            "Current_mean": -1.1059823999999999e-07,
            "Current_sigma": 4.0536301632487375e-09
        },
        {
            "Time": 140.17320251464844,
            "Voltage": -100.0,
            "Current_mean": -1.0810121000000002e-07,
            "Current_sigma": 5.222275199460482e-09
        },
        {
            "Time": 146.16703009605408,
            "Voltage": -105.0,
            "Current_mean": -1.1151185999999998e-07,
            "Current_sigma": 4.700136713160586e-09
        },
        {
            "Time": 152.1611361503601,
            "Voltage": -110.0,
            "Current_mean": -1.1515173e-07,
            "Current_sigma": 1.3110590887141594e-09
        },
        {
            "Time": 158.1549186706543,
            "Voltage": -115.0,
            "Current_mean": -1.0610636999999999e-07,
            "Current_sigma": 2.2055453525375518e-09
        },
        {
            "Time": 164.14883041381836,
            "Voltage": -120.0,
            "Current_mean": -1.0704495000000002e-07,
            "Current_sigma": 2.515869247894253e-09
        },
        {
            "Time": 170.14272737503052,
            "Voltage": -125.0,
            "Current_mean": -1.0578390000000001e-07,
            "Current_sigma": 2.1518055228110184e-09
        },
        {
            "Time": 176.1362361907959,
            "Voltage": -130.0,
            "Current_mean": -1.111268e-07,
            "Current_sigma": 5.6381436324378985e-09
        },
        {
            "Time": 182.1300630569458,
            "Voltage": -135.0,
            "Current_mean": -1.1309315e-07,
            "Current_sigma": 4.816299482434622e-09
        },
        {
            "Time": 188.12388825416565,
            "Voltage": -140.0,
            "Current_mean": -1.0928881999999999e-07,
            "Current_sigma": 3.578143342796652e-09
        },
        {
            "Time": 194.11773467063904,
            "Voltage": -145.0,
            "Current_mean": -1.1171599000000001e-07,
            "Current_sigma": 4.833526360836363e-09
        },
        {
            "Time": 200.11153864860535,
            "Voltage": -150.0,
            "Current_mean": -1.1044736000000002e-07,
            "Current_sigma": 3.329833461361094e-09
        },
        {
            "Time": 206.105450630188,
            "Voltage": -155.0,
            "Current_mean": -1.1092354e-07,
            "Current_sigma": 3.993908801963311e-09
        },
        {
            "Time": 212.09929704666138,
            "Voltage": -160.0,
            "Current_mean": -1.17119e-07,
            "Current_sigma": 2.2280166220205836e-09
        },
        {
            "Time": 218.09303617477417,
            "Voltage": -165.0,
            "Current_mean": -1.1138172999999998e-07,
            "Current_sigma": 1.855684492606434e-09
        },
        {
            "Time": 224.0867326259613,
            "Voltage": -170.0,
            "Current_mean": -1.1485500999999999e-07,
            "Current_sigma": 4.8770947926916476e-09
        },
        {
            "Time": 230.0804181098938,
            "Voltage": -175.0,
            "Current_mean": -1.0983051e-07,
            "Current_sigma": 1.618483745639727e-09
        },
        {
            "Time": 236.07418394088745,
            "Voltage": -180.0,
            "Current_mean": -1.1709268e-07,
            "Current_sigma": 3.4069512564168e-09
        },
        {
            "Time": 242.06794023513794,
            "Voltage": -185.0,
            "Current_mean": -1.1353264e-07,
            "Current_sigma": 2.917760389134104e-09
        },
        {
            "Time": 248.061753988266,
            "Voltage": -190.0,
            "Current_mean": -1.157235e-07,
            "Current_sigma": 3.5169315631669595e-09
        },
        {
            "Time": 254.05548548698425,
            "Voltage": -195.0,
            "Current_mean": -1.1721264e-07,
            "Current_sigma": 3.5441808859594048e-09
        },
        {
            "Time": 260.0494592189789,
            "Voltage": -200.0,
            "Current_mean": -1.1375256000000002e-07,
            "Current_sigma": 1.901047228345473e-09
        }
    ]
}