{
    "Module": {
	"ModuleID": "ThinQ9",
	"FolderPath": {
	    "Stage1": "/eos/atlas/atlascerngroupdisk/det-itk/general/pixels/systemtest/lls-prototype-rd53a-ob/moduledata/CERN_Thin_Q9_20UPGM20025070/1-ReceptionTestCERN/BeforePotting",
            "Stage2": "",
            "Stage3": "",
            "Stage4": "",
            "Stage5": "",
            "Stage6": ""
	},
	"FWB": {
	    "Stage1": "/eos/atlas/atlascerngroupdisk/det-itk/general/pixels/systemtest/lls-prototype-rd53a-ob/moduledata/CERN_Thin_Q9_20UPGM20025070/1-ReceptionTestCERN/BeforePotting/fwb",
            "Stage2": "",
            "Stage3": "",
            "Stage4": "",
            "Stage5": "",
            "Stage6": ""
	}, 
	"Temperature": {
	    "Stage1": 298.15,
	    "Stage2": 1,
	    "Stage3": 1,
	    "Stage4": 1,
	    "Stage5": 1,
	    "Stage6": 1
                         
	},
	"Type": [ "diff", "lin", "syn" ],
	"FE1": "20UPGFC0012914",
	"FE2": "20UPGFC0012851",
	"FE3": "20UPGFC0012854",
	"FE4": "20UPGFC0012931"
    },
    "PlotConfig": "./PlotConfig.json",
    "OutputFormat": [ ".png", ".pdf" ]
}
