{
    "Module": {
	"ModuleID": "ThinQ3",
	"FolderPath": {
	    "Stage1": "/eos/atlas/atlascerngroupdisk/det-itk/general/pixels/systemtest/lls-prototype-rd53a-ob/moduledata/CERN_Thin_Q3_20UPGM20023010/Initial-ModuleQCAtCERN/BeforeParylene",
	    "Stage2": "/eos/atlas/atlascerngroupdisk/det-itk/general/pixels/systemtest/lls-prototype-rd53a-ob/moduledata/CERN_Thin_Q3_20UPGM20023010/Initial-ModuleQCAtCERN/AfterTCBurnIn",
	    "Stage3": "/eos/atlas/atlascerngroupdisk/det-itk/general/pixels/systemtest/lls-prototype-rd53a-ob/moduledata/CERN_Thin_Q3_20UPGM20023010/Initial-ModuleQCAtCERN/AfterTabCutting"

	},
	"IV": {
	    "Stage1": "",
	    "Stage2": "",
	    "Stage3": ""
	},
	"FWB": {
	    "Stage1": "/eos/atlas/atlascerngroupdisk/det-itk/general/pixels/systemtest/lls-prototype-rd53a-ob/moduledata/CERN_Thin_Q3_20UPGM20023010/Initial-ModuleQCAtCERN/BeforeParylene/20UPGM20023010_FWB_BeforeParylene",
	    "Stage2": "/eos/atlas/atlascerngroupdisk/det-itk/general/pixels/systemtest/lls-prototype-rd53a-ob/moduledata/CERN_Thin_Q3_20UPGM20023010/Initial-ModuleQCAtCERN/AfterTCBurnIn/20UPGM20023010_FWB_AfterTCBurnIn",
	    "Stage3": "/eos/atlas/atlascerngroupdisk/det-itk/general/pixels/systemtest/lls-prototype-rd53a-ob/moduledata/CERN_Thin_Q3_20UPGM20023010/Initial-ModuleQCAtCERN/AfterTabCutting/20UPGM20023010_FWB_AfterTabCutting"
	}, 
	"Temperature": {
	    "Stage1": 298.15,
	    "Stage2": 298.15,
	    "Stage3": 298.15
	},
	"Type": [ "diff", "lin", "syn" ],
	"FE1": "20UPGFC0012890",
	"FE2": "20UPGFC0012922",
	"FE3": "20UPGFC0012954",
	"FE4": "20UPGFC0012906"
    },
    "PlotConfig": "./PlotConfig.json",
    "OutputFormat": [ ".png", ".pdf" ]
}
