{
    "Module": {
	"ModuleID": "TestKEKQ14",
	"FolderPath": {
	    "Stage1": "~/work/CERN/IVcomparison/module-dossier/Data/1-ReceptionTestCERN/AfterTabCutting/",
	    "Stage2": "~/work/CERN/IVcomparison/module-dossier/Data/1-ReceptionTestCERN/AfterTabCutting/",
	    "Stage3": "~/work/CERN/IVcomparison/module-dossier/Data/1-ReceptionTestCERN/AfterTabCutting/",
	    "Stage4": "~/work/CERN/IVcomparison/module-dossier/Data/1-ReceptionTestCERN/AfterTabCutting/",
	    "Stage5": "~/work/CERN/IVcomparison/module-dossier/Data/1-ReceptionTestCERN/AfterTabCutting/",
	    "Stage6": "~/work/CERN/IVcomparison/module-dossier/Data/1-ReceptionTestCERN/AfterTabCutting/"
	},
	"IV": {
	    "Stage1": "~/work/CERN/IVcomparison/module-dossier/Data/1-ReceptionTestCERN/AfterTabCutting/KEKQ14_iv_+20.json",
	    "Stage2": "",
	    "Stage3": "",
	    "Stage4": "",
	    "Stage5": "",
	    "Stage6": ""
	},
	"FWB": {
	    "Stage1": "",
	    "Stage2": "",
	    "Stage3": "",
	    "Stage4": "",
	    "Stage5": "",
	    "Stage6": ""
	}, 
	"Temperature": {
	    "Stage1": 298.15,
	    "Stage2": 1,
	    "Stage3": 1,
	    "Stage4": 1,
	    "Stage5": 1,
	    "Stage6": 1
	},
	"Type": [ "diff", "lin", "syn" ],
	"FE1": "20UPGFC0009300",
	"FE2": "20UPGFC0009316",
	"FE3": "20UPGFC0009332",
	"FE4": "20UPGFC0009348"
    },
    "PlotConfig": "./PlotConfig.json",
    "OutputFormat": [ ".png", ".pdf" ]
}
