{
    "Module": {
	"ModuleID": "SiegenQ4",
	"FolderPath": {
	    "Stage1": "/eos/atlas/atlascerngroupdisk/det-itk/general/pixels/systemtest/lls-prototype-rd53a-ob/moduledata/SiegenQ4_Si_RD53A_Q6/Initial-ModuleQCAtSiegen",
	    "Stage2": "/eos/atlas/atlascerngroupdisk/det-itk/general/pixels/systemtest/lls-prototype-rd53a-ob/moduledata/SiegenQ4_Si_RD53A_Q6/1-ReceptionTestCERN/BeforePotting",
	    "Stage3": "/eos/atlas/atlascerngroupdisk/det-itk/general/pixels/systemtest/lls-prototype-rd53a-ob/moduledata/SiegenQ4_Si_RD53A_Q6/1-ReceptionTestCERN/AfterPotting",
	    "Stage4": "/eos/atlas/atlascerngroupdisk/det-itk/general/pixels/systemtest/lls-prototype-rd53a-ob/moduledata/SiegenQ4_Si_RD53A_Q6/2-AfterLoading/SiegenQ4_AfterLoading",
	    "Stage5": "/eos/atlas/atlascerngroupdisk/det-itk/general/pixels/systemtest/lls-prototype-rd53a-ob/moduledata/SiegenQ4_Si_RD53A_Q6/2-AfterLoading/XplusTop",
	    "Stage6": "."
	},
	"IV": {
	    "Stage1": "/eos/atlas/atlascerngroupdisk/det-itk/general/pixels/systemtest/lls-prototype-rd53a-ob/moduledata/SiegenQ4_Si_RD53A_Q6/Initial-ModuleQCAtSiegen",
	    "Stage2": "/eos/atlas/atlascerngroupdisk/det-itk/general/pixels/systemtest/lls-prototype-rd53a-ob/moduledata/SiegenQ4_Si_RD53A_Q6/1-ReceptionTestCERN/BeforePotting",
	    "Stage3": "/eos/atlas/atlascerngroupdisk/det-itk/general/pixels/systemtest/lls-prototype-rd53a-ob/moduledata/SiegenQ4_Si_RD53A_Q6/1-ReceptionTestCERN/AfterPotting",
	    "Stage4": "/eos/atlas/atlascerngroupdisk/det-itk/general/pixels/systemtest/lls-prototype-rd53a-ob/moduledata/SiegenQ4_Si_RD53A_Q6/2-AfterLoading/SiegenQ4_AfterLoading",
	    "Stage5": "/eos/atlas/atlascerngroupdisk/det-itk/general/pixels/systemtest/lls-prototype-rd53a-ob/moduledata/SiegenQ4_Si_RD53A_Q6/2-AfterLoading/XplusTop",
	    "Stage6": "."
	},
	"FWB": {
	    "Stage1": "/eos/atlas/atlascerngroupdisk/det-itk/general/pixels/systemtest/lls-prototype-rd53a-ob/moduledata/SiegenQ4_Si_RD53A_Q6/Initial-ModuleQCAtSiegen",
	    "Stage2": "/eos/atlas/atlascerngroupdisk/det-itk/general/pixels/systemtest/lls-prototype-rd53a-ob/moduledata/SiegenQ4_Si_RD53A_Q6/1-ReceptionTestCERN/BeforePotting",
	    "Stage3": "/eos/atlas/atlascerngroupdisk/det-itk/general/pixels/systemtest/lls-prototype-rd53a-ob/moduledata/SiegenQ4_Si_RD53A_Q6/1-ReceptionTestCERN/AfterPotting",
	    "Stage4": "/eos/atlas/atlascerngroupdisk/det-itk/general/pixels/systemtest/lls-prototype-rd53a-ob/moduledata/SiegenQ4_Si_RD53A_Q6/2-AfterLoading/SiegenQ4_AfterLoading",
	    "Stage5": "/eos/atlas/atlascerngroupdisk/det-itk/general/pixels/systemtest/lls-prototype-rd53a-ob/moduledata/SiegenQ4_Si_RD53A_Q6/2-AfterLoading/XplusTop",
	    "Stage6": "."
	}, 
	"Temperature": {
	    "Stage1": 1,
	    "Stage2": 298.15,
	    "Stage3": 289.15,
	    "Stage4": 296.25,
	    "Stage5": 296.05,
	    "Stage6": 1 
	},
	"Type": [ "diff", "lin", "syn" ],
	"FE1": "Chip1_12409",
	"FE2": "Chip2_12455",
	"FE3": "Chip3_12438",
	"FE4": "Chip4_12439"
    },
    "PlotConfig": "./PlotConfig.json",
    "OutputFormat": [ ".png", ".pdf" ]
}
