{
    "Module": {
	"ModuleID": "ThinQ2",
	"FolderPath": {
	    "Stage1": "/eos/atlas/atlascerngroupdisk/det-itk/general/pixels/systemtest/lls-prototype-rd53a-ob/moduledata/CERN_Thin_Q2_20UPGM20023009/Initial-ModuleQCAtCERN/AfterParylene/data_+25C",
	    "Stage2": "/eos/atlas/atlascerngroupdisk/det-itk/general/pixels/systemtest/lls-prototype-rd53a-ob/moduledata/CERN_Thin_Q2_20UPGM20023009/Initial-ModuleQCAtCERN/AfterTCBurnIn/sourcetrials",
	    "Stage3": "/eos/atlas/atlascerngroupdisk/det-itk/general/pixels/systemtest/lls-prototype-rd53a-ob/moduledata/CERN_Thin_Q2_20UPGM20023009/Initial-ModuleQCAtCERN/AfterTCBurnIn/sourcetrials/lindifflonger",
	    "Stage4": "/eos/atlas/atlascerngroupdisk/det-itk/general/pixels/systemtest/lls-prototype-rd53a-ob/moduledata/CERN_Thin_Q2_20UPGM20023009/2-AfterLoading/0Cycles",
	    "Stage5": "/eos/atlas/atlascerngroupdisk/det-itk/general/pixels/systemtest/lls-prototype-rd53a-ob/moduledata/CERN_Thin_Q2_20UPGM20023009/2-AfterLoading/25Cycles",
	    "Stage6": ""
	},
	"FWB": {
	    "Stage1": "/eos/atlas/atlascerngroupdisk/det-itk/general/pixels/systemtest/lls-prototype-rd53a-ob/moduledata/CERN_Thin_Q2_20UPGM20023009/Initial-ModuleQCAtCERN/AfterParylene/20UPGM20023009_FWB_AfterTCBurnIn",
	    "Stage2": "/eos/atlas/atlascerngroupdisk/det-itk/general/pixels/systemtest/lls-prototype-rd53a-ob/moduledata/BumpStressThermalCycling/CERNRD53AThinModules/CERN_Thin_Q2_20UPGM20023009/0Cycles/20UPGM20023009_FWB_AfterTCBurnIn",
	    "Stage3": "/eos/atlas/atlascerngroupdisk/det-itk/general/pixels/systemtest/lls-prototype-rd53a-ob/moduledata/BumpStressThermalCycling/CERNRD53AThinModules/CERN_Thin_Q2_20UPGM20023009/25Cycles/20UPGM20023009_FWB_AfterTCBurnIn",
	    "Stage4": "",
	    "Stage5": "",
	    "Stage6": ""
	}, 
	"Temperature": {
	    "Stage1": 298.15,
	    "Stage2": 298.15,
	    "Stage3": 298.15,
	    "Stage4": 1,
	    "Stage5": 1,
	    "Stage6": 1
	},
	"Type": [ "diff", "lin", "syn" ],
	"FE1": "20UPGFC0012953",
	"FE2": "20UPGFC0012858",
	"FE3": "20UPGFC0012874",
	"FE4": "20UPGFC0012842"
    },
    "PlotConfig": "./PlotConfig.json",
    "OutputFormat": [ ".png", ".pdf" ]
}
