{
    "Module": {
	"ModuleID": "ThickQ2",
	"FolderPath": {
	    "Stage1": "/eos/atlas/atlascerngroupdisk/det-itk/general/pixels/systemtest/lls-prototype-rd53a-ob/moduledata/CERN_Thick_Q2_20UPGM20021032/Initial-ModuleQCAtCERN/BeforeParylene/data_+25C",
	    "Stage2": "",
	    "Stage3": ""

	},
	"IV": {
	    "Stage1": "",
	    "Stage2": "",
	    "Stage3": ""
	},
	"FWB": {
	    "Stage1": "/eos/atlas/atlascerngroupdisk/det-itk/general/pixels/systemtest/lls-prototype-rd53a-ob/moduledata/CERN_Thick_Q2_20UPGM20021032/Initial-ModuleQCAtCERN/BeforeParylene/data_+25C/20UPGM20021032_FWB_BeforeParylene",
	    "Stage2": "",
	    "Stage3": ""
	}, 
	"Temperature": {
	    "Stage1": 298.15,
	    "Stage2": 298.15,
	    "Stage3": 298.15
	},
	"Type": [ "diff", "lin", "syn" ],
	"FE1": "20UPGFC0014902",
	"FE2": "20UPGFC0014903",
	"FE3": "20UPGFC0014907",
	"FE4": "20UPGFC0014905"
    },
    "PlotConfig": "./PlotConfig.json",
    "OutputFormat": [ ".png", ".pdf" ]
}
