{
    "Module": {
	"ModuleID": "ThinQ7",
	"FolderPath": {
	    "Stage1": "/eos/atlas/atlascerngroupdisk/det-itk/general/pixels/systemtest/lls-prototype-rd53a-ob/moduledata/CERN_Thin_Q7_20UPGM20023042/Initial-ModuleQCAtCERN/BeforeParylene",
	    "Stage2": "/eos/atlas/atlascerngroupdisk/det-itk/general/pixels/systemtest/lls-prototype-rd53a-ob/moduledata/CERN_Thin_Q7_20UPGM20023042/Initial-ModuleQCAtCERN/AfterParylene/data_+25C",
	    "Stage3": "/eos/atlas/atlascerngroupdisk/det-itk/general/pixels/systemtest/lls-prototype-rd53a-ob/moduledata/CERN_Thin_Q7_20UPGM20023042/Initial-ModuleQCAtCERN/AfterTCBurnIn"

	},
	"IV": {
	    "Stage1": "",
	    "Stage2": "",
	    "Stage3": ""
	},
	"FWB": {
	    "Stage1": "/eos/atlas/atlascerngroupdisk/det-itk/general/pixels/systemtest/lls-prototype-rd53a-ob/moduledata/CERN_Thin_Q7_20UPGM20023042/Initial-ModuleQCAtCERN/BeforeParylene/20UPGM20023042_FWB_BeforeParylene",
	    "Stage2": "/eos/atlas/atlascerngroupdisk/det-itk/general/pixels/systemtest/lls-prototype-rd53a-ob/moduledata/CERN_Thin_Q7_20UPGM20023042/Initial-ModuleQCAtCERN/AfterParylene/data_+25C/20UPGM20023042_FWB_afterparylene",
	    "Stage3": "/eos/atlas/atlascerngroupdisk/det-itk/general/pixels/systemtest/lls-prototype-rd53a-ob/moduledata/CERN_Thin_Q7_20UPGM20023042/Initial-ModuleQCAtCERN/AfterTCBurnIn/20UPGM20023042_FWB_AfterTCBurnIn"
	}, 
	"Temperature": {
	    "Stage1": 298.15,
	    "Stage2": 298.15,
	    "Stage3": 293.15
	},
	"Type": [ "diff", "lin", "syn" ],
	"FE1": "20UPGFC0012613",
	"FE2": "20UPGFC0012645",
	"FE3": "20UPGFC0012661",
	"FE4": "20UPGFC0012629"
    },
    "PlotConfig": "./PlotConfig.json",
    "OutputFormat": [ ".png", ".pdf" ]
}
