{
    "Module": {
	"ModuleID": "Paris3",
        "FolderPath": {
            "Stage1": "/eos/atlas/atlascerngroupdisk/det-itk/general/pixels/systemtest/lls-prototype-rd53a-ob/moduledata/Paris3/1-ReceptionTestCERN/AfterPotting125",
	    "Stage2": "/eos/atlas/atlascerngroupdisk/det-itk/general/pixels/systemtest/lls-prototype-rd53a-ob/moduledata/Paris3/1-ReceptionTestCERN/AfterTabCutting",
	    "Stage3": "/eos/atlas/atlascerngroupdisk/det-itk/general/pixels/systemtest/lls-prototype-rd53a-ob/moduledata/Paris3/2-AfterLoading/Warm",
	    "Stage4": "/eos/atlas/atlascerngroupdisk/det-itk/general/pixels/systemtest/lls-prototype-rd53a-ob/moduledata/Paris3/2-AfterLoading/XminusBottom",
	    "Stage5": "/eos/atlas/atlascerngroupdisk/det-itk/general/pixels/systemtest/lls-prototype-rd53a-ob/moduledata/Paris3/2-AfterLoading/XminusBottom2nd",
            "Stage6": "."
        },
        "IV": {
	    "Stage1": "/eos/atlas/atlascerngroupdisk/det-itk/general/pixels/systemtest/lls-prototype-rd53a-ob/moduledata/Paris3/1-ReceptionTestCERN/AfterPotting125",
	    "Stage2": "/eos/atlas/atlascerngroupdisk/det-itk/general/pixels/systemtest/lls-prototype-rd53a-ob/moduledata/Paris3/2-AfterLoading/Warm",
	    "Stage3": "/eos/atlas/atlascerngroupdisk/det-itk/general/pixels/systemtest/lls-prototype-rd53a-ob/moduledata/Paris3/2-AfterLoading/XminusBottom",
	    "Stage4": "/eos/atlas/atlascerngroupdisk/det-itk/general/pixels/systemtest/lls-prototype-rd53a-ob/moduledata/Paris3/2-AfterLoading/XminusBottom2nd",
            "Stage5": ".",
            "Stage6": "."
        },
        "FWB": {
            "Stage1": "/eos/atlas/atlascerngroupdisk/det-itk/general/pixels/systemtest/lls-prototype-rd53a-ob/moduledata/Paris3/1-ReceptionTestCERN/AfterPotting125",
	    "Stage2": "/eos/atlas/atlascerngroupdisk/det-itk/general/pixels/systemtest/lls-prototype-rd53a-ob/moduledata/Paris3/2-AfterLoading/Warm",
	    "Stage3": "/eos/atlas/atlascerngroupdisk/det-itk/general/pixels/systemtest/lls-prototype-rd53a-ob/moduledata/Paris3/2-AfterLoading/XminusBottom",
	    "Stage4": "/eos/atlas/atlascerngroupdisk/det-itk/general/pixels/systemtest/lls-prototype-rd53a-ob/moduledata/Paris3/2-AfterLoading/XminusBottom2nd",
            "Stage5": ".",
            "Stage6": "."
        },
	"Temperature": {
	    "Stage1": 284.2,
	    "Stage2": 297.2,
	    "Stage3": 292.2,
	    "Stage4": 293.15,
	    "Stage5": 293.15,
	    "Stage6": 1 
	},
	"Type": [ "diff", "lin", "syn" ],
	"FE1": "20UPGFC0012627",
	"FE2": "20UPGFC0012659",
	"FE3": "20UPGFC0012580",
	"FE4": "20UPGFC0012675"
    },
    "PlotConfig": "./PlotConfig.json",
    "OutputFormat": [ ".png", ".pdf" ]
}
