{
    "Module": {
	"ModuleID": "ThinQ4",
	"FolderPath": {
	    "Stage1": "/eos/atlas/atlascerngroupdisk/det-itk/general/pixels/systemtest/lls-prototype-rd53a-ob/moduledata/CERN_Thin_Q4_20UPGM20023012/Initial-ModuleQCAtCERN/BeforeParylene",
	    "Stage2": "/eos/atlas/atlascerngroupdisk/det-itk/general/pixels/systemtest/lls-prototype-rd53a-ob/moduledata/CERN_Thin_Q4_20UPGM20023012/Initial-ModuleQCAtCERN/AfterTCBurnIn",
	    "Stage3": "/eos/atlas/atlascerngroupdisk/det-itk/general/pixels/systemtest/lls-prototype-rd53a-ob/moduledata/CERN_Thin_Q4_20UPGM20023012/Initial-ModuleQCAtCERN/AfterTCBurnIn_2nd",
	    "Stage4": "/eos/atlas/atlascerngroupdisk/det-itk/general/pixels/systemtest/lls-prototype-rd53a-ob/moduledata/CERN_Thin_Q4_20UPGM20023012/1-ReceptionTestCERN/IVCurveBeforeLoading"
	},
        "FWB": {
	    "Stage1": "/eos/atlas/atlascerngroupdisk/det-itk/general/pixels/systemtest/lls-prototype-rd53a-ob/moduledata/CERN_Thin_Q4_20UPGM20023012/Initial-ModuleQCAtCERN/BeforeParylene/20UPGM20023012_FWB_BeforeParylene",
	    "Stage2": "/eos/atlas/atlascerngroupdisk/det-itk/general/pixels/systemtest/lls-prototype-rd53a-ob/moduledata/CERN_Thin_Q4_20UPGM20023012/Initial-ModuleQCAtCERN/AfterTCBurnIn/20UPGM20023012_FWB_AfterTCBurnIn",
	    "Stage3": "/eos/atlas/atlascerngroupdisk/det-itk/general/pixels/systemtest/lls-prototype-rd53a-ob/moduledata/CERN_Thin_Q4_20UPGM20023012/Initial-ModuleQCAtCERN/AfterTCBurnIn_2nd/FWB_scans",
	    "Stage4": "",
	    "Stage5": "",
	    "Stage6": ""
	}, 
	"Temperature": {
	    "Stage1": 298.15,
	    "Stage2": 295.15,
	    "Stage3": 285.15,
	    "Stage4": 293.15,
	    "Stage5": 1,
	    "Stage6": 1
	},
	"Type": [ "diff", "lin", "syn" ],
	"FE1": "20UPGFC0012891",
	"FE2": "20UPGFC0012923",
	"FE3": "20UPGFC0012924",
	"FE4": "20UPGFC0012907"
        },
        "PlotConfig": "./PlotConfig.json",
        "OutputFormat": [ ".png", ".pdf" ]
}
