{
    "Module": {
	"ModuleID": "KEKQ12",
	"FolderPath": {
	    "Stage1": "/eos/atlas/atlascerngroupdisk/det-itk/general/pixels/systemtest/lls-prototype-rd53a-ob/moduledata/KEKQ12/Initial-ModuleQCAtXY/AfterTCBurnIn/Temperature_-15C",
	    "Stage2": "/eos/atlas/atlascerngroupdisk/det-itk/general/pixels/systemtest/lls-prototype-rd53a-ob/moduledata/KEKQ12/1-ReceptionTestCERN/AfterReceptionFromJP",
	    "Stage3": "/eos/atlas/atlascerngroupdisk/det-itk/general/pixels/systemtest/lls-prototype-rd53a-ob/moduledata/KEKQ12/1-ReceptionTestCERN/electricaltestInThermalCalib",
	    "Stage4": "/eos/atlas/atlascerngroupdisk/det-itk/general/pixels/systemtest/lls-prototype-rd53a-ob/moduledata/KEKQ12/1-ReceptionTestCERN/AfterAccident",
	    "Stage5": "",
	    "Stage6": ""
	},
	"FWB": {
	    "Stage1": "",
	    "Stage2": "",
	    "Stage3": "",
	    "Stage4": "",
	    "Stage5": "",
	    "Stage6": ""
	},
	"Temperature": {
	    "Stage1": 258.15,
	    "Stage2": 1,
	    "Stage3": 288.15,
	    "Stage4": 293.15,
	    "Stage5": 1,
	    "Stage6": 1
	},
	"Type": [ "diff", "lin", "syn" ],
	"FE1": "20UPGFC0009283",
	"FE2": "20UPGFC0009299",
	"FE3": "20UPGFC0009331",
	"FE4": "20UPGFC0009315"
    },
    "PlotConfig": "./PlotConfig.json",
    "OutputFormat": [ ".png", ".pdf" ]
}
