{
    "Module": {
	"ModuleID": "ThinQ8",
	"FolderPath": {
	    "Stage1": "/eos/atlas/atlascerngroupdisk/det-itk/general/pixels/systemtest/lls-prototype-rd53a-ob/moduledata/CERN_Thin_Q8_20UPGM20025078/1-ReceptionTestCERN/BeforePotting",
            "Stage2": "/eos/atlas/atlascerngroupdisk/det-itk/general/pixels/systemtest/lls-prototype-rd53a-ob/moduledata/CERN_Thin_Q8_20UPGM20025078/1-ReceptionTestCERN/AfterPotting",
            "Stage3": "/eos/atlas/atlascerngroupdisk/det-itk/general/pixels/systemtest/lls-prototype-rd53a-ob/moduledata/CERN_Thin_Q8_20UPGM20025078/1-ReceptionTestCERN/AfterTC",
            "Stage4": "/eos/atlas/atlascerngroupdisk/det-itk/general/pixels/systemtest/lls-prototype-rd53a-ob/moduledata/CERN_Thin_Q8_20UPGM20025078/1-ReceptionTestCERN/AfterTabCutting",
            "Stage5": "",
            "Stage6": ""
	},
	"FWB": {
	    "Stage1": "/eos/atlas/atlascerngroupdisk/det-itk/general/pixels/systemtest/lls-prototype-rd53a-ob/moduledata/CERN_Thin_Q8_20UPGM20025078/1-ReceptionTestCERN/BeforePotting/fwb",
            "Stage2": "/eos/atlas/atlascerngroupdisk/det-itk/general/pixels/systemtest/lls-prototype-rd53a-ob/moduledata/CERN_Thin_Q8_20UPGM20025078/1-ReceptionTestCERN/AfterPotting/fwb",
            "Stage3": "/eos/atlas/atlascerngroupdisk/det-itk/general/pixels/systemtest/lls-prototype-rd53a-ob/moduledata/CERN_Thin_Q8_20UPGM20025078/1-ReceptionTestCERN/AfterTC/fwb",
            "Stage4": "",
            "Stage5": "",
            "Stage6": ""
	}, 
	"Temperature": {
	    "Stage1": 298.15,
	    "Stage2": 298.15,
	    "Stage3": 298.15,
	    "Stage4": 298.15,
	    "Stage5": 1,
	    "Stage6": 1
                         
	},
	"Type": [ "diff", "lin", "syn" ],
	"FE1": "20UPGFC0009350",
	"FE2": "20UPGFC0009334",
	"FE3": "20UPGFC0009302",
	"FE4": "20UPGFC0009318"
    },
    "PlotConfig": "./PlotConfig.json",
    "OutputFormat": [ ".png", ".pdf" ]
}
