{
    "Module": {
	"ModuleID": "CERNQ10",
	"FolderPath": {
	    "Stage1": ".",
	    "Stage2": "/eos/atlas/atlascerngroupdisk/det-itk/general/pixels/systemtest/lls-prototype-rd53a-ob/moduledata/CERN_Thin_Q10_20UPGM20025080/1-ReceptionTestCERN/BeforePotting",
	    "Stage3": "/eos/atlas/atlascerngroupdisk/det-itk/general/pixels/systemtest/lls-prototype-rd53a-ob/moduledata/CERN_Thin_Q10_20UPGM20025080/1-ReceptionTestCERN/AfterPotting",
	    "Stage4": "/eos/atlas/atlascerngroupdisk/det-itk/general/pixels/systemtest/lls-prototype-rd53a-ob/moduledata/CERN_Thin_Q10_20UPGM20025080/2-AfterLoading",
	    "Stage5": "/eos/atlas/atlascerngroupdisk/det-itk/general/pixels/systemtest/lls-prototype-rd53a-ob/moduledata/CERN_Thin_Q10_20UPGM20025080/2-AfterLoading/XminusPigtail",
	    "Stage6": "."
	},
	"IV": {
	    "Stage1": ".",
	    "Stage2": "/eos/atlas/atlascerngroupdisk/det-itk/general/pixels/systemtest/lls-prototype-rd53a-ob/moduledata/CERN_Thin_Q10_20UPGM20025080/1-ReceptionTestCERN/BeforePotting",
	    "Stage3": "/eos/atlas/atlascerngroupdisk/det-itk/general/pixels/systemtest/lls-prototype-rd53a-ob/moduledata/CERN_Thin_Q10_20UPGM20025080/1-ReceptionTestCERN/AfterPotting",
	    "Stage4": "/eos/atlas/atlascerngroupdisk/det-itk/general/pixels/systemtest/lls-prototype-rd53a-ob/moduledata/CERN_Thin_Q10_20UPGM20025080/2-AfterLoading",
	    "Stage5": "/eos/atlas/atlascerngroupdisk/det-itk/general/pixels/systemtest/lls-prototype-rd53a-ob/moduledata/CERN_Thin_Q10_20UPGM20025080/2-AfterLoading/XminusPigtail",
	    "Stage6": "."
	},
	"FWB": {
	    "Stage1": ".",
	    "Stage2": "/eos/atlas/atlascerngroupdisk/det-itk/general/pixels/systemtest/lls-prototype-rd53a-ob/moduledata/CERN_Thin_Q10_20UPGM20025080/1-ReceptionTestCERN/BeforePotting",
	    "Stage3": "/eos/atlas/atlascerngroupdisk/det-itk/general/pixels/systemtest/lls-prototype-rd53a-ob/moduledata/CERN_Thin_Q10_20UPGM20025080/1-ReceptionTestCERN/AfterPotting",
	    "Stage4": "/eos/atlas/atlascerngroupdisk/det-itk/general/pixels/systemtest/lls-prototype-rd53a-ob/moduledata/CERN_Thin_Q10_20UPGM20025080/2-AfterLoading",
	    "Stage5": "/eos/atlas/atlascerngroupdisk/det-itk/general/pixels/systemtest/lls-prototype-rd53a-ob/moduledata/CERN_Thin_Q10_20UPGM20025080/2-AfterLoading/XminusPigtail",
	    "Stage6": "."
	}, 
	"Temperature": {
	    "Stage1": 293.2,
	    "Stage2": 298.2,
	    "Stage3": 294.2,
	    "Stage4": 294.2,
	    "Stage5": 293.5,
	    "Stage6": 292.7
	},
	"Type": [ "diff", "lin", "syn" ],
	"FE1": "20UPGFC0013650",
	"FE2": "20UPGFC0013668",
	"FE3": "20UPGFC0013653",
	"FE4": "20UPGFC0013716"
    },
    "PlotConfig": "./PlotConfig.json",
    "OutputFormat": [ ".png", ".pdf", ".csv" ]
}
