{
    "Module": {
	"ModuleID": "Paris6",
	"FolderPath": {
	    "Stage1": "/eos/atlas/atlascerngroupdisk/det-itk/general/pixels/systemtest/lls-prototype-rd53a-ob/moduledata/Paris6/2-AfterLoading/PigtailFront_retest",
            "Stage2": "/eos/home-d/dharada/Documents/SR1test/felix",
            "Stage3": "/eos/home-d/dharada/Documents/SR1test/oldYarr",
            "Stage4": "/eos/home-d/dharada/Documents/SR1test/VakYarr/Paris6",
            "Stage5": ".",
            "Stage6": "."
	},
	"IV": {
	    "Stage1": "/eos/atlas/atlascerngroupdisk/det-itk/general/pixels/systemtest/lls-prototype-rd53a-ob/moduledata/Paris6/2-AfterLoading/PigtailFront_retest",
            "Stage2": "/eos/home-d/dharada/Documents/SR1test/felix",
            "Stage3": "/eos/home-d/dharada/Documents/SR1test/oldYarr",
            "Stage4": "/eos/home-d/dharada/Documents/SR1test/VakYarr/Paris6",
            "Stage5": ".",
            "Stage6": "."
	},
	"FWB": {
	    "Stage1": "/eos/atlas/atlascerngroupdisk/det-itk/general/pixels/systemtest/lls-prototype-rd53a-ob/moduledata/Paris6/2-AfterLoading/PigtailFront_retest",
            "Stage2": "/eos/home-d/dharada/Documents/SR1test/felix",
            "Stage3": "/eos/home-d/dharada/Documents/SR1test/oldYarr",
            "Stage4": "/eos/home-d/dharada/Documents/SR1test/VakYarr/Paris6",
            "Stage5": ".",
            "Stage6": "."
	}, 
	"Temperature": {
	    "Stage1": 303.2,
	    "Stage2": 287.2,
	    "Stage3": 288.2,
	    "Stage4": 287.2,
	    "Stage5": 288.2,
	    "Stage6": 293.4
	},
	"Type": [ "diff", "lin", "syn" ],
	"FE1": "20UPGFC0008842",
	"FE2": "20UPGFC0008858",
	"FE3": "20UPGFC0008779",
	"FE4": "20UPGFC0008763"
    },
    "PlotConfig": "./PlotConfig.json",
    "OutputFormat": [ ".png", ".pdf" ]
}
