{
    "Module": {
	"ModuleID": "KEKQ22",
	"FolderPath": {
	    "Stage1": "/eos/atlas/atlascerngroupdisk/det-itk/general/pixels/systemtest/lls-prototype-rd53a-ob/moduledata/KEKQ22/2-AfterLoading/PigtailBack",
	    "Stage2": "/eos/home-d/dharada/Documents/SR1test/felix",
	    "Stage3": "/eos/home-d/dharada/Documents/SR1test/oldYarr",
	    "Stage4": "/eos/home-d/dharada/Documents/SR1test/VakYarr/KEKQ22",
	    "Stage5": ".",
	    "Stage6": "."
	},
	"IV": {
	    "Stage1": "/eos/atlas/atlascerngroupdisk/det-itk/general/pixels/systemtest/lls-prototype-rd53a-ob/moduledata/KEKQ22/2-AfterLoading/PigtailBack",
	    "Stage2": "/eos/home-d/dharada/Documents/SR1test/felix",
	    "Stage3": "/eos/home-d/dharada/Documents/SR1test/oldYarr",
	    "Stage4": "/eos/home-d/dharada/Documents/SR1test/VakYarr/KEKQ22",
	    "Stage5": ".",
	    "Stage6": "."
	},
	"FWB": {
	    "Stage1": "/eos/atlas/atlascerngroupdisk/det-itk/general/pixels/systemtest/lls-prototype-rd53a-ob/moduledata/KEKQ22/2-AfterLoading/PigtailBack",
	    "Stage2": "/eos/home-d/dharada/Documents/SR1test/felix",
	    "Stage3": "/eos/home-d/dharada/Documents/SR1test/oldYarr",
	    "Stage4": "/eos/home-d/dharada/Documents/SR1test/VakYarr/KEKQ22",
	    "Stage5": ".",
	    "Stage6": "."
	},
	"Temperature": {
	    "Stage1": 303.15,
	    "Stage2": 291.15,
	    "Stage3": 291.15,
	    "Stage4": 292.95,
	    "Stage5": 293.65,
	    "Stage6": 292.95
	},
	"Type": [ "diff", "lin", "syn" ],
	"FE1": "20UPGFC0009287",
	"FE2": "20UPGFC0009303",
	"FE3": "20UPGFC0009335",
	"FE4": "20UPGFC0009319"
    },
    "PlotConfig": "./PlotConfig.json",
    "OutputFormat": [ ".png", ".pdf" ]
}
