{
    "Module": {
	"ModuleID": "SiegenQ3",
	"FolderPath": {
	    "Stage1": "/eos/atlas/atlascerngroupdisk/det-itk/general/pixels/systemtest/lls-prototype-rd53a-ob/moduledata/SiegenQ3/Initial-ModuleQCAtSiegen",
            "Stage2": ".",
	    "Stage3": "/eos/atlas/atlascerngroupdisk/det-itk/general/pixels/systemtest/lls-prototype-rd53a-ob/moduledata/SiegenQ3/1-ReceptionTestCERN/AfterPotting",
	    "Stage4": "/eos/atlas/atlascerngroupdisk/det-itk/general/pixels/systemtest/lls-prototype-rd53a-ob/moduledata/SiegenQ3/2-AfterLoading/SiegenQ3_AfterLoading",
	    "Stage5": "/eos/atlas/atlascerngroupdisk/det-itk/general/pixels/systemtest/lls-prototype-rd53a-ob/moduledata/SiegenQ3/2-AfterLoading/XminusBottom",
	    "Stage6": "."
	},
	"IV": {
	    "Stage1": "/eos/atlas/atlascerngroupdisk/det-itk/general/pixels/systemtest/lls-prototype-rd53a-ob/moduledata/SiegenQ3/Initial-ModuleQCAtSiegen",
            "Stage2": ".",
	    "Stage3": "/eos/atlas/atlascerngroupdisk/det-itk/general/pixels/systemtest/lls-prototype-rd53a-ob/moduledata/SiegenQ3/1-ReceptionTestCERN/AfterPotting",
	    "Stage4": "/eos/atlas/atlascerngroupdisk/det-itk/general/pixels/systemtest/lls-prototype-rd53a-ob/moduledata/SiegenQ3/2-AfterLoading/SiegenQ3_AfterLoading",
	    "Stage5": "/eos/atlas/atlascerngroupdisk/det-itk/general/pixels/systemtest/lls-prototype-rd53a-ob/moduledata/SiegenQ3/2-AfterLoading/XminusBottom",
	    "Stage6": "."
	},
	"FWB": {
	    "Stage1": "/eos/atlas/atlascerngroupdisk/det-itk/general/pixels/systemtest/lls-prototype-rd53a-ob/moduledata/SiegenQ3/Initial-ModuleQCAtSiegen",
            "Stage2": ".",
	    "Stage3": "/eos/atlas/atlascerngroupdisk/det-itk/general/pixels/systemtest/lls-prototype-rd53a-ob/moduledata/SiegenQ3/1-ReceptionTestCERN/AfterPotting",
	    "Stage4": "/eos/atlas/atlascerngroupdisk/det-itk/general/pixels/systemtest/lls-prototype-rd53a-ob/moduledata/SiegenQ3/2-AfterLoading/SiegenQ3_AfterLoading",
	    "Stage5": "/eos/atlas/atlascerngroupdisk/det-itk/general/pixels/systemtest/lls-prototype-rd53a-ob/moduledata/SiegenQ3/2-AfterLoading/XminusBottom",
	    "Stage6": "."
	}, 
	"Temperature": {
	    "Stage1": 1,
	    "Stage2": 1,
	    "Stage3": 298.2,
	    "Stage4": 296.65,
	    "Stage5": 293.65, 
	    "Stage6": 1 
	},
	"Type": [ "diff", "lin", "syn" ],
	"FE1": "Chip1_08728",
	"FE2": "Chip2_08822",
	"FE3": "Chip3_08803",
	"FE4": "Chip4_08852"
    },
    "PlotConfig": "./PlotConfig.json",
    "OutputFormat": [ ".png", ".pdf" ]
}
