{
    "Hist2D": {
	"digitalscan": {
	    "Name": "OccupancyMap",
	    "Mask": "EnMask",
	    "Cut": 100,
	    "EvolutionPlot": { "Y": "Absolute" }
	},
	"analogscan": {
	    "Name": "OccupancyMap",
	    "Mask": "EnMask",
	    "Cut": 100,
	    "EvolutionPlot": { "Y": "Absolute" }
	},
	"sourcescan": {
	    "Name": "Occupancy",
	    "Mask": "NoiseMask",
	    "Cut1": 10,
	    "Cut2": 50,
	    "EvolutionPlot": { "Y": "Absolute" }
	},
	"discbumpscan": {
	    "Name": "OccupancyMap",
	    "Mask": "EnMask",
	    "EvolutionPlot": { "Y": "Absolute" }
	},
	"crosstalkscan": {
	    "Name": "ThresholdMap-0",
	    "Mask": "EnMask-4000",
	    "EvolutionPlot": { "Y": "Absolute" }
	},
	"thresholdscan": {
	    "Name": "ThresholdMap-0",
	    "EvolutionPlot": { "Y": "Absolute" }
	},
	"FWB": {
	    "Name": "ThresholdMap-0",
	    "EvolutionPlot": { "Y": "Absolute" }
	}
    },
    "Graph": {
	"IV": {
	    "Name": "SensorIV",
	    "FitPoint": {
		"Stage1": 80,
		"Stage2": 80,
		"Stage3": 80
	    },
	    "FitStep": {
		"Stage1": 25,
		"Stage2": 25,
		"Stage3": 25
	    },
	    "Tref": 293.15
	},
	"VI": {
	    "Name": "SLDO_VI"
	}
    },
    "Hist1D": {
	"NoiseDist": {
	    "Name": "NoiseDist",
	    "CompareType": "Ratio",
	    "FitRange": {
		"diff": {
		    "Stage1": "Auto",
		    "Stage2": "Auto",
		    "Stage3": "Auto"
		},
		"lin": {
		    "Stage1": "Auto",
		    "Stage2": "Auto",
		    "Stage3": "Auto"
		},
		"syn": {
		    "Stage1": "Auto",
		    "Stage2": "Auto",
		    "Stage3": "Auto"
		},
		"std": {
		    "Stage1": "Auto",
		    "Stage2": "Auto",
		    "Stage3": "Auto"
		}
	    },
	    "EvolutionPlot": true
	},
	"ThresholdDist": {
	    "Name": "ThresholdDist",
	    "CompareType": "Percentage",
	    "FitRange": {
		"diff":{
		    "Stage1": "Auto",
		    "Stage2": "Auto",
		    "Stage3": "Auto"
		},
		"lin": {
		    "Stage1": "Auto",
		    "Stage2": "Auto",
		    "Stage3": "Auto"
		},
		"syn": {
		    "Stage1": "Auto",
		    "Stage2": "Auto",
		    "Stage3": "Auto"
		},
		"std": {
		    "Stage1": "Auto",
		    "Stage2": "Auto",
		    "Stage3": "Auto"
		}
	    },
	    "EvolutionPlot":  { "Y": "Errors" }
	}
    }
}

