{
	"Modules": [
		"SiegenQ3",
		"ThinQ11",
		"Paris9",
		"SiegenQ4",
		"Paris7",
		"Paris13",
		"Goe10",
		"ThinQ8",
		"Goe4",
		"ThinQ4",
		"KEKQ20"
	],
	"ModulesNames": [
		"SiegenQ3",
		"ThinQ11",
		"Paris9",
		"SiegenQ4",
		"Paris7",
		"Paris13",
		"Goe10",
		"ThinQ8",
		"Goe4",
		"ThinQ4",
		"KEKQ20"
	],
	"FEs": [
		"FE2",
		"FE4"
	],
	"Ignore": {
		"Paris13": ["FE2"],
		"ThinQ8": ["FE4"],
		"SiegenQ3": ["FE2", "FE4"]
	},
	"Stages": {
		"Stage1": {
			"Name": "No noise"
		},
		"Stage2": {
			"Name": "2.621 MHz noise"
		},
		"Stage3": {
			"Name": "7.77 MHz noise"
		},
		"Stage4": {
			"Name": "11.9 MHz noise"
		}
	},
	"Path": "/home/itkpix/module-dossier/Figure/M6M12Demonstrator_NoiseInjection/M12",
	"Plots": {
		"NoiseDist": {
			"Title": "Noise",
			"ytitle": "Noise [e]",
			"Data": "Noise[e]",
			"Error": "Stdev[e]",
			"Scan": ""
		},
		"ThresholdDist": {
			"Title": "Threshold",
			"ytitle": "Threshold [e]",
			"Data": "Threshold[e]",
			"Error": "Stdev[e]",
			"Scan": ""
		}
	}
}