{
    "Module": [
	{
	    "ModuleName": "Siegen1",
	    "JigTemperature": [23.7, 18.2, 20.3, 10.5, 10.7, -9.5, -10.9],
	    "ModuleNTC":      [23.7, 24.4, 20.4, 16.8, 10.9, -3.4, -10.7],
	    "Current":        [23.7, 24.7, 20.0, 17.2, 10.6, -4.2, -10.2],
	    "eCurrent":       [0.0, 0.2, 0.4, 0.4, 0.5, 1.5, 4.8],
	    "Camera":         [23.0, 25.3, -999, 18.9, -999, -1.5, -999],
	    "Sensor":         [-999, 25.6, -999, 19.6, -999, -1.8, -999]
	},
	{
	    "ModuleName": "Siegen2",
	    "JigTemperature": [23.9, 20.3, 20.4, 10.7, 10.4, -11.0, -10.5],
	    "ModuleNTC":      [23.8, 28.3, 20.5, 18.8, 10.5, -2.6, -9.9],
	    "Current":        [23.8, 28.6, 20.8, 19.3, 10.3, -2.0, -8.1],
	    "eCurrent":       [0.0, 0.3, 0.4, 0.4, 0.6, 1.8, 3.3],
	    "Camera":         [23.5, 28.3, -999, 19.8, -999, -0.8, -999],
	    "Sensor":         [-999, 30.4, -999, 19.7, -999, -1.2, -999]
	},
	{
	    "ModuleName": "Siegen3",
	    "JigTemperature": [23.4, 20.3, 20.5, 10.5, 10.7, -10.5, -10.7],
	    "ModuleNTC":      [23.4, 26.7, 20.7, 17.1, 11.0, -4.2, -10.5],
	    "Current":        [23.4, 26.9, 20.6, 16.8, 10.4, -4.9, -15.1],
	    "eCurrent":       [0.0, 0.3, 0.4, 0.3, 0.6, 1.3, 9.3],
	    "Camera":         [22.8, 27.0, -999, 17.7, -999, -2.3, -999],
	    "Sensor":         [-999, 31.5, -999, 19.3, -999, -5.7, -999]
	},
	{
	    "ModuleName": "Siegen4",
	    "JigTemperature": [22.8, 20.5, 20.5, 10.8, 10.8, -9.4, -10.8],
	    "ModuleNTC":      [22.9, 26.3, 20.7, 16.3, 10.8, -3.9, -10.3],
	    "Current":        [22.9, 26.2, 20.7, 16.0, 10.6, -6.2, -9.1],
	    "eCurrent":       [0.0, 0.4, 0.5, 0.7, 0.7, 4.2, 6.2],
	    "Camera":         [22.2, 26.1, -999, 16.9, -999, -2.3, -999],
	    "Sensor":         [-999, 27.0, -999, 15.5, -999, -4.2, -999]
	}

    ]
}

