{
    "unit": {
        "Time": "s",
        "Voltage": "V",
        "Current": "A"
    },
    "V_step": -5,
    "Step_duration": 2,
    "N_measurements_per_step": 10,
    "A_Compliance": 1e-05,
    "Sensor_IV": [
        {
            "Time": 20.29835057258606,
            "Voltage": 0.0,
            "Current_mean": -1.618851866e-08,
            "Current_sigma": 1.335119185415179e-08
        },
        {
            "Time": 26.292119026184082,
            "Voltage": -5.0,
            "Current_mean": -6.159731900000001e-08,
            "Current_sigma": 1.3208116219504163e-08
        },
        {
            "Time": 32.28568172454834,
            "Voltage": -10.0,
            "Current_mean": -6.6782575e-08,
            "Current_sigma": 8.381718925426038e-09
        },
        {
            "Time": 38.27948498725891,
            "Voltage": -15.0,
            "Current_mean": -6.5119092e-08,
            "Current_sigma": 7.180989363939761e-09
        },
        {
            "Time": 44.27324557304382,
            "Voltage": -20.0,
            "Current_mean": -6.94854e-08,
            "Current_sigma": 6.80772605904938e-09
        },
        {
            "Time": 50.26705861091614,
            "Voltage": -25.0,
            "Current_mean": -6.9165632e-08,
            "Current_sigma": 6.842698828367066e-09
        },
        {
            "Time": 56.26101350784302,
            "Voltage": -30.0,
            "Current_mean": -6.7667271e-08,
            "Current_sigma": 5.9663201836315314e-09
        },
        {
            "Time": 62.2548713684082,
            "Voltage": -35.0,
            "Current_mean": -6.871349399999999e-08,
            "Current_sigma": 6.704906777047984e-09
        },
        {
            "Time": 68.24871110916138,
            "Voltage": -40.0,
            "Current_mean": -7.1454474e-08,
            "Current_sigma": 5.290448639732173e-09
        },
        {
            "Time": 74.24245357513428,
            "Voltage": -45.0,
            "Current_mean": -7.031730099999999e-08,
            "Current_sigma": 5.842189616368935e-09
        },
        {
            "Time": 80.23633646965027,
            "Voltage": -50.0,
            "Current_mean": -6.8560963e-08,
            "Current_sigma": 5.1577158614566006e-09
        },
        {
            "Time": 86.23010730743408,
            "Voltage": -55.0,
            "Current_mean": -6.965694e-08,
            "Current_sigma": 5.350094750304896e-09
        },
        {
            "Time": 92.22392320632935,
            "Voltage": -60.0,
            "Current_mean": -7.0200381e-08,
            "Current_sigma": 5.045724919266705e-09
        },
        {
            "Time": 98.21766328811646,
            "Voltage": -65.0,
            "Current_mean": -7.229817700000001e-08,
            "Current_sigma": 5.668653491232375e-09
        },
        {
            "Time": 104.21153545379639,
            "Voltage": -70.0,
            "Current_mean": -7.5982095e-08,
            "Current_sigma": 3.1979207273234592e-09
        },
        {
            "Time": 110.20527839660645,
            "Voltage": -75.0,
            "Current_mean": -6.5368783e-08,
            "Current_sigma": 1.3422360390113929e-09
        },
        {
            "Time": 116.19906687736511,
            "Voltage": -80.0,
            "Current_mean": -7.038367599999999e-08,
            "Current_sigma": 5.2071011248586285e-09
        },
        {
            "Time": 122.19281435012817,
            "Voltage": -85.0,
            "Current_mean": -7.6742559e-08,
            "Current_sigma": 2.3391018727214513e-09
        },
        {
            "Time": 128.18655729293823,
            "Voltage": -90.0,
            "Current_mean": -6.846102e-08,
            "Current_sigma": 4.024389608909652e-09
        },
        {
            "Time": 134.18027687072754,
            "Voltage": -95.0,
            "Current_mean": -7.321084700000001e-08,
            "Current_sigma": 5.4786022676592435e-09
        },
        {
            "Time": 140.17390251159668,
            "Voltage": -100.0,
            "Current_mean": -7.4522012e-08,
            "Current_sigma": 4.262590716709264e-09
        },
        {
            "Time": 146.16747117042542,
            "Voltage": -105.0,
            "Current_mean": -7.4051178e-08,
            "Current_sigma": 5.116372364892532e-09
        },
        {
            "Time": 152.16132164001465,
            "Voltage": -110.0,
            "Current_mean": -7.404060199999999e-08,
            "Current_sigma": 5.0690532705206406e-09
        },
        {
            "Time": 158.15519452095032,
            "Voltage": -115.0,
            "Current_mean": -7.358451000000002e-08,
            "Current_sigma": 4.789410528438754e-09
        },
        {
            "Time": 164.14895701408386,
            "Voltage": -120.0,
            "Current_mean": -7.5367883e-08,
            "Current_sigma": 4.574727969761808e-09
        },
        {
            "Time": 170.14298486709595,
            "Voltage": -125.0,
            "Current_mean": -7.4334018e-08,
            "Current_sigma": 4.315013147536864e-09
        },
        {
            "Time": 176.13687872886658,
            "Voltage": -130.0,
            "Current_mean": -7.3320247e-08,
            "Current_sigma": 3.841440112684434e-09
        },
        {
            "Time": 182.13071537017822,
            "Voltage": -135.0,
            "Current_mean": -7.48548e-08,
            "Current_sigma": 4.6268355804783005e-09
        },
        {
            "Time": 188.12432718276978,
            "Voltage": -140.0,
            "Current_mean": -7.4723825e-08,
            "Current_sigma": 4.692628738726835e-09
        },
        {
            "Time": 194.1340193748474,
            "Voltage": -145.0,
            "Current_mean": -7.433853100000001e-08,
            "Current_sigma": 4.63000281099364e-09
        },
        {
            "Time": 200.1277527809143,
            "Voltage": -150.0,
            "Current_mean": -7.439064e-08,
            "Current_sigma": 4.632858229827459e-09
        },
        {
            "Time": 206.12161111831665,
            "Voltage": -155.0,
            "Current_mean": -8.0461748e-08,
            "Current_sigma": 2.1521111085759487e-09
        },
        {
            "Time": 212.1154055595398,
            "Voltage": -160.0,
            "Current_mean": -7.895968500000001e-08,
            "Current_sigma": 3.072716920037541e-09
        },
        {
            "Time": 218.10934042930603,
            "Voltage": -165.0,
            "Current_mean": -7.5055243e-08,
            "Current_sigma": 1.6742601412089476e-09
        },
        {
            "Time": 224.10311222076416,
            "Voltage": -170.0,
            "Current_mean": -8.072390099999999e-08,
            "Current_sigma": 1.8943474981188103e-09
        },
        {
            "Time": 230.0968041419983,
            "Voltage": -175.0,
            "Current_mean": -7.187568500000001e-08,
            "Current_sigma": 9.070245075437585e-10
        },
        {
            "Time": 236.09052538871765,
            "Voltage": -180.0,
            "Current_mean": -7.8874724e-08,
            "Current_sigma": 4.549607013246747e-09
        },
        {
            "Time": 242.08449625968933,
            "Voltage": -185.0,
            "Current_mean": -7.639507e-08,
            "Current_sigma": 2.512634265443342e-09
        },
        {
            "Time": 248.07826924324036,
            "Voltage": -190.0,
            "Current_mean": -7.9408454e-08,
            "Current_sigma": 4.035491085496782e-09
        },
        {
            "Time": 254.07201099395752,
            "Voltage": -195.0,
            "Current_mean": -8.1180803e-08,
            "Current_sigma": 3.901587812670759e-09
        },
        {
            "Time": 260.0658211708069,
            "Voltage": -200.0,
            "Current_mean": -7.645704599999999e-08,
            "Current_sigma": 2.891844270524262e-09
        }
    ]
}