[root@jollyroger Yarr]# ./bin/scanConsole -r configs/controller/specCfg-rd53a-16x1.json  -c configs/CERNQ3/connectivity.json -s configs/scans/rd53a/reg_readtemp.json -p
[19:02:25:159][  info  ][               ]: #####################################
[19:02:25:159][  info  ][               ]: # Welcome to the YARR Scan Console! #
[19:02:25:159][  info  ][               ]: #####################################
[19:02:25:159][  info  ][               ]: -> Parsing command line parameters ...
[19:02:25:159][  info  ][               ]: Configuring logger ...
[19:02:25:169][  info  ][  scanConsole  ]: Scan Type/Config configs/scans/rd53a/reg_readtemp.json
[19:02:25:169][  info  ][  scanConsole  ]: Connectivity:
[19:02:25:169][  info  ][  scanConsole  ]:     configs/CERNQ3/connectivity.json
[19:02:25:169][  info  ][  scanConsole  ]: Target ToT: -1
[19:02:25:169][  info  ][  scanConsole  ]: Target Charge: -1
[19:02:25:169][  info  ][  scanConsole  ]: Output Plots: true
[19:02:25:169][  info  ][  scanConsole  ]: Output Directory: ./data/001605_reg_readtemp/
[19:02:25:187][  info  ][  scanConsole  ]: Timestamp: 2022-08-22_19:02:25
[19:02:25:187][  info  ][  scanConsole  ]: Run Number: 1605
[19:02:25:187][  info  ][  scanConsole  ]: #################
[19:02:25:187][  info  ][  scanConsole  ]: # Init Hardware #
[19:02:25:187][  info  ][  scanConsole  ]: #################
[19:02:25:187][  info  ][  scanConsole  ]: -> Opening controller config: configs/controller/specCfg-rd53a-16x1.json
[19:02:25:188][  info  ][  ScanHelper   ]: Loading controller ...
[19:02:25:188][  info  ][  ScanHelper   ]: Found controller of type: spec
[19:02:25:188][  info  ][  ScanHelper   ]: ... loading controler config:
[19:02:25:188][  info  ][  ScanHelper   ]: ~~~ {
[19:02:25:188][  info  ][  ScanHelper   ]: ~~~     "cmdPeriod": 6.250000073038109e-9,
[19:02:25:188][  info  ][  ScanHelper   ]: ~~~     "idle": {
[19:02:25:188][  info  ][  ScanHelper   ]: ~~~         "word": 1768515945
[19:02:25:188][  info  ][  ScanHelper   ]: ~~~     },
[19:02:25:188][  info  ][  ScanHelper   ]: ~~~     "pulse": {
[19:02:25:188][  info  ][  ScanHelper   ]: ~~~         "interval": 500,
[19:02:25:188][  info  ][  ScanHelper   ]: ~~~         "word": 1549575846
[19:02:25:188][  info  ][  ScanHelper   ]: ~~~     },
[19:02:25:188][  info  ][  ScanHelper   ]: ~~~     "rxActiveLanes": 1,
[19:02:25:188][  info  ][  ScanHelper   ]: ~~~     "rxPolarity": 0,
[19:02:25:188][  info  ][  ScanHelper   ]: ~~~     "specNum": 0,
[19:02:25:188][  info  ][  ScanHelper   ]: ~~~     "spiConfig": 541200,
[19:02:25:188][  info  ][  ScanHelper   ]: ~~~     "sync": {
[19:02:25:188][  info  ][  ScanHelper   ]: ~~~         "interval": 32,
[19:02:25:188][  info  ][  ScanHelper   ]: ~~~         "word": 2172551550
[19:02:25:188][  info  ][  ScanHelper   ]: ~~~     },
[19:02:25:188][  info  ][  ScanHelper   ]: ~~~     "txPolarity": 0
[19:02:25:188][  info  ][  ScanHelper   ]: ~~~ }
[19:02:25:189][  info  ][    SpecCom    ]: Opening SPEC with id #0
[19:02:25:189][  info  ][    SpecCom    ]: Mapping BARs ...
[19:02:25:190][  info  ][    SpecCom    ]: ... Mapped BAR0 at 0x7faef7d4e000 with size 1048576
[19:02:25:190][warning ][    SpecCom    ]: ... BAR4 not mapped (Mmap failed)
[19:02:25:190][  info  ][    SpecCom    ]: ~~~~~~~~~~~~~~~~~~~~~~~~~~~
[19:02:25:190][  info  ][    SpecCom    ]: Firmware Version: 0x4d9ff6d
[19:02:25:190][  info  ][    SpecCom    ]: Firmware Identifier: 0x4030232
[19:02:25:190][  info  ][    SpecCom    ]: FPGA card: PLDA XpressK7 325
[19:02:25:190][  info  ][    SpecCom    ]: FE Chip Type: RD53A/B
[19:02:25:190][  info  ][    SpecCom    ]: FMC Card Type: Ohio Card (Display Port)
[19:02:25:190][  info  ][    SpecCom    ]: RX Speed: 640Mbps
[19:02:25:190][  info  ][    SpecCom    ]: Channel Configuration: 16x1
[19:02:25:190][  info  ][    SpecCom    ]: ~~~~~~~~~~~~~~~~~~~~~~~~~~~
[19:02:25:190][  info  ][    SpecCom    ]: Flushing buffers ...
[19:02:25:190][  info  ][    SpecCom    ]: Init success!
[19:02:25:190][  info  ][  scanConsole  ]: #######################
[19:02:25:190][  info  ][  scanConsole  ]: ##  Loading Configs  ##
[19:02:25:190][  info  ][  scanConsole  ]: #######################
[19:02:25:190][  info  ][  scanConsole  ]: Opening global config: configs/CERNQ3/connectivity.json
[19:02:25:191][  info  ][  ScanHelper   ]: Chip type: RD53A
[19:02:25:191][  info  ][  ScanHelper   ]: Chip count 4
[19:02:25:191][  info  ][  ScanHelper   ]: Loading chip #0
[19:02:25:193][  info  ][  Bookkeeper   ]: Added FE: Tx(1), Rx(4)
[19:02:25:193][  info  ][  ScanHelper   ]: Loading config file: configs/CERNQ3/20UPGFC0012890.json
[19:02:25:366][  info  ][  ScanHelper   ]: Loading chip #1
[19:02:25:366][  info  ][  Bookkeeper   ]: Added FE: Tx(1), Rx(5)
[19:02:25:366][  info  ][  ScanHelper   ]: Loading config file: configs/CERNQ3/20UPGFC0012922.json
[19:02:25:537][  info  ][  ScanHelper   ]: Loading chip #2
[19:02:25:538][  info  ][  Bookkeeper   ]: Added FE: Tx(1), Rx(6)
[19:02:25:538][  info  ][  ScanHelper   ]: Loading config file: configs/CERNQ3/20UPGFC0012954.json
[19:02:25:708][  info  ][  ScanHelper   ]: Loading chip #3
[19:02:25:708][  info  ][  Bookkeeper   ]: Added FE: Tx(1), Rx(7)
[19:02:25:708][  info  ][  ScanHelper   ]: Loading config file: configs/CERNQ3/20UPGFC0012906.json
[19:02:25:883][  info  ][  scanConsole  ]: #################
[19:02:25:883][  info  ][  scanConsole  ]: # Configure FEs #
[19:02:25:883][  info  ][  scanConsole  ]: #################
[19:02:25:883][  info  ][  scanConsole  ]: Configuring 20UPGFC0012890
[19:02:25:914][  info  ][  scanConsole  ]: Configuring 20UPGFC0012922
[19:02:25:957][  info  ][  scanConsole  ]: Configuring 20UPGFC0012954
[19:02:26:001][  info  ][  scanConsole  ]: Configuring 20UPGFC0012906
[19:02:26:034][  info  ][  scanConsole  ]: Sent configuration to all FEs in 150 ms!
[19:02:26:035][  info  ][  scanConsole  ]: Checking com 20UPGFC0012890
[19:02:26:035][  info  ][    SpecRx     ]: Active Rx channels: 0x10
[19:02:26:035][  info  ][    SpecRx     ]: Active Rx lanes: 0x1
[19:02:26:035][  info  ][    SpecRx     ]: Rx Status 0xf0
[19:02:26:035][  info  ][    SpecRx     ]: Number of lanes: 1
[19:02:26:035][  info  ][    SpecRx     ]: Channel 4 Lane 0 synchronized!
[19:02:26:046][  info  ][  scanConsole  ]: ... success!
[19:02:26:046][  info  ][  scanConsole  ]: Checking com 20UPGFC0012922
[19:02:26:046][  info  ][    SpecRx     ]: Active Rx channels: 0x20
[19:02:26:046][  info  ][    SpecRx     ]: Active Rx lanes: 0x1
[19:02:26:046][  info  ][    SpecRx     ]: Rx Status 0xf0
[19:02:26:046][  info  ][    SpecRx     ]: Number of lanes: 1
[19:02:26:046][  info  ][    SpecRx     ]: Channel 5 Lane 0 synchronized!
[19:02:26:056][  info  ][  scanConsole  ]: ... success!
[19:02:26:057][  info  ][  scanConsole  ]: Checking com 20UPGFC0012954
[19:02:26:057][  info  ][    SpecRx     ]: Active Rx channels: 0x40
[19:02:26:057][  info  ][    SpecRx     ]: Active Rx lanes: 0x1
[19:02:26:057][  info  ][    SpecRx     ]: Rx Status 0xf0
[19:02:26:057][  info  ][    SpecRx     ]: Number of lanes: 1
[19:02:26:057][  info  ][    SpecRx     ]: Channel 6 Lane 0 synchronized!
[19:02:26:067][  info  ][  scanConsole  ]: ... success!
[19:02:26:067][  info  ][  scanConsole  ]: Checking com 20UPGFC0012906
[19:02:26:067][  info  ][    SpecRx     ]: Active Rx channels: 0x80
[19:02:26:067][  info  ][    SpecRx     ]: Active Rx lanes: 0x1
[19:02:26:067][  info  ][    SpecRx     ]: Rx Status 0xf0
[19:02:26:067][  info  ][    SpecRx     ]: Number of lanes: 1
[19:02:26:067][  info  ][    SpecRx     ]: Channel 7 Lane 0 synchronized!
[19:02:26:078][  info  ][  scanConsole  ]: ... success!
[19:02:26:078][  info  ][  scanConsole  ]: Enabling Tx channels
[19:02:26:078][  info  ][  scanConsole  ]: Enabling Tx channel 1
[19:02:26:078][  info  ][  scanConsole  ]: Enabling Tx channel 1
[19:02:26:078][  info  ][  scanConsole  ]: Enabling Tx channel 1
[19:02:26:078][  info  ][  scanConsole  ]: Enabling Tx channel 1
[19:02:26:078][  info  ][  scanConsole  ]: Enabling Rx channels
[19:02:26:078][  info  ][  scanConsole  ]: Enabling Rx channel 4
[19:02:26:078][  info  ][  scanConsole  ]: Enabling Rx channel 5
[19:02:26:078][  info  ][  scanConsole  ]: Enabling Rx channel 6
[19:02:26:078][  info  ][  scanConsole  ]: Enabling Rx channel 7
[19:02:26:078][  info  ][  scanConsole  ]: ##############
[19:02:26:078][  info  ][  scanConsole  ]: # Setup Scan #
[19:02:26:078][  info  ][  scanConsole  ]: ##############
[19:02:26:079][  info  ][  scanConsole  ]: Found Scan config, constructing scan ...
[19:02:26:079][  info  ][  ScanFactory  ]: Loading Scan:
[19:02:26:079][  info  ][  ScanFactory  ]:   Name: AnalogScan
[19:02:26:079][  info  ][  ScanFactory  ]:   Number of Loops: 3
[19:02:26:079][  info  ][  ScanFactory  ]:   Loading Loop #0
[19:02:26:079][  info  ][  ScanFactory  ]:    Type: Rd53aReadRegLoop
[19:02:26:079][  info  ][  ScanFactory  ]:    Loading loop config ... 
[19:02:26:079][  info  ][  ScanFactory  ]: ~~~ {
[19:02:26:079][  info  ][  ScanFactory  ]: ~~~     "CurMux": [],
[19:02:26:079][  info  ][  ScanFactory  ]: ~~~     "EnblRingOsc": 0,
[19:02:26:079][  info  ][  ScanFactory  ]: ~~~     "Registers": [],
[19:02:26:079][  info  ][  ScanFactory  ]: ~~~     "RingOscDur": 9,
[19:02:26:079][  info  ][  ScanFactory  ]: ~~~     "RingOscRep": 10,
[19:02:26:079][  info  ][  ScanFactory  ]: ~~~     "VoltMux": [3, 5, 7, 15]
[19:02:26:079][  info  ][  ScanFactory  ]: ~~~ }
[19:02:26:079][  info  ][  ScanFactory  ]:   Loading Loop #1
[19:02:26:079][  info  ][  ScanFactory  ]:    Type: Rd53aTriggerLoop
[19:02:26:079][  info  ][  ScanFactory  ]:    Loading loop config ... 
[19:02:26:080][  info  ][  ScanFactory  ]: ~~~ {
[19:02:26:080][  info  ][  ScanFactory  ]: ~~~     "count": 1,
[19:02:26:080][  info  ][  ScanFactory  ]: ~~~     "delay": 48,
[19:02:26:080][  info  ][  ScanFactory  ]: ~~~     "extTrig": false,
[19:02:26:080][  info  ][  ScanFactory  ]: ~~~     "frequency": 30000.0,
[19:02:26:080][  info  ][  ScanFactory  ]: ~~~     "noInject": false,
[19:02:26:080][  info  ][  ScanFactory  ]: ~~~     "sendEcr": false,
[19:02:26:080][  info  ][  ScanFactory  ]: ~~~     "time": 0.0,
[19:02:26:080][  info  ][  ScanFactory  ]: ~~~     "trigMultiplier": 16
[19:02:26:080][  info  ][  ScanFactory  ]: ~~~ }
[19:02:26:080][  info  ][  ScanFactory  ]:   Loading Loop #2
[19:02:26:080][  info  ][  ScanFactory  ]:    Type: StdDataLoop
[19:02:26:080][warning ][  ScanFactory  ]: ~~~ Config empty.
[19:02:26:080][  info  ][ScanBuildHistogrammers]: Loading histogrammer ...
[19:02:26:080][  info  ][ScanBuildHistogrammers]: ... done!
[19:02:26:080][  info  ][ScanBuildAnalyses]: Loading analyses ...
[19:02:26:081][  info  ][  scanConsole  ]: Running pre scan!
[19:02:26:081][  info  ][  ScanFactory  ]: Entering pre scan phase ...
[19:02:26:081][  info  ][     Rd53a     ]: Write named register: GlobalPulseRt -> 16384
[19:02:26:081][  info  ][     Rd53a     ]: Write named register: InjEnDig -> 0
[19:02:26:081][  info  ][     Rd53a     ]: Write named register: InjVcalDiff -> 0
[19:02:26:081][  info  ][     Rd53a     ]: Write named register: InjVcalHigh -> 3500
[19:02:26:081][  info  ][     Rd53a     ]: Write named register: InjVcalMed -> 500
[19:02:26:081][  info  ][     Rd53a     ]: Write named register: LatencyConfig -> 48
[19:02:26:081][  info  ][  scanConsole  ]: Starting histogrammer and analysis threads:
[19:02:26:081][  info  ][  scanConsole  ]:  .. started threads of Fe 4
[19:02:26:081][  info  ][  scanConsole  ]:  .. started threads of Fe 5
[19:02:26:081][  info  ][  scanConsole  ]:  .. started threads of Fe 6
[19:02:26:081][  info  ][  scanConsole  ]:  .. started threads of Fe 7
[19:02:26:082][  info  ][Rd53aDataProcessor]:   -> Processor thread #0 started!
[19:02:26:082][  info  ][Rd53aDataProcessor]:   -> Processor thread #1 started!
[19:02:26:082][  info  ][Rd53aDataProcessor]:   -> Processor thread #2 started!
[19:02:26:082][  info  ][Rd53aDataProcessor]:   -> Processor thread #3 started!
[19:02:26:082][  info  ][  scanConsole  ]: ########
[19:02:26:082][  info  ][  scanConsole  ]: # Scan #
[19:02:26:082][  info  ][  scanConsole  ]: ########
[19:02:26:082][  info  ][  scanConsole  ]: Starting scan!
[19:02:26:082][  info  ][Rd53aReadRegLoop]: Measuring for FE 20UPGFC0012890 on Rx 4
[19:02:26:087][  info  ][Rd53aReadRegLoop]: [4][20UPGFC0012890] MON MUX_V: 3 Bias 0 1282 -> 0.270087 V Bias 1 1666 -> 0.347223 V, Temperature 0.0771354 -> -6.37268 C
[19:02:26:091][  info  ][Rd53aReadRegLoop]: [4][20UPGFC0012890] MON MUX_V: 5 Bias 0 1221 -> 0.257834 V Bias 1 1614 -> 0.336777 V, Temperature 0.0789432 -> -30.3572 C
[19:02:26:095][  info  ][Rd53aReadRegLoop]: [4][20UPGFC0012890] MON MUX_V: 7 Bias 0 1220 -> 0.257633 V Bias 1 1618 -> 0.337581 V, Temperature 0.0799476 -> -30.14 C
[19:02:26:099][  info  ][Rd53aReadRegLoop]: [4][20UPGFC0012890] MON MUX_V: 15 Bias 0 1202 -> 0.254017 V Bias 1 1598 -> 0.333563 V, Temperature 0.0795459 -> -35.2846 C
[19:02:26:134][  info  ][Rd53aReadRegLoop]: Measuring for FE 20UPGFC0012922 on Rx 5
[19:02:26:138][  info  ][Rd53aReadRegLoop]: [5][20UPGFC0012922] MON MUX_V: 3 Bias 0 1271 -> 0.2662 V Bias 1 1660 -> 0.344 V, Temperature 0.0778 -> -2.77998 C
[19:02:26:142][  info  ][Rd53aReadRegLoop]: [5][20UPGFC0012922] MON MUX_V: 5 Bias 0 1227 -> 0.2574 V Bias 1 1625 -> 0.337 V, Temperature 0.0796 -> -21.189 C
[19:02:26:146][  info  ][Rd53aReadRegLoop]: [5][20UPGFC0012922] MON MUX_V: 7 Bias 0 1221 -> 0.2562 V Bias 1 1617 -> 0.3354 V, Temperature 0.0792 -> -26.206 C
[19:02:26:150][  info  ][Rd53aReadRegLoop]: [5][20UPGFC0012922] MON MUX_V: 15 Bias 0 1214 -> 0.2548 V Bias 1 1614 -> 0.3348 V, Temperature 0.08 -> -24.4176 C
[19:02:26:185][  info  ][Rd53aReadRegLoop]: Measuring for FE 20UPGFC0012954 on Rx 6
[19:02:26:189][  info  ][Rd53aReadRegLoop]: [6][20UPGFC0012954] MON MUX_V: 3 Bias 0 1276 -> 0.26623 V Bias 1 1661 -> 0.343951 V, Temperature 0.0777208 -> -9.0047 C
[19:02:26:194][  info  ][Rd53aReadRegLoop]: [6][20UPGFC0012954] MON MUX_V: 5 Bias 0 1238 -> 0.258559 V Bias 1 1622 -> 0.336078 V, Temperature 0.0775189 -> -31.1532 C
[19:02:26:198][  info  ][Rd53aReadRegLoop]: [6][20UPGFC0012954] MON MUX_V: 7 Bias 0 1212 -> 0.25331 V Bias 1 1609 -> 0.333454 V, Temperature 0.0801432 -> -22.8776 C
[19:02:26:202][  info  ][Rd53aReadRegLoop]: [6][20UPGFC0012954] MON MUX_V: 15 Bias 0 1215 -> 0.253916 V Bias 1 1610 -> 0.333656 V, Temperature 0.0797395 -> -30.1401 C
[19:02:26:237][  info  ][Rd53aReadRegLoop]: Measuring for FE 20UPGFC0012906 on Rx 7
[19:02:26:241][  info  ][Rd53aReadRegLoop]: [7][20UPGFC0012906] MON MUX_V: 3 Bias 0 1266 -> 0.266326 V Bias 1 1649 -> 0.344438 V, Temperature 0.0781123 -> -3.71542 C
[19:02:26:246][  info  ][Rd53aReadRegLoop]: [7][20UPGFC0012906] MON MUX_V: 5 Bias 0 1226 -> 0.258168 V Bias 1 1604 -> 0.335261 V, Temperature 0.0770926 -> -15.3546 C
[19:02:26:250][  info  ][Rd53aReadRegLoop]: [7][20UPGFC0012906] MON MUX_V: 7 Bias 0 1227 -> 0.258372 V Bias 1 1612 -> 0.336892 V, Temperature 0.0785202 -> -17.4273 C
[19:02:26:254][  info  ][Rd53aReadRegLoop]: [7][20UPGFC0012906] MON MUX_V: 15 Bias 0 1201 -> 0.253069 V Bias 1 1592 -> 0.332813 V, Temperature 0.0797439 -> -18.4142 C
[19:02:26:291][  info  ][  scanConsole  ]: Scan done!
[19:02:26:291][  info  ][  scanConsole  ]: Waiting for processors to finish ...
[19:02:26:292][  info  ][  scanConsole  ]: Processor done, waiting for histogrammer ...
[19:02:26:691][  info  ][HistogramAlgorithm]: Histogrammer done!
[19:02:26:691][  info  ][HistogramAlgorithm]: Histogrammer done!
[19:02:26:691][  info  ][HistogramAlgorithm]: Histogrammer done!
[19:02:26:691][  info  ][HistogramAlgorithm]: Histogrammer done!
[19:02:26:692][  info  ][  scanConsole  ]: Processor done, waiting for analysis ...
[19:02:27:092][  info  ][AnalysisAlgorithm]: Analysis done!
[19:02:27:092][  info  ][AnalysisAlgorithm]: Analysis done!
[19:02:27:092][  info  ][AnalysisAlgorithm]: Analysis done!
[19:02:27:092][  info  ][AnalysisAlgorithm]: Analysis done!
[19:02:27:092][  info  ][  scanConsole  ]: All done!
[19:02:27:092][  info  ][  scanConsole  ]: ##########
[19:02:27:092][  info  ][  scanConsole  ]: # Timing #
[19:02:27:092][  info  ][  scanConsole  ]: ##########
[19:02:27:092][  info  ][  scanConsole  ]: -> Configuration: 150 ms
[19:02:27:092][  info  ][  scanConsole  ]: -> Scan:          208 ms
[19:02:27:092][  info  ][  scanConsole  ]: -> Processing:    0 ms
[19:02:27:092][  info  ][  scanConsole  ]: -> Analysis:      800 ms
[19:02:27:092][  info  ][  scanConsole  ]: ###########
[19:02:27:092][  info  ][  scanConsole  ]: # Cleanup #
[19:02:27:092][  info  ][  scanConsole  ]: ###########
[19:02:27:102][  info  ][  scanConsole  ]: Saving config of FE 20UPGFC0012890 to configs/CERNQ3/20UPGFC0012890.json
[19:02:27:276][  info  ][  scanConsole  ]: -> Storing output results of FE 4
[19:02:27:276][warning ][  scanConsole  ]: There were no results for chip 20UPGFC0012890, this usually means that the chip did not send any data at all.
[19:02:27:277][  info  ][  scanConsole  ]: Saving config of FE 20UPGFC0012922 to configs/CERNQ3/20UPGFC0012922.json
[19:02:27:442][  info  ][  scanConsole  ]: -> Storing output results of FE 5
[19:02:27:442][warning ][  scanConsole  ]: There were no results for chip 20UPGFC0012922, this usually means that the chip did not send any data at all.
[19:02:27:444][  info  ][  scanConsole  ]: Saving config of FE 20UPGFC0012954 to configs/CERNQ3/20UPGFC0012954.json
[19:02:27:608][  info  ][  scanConsole  ]: -> Storing output results of FE 6
[19:02:27:608][warning ][  scanConsole  ]: There were no results for chip 20UPGFC0012954, this usually means that the chip did not send any data at all.
[19:02:27:610][  info  ][  scanConsole  ]: Saving config of FE 20UPGFC0012906 to configs/CERNQ3/20UPGFC0012906.json
[19:02:27:773][  info  ][  scanConsole  ]: -> Storing output results of FE 7
[19:02:27:773][warning ][  scanConsole  ]: There were no results for chip 20UPGFC0012906, this usually means that the chip did not send any data at all.
[19:02:27:774][  info  ][  scanConsole  ]: Finishing run: 1605
20UPGFC0012890.json.after
20UPGFC0012890.json.before
20UPGFC0012906.json.after
20UPGFC0012906.json.before
20UPGFC0012922.json.after
20UPGFC0012922.json.before
20UPGFC0012954.json.after
20UPGFC0012954.json.before
reg_readtemp.json
scanLog.json

