2022-06-14 10 46 45 -273.1499938964844 22.86696434020996 
2022-06-14 10 46 50 -273.1499938964844 22.732885360717773 
2022-06-14 10 46 55 23.0089054107666 45.91911697387695 
2022-06-14 10 47 00 23.0089054107666 45.950462341308594 
2022-06-14 10 47 05 23.0089054107666 45.79371643066406 
2022-06-14 10 47 10 23.18609046936035 45.340755462646484 
2022-06-14 10 47 16 23.0089054107666 45.825069427490234 
2022-06-14 10 47 21 23.0089054107666 45.66832733154297 
2022-06-14 10 47 26 23.0089054107666 45.69967269897461 
2022-06-14 10 47 31 22.832666397094727 45.74504470825195 
2022-06-14 10 47 36 23.0089054107666 45.79371643066406 
2022-06-14 10 47 41 23.18609046936035 45.685726165771484 
2022-06-14 10 47 46 23.0089054107666 45.66832733154297 
2022-06-14 10 47 52 23.0089054107666 45.76237106323242 
2022-06-14 10 47 57 23.0089054107666 45.85641098022461 
2022-06-14 10 48 02 23.0089054107666 45.79371643066406 
2022-06-14 10 48 07 23.0089054107666 45.82506561279297 
2022-06-14 10 48 12 22.832666397094727 45.870384216308594 
2022-06-14 10 48 17 23.0089054107666 45.69967269897461 
2022-06-14 10 48 22 23.18609046936035 45.74844741821289 
2022-06-14 10 48 27 23.0089054107666 45.57427215576172 
2022-06-14 10 48 33 23.0089054107666 45.731021881103516 
2022-06-14 10 48 38 23.0089054107666 45.69967269897461 
2022-06-14 10 48 43 23.0089054107666 45.76237106323242 
2022-06-14 10 48 48 23.0089054107666 45.85641098022461 
2022-06-14 10 48 53 23.0089054107666 45.79371643066406 
2022-06-14 10 48 58 23.0089054107666 45.950462341308594 
2022-06-14 10 49 03 23.18609046936035 45.62300491333008 
2022-06-14 10 49 09 23.18609046936035 45.74844741821289 
2022-06-14 10 49 14 23.18609046936035 45.56028366088867 
2022-06-14 10 49 19 23.0089054107666 45.605628967285156 
2022-06-14 10 49 24 22.832666397094727 45.58835983276367 
2022-06-14 10 49 29 22.832666397094727 45.52568817138672 
2022-06-14 10 49 34 22.832666397094727 45.682373046875 
2022-06-14 10 49 39 22.832666397094727 45.77637481689453 
2022-06-14 10 49 45 23.5433292388916 45.81500244140625 
2022-06-14 10 49 50 22.832666397094727 45.77637481689453 
2022-06-14 10 49 55 23.0089054107666 45.887760162353516 
2022-06-14 10 50 00 23.18609046936035 46.09341812133789 
2022-06-14 10 50 05 23.0089054107666 45.950462341308594 
2022-06-14 10 50 10 23.0089054107666 45.69967269897461 
2022-06-14 10 50 15 23.0089054107666 45.63697814941406 
2022-06-14 10 50 20 23.0089054107666 45.605628967285156 
2022-06-14 10 50 26 22.832666397094727 45.58835983276367 
2022-06-14 10 50 31 22.832666397094727 45.651031494140625 
2022-06-14 10 50 36 22.832666397094727 45.61970520019531 
2022-06-14 10 50 41 22.832666397094727 45.61969757080078 
2022-06-14 10 50 46 22.832666397094727 45.05564498901367 
2022-06-14 10 50 51 23.0089054107666 45.63697814941406 
2022-06-14 10 50 56 23.0089054107666 45.950462341308594 
2022-06-14 10 51 02 23.18609046936035 45.56028366088867 
2022-06-14 10 51 07 23.18609046936035 45.811161041259766 
2022-06-14 10 51 12 23.0089054107666 45.950462341308594 
2022-06-14 10 51 17 23.18609046936035 46.1247673034668 
2022-06-14 10 51 22 23.0089054107666 46.075862884521484 
2022-06-14 10 51 27 23.0089054107666 47.04765701293945 
2022-06-14 10 51 32 25.773218154907227 72.21058654785156 
2022-06-14 10 51 38 24.8254337310791 55.82373809814453 
2022-06-14 10 51 43 24.0866641998291 48.25663757324219 
2022-06-14 10 51 48 23.723474502563477 45.73857879638672 
2022-06-14 10 51 53 23.5433292388916 44.43407440185547 
2022-06-14 10 51 58 23.5433292388916 44.30854797363281 
2022-06-14 10 52 03 23.364221572875977 44.41697692871094 
2022-06-14 10 52 08 23.5433292388916 44.40269470214844 
2022-06-14 10 52 13 23.5433292388916 44.37131881713867 
2022-06-14 10 52 19 23.5433292388916 44.84208679199219 
2022-06-14 10 52 24 23.723474502563477 45.895565032958984 
2022-06-14 10 52 29 23.723474502563477 47.52817916870117 
2022-06-14 10 52 34 23.5433292388916 46.819305419921875 
2022-06-14 10 52 39 23.5433292388916 46.0033073425293 
2022-06-14 10 52 44 23.364221572875977 45.8600959777832 
2022-06-14 10 52 49 23.364221572875977 45.5463752746582 
2022-06-14 10 52 55 23.723474502563477 45.98974609375 
2022-06-14 10 53 00 23.723474502563477 46.774662017822266 
2022-06-14 10 53 05 23.723474502563477 46.052547454833984 
2022-06-14 10 53 10 23.723474502563477 46.366512298583984 
2022-06-14 10 53 15 23.5433292388916 45.752235412597656 
2022-06-14 10 53 20 23.723474502563477 45.76997756958008 
2022-06-14 10 53 25 23.723474502563477 45.76997756958008 
2022-06-14 10 53 31 23.9045352935791 46.35318374633789 
2022-06-14 10 53 36 23.723474502563477 46.554893493652344 
2022-06-14 10 53 41 23.5433292388916 45.846378326416016 
2022-06-14 10 53 46 23.5433292388916 45.31284713745117 
2022-06-14 10 53 51 23.5433292388916 45.846378326416016 
2022-06-14 10 53 56 23.5433292388916 46.31715393066406 
2022-06-14 10 54 01 23.364221572875977 45.57774353027344 
2022-06-14 10 54 06 23.18609046936035 45.65436553955078 
2022-06-14 10 54 12 23.18609046936035 45.811161041259766 
2022-06-14 10 54 17 23.18609046936035 46.1247673034668 
2022-06-14 10 54 22 23.364221572875977 46.01694869995117 
2022-06-14 10 54 27 23.0089054107666 46.51472854614258 
2022-06-14 10 54 32 23.18609046936035 45.685726165771484 
2022-06-14 10 54 37 23.18609046936035 45.87389373779297 
2022-06-14 10 54 42 23.364221572875977 45.7973518371582 
2022-06-14 10 54 48 23.364221572875977 45.60911560058594 
2022-06-14 10 54 53 23.364221572875977 45.4836311340332 
2022-06-14 10 54 58 23.723474502563477 46.55488967895508 
2022-06-14 10 55 03 23.723474502563477 46.52349090576172 
2022-06-14 10 55 08 23.723474502563477 45.80137634277344 
2022-06-14 10 55 13 23.9045352935791 45.91345977783203 
2022-06-14 10 55 18 23.9045352935791 46.10190963745117 
2022-06-14 10 55 24 24.0866641998291 46.622737884521484 
2022-06-14 10 55 29 24.0866641998291 47.34542465209961 
2022-06-14 10 55 34 24.0866641998291 47.25117111206055 
2022-06-14 10 55 39 23.9045352935791 47.32685470581055 
2022-06-14 10 55 44 23.9045352935791 46.164730072021484 
2022-06-14 10 55 49 23.9045352935791 45.72500228881836 
2022-06-14 10 55 54 23.9045352935791 45.473724365234375 
2022-06-14 10 55 59 23.723474502563477 45.14204025268555 
2022-06-14 10 56 05 23.5433292388916 44.277156829833984 
2022-06-14 10 56 10 23.5433292388916 44.496864318847656 
2022-06-14 10 56 15 23.5433292388916 44.339927673339844 
2022-06-14 10 56 20 23.723474502563477 44.231536865234375 
2022-06-14 10 56 25 23.9045352935791 44.40583419799805 
2022-06-14 10 56 30 23.723474502563477 44.137351989746094 
2022-06-14 10 56 35 23.9045352935791 44.31160354614258 
2022-06-14 10 56 41 23.723474502563477 43.72920608520508 
2022-06-14 10 56 46 23.723474502563477 43.88618469238281 
2022-06-14 10 56 51 23.723474502563477 44.48271560668945 
2022-06-14 10 56 56 23.723474502563477 44.231536865234375 
2022-06-14 10 57 01 23.723474502563477 44.074562072753906 
2022-06-14 10 57 06 23.5433292388916 44.0888557434082 
2022-06-14 10 57 11 23.5433292388916 44.24578094482422 
2022-06-14 10 57 17 23.5433292388916 43.93193054199219 
2022-06-14 10 57 22 23.5433292388916 44.434085845947266 
2022-06-14 10 57 27 23.5433292388916 44.55961990356445 
2022-06-14 10 57 32 23.5433292388916 44.68516540527344 
2022-06-14 10 57 37 23.5433292388916 45.68946075439453 
2022-06-14 10 57 42 23.5433292388916 45.78361511230469 
2022-06-14 10 57 47 23.364221572875977 45.013038635253906 
2022-06-14 10 57 52 23.364221572875977 45.4208869934082 
2022-06-14 10 57 58 23.5433292388916 45.846378326416016 
2022-06-14 10 58 03 23.5433292388916 46.37991714477539 
2022-06-14 10 58 08 23.5433292388916 45.59531021118164 
2022-06-14 10 58 13 23.5433292388916 45.68946075439453 
2022-06-14 10 58 18 23.364221572875977 45.483619689941406 
2022-06-14 10 58 23 23.5433292388916 45.68946075439453 
2022-06-14 10 58 28 23.5433292388916 46.53683090209961 
2022-06-14 10 58 34 24.2697696685791 47.64701461791992 
2022-06-14 10 58 39 23.364221572875977 46.518917083740234 
2022-06-14 10 58 44 23.18609046936035 46.814697265625 
2022-06-14 10 58 49 23.364221572875977 45.9855842590332 
2022-06-14 10 58 54 23.5433292388916 49.298667907714844 
2022-06-14 10 58 59 23.723474502563477 50.3538818359375 
2022-06-14 10 59 04 23.723474502563477 48.31309127807617 
2022-06-14 10 59 10 23.723474502563477 47.904945373535156 
2022-06-14 10 59 15 24.2697696685791 47.96134948730469 
2022-06-14 10 59 20 23.723474502563477 47.87354278564453 
2022-06-14 10 59 25 23.5433292388916 47.03899002075195 
2022-06-14 10 59 30 23.18609046936035 46.43837356567383 
2022-06-14 10 59 35 23.18609046936035 45.685726165771484 
2022-06-14 10 59 40 23.18609046936035 45.30940246582031 
2022-06-14 10 59 45 23.18609046936035 45.71709060668945 
2022-06-14 10 59 51 23.364221572875977 46.958126068115234 
2022-06-14 10 59 56 23.723474502563477 50.76203536987305 
2022-06-14 11 00 01 23.723474502563477 51.70393753051758 
2022-06-14 11 00 06 23.723474502563477 49.34918975830078 
2022-06-14 11 00 11 23.723474502563477 48.75265121459961 
2022-06-14 11 00 16 23.723474502563477 48.53287124633789 
2022-06-14 11 00 21 23.723474502563477 48.093318939208984 
2022-06-14 11 00 27 23.723474502563477 48.50148010253906 
2022-06-14 11 00 32 23.9045352935791 51.31577682495117 
2022-06-14 11 00 37 23.9045352935791 49.33701705932617 
2022-06-14 11 00 42 23.723474502563477 47.465389251708984 
2022-06-14 11 00 47 23.723474502563477 46.42930603027344 
2022-06-14 11 00 52 23.723474502563477 46.08395004272461 
2022-06-14 11 00 57 23.5433292388916 45.720848083496094 
2022-06-14 11 01 03 23.5433292388916 45.62669372558594 
2022-06-14 11 01 08 23.5433292388916 46.06608581542969 
2022-06-14 11 01 13 23.723474502563477 45.58158874511719 
2022-06-14 11 01 18 23.723474502563477 46.240928649902344 
2022-06-14 11 01 23 23.5433292388916 46.285762786865234 
2022-06-14 11 01 28 23.18609046936035 45.591651916503906 
2022-06-14 11 01 33 23.5433292388916 45.78361511230469 
2022-06-14 11 01 39 23.5433292388916 46.12885284423828 
2022-06-14 11 01 44 23.5433292388916 47.384220123291016 
2022-06-14 11 01 49 23.723474502563477 48.15611267089844 
2022-06-14 11 01 54 23.723474502563477 48.21890640258789 
2022-06-14 11 01 59 24.0866641998291 46.96836853027344 
2022-06-14 11 02 04 23.723474502563477 47.088626861572266 
2022-06-14 11 02 09 23.723474502563477 46.30371856689453 
2022-06-14 11 02 14 23.723474502563477 46.1467399597168 
2022-06-14 11 02 20 23.723474502563477 45.801368713378906 
2022-06-14 11 02 25 23.723474502563477 45.393211364746094 
2022-06-14 11 02 30 23.9045352935791 47.48390197753906 
2022-06-14 11 02 35 23.9045352935791 48.237709045410156 
2022-06-14 11 02 40 23.9045352935791 48.049259185791016 
2022-06-14 11 02 45 23.9045352935791 47.295448303222656 
2022-06-14 11 02 50 23.9045352935791 47.829402923583984 
2022-06-14 11 02 56 23.9045352935791 47.76657485961914 
2022-06-14 11 03 01 23.9045352935791 47.10698699951172 
2022-06-14 11 03 06 23.9045352935791 46.41599655151367 
2022-06-14 11 03 11 23.9045352935791 46.41599655151367 
2022-06-14 11 03 16 23.5433292388916 45.59531021118164 
2022-06-14 11 03 21 23.5433292388916 44.81069564819336 
2022-06-14 11 03 26 23.723474502563477 45.832767486572266 
2022-06-14 11 03 31 23.9045352935791 46.258949279785156 
2022-06-14 11 03 37 23.723474502563477 46.39790344238281 
2022-06-14 11 03 42 23.723474502563477 45.895565032958984 
2022-06-14 11 03 47 23.723474502563477 46.61768341064453 
2022-06-14 11 03 52 23.723474502563477 46.868865966796875 
2022-06-14 11 03 57 23.5433292388916 46.662384033203125 
2022-06-14 11 04 02 23.5433292388916 46.94483947753906 
2022-06-14 11 04 07 23.723474502563477 46.209529876708984 
2022-06-14 11 04 13 23.5433292388916 46.41130065917969 
2022-06-14 11 04 18 23.5433292388916 46.505455017089844 
2022-06-14 11 04 23 23.5433292388916 46.850685119628906 
2022-06-14 11 04 28 24.0866641998291 47.5968017578125 
2022-06-14 11 04 33 23.723474502563477 47.12002944946289 
2022-06-14 11 04 38 23.723474502563477 47.49678039550781 
2022-06-14 11 04 43 23.723474502563477 47.46539306640625 
2022-06-14 11 04 49 23.9045352935791 51.34719467163086 
2022-06-14 11 04 54 24.0866641998291 49.95337677001953 
2022-06-14 11 04 59 23.9045352935791 48.52039337158203 
2022-06-14 11 05 04 23.364221572875977 47.240478515625 
2022-06-14 11 05 09 23.5433292388916 47.57252883911133 
2022-06-14 11 05 14 23.364221572875977 46.39341735839844 
2022-06-14 11 05 19 23.18609046936035 45.99932098388672 
2022-06-14 11 05 24 23.364221572875977 46.6757698059082 
2022-06-14 11 05 30 23.18609046936035 45.87388229370117 
2022-06-14 11 05 35 23.18609046936035 46.030696868896484 
2022-06-14 11 05 40 23.18609046936035 45.685726165771484 
2022-06-14 11 05 45 23.364221572875977 45.82871627807617 
2022-06-14 11 05 50 23.5433292388916 45.9405517578125 
2022-06-14 11 05 55 23.364221572875977 45.609107971191406 
2022-06-14 11 06 00 23.364221572875977 45.35812759399414 
2022-06-14 11 06 06 23.364221572875977 45.70323181152344 
2022-06-14 11 06 11 23.364221572875977 45.107154846191406 
2022-06-14 11 06 16 23.364221572875977 45.35812759399414 
2022-06-14 11 06 21 23.18609046936035 45.811161041259766 
2022-06-14 11 06 26 23.723474502563477 47.96773910522461 
2022-06-14 11 06 31 23.723474502563477 48.1875114440918 
2022-06-14 11 06 36 23.723474502563477 47.49678039550781 
2022-06-14 11 06 42 23.5433292388916 47.25868606567383 
2022-06-14 11 06 47 23.723474502563477 46.61768341064453 
2022-06-14 11 06 52 23.5433292388916 45.87777328491211 
2022-06-14 11 06 57 23.5433292388916 45.720848083496094 
2022-06-14 11 07 02 22.48296546936035 45.49150466918945 
2022-06-14 11 07 07 23.364221572875977 45.82872772216797 
2022-06-14 11 07 12 23.723474502563477 47.2142219543457 
2022-06-14 11 07 18 23.723474502563477 47.088626861572266 
2022-06-14 11 07 23 23.18609046936035 46.68925857543945 
2022-06-14 11 07 28 23.723474502563477 46.83746337890625 
2022-06-14 11 07 33 23.5433292388916 46.09745407104492 
2022-06-14 11 07 38 23.723474502563477 46.64907455444336 
2022-06-14 11 07 43 23.5433292388916 46.222999572753906 
2022-06-14 11 07 48 23.5433292388916 46.06608581542969 
2022-06-14 11 07 53 23.723474502563477 45.518795013427734 
2022-06-14 11 07 59 23.723474502563477 45.236244201660156 
2022-06-14 11 08 04 23.723474502563477 44.95366287231445 
2022-06-14 11 08 09 23.5433292388916 44.9990119934082 
2022-06-14 11 08 14 23.723474502563477 45.11064910888672 
2022-06-14 11 08 19 23.723474502563477 45.55019760131836 
2022-06-14 11 08 24 23.9045352935791 46.54163360595703 
2022-06-14 11 08 29 23.18609046936035 46.501094818115234 
2022-06-14 11 08 35 23.9045352935791 45.5051383972168 
2022-06-14 11 08 40 23.9045352935791 45.442325592041016 
2022-06-14 11 08 45 23.9045352935791 45.78782653808594 
2022-06-14 11 08 50 23.9045352935791 46.19613265991211 
2022-06-14 11 08 55 23.9045352935791 46.164730072021484 
2022-06-14 11 09 00 23.5433292388916 45.46976852416992 
2022-06-14 11 09 05 23.5433292388916 45.18731689453125 
2022-06-14 11 09 11 23.723474502563477 45.73857879638672 
2022-06-14 11 09 16 23.723474502563477 45.98974609375 
2022-06-14 11 09 21 23.5433292388916 46.160221099853516 
2022-06-14 11 09 26 23.723474502563477 46.55488967895508 
2022-06-14 11 09 31 24.453943252563477 46.53387451171875 
2022-06-14 11 09 36 23.723474502563477 45.832767486572266 
2022-06-14 11 09 41 23.723474502563477 48.03053283691406 
2022-06-14 11 09 46 23.9045352935791 48.39476013183594 
2022-06-14 11 09 52 23.723474502563477 47.7165641784668 
2022-06-14 11 09 57 23.5433292388916 46.72513961791992 
2022-06-14 11 10 02 23.723474502563477 46.554893493652344 
2022-06-14 11 10 07 23.723474502563477 45.76996612548828 
2022-06-14 11 10 12 23.723474502563477 45.42461395263672 
2022-06-14 11 10 17 23.723474502563477 45.14204025268555 
2022-06-14 11 10 22 23.5433292388916 45.061771392822266 
2022-06-14 11 10 28 23.723474502563477 45.98974609375 
2022-06-14 11 10 33 23.723474502563477 48.34449005126953 
2022-06-14 11 10 38 23.723474502563477 48.061927795410156 
2022-06-14 11 10 43 23.723474502563477 46.963050842285156 
2022-06-14 11 10 48 23.5433292388916 45.94053268432617 
2022-06-14 11 10 53 23.5433292388916 45.658077239990234 
2022-06-14 11 10 58 23.723474502563477 48.689857482910156 
2022-06-14 11 11 04 23.9045352935791 51.69268035888672 
2022-06-14 11 11 09 23.9045352935791 49.74533462524414 
2022-06-14 11 11 14 23.9045352935791 48.83448028564453 
2022-06-14 11 11 19 23.723474502563477 47.5281867980957 
2022-06-14 11 11 24 23.723474502563477 46.90024948120117 
2022-06-14 11 11 29 23.9045352935791 46.855716705322266 
2022-06-14 11 11 34 24.0866641998291 47.471107482910156 
2022-06-14 11 11 39 24.0866641998291 46.81126022338867 
2022-06-14 11 11 45 24.0866641998291 45.868629455566406 
2022-06-14 11 11 50 24.0866641998291 45.648681640625 
2022-06-14 11 11 55 24.2697696685791 45.66669845581055 
2022-06-14 11 12 00 24.0866641998291 44.61178207397461 
2022-06-14 11 12 05 23.9045352935791 44.93978500366211 
2022-06-14 11 12 10 23.9045352935791 44.782737731933594 
2022-06-14 11 12 15 23.9045352935791 44.75132751464844 
2022-06-14 11 12 21 23.9045352935791 45.882041931152344 
2022-06-14 11 12 26 24.0866641998291 45.83720779418945 
2022-06-14 11 12 31 23.9045352935791 45.316688537597656 
2022-06-14 11 12 36 23.9045352935791 45.78782272338867 
2022-06-14 11 12 41 24.453943252563477 49.804264068603516 
2022-06-14 11 12 46 25.01275062561035 61.607879638671875 
2022-06-14 11 12 51 24.8254337310791 51.92129898071289 
2022-06-14 11 12 56 24.6391544342041 57.21692657470703 
2022-06-14 11 13 02 24.453943252563477 50.90487289428711 
2022-06-14 11 13 07 24.6391544342041 49.94999313354492 
2022-06-14 11 13 12 24.453943252563477 48.38919448852539 
2022-06-14 11 13 17 24.453943252563477 48.64076614379883 
2022-06-14 11 13 22 24.453943252563477 47.82315444946289 
2022-06-14 11 13 27 24.0866641998291 46.402793884277344 
2022-06-14 11 13 32 23.9045352935791 46.51022720336914 
2022-06-14 11 13 38 23.723474502563477 45.36181640625 
2022-06-14 11 13 43 23.364221572875977 43.78950881958008 
2022-06-14 11 13 48 23.364221572875977 44.385589599609375 
2022-06-14 11 13 53 24.0866641998291 44.737464904785156 
2022-06-14 11 13 58 23.5433292388916 44.55963134765625 
2022-06-14 11 14 03 23.723474502563477 44.70248794555664 
2022-06-14 11 14 08 23.9045352935791 44.87696838378906 
2022-06-14 11 14 14 24.0866641998291 44.86315155029297 
2022-06-14 11 14 19 24.0866641998291 44.988834381103516 
2022-06-14 11 14 24 23.364221572875977 44.60520553588867 
2022-06-14 11 14 29 24.0866641998291 45.05167770385742 
2022-06-14 11 14 34 24.0866641998291 44.86315155029297 
2022-06-14 11 14 39 23.9045352935791 44.876956939697266 
2022-06-14 11 14 44 24.0866641998291 44.89457702636719 
2022-06-14 11 14 49 24.0866641998291 44.89458084106445 
2022-06-14 11 14 55 24.0866641998291 44.73747253417969 
2022-06-14 11 15 00 24.0866641998291 44.706050872802734 
2022-06-14 11 15 05 24.0866641998291 44.706050872802734 
2022-06-14 11 15 10 24.0866641998291 44.0776252746582 
2022-06-14 11 15 15 24.0866641998291 43.66914367675781 
2022-06-14 11 15 20 24.0866641998291 44.48609161376953 
2022-06-14 11 15 25 24.0866641998291 44.29757308959961 
2022-06-14 11 15 31 24.0866641998291 44.3289909362793 
2022-06-14 11 15 36 24.2697696685791 38.468406677246094 
2022-06-14 11 15 41 23.0089054107666 26.106935501098633 
2022-06-14 11 15 46 21.119958877563477 17.540302276611328 
2022-06-14 11 15 51 18.704126358032227 12.138629913330078 
2022-06-14 11 15 56 19.810205459594727 9.022727012634277 
2022-06-14 11 16 01 20.622827529907227 6.948780059814453 
2022-06-14 11 16 07 20.622827529907227 5.576491832733154 
2022-06-14 11 16 12 19.971155166625977 4.66552209854126 
2022-06-14 11 16 17 19.64995765686035 3.790863037109375 
2022-06-14 11 16 22 19.17376136779785 3.0718958377838135 
2022-06-14 11 16 27 18.8599796295166 2.6969876289367676 
2022-06-14 11 16 32 18.704126358032227 2.447606086730957 
2022-06-14 11 16 37 18.548974990844727 2.260493755340576 
2022-06-14 11 16 42 18.548974990844727 2.0741896629333496 
2022-06-14 11 16 48 18.394556045532227 1.980383276939392 
2022-06-14 11 16 53 18.394556045532227 1.669980525970459 
2022-06-14 11 16 58 18.394556045532227 1.5458180904388428 
2022-06-14 11 17 03 18.548974990844727 1.4842257499694824 
2022-06-14 11 17 08 18.8599796295166 1.4541383981704712 
2022-06-14 11 17 13 19.17376136779785 1.1752796173095703 
2022-06-14 11 17 18 19.3317813873291 1.175675630569458 
2022-06-14 11 17 24 19.64995765686035 0.9897323250770569 
2022-06-14 11 17 29 19.64995765686035 1.0208555459976196 
2022-06-14 11 17 34 19.64995765686035 0.8029884099960327 
2022-06-14 11 17 39 19.64995765686035 1.1764739751815796 
2022-06-14 11 17 44 19.64995765686035 0.9274812340736389 
2022-06-14 11 17 49 19.810205459594727 0.772131621837616 
2022-06-14 11 17 54 19.64995765686035 0.5851212739944458 
2022-06-14 11 17 59 19.64995765686035 0.8652395606040955 
2022-06-14 11 18 05 19.64995765686035 0.27388688921928406 
2022-06-14 11 18 10 19.64995765686035 0.927486002445221 
2022-06-14 11 18 15 19.64995765686035 0.927486002445221 
2022-06-14 11 18 20 19.490503311157227 0.7716050148010254 
2022-06-14 11 18 25 19.490503311157227 0.7093797922134399 
2022-06-14 11 18 30 19.3317813873291 0.6780352592468262 
2022-06-14 11 18 35 19.490503311157227 0.678264856338501 
2022-06-14 11 18 41 19.490503311157227 0.6471521854400635 
2022-06-14 11 18 46 19.490503311157227 0.5538119673728943 
2022-06-14 11 18 51 19.490503311157227 0.4604717791080475 
2022-06-14 11 18 56 19.490503311157227 0.6471521854400635 
2022-06-14 11 19 01 19.3317813873291 0.4914180040359497 
2022-06-14 11 19 06 19.3317813873291 0.42921385169029236 
2022-06-14 11 19 11 16.886743545532227 0.33416515588760376 
2022-06-14 11 19 16 14.324609756469727 0.4554547965526581 
2022-06-14 11 19 22 13.241418838500977 0.30089500546455383 
2022-06-14 11 19 27 12.580163955688477 0.4537844657897949 
2022-06-14 11 19 32 14.187463760375977 0.516854465007782 
2022-06-14 11 19 37 16.301294326782227 0.3955553472042084 
2022-06-14 11 19 42 17.18316078186035 0.3653356730937958 
2022-06-14 11 19 47 17.63250160217285 0.5516254901885986 
2022-06-14 11 19 52 18.087732315063477 0.5831817388534546 
2022-06-14 11 19 58 18.394556045532227 0.49044013023376465 
2022-06-14 11 20 03 18.548974990844727 0.4284985065460205 
2022-06-14 11 20 08 18.8599796295166 0.5219972133636475 
2022-06-14 11 20 13 19.01653480529785 0.3667631149291992 
2022-06-14 11 20 18 19.01653480529785 0.3978442847728729 
2022-06-14 11 20 23 19.17376136779785 0.27360883355140686 
2022-06-14 11 20 28 19.3317813873291 0.46031829714775085 
2022-06-14 11 20 33 19.17376136779785 0.27360883355140686 
2022-06-14 11 20 39 19.490503311157227 0.3671339750289917 
2022-06-14 11 20 44 19.490503311157227 0.1493409276008606 
2022-06-14 11 20 49 19.490503311157227 0.14934329688549042 
2022-06-14 11 20 54 19.64995765686035 0.3983820974826813 
2022-06-14 11 20 59 19.64995765686035 0.5228772759437561 
2022-06-14 11 21 04 19.810205459594727 0.36738452315330505 
2022-06-14 11 21 09 19.64995765686035 0.21164050698280334 
2022-06-14 11 21 15 19.64995765686035 0.36725887656211853 
2022-06-14 11 21 20 19.810205459594727 0.36738452315330505 
2022-06-14 11 21 25 19.64995765686035 0.36725887656211853 
2022-06-14 11 21 30 19.810205459594727 0.1805790662765503 
2022-06-14 11 21 35 19.64995765686035 -0.06847303360700607 
2022-06-14 11 21 40 19.64995765686035 0.3361356556415558 
2022-06-14 11 21 45 19.810205459594727 0.11830899864435196 
2022-06-14 11 21 51 19.64995765686035 -0.09959622472524643 
2022-06-14 11 21 56 19.64995765686035 0.11826853454113007 
2022-06-14 11 22 01 19.490503311157227 0.024888096377253532 
2022-06-14 11 22 06 19.64995765686035 0.2427637130022049 
2022-06-14 11 22 11 19.64995765686035 0.21164289116859436 
2022-06-14 11 22 16 19.64995765686035 0.05601976066827774 
2022-06-14 11 22 21 19.64995765686035 0.21164050698280334 
2022-06-14 11 22 26 19.810205459594727 0.1805790662765503 
2022-06-14 11 22 32 19.810205459594727 -0.06849408149719238 
2022-06-14 11 22 37 19.64995765686035 0.1805173009634018 
2022-06-14 11 22 42 19.64995765686035 0.14939410984516144 
2022-06-14 11 22 47 19.64995765686035 0.05601976066827774 
2022-06-14 11 22 52 19.64995765686035 0.11827091127634048 
2022-06-14 11 22 57 19.64995765686035 -0.09959622472524643 
2022-06-14 11 23 02 19.64995765686035 0.1805173009634018 
2022-06-14 11 23 08 19.64995765686035 -0.06847065687179565 
2022-06-14 11 23 13 19.64995765686035 0.05601976066827774 
2022-06-14 11 23 18 19.64995765686035 0.21164050698280334 
2022-06-14 11 23 23 19.64995765686035 0.08714296668767929 
2022-06-14 11 23 28 19.64995765686035 -0.09959622472524643 
2022-06-14 11 23 33 19.64995765686035 0.14939174056053162 
2022-06-14 11 23 38 19.64995765686035 -0.1307218074798584 
2022-06-14 11 23 43 19.64995765686035 0.024896565824747086 
2022-06-14 11 23 49 19.490503311157227 0.2115708887577057 
2022-06-14 11 23 54 19.810205459594727 0.1805790662765503 
2022-06-14 11 23 59 19.64995765686035 0.14939410984516144 
2022-06-14 11 24 04 19.64995765686035 0.3361356556415558 
2022-06-14 11 24 09 19.490503311157227 0.18045589327812195 
2022-06-14 11 24 14 19.64995765686035 0.21164050698280334 
2022-06-14 11 24 19 19.64995765686035 0.14939410984516144 
2022-06-14 11 24 25 19.64995765686035 0.024896565824747086 
2022-06-14 11 24 30 19.64995765686035 0.21164050698280334 
2022-06-14 11 24 35 19.64995765686035 0.30501246452331543 
2022-06-14 11 24 40 19.64995765686035 -0.006224260199815035 
2022-06-14 11 24 45 19.64995765686035 0.024896565824747086 
2022-06-14 11 24 50 19.971155166625977 -0.06851761788129807 
2022-06-14 11 24 55 19.64995765686035 0.30501246452331543 
2022-06-14 11 25 01 19.490503311157227 -0.16178995370864868 
2022-06-14 11 25 06 19.810205459594727 0.02490508183836937 
2022-06-14 11 25 11 19.64995765686035 -0.13071943819522858 
2022-06-14 11 25 16 19.64995765686035 0.024896565824747086 
2022-06-14 11 25 21 19.810205459594727 0.21171289682388306 
2022-06-14 11 25 26 19.810205459594727 -0.16189798712730408 
2022-06-14 11 25 31 19.810205459594727 -0.037360236048698425 
2022-06-14 11 25 36 19.64995765686035 0.08714533597230911 
2022-06-14 11 25 42 19.810205459594727 0.05603892728686333 
2022-06-14 11 25 47 19.810205459594727 -0.0684964582324028 
2022-06-14 11 25 52 19.810205459594727 -0.06849408149719238 
2022-06-14 11 25 57 19.64995765686035 0.05601976066827774 
2022-06-14 11 26 02 19.810205459594727 -0.09963029623031616 
2022-06-14 11 26 07 19.64995765686035 0.05602213740348816 
2022-06-14 11 26 12 19.64995765686035 0.024896565824747086 
2022-06-14 11 26 18 19.64995765686035 -0.13071943819522858 
2022-06-14 11 26 23 19.64995765686035 -0.06847303360700607 
2022-06-14 11 26 28 19.64995765686035 0.11826615780591965 
2022-06-14 11 26 33 19.64995765686035 0.14939410984516144 
2022-06-14 11 26 38 19.810205459594727 -0.09963029623031616 
2022-06-14 11 26 43 19.810205459594727 -0.006226389203220606 
2022-06-14 11 26 48 19.810205459594727 -0.037360236048698425 
2022-06-14 11 26 53 19.810205459594727 -0.224168062210083 
2022-06-14 11 26 59 19.810205459594727 -0.06849408149719238 
2022-06-14 11 27 04 19.810205459594727 -0.037360236048698425 
2022-06-14 11 27 09 19.810205459594727 0.02490508183836937 
2022-06-14 11 27 14 19.810205459594727 0.05604130029678345 
2022-06-14 11 27 19 19.810205459594727 -0.3175719976425171 
2022-06-14 11 27 24 19.64995765686035 -0.16184501349925995 
2022-06-14 11 27 29 19.64995765686035 0.08714296668767929 
2022-06-14 11 27 35 19.810205459594727 -0.09963029623031616 
2022-06-14 11 27 40 19.810205459594727 0.1494428515434265 
2022-06-14 11 27 45 19.64995765686035 0.08714533597230911 
2022-06-14 11 27 50 19.64995765686035 0.024896565824747086 
2022-06-14 11 27 55 19.64995765686035 -0.16184501349925995 
2022-06-14 11 28 00 19.810205459594727 -0.037360236048698425 
2022-06-14 11 28 05 19.64995765686035 -0.06847065687179565 
2022-06-14 11 28 11 9.799432754516602 -0.09754566103219986 
2022-06-14 11 28 16 0.4126525819301605 -0.1554604321718216 
2022-06-14 11 28 21 -3.7789673805236816 -0.03557131439447403 
2022-06-14 11 28 26 -5.950689792633057 0.08263318985700607 
2022-06-14 11 28 31 -7.275366306304932 0.11184430867433548 
2022-06-14 11 28 36 -8.232976913452148 0.1410016119480133 
2022-06-14 11 28 41 -8.922796249389648 0.22881171107292175 
2022-06-14 11 28 47 -9.265783309936523 0.46317264437675476 
2022-06-14 11 28 52 -9.008642196655273 0.22877444326877594 
2022-06-14 11 28 57 -8.922796249389648 0.4341554343700409 
2022-06-14 11 29 02 -9.008642196655273 0.4340827465057373 
2022-06-14 11 29 07 -8.232976913452148 0.3466329276561737 
2022-06-14 11 29 12 -7.187780857086182 0.6123037338256836 
2022-06-14 11 29 17 -5.772314548492432 0.3778810501098633 
2022-06-14 11 29 22 -4.692327976226807 0.14201664924621582 
2022-06-14 11 29 28 -3.8708863258361816 0.49788594245910645 
2022-06-14 11 29 33 -3.2246460914611816 0.35016530752182007 
2022-06-14 11 29 38 -3.0387940406799316 0.49872922897338867 
2022-06-14 11 29 43 -3.1317811012268066 0.3205512464046478 
2022-06-14 11 29 48 -3.3173890113830566 0.5281155705451965 
2022-06-14 11 29 53 -3.3173890113830566 0.5577868223190308 
2022-06-14 11 29 58 -3.5947327613830566 0.2609449625015259 
2022-06-14 11 30 04 -3.8708863258361816 0.4682503044605255 
2022-06-14 11 30 09 -3.8708863258361816 0.4386146664619446 
2022-06-14 11 30 14 -3.8708863258361816 0.4386146664619446 
2022-06-14 11 30 19 -4.054296970367432 0.6458257436752319 
2022-06-14 11 30 24 -4.145849704742432 0.43836745619773865 
2022-06-14 11 30 29 -4.237219333648682 0.5567449927330017 
2022-06-14 11 30 34 -4.328497409820557 0.37898868322372437 
2022-06-14 11 30 39 -4.328497409820557 -0.005921260919421911 
2022-06-14 11 30 45 -4.328497409820557 0.3197724521160126 
2022-06-14 11 30 50 -4.510656833648682 0.5860332250595093 
2022-06-14 11 30 55 -4.510656833648682 0.6452276110649109 
2022-06-14 11 31 00 -4.601538181304932 0.5267395377159119 
2022-06-14 11 31 05 -4.419653415679932 0.5269362330436707 
2022-06-14 11 31 10 -4.328497409820557 0.6454662084579468 
2022-06-14 11 31 15 -4.237219333648682 0.5271291732788086 
2022-06-14 11 31 21 -4.054296970367432 0.4384489953517914 
2022-06-14 11 31 26 -3.8708863258361816 0.49788594245910645 
2022-06-14 11 31 31 -3.7789673805236816 0.6461871266365051 
2022-06-14 11 31 36 -3.7789673805236816 0.6165413856506348 
2022-06-14 11 31 41 -3.7789673805236816 0.6461871266365051 
2022-06-14 11 31 46 -3.5024170875549316 0.6168926358222961 
2022-06-14 11 31 51 -3.6868958473205566 0.6463080644607544 
2022-06-14 11 31 57 -3.5947327613830566 0.6760814785957336 
2022-06-14 11 32 02 -3.6868958473205566 0.468425452709198 
2022-06-14 11 32 07 -3.5947327613830566 0.646429181098938 
2022-06-14 11 32 12 -3.7789673805236816 0.7054717540740967 
2022-06-14 11 32 17 -3.8708863258361816 0.7349755764007568 
2022-06-14 11 32 22 -3.6868958473205566 0.8538396954536438 
2022-06-14 11 32 27 -3.8708863258361816 0.4386124014854431 
2022-06-14 11 32 32 -3.8708863258361816 0.46824803948402405 
2022-06-14 11 32 38 -3.6868958473205566 0.8241884112358093 
2022-06-14 11 32 43 -3.7789673805236816 0.5572635531425476 
2022-06-14 11 32 48 -3.7789673805236816 0.49797895550727844 
2022-06-14 11 32 53 -3.6868958473205566 0.49807214736938477 
2022-06-14 11 32 58 -3.5947327613830566 0.557472288608551 
2022-06-14 11 33 03 -3.6868958473205566 0.7056037783622742 
2022-06-14 11 33 08 -3.5947327613830566 0.46851322054862976 
2022-06-14 11 33 14 -3.5024170875549316 0.4982590079307556 
2022-06-14 11 33 19 -3.3173890113830566 0.5874558091163635 
2022-06-14 11 33 24 -3.4099793434143066 0.6466743350028992 
2022-06-14 11 33 29 -3.4099793434143066 0.4686892628669739 
2022-06-14 11 33 34 -3.3173890113830566 0.7061319351196289 
2022-06-14 11 33 39 -3.4099793434143066 0.7949892282485962 
2022-06-14 11 33 44 -3.3173890113830566 0.5577868223190308 
2022-06-14 11 33 49 -3.4099793434143066 0.5280160903930664 
2022-06-14 11 33 55 -3.4099793434143066 0.6763377785682678 
2022-06-14 11 34 00 -3.4099793434143066 0.4686892628669739 
2022-06-14 11 34 05 -3.2246460914611816 0.4095167815685272 
2022-06-14 11 34 10 -3.0387940406799316 0.7362182140350342 
2022-06-14 11 34 15 -3.2246460914611816 0.4688660204410553 
2022-06-14 11 34 20 -3.0387940406799316 0.6174747943878174 
2022-06-14 11 34 25 -3.0387940406799316 0.40967169404029846 
2022-06-14 11 34 31 -3.0387940406799316 0.5580986142158508 
2022-06-14 11 34 36 -3.1317811012268066 0.439274400472641 
2022-06-14 11 34 41 -3.2246460914611816 0.528215229511261 
2022-06-14 11 34 46 -3.1317811012268066 0.4986370801925659 
2022-06-14 11 34 51 -3.2246460914611816 0.49854063987731934 
2022-06-14 11 34 56 -3.2246460914611816 0.528215229511261 
2022-06-14 11 35 01 -2.9456238746643066 0.46913236379623413 
2022-06-14 11 35 07 -2.9456238746643066 0.43944090604782104 
2022-06-14 11 35 12 -3.0387940406799316 0.6768487691879272 
2022-06-14 11 35 17 -3.0387940406799316 0.40967169404029846 
2022-06-14 11 35 22 -2.8523316383361816 0.49892082810401917 
2022-06-14 11 35 27 -2.8523316383361816 0.4989185929298401 
2022-06-14 11 35 32 -2.8523316383361816 0.5286157131195068 
2022-06-14 11 35 37 -2.7588868141174316 0.4396057426929474 
2022-06-14 11 35 42 -2.6653504371643066 0.49910861253738403 
2022-06-14 11 35 48 -2.8523316383361816 0.6474063992500305 
2022-06-14 11 35 53 -2.7588868141174316 0.40990522503852844 
2022-06-14 11 35 58 -2.6653504371643066 0.4396895170211792 
2022-06-14 11 36 03 -2.7588868141174316 0.3207947015762329 
2022-06-14 11 36 08 -2.8523316383361816 0.588012158870697 
2022-06-14 11 36 13 -2.7588868141174316 0.38020023703575134 
2022-06-14 11 36 18 -2.6653504371643066 0.49910861253738403 
2022-06-14 11 36 24 -2.6653504371643066 0.5288192629814148 
2022-06-14 11 36 29 -2.6653504371643066 0.5882360935211182 
2022-06-14 11 36 34 -2.5716004371643066 0.49920395016670227 
2022-06-14 11 36 39 -2.5716004371643066 0.4694898724555969 
2022-06-14 11 36 44 -2.5716004371643066 0.4694898724555969 
2022-06-14 11 36 49 -2.5716004371643066 0.3506312370300293 
2022-06-14 11 36 54 -2.6653504371643066 0.43969178199768066 
2022-06-14 11 37 00 -2.5716004371643066 0.3506312370300293 
2022-06-14 11 37 05 -2.4777283668518066 0.380418062210083 
2022-06-14 11 37 10 -2.3837037086486816 0.5885738134384155 
2022-06-14 11 37 15 -2.4777283668518066 0.5290215015411377 
2022-06-14 11 37 20 -2.4777283668518066 0.4398576319217682 
2022-06-14 11 37 25 -2.4777283668518066 0.3804203271865845 
2022-06-14 11 37 30 -2.4777283668518066 0.3506982922554016 
2022-06-14 11 37 35 -2.4777283668518066 0.4101378321647644 
2022-06-14 11 37 41 -2.5716004371643066 0.4397757649421692 
2022-06-14 11 37 46 -2.4777283668518066 0.5884610414505005 
2022-06-14 11 37 51 -2.4777283668518066 0.43985989689826965 
2022-06-14 11 37 56 -2.5716004371643066 0.5883484482765198 
2022-06-14 11 38 01 -2.3837037086486816 0.5291206240653992 
2022-06-14 11 38 06 -2.2895569801330566 0.46975982189178467 
2022-06-14 11 38 11 -2.1952576637268066 0.38063716888427734 
2022-06-14 11 38 17 -2.1007752418518066 0.4699406623840332 
2022-06-14 11 38 22 -2.1007752418518066 0.32122525572776794 
2022-06-14 11 38 27 -2.1007752418518066 0.440195769071579 
2022-06-14 11 38 32 -2.1007752418518066 0.5294281840324402 
2022-06-14 11 38 37 -2.0061707496643066 0.44028523564338684 
2022-06-14 11 38 42 -2.0061707496643066 0.32128724455833435 
2022-06-14 11 38 47 -2.2895569801330566 0.41029518842697144 
2022-06-14 11 38 52 -2.0061707496643066 0.6485238075256348 
2022-06-14 11 38 58 -2.0061707496643066 0.20229150354862213 
2022-06-14 11 39 03 -2.1007752418518066 0.44019803404808044 
2022-06-14 11 39 08 -2.0061707496643066 0.35103562474250793 
2022-06-14 11 39 13 -2.1007752418518066 0.5889133810997009 
2022-06-14 11 39 18 -2.1007752418518066 0.3212229907512665 
2022-06-14 11 39 23 -2.1007752418518066 0.4699406623840332 
2022-06-14 11 39 28 -2.1007752418518066 0.38071051239967346 
2022-06-14 11 39 34 -2.1007752418518066 0.2914803624153137 
2022-06-14 11 39 39 -2.1007752418518066 0.44019803404808044 
2022-06-14 11 39 44 -2.1007752418518066 0.4104531407356262 
2022-06-14 11 39 49 -2.0061707496643066 0.4105323553085327 
2022-06-14 11 39 54 -1.911383032798767 0.5296327471733093 
2022-06-14 11 39 59 -2.0061707496643066 0.4105323553085327 
2022-06-14 11 40 04 -1.816442847251892 0.3511715233325958 
2022-06-14 11 40 10 -1.911383032798767 0.5296304821968079 
2022-06-14 11 40 15 -2.0061707496643066 0.35103562474250793 
2022-06-14 11 40 20 -2.0061707496643066 0.44028300046920776 
2022-06-14 11 40 25 -2.0061707496643066 0.32128724455833435 
2022-06-14 11 40 30 -1.911383032798767 0.17257651686668396 
2022-06-14 11 40 35 -2.0061707496643066 0.4402807056903839 
2022-06-14 11 40 40 -2.0061707496643066 0.5295280814170837 
2022-06-14 11 40 45 -1.911383032798767 0.3808598816394806 
2022-06-14 11 40 51 -2.0061707496643066 0.38078397512435913 
2022-06-14 11 40 56 -2.0061707496643066 0.44028300046920776 
2022-06-14 11 41 01 -2.0061707496643066 0.47003135085105896 
2022-06-14 11 41 06 -1.816442847251892 0.44045117497444153 
2022-06-14 11 41 11 -1.816442847251892 0.3511715233325958 
2022-06-14 11 41 16 -1.721350073814392 0.38100534677505493 
2022-06-14 11 41 21 -1.721350073814392 0.2917083501815796 
2022-06-14 11 41 27 -1.721350073814392 0.2321770340204239 
2022-06-14 11 41 32 -1.721350073814392 0.38100534677505493 
2022-06-14 11 41 37 -1.530737280845642 0.08337437361478806 
2022-06-14 11 41 42 -1.626104712486267 0.4703960418701172 
2022-06-14 11 41 47 -1.721350073814392 0.2619404196739197 
2022-06-14 11 41 52 -1.721350073814392 0.32147401571273804 
2022-06-14 11 41 57 -1.626104712486267 0.3513079881668091 
2022-06-14 11 42 03 -1.626104712486267 0.41085085272789 
2022-06-14 11 42 08 -1.721350073814392 0.38100534677505493 
2022-06-14 11 42 13 -1.721350073814392 0.3512396812438965 
2022-06-14 11 42 18 -1.626104712486267 0.5299411416053772 
2022-06-14 11 42 23 -1.721350073814392 0.3512396812438965 
2022-06-14 11 42 28 -1.721350073814392 0.4405389428138733 
2022-06-14 11 42 33 -1.721350073814392 0.11310986429452896 
2022-06-14 11 42 38 -1.626104712486267 0.26199135184288025 
2022-06-14 11 42 44 -1.721350073814392 0.2321770340204239 
2022-06-14 11 42 49 -1.721350073814392 0.2917083501815796 
2022-06-14 11 42 54 -1.721350073814392 0.38100534677505493 
2022-06-14 11 42 59 -1.626104712486267 0.32153651118278503 
2022-06-14 11 43 04 -1.626104712486267 0.38107943534851074 
2022-06-14 11 43 09 -1.530737280845642 0.20248788595199585 
2022-06-14 11 43 14 -1.530737280845642 0.3811536133289337 
2022-06-14 11 43 20 -1.530737280845642 0.3215991258621216 
2022-06-14 11 43 25 -1.530737280845642 0.23226512968540192 
2022-06-14 11 43 30 -1.530737280845642 0.35137638449668884 
2022-06-14 11 43 35 -1.530737280845642 0.35137638449668884 
2022-06-14 11 43 40 -1.530737280845642 0.559821605682373 
2022-06-14 11 43 45 -1.626104712486267 0.23221991956233978 
2022-06-14 11 43 50 -1.051275610923767 0.20268858969211578 
2022-06-14 11 43 56 -0.7616027593612671 0.4115794599056244 
2022-06-14 11 44 01 -1.147497534751892 0.23244701325893402 
2022-06-14 11 44 06 -1.530737280845642 0.11315615475177765 
2022-06-14 11 44 11 -1.626104712486267 0.4406222999095917 
2022-06-14 11 44 16 -1.626104712486267 0.3513079881668091 
2022-06-14 11 44 21 -1.626104712486267 0.41085085272789 
2022-06-14 11 44 26 -1.051275610923767 0.29210785031318665 
2022-06-14 11 44 31 -1.339422583580017 0.14298926293849945 
2022-06-14 11 44 37 -1.530737280845642 0.410930871963501 
2022-06-14 11 44 42 -1.626104712486267 0.38107943534851074 
2022-06-14 11 44 47 -1.816442847251892 0.38093140721321106 
2022-06-14 11 44 52 -1.435156226158142 0.26209577918052673 
2022-06-14 11 44 57 -1.051275610923767 0.26230141520500183 
2022-06-14 11 45 02 -1.147497534751892 0.35165154933929443 
2022-06-14 11 45 07 -1.051275610923767 0.17287760972976685 
2022-06-14 11 45 13 -0.7616027593612671 0.35192903876304626 
2022-06-14 11 45 18 -0.9549010992050171 0.3219776749610901 
2022-06-14 11 45 23 -0.4704345762729645 0.6505617499351501 
2022-06-14 11 45 28 -0.9549010992050171 0.3517899811267853 
2022-06-14 11 45 33 -1.147497534751892 0.35165154933929443 
2022-06-14 11 45 38 -1.339422583580017 0.3813025653362274 
2022-06-14 11 45 43 -1.339422583580017 0.26214703917503357 
2022-06-14 11 45 48 -1.339422583580017 0.29193365573883057 
2022-06-14 11 45 54 -1.339422583580017 0.29193365573883057 
2022-06-14 11 45 59 -1.435156226158142 0.2323104739189148 
2022-06-14 11 46 04 -1.435156226158142 0.17274434864521027 
2022-06-14 11 46 09 -1.435156226158142 0.2323104739189148 
2022-06-14 11 46 14 -1.051275610923767 0.47094637155532837 
2022-06-14 11 46 19 -0.6647094488143921 0.2625088095664978 
2022-06-14 11 46 24 -0.7616027593612671 0.20280864834785461 
2022-06-14 11 46 30 -1.243536353111267 0.17281197011470795 
2022-06-14 11 46 35 -1.530737280845642 0.17271064221858978 
2022-06-14 11 46 40 -1.626104712486267 0.4703960418701172 
2022-06-14 11 46 45 -1.051275610923767 0.6199830174446106 
2022-06-14 11 46 50 -0.9549010992050171 0.14310164749622345 
2022-06-14 11 46 55 -0.8583434820175171 0.351859450340271 
2022-06-14 11 47 00 -1.051275610923767 0.3219142556190491 
2022-06-14 11 47 06 -1.051275610923767 0.5305615067481995 
2022-06-14 11 47 11 -1.435156226158142 0.47057944536209106 
2022-06-14 11 47 16 -1.435156226158142 0.3514472246170044 
2022-06-14 11 47 21 -1.147497534751892 0.3218509554862976 
2022-06-14 11 47 26 -1.051275610923767 0.26229915022850037 
2022-06-14 11 47 31 -0.7616027593612671 0.47122764587402344 
2022-06-14 11 47 36 -0.4704345762729645 0.17308762669563293 
2022-06-14 11 47 41 -1.147497534751892 0.5006566047668457 
2022-06-14 11 47 47 -1.243536353111267 0.381377249956131 
2022-06-14 11 47 52 -1.435156226158142 0.32166188955307007 
2022-06-14 11 47 57 -1.339422583580017 0.3813048303127289 
2022-06-14 11 48 02 -1.435156226158142 0.41101107001304626 
2022-06-14 11 48 07 -1.435156226158142 0.35144495964050293 
2022-06-14 11 48 12 -1.051275610923767 0.5901765823364258 
2022-06-14 11 48 17 -0.9549010992050171 0.5008537173271179 
2022-06-14 11 48 23 -0.6647094488143921 0.14318658411502838 
2022-06-14 11 48 28 -0.4704345762729645 0.3521387279033661 
2022-06-14 11 48 33 -1.147497534751892 0.3218509554862976 
2022-06-14 11 48 38 -1.243536353111267 0.5005583763122559 
2022-06-14 11 48 43 -1.339422583580017 0.5600403547286987 
2022-06-14 11 48 48 -1.339422583580017 0.2621447443962097 
2022-06-14 11 48 53 -1.435156226158142 0.20252740383148193 
2022-06-14 11 48 59 -0.7616027593612671 0.35193130373954773 
2022-06-14 11 49 04 -0.7616027593612671 0.32210496068000793 
2022-06-14 11 49 09 -0.7616027593612671 0.20280636847019196 
2022-06-14 11 49 14 -0.6647094488143921 0.441491037607193 
2022-06-14 11 49 19 -0.9549010992050171 0.20272623002529144 
2022-06-14 11 49 24 -0.9549010992050171 0.5604805946350098 
2022-06-14 11 49 29 -1.051275610923767 0.3815271258354187 
2022-06-14 11 49 34 -1.051275610923767 0.3517206907272339 
2022-06-14 11 49 40 -1.243536353111267 0.23240141570568085 
2022-06-14 11 49 45 -1.243536353111267 0.5601455569267273 
2022-06-14 11 49 50 -1.339422583580017 0.35151368379592896 
2022-06-14 11 49 55 -0.6647094488143921 0.20284655690193176 
2022-06-14 11 50 00 -0.5676940679550171 0.1730509102344513 
2022-06-14 11 50 05 -0.5676940679550171 0.2625609040260315 
2022-06-14 11 50 10 -0.7616027593612671 0.4115771949291229 
2022-06-14 11 50 16 -0.8583434820175171 0.2922230660915375 
2022-06-14 11 50 21 -0.8583434820175171 0.23258444666862488 
2022-06-14 11 50 26 -0.9549010992050171 0.41141682863235474 
2022-06-14 11 50 31 -1.051275610923767 0.560370147228241 
2022-06-14 11 50 36 -1.147497534751892 0.29205039143562317 
2022-06-14 11 50 41 -1.147497534751892 0.29205039143562317 
2022-06-14 11 50 46 -1.339422583580017 0.29193365573883057 
2022-06-14 11 50 52 -1.147497534751892 0.26224756240844727 
2022-06-14 11 50 57 -0.4704345762729645 0.3521387279033661 
2022-06-14 11 51 02 -0.4704345762729645 0.2924550175666809 
2022-06-14 11 51 07 -0.8583434820175171 0.351859450340271 
2022-06-14 11 51 12 -0.7616027593612671 0.20280636847019196 
2022-06-14 11 51 17 -1.051275610923767 0.3517206907272339 
2022-06-14 11 51 22 -1.051275610923767 0.29210785031318665 
2022-06-14 11 51 27 -1.147497534751892 0.2920481562614441 
2022-06-14 11 51 33 -1.243536353111267 0.17281197011470795 
2022-06-14 11 51 38 -1.435156226158142 0.2918788492679596 
2022-06-14 11 51 43 -1.051275610923767 0.3517206907272339 
2022-06-14 11 51 48 -0.4704345762729645 0.3819805681705475 
2022-06-14 11 51 53 -0.4704345762729645 0.23276905715465546 
2022-06-14 11 51 58 -0.6647094488143921 0.2326788306236267 
2022-06-14 11 52 03 -0.6647094488143921 0.35199880599975586 
2022-06-14 11 52 09 -0.6647094488143921 0.41165876388549805 
2022-06-14 11 52 14 -0.8583434820175171 0.38167762756347656 
2022-06-14 11 52 19 -0.8583434820175171 0.26240259408950806 
2022-06-14 11 52 24 -0.5676940679550171 0.20288681983947754 
2022-06-14 11 52 29 -0.6647094488143921 0.35199880599975586 
2022-06-14 11 52 34 -0.9549010992050171 0.3219776749610901 
2022-06-14 11 52 39 -0.9549010992050171 0.2027285099029541 
2022-06-14 11 52 44 -0.9549010992050171 0.14310164749622345 
2022-06-14 11 52 50 -1.147497534751892 0.29205039143562317 
2022-06-14 11 52 55 -1.243536353111267 0.3217878043651581 
2022-06-14 11 53 00 -1.147497534751892 0.1430453360080719 
2022-06-14 11 53 05 -1.147497534751892 0.4112549126148224 
2022-06-14 11 53 10 -2.1952576637268066 0.3211633563041687 
2022-06-14 11 53 15 -2.1007752418518066 0.08327744901180267 
2022-06-14 11 53 20 -1.435156226158142 0.17274434864521027 
2022-06-14 11 53 26 -0.6647094488143921 0.5608132481575012 
2022-06-14 11 53 31 0.01836547814309597 0.11351519078016281 
2022-06-14 11 53 36 0.4126525819301605 0.3527761697769165 
2022-06-14 11 53 41 0.6109253168106079 0.3828299045562744 
2022-06-14 11 53 46 0.6109253168106079 0.4426436722278595 
2022-06-14 11 53 51 0.6109253168106079 0.5622802972793579 
2022-06-14 11 53 56 0.6109253168106079 0.29310354590415955 
2022-06-14 11 54 02 0.5117126703262329 0.3827497661113739 
2022-06-14 11 54 07 0.4126525819301605 0.2032945454120636 
2022-06-14 11 54 12 0.4126525819301605 0.3228802978992462 
2022-06-14 11 54 17 0.3138061463832855 0.2032533586025238 
2022-06-14 11 54 22 0.21514281630516052 0.17332850396633148 
2022-06-14 11 54 27 0.21514281630516052 0.2928635776042938 
2022-06-14 11 54 32 0.11666259914636612 0.2928067743778229 
2022-06-14 11 54 37 0.01836547814309597 0.20313036441802979 
2022-06-14 11 54 43 0.01836547814309597 0.11351519078016281 
2022-06-14 11 54 48 2.2254271507263184 0.29407721757888794 
2022-06-14 11 54 53 12.843255996704102 0.26996541023254395 
2022-06-14 11 54 58 19.64995765686035 0.18051967024803162 
2022-06-14 11 55 03 23.5433292388916 0.3389519155025482 
2022-06-14 11 55 08 26.55205726623535 0.24639295041561127 
2022-06-14 11 55 13 28.7972354888916 -0.10157913714647293 
2022-06-14 11 55 19 30.53643226623535 0.025488728657364845 
2022-06-14 11 55 24 31.90728187561035 -0.23011060059070587 
2022-06-14 11 55 29 33.097740173339844 -0.13458169996738434 
2022-06-14 11 55 34 33.834617614746094 -0.2310865968465805 
2022-06-14 11 55 39 34.33580780029297 -0.26347193121910095 
2022-06-14 11 55 44 34.58953094482422 -0.19932053983211517 
2022-06-14 11 55 49 34.58953094482422 -0.2636193037033081 
2022-06-14 11 55 54 33.834617614746094 -0.16689467430114746 
2022-06-14 11 56 00 32.855979919433594 -0.32666727900505066 
2022-06-14 11 56 05 31.4435977935791 -0.38951072096824646 
2022-06-14 11 56 10 29.872888565063477 -0.35636106133461 
2022-06-14 11 56 15 29.22307777404785 0.15250982344150543 
2022-06-14 11 56 20 28.586450576782227 -0.260176420211792 
2022-06-14 11 56 25 27.96233558654785 -0.386564701795578 
2022-06-14 11 56 30 27.75701332092285 -0.25970780849456787 
2022-06-14 11 56 36 27.75701332092285 -0.2913789451122284 
2022-06-14 11 56 41 27.75701332092285 -0.3863923251628876 
2022-06-14 11 56 46 27.96233558654785 -0.19645310938358307 
2022-06-14 11 56 51 27.5529727935791 -0.3862236440181732 
2022-06-14 11 56 56 27.5529727935791 -0.3229070007801056 
2022-06-14 11 57 01 28.16900062561035 -0.3233393430709839 
2022-06-14 11 57 06 28.7972354888916 -0.2602958083152771 
2022-06-14 11 57 12 29.00945472717285 -0.5144786238670349 
2022-06-14 11 57 17 29.4382266998291 -0.3878106474876404 
2022-06-14 11 57 22 29.22307777404785 -0.2605372965335846 
2022-06-14 11 57 27 29.22307777404785 -0.1969926804304123 
2022-06-14 11 57 32 29.4382266998291 -0.3560234606266022 
2022-06-14 11 57 37 29.654809951782227 -0.41979601979255676 
2022-06-14 11 57 42 29.654809951782227 -0.0699644610285759 
2022-06-14 11 57 47 29.4382266998291 -0.4195978343486786 
2022-06-14 11 57 53 29.4382266998291 -0.3560234606266022 
2022-06-14 11 57 58 29.00945472717285 -0.2286585569381714 
2022-06-14 11 58 03 29.00945472717285 -0.22865614295005798 
2022-06-14 11 58 08 28.586450576782227 -0.32363542914390564 
2022-06-14 11 58 13 27.75701332092285 -0.25970780849456787 
2022-06-14 11 58 18 26.55205726623535 0.6254619359970093 
2022-06-14 11 58 23 25.966150283813477 1.2556477785110474 
2022-06-14 11 58 29 25.5814151763916 1.2546035051345825 
2022-06-14 11 58 34 25.201196670532227 2.0724897384643555 
2022-06-14 11 58 39 24.0866641998291 11.336760520935059 
2022-06-14 11 58 44 23.364221572875977 22.45631980895996 
2022-06-14 11 58 49 23.18609046936035 30.036922454833984 
2022-06-14 11 58 54 23.364221572875977 33.028804779052734 
2022-06-14 11 58 59 23.364221572875977 34.8484001159668 
2022-06-14 11 59 04 23.0089054107666 35.7935905456543 
2022-06-14 11 59 10 22.48296546936035 36.22286605834961 
2022-06-14 11 59 15 22.657373428344727 39.964073181152344 
2022-06-14 11 59 20 22.30950355529785 38.2126579284668 
2022-06-14 11 59 25 21.965295791625977 38.46595764160156 
2022-06-14 11 59 30 22.30950355529785 38.77608871459961 
2022-06-14 11 59 35 22.1369571685791 39.38752746582031 
2022-06-14 11 59 40 22.1369571685791 40.54524230957031 
2022-06-14 11 59 46 22.48296546936035 41.264251708984375 
2022-06-14 11 59 51 22.48296546936035 41.890506744384766 
2022-06-14 11 59 56 22.48296546936035 42.45414733886719 
2022-06-14 12 00 01 22.30950355529785 44.78594207763672 
2022-06-14 12 00 06 22.1369571685791 45.73934555053711 
2022-06-14 12 00 11 21.287317276000977 44.93776321411133 
2022-06-14 12 00 16 21.965295791625977 45.81633377075195 
2022-06-14 12 00 22 21.965295791625977 44.877994537353516 
2022-06-14 12 00 27 21.965295791625977 45.15949249267578 
2022-06-14 12 00 32 21.965295791625977 45.15949249267578 
2022-06-14 12 00 37 21.79448890686035 45.3618278503418 
2022-06-14 12 00 42 21.965295791625977 45.15949249267578 
2022-06-14 12 00 47 21.79448890686035 45.3618278503418 
2022-06-14 12 00 52 21.965295791625977 45.315887451171875 
2022-06-14 12 00 57 21.79448890686035 45.393096923828125 
2022-06-14 12 01 03 21.79448890686035 46.080955505371094 
2022-06-14 12 01 08 21.965295791625977 46.410621643066406 
2022-06-14 12 01 13 21.965295791625977 46.47317886352539 
2022-06-14 12 01 18 21.965295791625977 46.879798889160156 
2022-06-14 12 01 23 21.965295791625977 46.629573822021484 
2022-06-14 12 01 28 21.965295791625977 45.87889862060547 
2022-06-14 12 01 33 21.965295791625977 47.19257736206055 
2022-06-14 12 01 39 21.965295791625977 48.162200927734375 
2022-06-14 12 01 44 21.965295791625977 48.28731155395508 
2022-06-14 12 01 49 21.965295791625977 48.25604248046875 
2022-06-14 12 01 54 21.79448890686035 47.894432067871094 
2022-06-14 12 01 59 21.79448890686035 48.3321647644043 
2022-06-14 12 02 04 21.79448890686035 47.98823547363281 
2022-06-14 12 02 09 21.79448890686035 47.800636291503906 
2022-06-14 12 02 15 22.30950355529785 48.04127883911133 
2022-06-14 12 02 20 21.62456703186035 48.09577178955078 
2022-06-14 12 02 25 21.62456703186035 47.595699310302734 
2022-06-14 12 02 30 21.62456703186035 48.56460189819336 
2022-06-14 12 02 35 21.62456703186035 48.62712478637695 
2022-06-14 12 02 40 21.62456703186035 48.62712478637695 
2022-06-14 12 02 45 21.62456703186035 48.75214385986328 
2022-06-14 12 02 51 21.45549964904785 48.7344856262207 
2022-06-14 12 02 56 21.62456703186035 48.56460189819336 
2022-06-14 12 03 01 21.62456703186035 48.65837478637695 
2022-06-14 12 03 06 21.62456703186035 48.4083366394043 
2022-06-14 12 03 11 21.62456703186035 48.533355712890625 
2022-06-14 12 03 16 21.62456703186035 48.62712478637695 
2022-06-14 12 03 21 21.62456703186035 48.50209045410156 
2022-06-14 12 03 26 21.62456703186035 48.68963623046875 
2022-06-14 12 03 32 21.62456703186035 48.62712478637695 
2022-06-14 12 03 37 21.62456703186035 48.50209045410156 
2022-06-14 12 03 42 21.62456703186035 48.65837478637695 
2022-06-14 12 03 47 21.62456703186035 48.408329010009766 
2022-06-14 12 03 52 21.62456703186035 48.84591293334961 
2022-06-14 12 03 57 21.62456703186035 48.97093200683594 
2022-06-14 12 04 02 21.45549964904785 49.04692459106445 
2022-06-14 12 04 08 21.62456703186035 49.18971633911133 
2022-06-14 12 04 13 21.62456703186035 49.627288818359375 
2022-06-14 12 04 18 21.62456703186035 50.158634185791016 
2022-06-14 12 04 23 21.79448890686035 50.27070999145508 
2022-06-14 12 04 28 21.62456703186035 50.22114181518555 
2022-06-14 12 04 33 21.45549964904785 50.01549530029297 
2022-06-14 12 04 38 21.62456703186035 49.47102355957031 
2022-06-14 12 04 43 21.62456703186035 49.627288818359375 
2022-06-14 12 04 49 21.62456703186035 49.095947265625 
2022-06-14 12 04 54 21.45549964904785 49.078163146972656 
2022-06-14 12 04 59 21.45549964904785 49.078163146972656 
2022-06-14 12 05 04 21.45549964904785 49.078163146972656 
2022-06-14 12 05 09 21.965295791625977 49.2569465637207 
2022-06-14 12 05 14 21.45549964904785 49.42185592651367 
2022-06-14 12 05 19 21.62456703186035 49.28348922729492 
2022-06-14 12 05 25 21.62456703186035 48.75214385986328 
2022-06-14 12 05 30 21.45549964904785 48.92195129394531 
2022-06-14 12 05 35 21.45549964904785 49.35936737060547 
2022-06-14 12 05 40 21.45549964904785 48.98443603515625 
2022-06-14 12 05 45 21.45549964904785 49.14065170288086 
2022-06-14 12 05 50 21.287317276000977 49.65391159057617 
2022-06-14 12 05 55 21.287317276000977 49.622676849365234 
2022-06-14 12 06 01 21.45549964904785 49.79677963256836 
2022-06-14 12 06 06 21.287317276000977 50.27857208251953 
2022-06-14 12 06 11 21.287317276000977 50.903228759765625 
2022-06-14 12 06 16 21.45549964904785 50.702857971191406 
2022-06-14 12 06 21 21.287317276000977 50.965694427490234 
2022-06-14 12 06 26 21.287317276000977 52.12131881713867 
2022-06-14 12 06 31 21.287317276000977 52.0900764465332 
2022-06-14 12 06 36 21.45549964904785 51.54645538330078 
2022-06-14 12 06 42 21.45549964904785 51.20276641845703 
2022-06-14 12 06 47 21.45549964904785 51.67142868041992 
2022-06-14 12 06 52 21.287317276000977 52.24623489379883 
2022-06-14 12 06 57 21.45549964904785 51.2964973449707 
2022-06-14 12 07 02 21.45549964904785 51.077796936035156 
2022-06-14 12 07 07 21.45549964904785 52.29631042480469 
2022-06-14 12 07 12 21.45549964904785 52.79621124267578 
2022-06-14 12 07 18 21.287317276000977 52.40240478515625 
2022-06-14 12 07 23 21.287317276000977 52.30870056152344 
2022-06-14 12 07 28 21.287317276000977 51.121864318847656 
2022-06-14 12 07 33 21.287317276000977 50.840763092041016 
2022-06-14 12 07 38 21.287317276000977 51.09062576293945 
2022-06-14 12 07 43 21.287317276000977 51.27802276611328 
2022-06-14 12 07 48 21.119958877563477 51.603092193603516 
2022-06-14 12 07 53 21.287317276000977 51.840213775634766 
2022-06-14 12 07 59 21.287317276000977 51.15309524536133 
2022-06-14 12 08 04 21.287317276000977 51.87144088745117 
2022-06-14 12 08 09 21.287317276000977 51.65281677246094 
2022-06-14 12 08 14 21.287317276000977 51.30925750732422 
2022-06-14 12 08 19 21.287317276000977 51.30925750732422 
2022-06-14 12 08 24 21.119958877563477 51.16598129272461 
2022-06-14 12 08 29 21.119958877563477 51.197200775146484 
2022-06-14 12 08 35 21.119958877563477 51.041099548339844 
2022-06-14 12 08 40 21.119958877563477 50.54154968261719 
2022-06-14 12 08 45 21.119958877563477 50.47910690307617 
2022-06-14 12 08 50 21.119958877563477 49.82345199584961 
2022-06-14 12 08 55 21.119958877563477 50.166893005371094 
2022-06-14 12 09 00 21.119958877563477 49.66735076904297 
2022-06-14 12 09 05 20.95342445373535 49.64965057373047 
2022-06-14 12 09 11 21.119958877563477 50.54154968261719 
2022-06-14 12 09 16 21.119958877563477 50.22933578491211 
2022-06-14 12 09 21 21.119958877563477 50.38543701171875 
2022-06-14 12 09 26 21.119958877563477 50.822547912597656 
2022-06-14 12 09 31 21.119958877563477 50.79132080078125 
2022-06-14 12 09 36 21.119958877563477 50.88499069213867 
2022-06-14 12 09 41 21.119958877563477 51.41576385498047 
2022-06-14 12 09 46 20.95342445373535 50.61717987060547 
2022-06-14 12 09 52 21.119958877563477 50.88499069213867 
2022-06-14 12 09 57 21.119958877563477 50.76010513305664 
2022-06-14 12 10 02 21.119958877563477 50.853763580322266 
2022-06-14 12 10 07 21.119958877563477 50.69765853881836 
2022-06-14 12 10 12 21.119958877563477 50.44789123535156 
2022-06-14 12 10 17 21.119958877563477 49.448795318603516 
2022-06-14 12 10 22 21.119958877563477 50.291778564453125 
2022-06-14 12 10 28 21.119958877563477 50.35422897338867 
2022-06-14 12 10 33 21.119958877563477 51.10354995727539 
2022-06-14 12 10 38 21.119958877563477 50.60399627685547 
2022-06-14 12 10 43 20.295434951782227 50.857666015625 
2022-06-14 12 10 48 21.119958877563477 50.88499069213867 
2022-06-14 12 10 53 21.119958877563477 50.85377883911133 
2022-06-14 12 10 58 21.119958877563477 50.69765853881836 
2022-06-14 12 11 03 21.119958877563477 50.76010513305664 
2022-06-14 12 11 09 21.119958877563477 50.666439056396484 
2022-06-14 12 11 14 21.119958877563477 50.60399627685547 
2022-06-14 12 11 19 21.119958877563477 50.94743347167969 
2022-06-14 12 11 24 21.119958877563477 51.228431701660156 
2022-06-14 12 11 29 20.458703994750977 51.31189727783203 
2022-06-14 12 11 34 21.119958877563477 51.94651794433594 
2022-06-14 12 11 39 21.119958877563477 52.35240173339844 
2022-06-14 12 11 45 21.119958877563477 52.60218048095703 
2022-06-14 12 11 50 21.119958877563477 52.78950881958008 
2022-06-14 12 11 55 21.119958877563477 53.19538497924805 
2022-06-14 12 12 00 21.119958877563477 52.85194396972656 
2022-06-14 12 12 05 21.119958877563477 53.195396423339844 
2022-06-14 12 12 10 21.119958877563477 52.69584274291992 
2022-06-14 12 12 15 21.119958877563477 52.19630432128906 
2022-06-14 12 12 21 21.119958877563477 52.16507339477539 
2022-06-14 12 12 26 21.119958877563477 52.040191650390625 
2022-06-14 12 12 31 21.119958877563477 52.13385772705078 
2022-06-14 12 12 36 21.119958877563477 52.28995895385742 
2022-06-14 12 12 41 21.119958877563477 51.946529388427734 
2022-06-14 12 12 46 21.62456703186035 51.440101623535156 
2022-06-14 12 12 51 21.119958877563477 51.3845329284668 
2022-06-14 12 12 56 21.287317276000977 51.746517181396484 
2022-06-14 12 13 02 21.287317276000977 51.27802276611328 
2022-06-14 12 13 07 21.287317276000977 51.46542739868164 
2022-06-14 12 13 12 21.287317276000977 51.1530876159668 
2022-06-14 12 13 17 21.119958877563477 51.946529388427734 
2022-06-14 12 13 22 21.119958877563477 52.508514404296875 
2022-06-14 12 13 27 21.119958877563477 52.976837158203125 
2022-06-14 12 13 32 21.287317276000977 53.120758056640625 
2022-06-14 12 13 38 21.119958877563477 54.007164001464844 
2022-06-14 12 13 43 21.119958877563477 54.16326141357422 
2022-06-14 12 13 48 21.119958877563477 53.4139404296875 
2022-06-14 12 13 53 21.119958877563477 52.85196304321289 
2022-06-14 12 13 58 21.119958877563477 52.851951599121094 
2022-06-14 12 14 03 21.119958877563477 52.414852142333984 
2022-06-14 12 14 08 21.119958877563477 52.16507339477539 
2022-06-14 12 14 14 21.119958877563477 51.696754455566406 
2022-06-14 12 14 19 21.45549964904785 54.82707595825195 
2022-06-14 12 14 24 21.287317276000977 55.49445724487305 
2022-06-14 12 14 29 21.119958877563477 56.37998580932617 
2022-06-14 12 14 34 21.287317276000977 55.556915283203125 
2022-06-14 12 14 39 21.287317276000977 55.36952590942383 
2022-06-14 12 14 44 20.7877140045166 54.343162536621094 
2022-06-14 12 14 50 21.119958877563477 54.319374084472656 
2022-06-14 12 14 55 21.119958877563477 53.351497650146484 
2022-06-14 12 15 00 21.119958877563477 53.32028579711914 
2022-06-14 12 15 05 21.119958877563477 53.19538497924805 
2022-06-14 12 15 10 21.119958877563477 53.72615432739258 
2022-06-14 12 15 15 21.119958877563477 54.256935119628906 
2022-06-14 12 15 20 21.79448890686035 53.991455078125 
2022-06-14 12 15 25 21.45549964904785 53.764774322509766 
2022-06-14 12 15 31 21.287317276000977 53.40185546875 
2022-06-14 12 15 36 21.287317276000977 52.933372497558594 
2022-06-14 12 15 41 21.287317276000977 52.4961051940918 
2022-06-14 12 15 46 21.45549964904785 52.17133331298828 
2022-06-14 12 15 51 21.45549964904785 51.452720642089844 
2022-06-14 12 15 56 21.45549964904785 56.389278411865234 
2022-06-14 12 16 01 21.287317276000977 58.99253463745117 
2022-06-14 12 16 07 21.287317276000977 58.9300537109375 
2022-06-14 12 16 12 21.287317276000977 58.77389907836914 
2022-06-14 12 16 17 21.119958877563477 56.067779541015625 
2022-06-14 12 16 22 21.119958877563477 54.13203811645508 
2022-06-14 12 16 27 20.95342445373535 52.70826721191406 
2022-06-14 12 16 32 21.119958877563477 52.102630615234375 
2022-06-14 12 16 37 21.119958877563477 51.72797775268555 
2022-06-14 12 16 42 21.119958877563477 51.353328704833984 
2022-06-14 12 16 48 21.119958877563477 51.2596435546875 
2022-06-14 12 16 53 21.119958877563477 51.0098762512207 
2022-06-14 12 16 58 21.119958877563477 51.2596435546875 
2022-06-14 12 17 03 21.119958877563477 51.571868896484375 
2022-06-14 12 17 08 21.119958877563477 52.66462707519531 
2022-06-14 12 17 13 21.287317276000977 52.55857467651367 
2022-06-14 12 17 18 21.45549964904785 56.23305892944336 
2022-06-14 12 17 24 21.62456703186035 58.31629180908203 
2022-06-14 12 17 29 21.45549964904785 57.7640266418457 
2022-06-14 12 17 34 21.45549964904785 56.48301696777344 
2022-06-14 12 17 39 21.45549964904785 55.045780181884766 
2022-06-14 12 17 44 21.45549964904785 54.17094802856445 
2022-06-14 12 17 49 21.45549964904785 54.32716369628906 
2022-06-14 12 17 54 21.62456703186035 54.62815856933594 
2022-06-14 12 18 00 21.45549964904785 54.3584098815918 
2022-06-14 12 18 05 21.45549964904785 54.42090606689453 
2022-06-14 12 18 10 21.45549964904785 53.608558654785156 
2022-06-14 12 18 15 21.45549964904785 52.85869598388672 
2022-06-14 12 18 20 21.45549964904785 52.26506042480469 
2022-06-14 12 18 25 21.62456703186035 51.81517028808594 
2022-06-14 12 18 30 21.62456703186035 51.62763977050781 
2022-06-14 12 18 35 21.62456703186035 51.408851623535156 
2022-06-14 12 18 41 21.45549964904785 51.54645538330078 
2022-06-14 12 18 46 21.45549964904785 51.421470642089844 
2022-06-14 12 18 51 21.45549964904785 51.452720642089844 
2022-06-14 12 18 56 21.45549964904785 51.140281677246094 
2022-06-14 12 19 01 21.45549964904785 50.952816009521484 
2022-06-14 12 19 06 21.45549964904785 50.39041519165039 
2022-06-14 12 19 11 21.45549964904785 50.452911376953125 
2022-06-14 12 19 17 21.45549964904785 50.20295333862305 
2022-06-14 12 19 22 21.45549964904785 50.26545333862305 
2022-06-14 12 19 27 21.45549964904785 50.171714782714844 
2022-06-14 12 19 32 21.45549964904785 49.9217643737793 
2022-06-14 12 19 37 21.45549964904785 50.140464782714844 
2022-06-14 12 19 42 21.45549964904785 50.171714782714844 
2022-06-14 12 19 47 21.45549964904785 50.296688079833984 
2022-06-14 12 19 53 21.45549964904785 50.42167663574219 
2022-06-14 12 19 58 21.45549964904785 50.26544189453125 
2022-06-14 12 20 03 22.1369571685791 50.46409606933594 
2022-06-14 12 20 08 21.45549964904785 50.26544189453125 
2022-06-14 12 20 13 21.45549964904785 50.42165756225586 
2022-06-14 12 20 18 21.287317276000977 50.497196197509766 
2022-06-14 12 20 23 21.287317276000977 50.43474197387695 
2022-06-14 12 20 28 21.45549964904785 50.26544189453125 
2022-06-14 12 20 34 21.45549964904785 50.48415756225586 
2022-06-14 12 20 39 21.45549964904785 50.421669006347656 
2022-06-14 12 20 44 21.62456703186035 51.62763977050781 
2022-06-14 12 20 49 21.62456703186035 51.065040588378906 
2022-06-14 12 20 54 21.62456703186035 51.065040588378906 
2022-06-14 12 20 59 21.62456703186035 51.62763977050781 
2022-06-14 12 21 04 21.62456703186035 51.25257873535156 
2022-06-14 12 21 10 21.62456703186035 50.94001770019531 
2022-06-14 12 21 15 21.62456703186035 50.87751007080078 
2022-06-14 12 21 20 21.62456703186035 50.783748626708984 
2022-06-14 12 21 25 21.62456703186035 50.65872573852539 
2022-06-14 12 21 30 21.62456703186035 50.37742614746094 
2022-06-14 12 21 35 21.45549964904785 50.171714782714844 
2022-06-14 12 21 40 21.79448890686035 50.58336639404297 
2022-06-14 12 21 46 21.79448890686035 50.989845275878906 
2022-06-14 12 21 51 21.79448890686035 51.271236419677734 
2022-06-14 12 21 56 21.62456703186035 51.346351623535156 
2022-06-14 12 22 01 21.79448890686035 51.146175384521484 
2022-06-14 12 22 06 21.79448890686035 50.301971435546875 
2022-06-14 12 22 11 21.79448890686035 50.67717361450195 
2022-06-14 12 22 16 21.79448890686035 50.86478042602539 
2022-06-14 12 22 21 21.79448890686035 51.67771530151367 
2022-06-14 12 22 27 21.62456703186035 51.252567291259766 
2022-06-14 12 22 32 21.79448890686035 50.520843505859375 
2022-06-14 12 22 37 21.79448890686035 50.145633697509766 
2022-06-14 12 22 42 21.965295791625977 50.038902282714844 
2022-06-14 12 22 47 21.79448890686035 50.114376068115234 
2022-06-14 12 22 52 21.79448890686035 49.80171585083008 
2022-06-14 12 22 57 21.79448890686035 49.58283233642578 
2022-06-14 12 23 03 21.965295791625977 49.53844451904297 
2022-06-14 12 23 08 21.965295791625977 49.69483947753906 
2022-06-14 12 23 13 21.79448890686035 50.48957061767578 
2022-06-14 12 23 18 21.965295791625977 50.476802825927734 
2022-06-14 12 23 23 21.965295791625977 51.35258483886719 
2022-06-14 12 23 28 21.965295791625977 51.44641876220703 
2022-06-14 12 23 33 21.965295791625977 50.53935241699219 
2022-06-14 12 23 39 21.79448890686035 51.05238342285156 
2022-06-14 12 23 44 21.79448890686035 50.520843505859375 
2022-06-14 12 23 49 21.79448890686035 50.14564514160156 
2022-06-14 12 23 54 21.965295791625977 49.85123825073242 
2022-06-14 12 23 59 21.965295791625977 50.00762176513672 
2022-06-14 12 24 04 21.965295791625977 49.91379165649414 
2022-06-14 12 24 09 21.965295791625977 49.851226806640625 
2022-06-14 12 24 14 21.965295791625977 49.97634506225586 
2022-06-14 12 24 20 21.965295791625977 50.00762176513672 
2022-06-14 12 24 25 21.965295791625977 49.66355514526367 
2022-06-14 12 24 30 21.965295791625977 49.72610855102539 
2022-06-14 12 24 35 22.1369571685791 51.37149429321289 
2022-06-14 12 24 40 21.965295791625977 52.85393524169922 
2022-06-14 12 24 45 22.832666397094727 52.263038635253906 
2022-06-14 12 24 50 21.965295791625977 51.196197509765625 
2022-06-14 12 24 56 22.1369571685791 50.65183639526367 
2022-06-14 12 25 01 22.1369571685791 50.11990737915039 
2022-06-14 12 25 06 21.965295791625977 50.10144805908203 
2022-06-14 12 25 11 21.965295791625977 49.413333892822266 
2022-06-14 12 25 16 21.965295791625977 49.31950378417969 
2022-06-14 12 25 21 21.965295791625977 49.006717681884766 
2022-06-14 12 25 26 21.965295791625977 49.006717681884766 
2022-06-14 12 25 32 21.79448890686035 48.80116653442383 
2022-06-14 12 25 37 22.48296546936035 48.71674346923828 
2022-06-14 12 25 42 21.965295791625977 48.56882095336914 
2022-06-14 12 25 47 21.965295791625977 48.693931579589844 
2022-06-14 12 25 52 21.965295791625977 48.506263732910156 
2022-06-14 12 25 57 22.1369571685791 48.680580139160156 
2022-06-14 12 26 02 22.1369571685791 48.7431640625 
2022-06-14 12 26 07 21.965295791625977 49.47589111328125 
2022-06-14 12 26 13 21.965295791625977 48.78776931762695 
2022-06-14 12 26 18 22.1369571685791 49.02476501464844 
2022-06-14 12 26 23 22.1369571685791 48.61798858642578 
2022-06-14 12 26 28 22.1369571685791 48.80574035644531 
2022-06-14 12 26 33 22.30950355529785 48.72990417480469 
2022-06-14 12 26 38 22.1369571685791 48.774444580078125 
2022-06-14 12 26 43 22.30950355529785 49.011619567871094 
2022-06-14 12 26 49 22.1369571685791 48.774444580078125 
2022-06-14 12 26 54 22.1369571685791 48.71186447143555 
2022-06-14 12 26 59 22.1369571685791 48.774444580078125 
2022-06-14 12 27 04 22.30950355529785 48.76121520996094 
2022-06-14 12 27 09 22.48296546936035 48.40361785888672 
2022-06-14 12 27 14 22.30950355529785 48.26038360595703 
2022-06-14 12 27 19 22.30950355529785 48.4794921875 
2022-06-14 12 27 25 22.48296546936035 47.80866622924805 
2022-06-14 12 27 30 22.30950355529785 48.041282653808594 
2022-06-14 12 27 35 22.30950355529785 47.32135009765625 
2022-06-14 12 27 40 22.30950355529785 47.66565704345703 
2022-06-14 12 27 45 22.30950355529785 47.75956726074219 
2022-06-14 12 27 50 21.965295791625977 47.97453308105469 
2022-06-14 12 27 55 22.30950355529785 48.229087829589844 
2022-06-14 12 28 00 22.30950355529785 47.75956726074219 
2022-06-14 12 28 06 22.30950355529785 48.041282653808594 
2022-06-14 12 28 11 22.30950355529785 48.009971618652344 
2022-06-14 12 28 16 22.1369571685791 47.86704635620117 
2022-06-14 12 28 21 22.1369571685791 47.67930603027344 
2022-06-14 12 28 26 22.30950355529785 47.44655227661133 
2022-06-14 12 28 31 22.1369571685791 47.804466247558594 
2022-06-14 12 28 36 22.30950355529785 47.916072845458984 
2022-06-14 12 28 42 22.30950355529785 47.7282600402832 
2022-06-14 12 28 47 22.30950355529785 47.290042877197266 
