2022-08-19 16:40:49 {'measurement': 'measName', 'fields': {'measV_HV2': -100.0, 'measI_HV2': -1.347818e-07, 'settV_HV2': -100.0, 'settI_HV2': 0.0}, 'tags': {'user': 'root'}}
2022-08-19 16:40:50 {'measurement': 'measName', 'fields': {'measV_HV2': -100.0, 'measI_HV2': -1.443751e-07, 'settV_HV2': -100.0, 'settI_HV2': 0.0}, 'tags': {'user': 'root'}}
2022-08-19 16:40:51 {'measurement': 'measName', 'fields': {'measV_HV2': -100.0, 'measI_HV2': -1.381634e-07, 'settV_HV2': -100.0, 'settI_HV2': 0.0}, 'tags': {'user': 'root'}}
2022-08-19 16:40:52 {'measurement': 'measName', 'fields': {'measV_HV2': -100.0, 'measI_HV2': -1.35193e-07, 'settV_HV2': -100.0, 'settI_HV2': 0.0}, 'tags': {'user': 'root'}}
2022-08-19 16:40:52 {'measurement': 'measName', 'fields': {'measV_HV2': -100.0, 'measI_HV2': -1.432935e-07, 'settV_HV2': -100.0, 'settI_HV2': 0.0}, 'tags': {'user': 'root'}}
2022-08-19 16:40:53 {'measurement': 'measName', 'fields': {'measV_HV2': -100.0, 'measI_HV2': -1.484199e-07, 'settV_HV2': -100.0, 'settI_HV2': 0.0}, 'tags': {'user': 'root'}}
2022-08-19 16:40:54 {'measurement': 'measName', 'fields': {'measV_HV2': -100.0, 'measI_HV2': -1.468053e-07, 'settV_HV2': -100.0, 'settI_HV2': 0.0}, 'tags': {'user': 'root'}}
2022-08-19 16:40:54 {'measurement': 'measName', 'fields': {'measV_HV2': -100.0, 'measI_HV2': -1.383541e-07, 'settV_HV2': -100.0, 'settI_HV2': 0.0}, 'tags': {'user': 'root'}}
2022-08-19 16:40:55 {'measurement': 'measName', 'fields': {'measV_HV2': -100.0, 'measI_HV2': -1.338756e-07, 'settV_HV2': -100.0, 'settI_HV2': 0.0}, 'tags': {'user': 'root'}}
2022-08-19 16:40:56 {'measurement': 'measName', 'fields': {'measV_HV2': -100.0, 'measI_HV2': -1.374224e-07, 'settV_HV2': -100.0, 'settI_HV2': 0.0}, 'tags': {'user': 'root'}}
2022-08-19 16:40:56 {'measurement': 'measName', 'fields': {'measV_HV2': -100.0, 'measI_HV2': -1.431096e-07, 'settV_HV2': -100.0, 'settI_HV2': 0.0}, 'tags': {'user': 'root'}}
2022-08-19 16:40:57 {'measurement': 'measName', 'fields': {'measV_HV2': -100.0, 'measI_HV2': -1.464795e-07, 'settV_HV2': -100.0, 'settI_HV2': 0.0}, 'tags': {'user': 'root'}}
2022-08-19 16:40:58 {'measurement': 'measName', 'fields': {'measV_HV2': -100.0, 'measI_HV2': -1.446059e-07, 'settV_HV2': -100.0, 'settI_HV2': 0.0}, 'tags': {'user': 'root'}}
2022-08-19 16:40:58 {'measurement': 'measName', 'fields': {'measV_HV2': -100.0, 'measI_HV2': -1.426199e-07, 'settV_HV2': -100.0, 'settI_HV2': 0.0}, 'tags': {'user': 'root'}}
2022-08-19 16:40:59 {'measurement': 'measName', 'fields': {'measV_HV2': -100.0, 'measI_HV2': -1.346862e-07, 'settV_HV2': -100.0, 'settI_HV2': 0.0}, 'tags': {'user': 'root'}}
2022-08-19 16:41:00 {'measurement': 'measName', 'fields': {'measV_HV2': -100.0, 'measI_HV2': -1.362293e-07, 'settV_HV2': -100.0, 'settI_HV2': 0.0}, 'tags': {'user': 'root'}}
2022-08-19 16:41:01 {'measurement': 'measName', 'fields': {'measV_HV2': -100.0, 'measI_HV2': -1.342518e-07, 'settV_HV2': -100.0, 'settI_HV2': 0.0}, 'tags': {'user': 'root'}}
2022-08-19 16:41:02 {'measurement': 'measName', 'fields': {'measV_HV2': -100.0, 'measI_HV2': -1.34723e-07, 'settV_HV2': -100.0, 'settI_HV2': 0.0}, 'tags': {'user': 'root'}}
2022-08-19 16:41:02 {'measurement': 'measName', 'fields': {'measV_HV2': -100.0, 'measI_HV2': -1.397762e-07, 'settV_HV2': -100.0, 'settI_HV2': 0.0}, 'tags': {'user': 'root'}}
2022-08-19 16:41:03 {'measurement': 'measName', 'fields': {'measV_HV2': -100.0, 'measI_HV2': -1.47083e-07, 'settV_HV2': -100.0, 'settI_HV2': 0.0}, 'tags': {'user': 'root'}}
2022-08-19 16:41:04 {'measurement': 'measName', 'fields': {'measV_HV2': -100.0, 'measI_HV2': -1.40633e-07, 'settV_HV2': -100.0, 'settI_HV2': 0.0}, 'tags': {'user': 'root'}}
2022-08-19 16:41:05 {'measurement': 'measName', 'fields': {'measV_HV2': -100.0, 'measI_HV2': -1.357354e-07, 'settV_HV2': -100.0, 'settI_HV2': 0.0}, 'tags': {'user': 'root'}}
2022-08-19 16:41:05 {'measurement': 'measName', 'fields': {'measV_HV2': -100.0, 'measI_HV2': -1.364492e-07, 'settV_HV2': -100.0, 'settI_HV2': 0.0}, 'tags': {'user': 'root'}}
2022-08-19 16:41:06 {'measurement': 'measName', 'fields': {'measV_HV2': -100.0, 'measI_HV2': -1.448416e-07, 'settV_HV2': -100.0, 'settI_HV2': 0.0}, 'tags': {'user': 'root'}}
2022-08-19 16:41:07 {'measurement': 'measName', 'fields': {'measV_HV2': -100.0, 'measI_HV2': -1.445539e-07, 'settV_HV2': -100.0, 'settI_HV2': 0.0}, 'tags': {'user': 'root'}}
2022-08-19 16:41:07 {'measurement': 'measName', 'fields': {'measV_HV2': -100.0, 'measI_HV2': -1.378785e-07, 'settV_HV2': -100.0, 'settI_HV2': 0.0}, 'tags': {'user': 'root'}}
2022-08-19 16:41:08 {'measurement': 'measName', 'fields': {'measV_HV2': -100.0, 'measI_HV2': -1.387306e-07, 'settV_HV2': -100.0, 'settI_HV2': 0.0}, 'tags': {'user': 'root'}}
2022-08-19 16:41:09 {'measurement': 'measName', 'fields': {'measV_HV2': -100.0, 'measI_HV2': -1.485609e-07, 'settV_HV2': -100.0, 'settI_HV2': 0.0}, 'tags': {'user': 'root'}}
2022-08-19 16:41:09 {'measurement': 'measName', 'fields': {'measV_HV2': -100.0, 'measI_HV2': -1.482815e-07, 'settV_HV2': -100.0, 'settI_HV2': 0.0}, 'tags': {'user': 'root'}}
2022-08-19 16:41:10 {'measurement': 'measName', 'fields': {'measV_HV2': -100.0, 'measI_HV2': -1.408441e-07, 'settV_HV2': -100.0, 'settI_HV2': 0.0}, 'tags': {'user': 'root'}}
2022-08-19 16:41:11 {'measurement': 'measName', 'fields': {'measV_HV2': -100.0, 'measI_HV2': -1.340633e-07, 'settV_HV2': -100.0, 'settI_HV2': 0.0}, 'tags': {'user': 'root'}}
2022-08-19 16:41:12 {'measurement': 'measName', 'fields': {'measV_HV2': -100.0, 'measI_HV2': -1.45609e-07, 'settV_HV2': -100.0, 'settI_HV2': 0.0}, 'tags': {'user': 'root'}}
2022-08-19 16:41:13 {'measurement': 'measName', 'fields': {'measV_HV2': -100.0, 'measI_HV2': -1.478362e-07, 'settV_HV2': -100.0, 'settI_HV2': 0.0}, 'tags': {'user': 'root'}}
2022-08-19 16:41:13 {'measurement': 'measName', 'fields': {'measV_HV2': -100.0, 'measI_HV2': -1.333346e-07, 'settV_HV2': -100.0, 'settI_HV2': 0.0}, 'tags': {'user': 'root'}}
2022-08-19 16:41:14 {'measurement': 'measName', 'fields': {'measV_HV2': -100.0, 'measI_HV2': -1.380483e-07, 'settV_HV2': -100.0, 'settI_HV2': 0.0}, 'tags': {'user': 'root'}}
2022-08-19 16:41:15 {'measurement': 'measName', 'fields': {'measV_HV2': -100.0, 'measI_HV2': -1.467701e-07, 'settV_HV2': -100.0, 'settI_HV2': 0.0}, 'tags': {'user': 'root'}}
2022-08-19 16:41:16 {'measurement': 'measName', 'fields': {'measV_HV2': -100.0, 'measI_HV2': -1.468646e-07, 'settV_HV2': -100.0, 'settI_HV2': 0.0}, 'tags': {'user': 'root'}}
2022-08-19 16:41:16 {'measurement': 'measName', 'fields': {'measV_HV2': -100.0, 'measI_HV2': -1.368593e-07, 'settV_HV2': -100.0, 'settI_HV2': 0.0}, 'tags': {'user': 'root'}}
2022-08-19 16:41:17 {'measurement': 'measName', 'fields': {'measV_HV2': -100.0, 'measI_HV2': -1.352222e-07, 'settV_HV2': -100.0, 'settI_HV2': 0.0}, 'tags': {'user': 'root'}}
2022-08-19 16:41:18 {'measurement': 'measName', 'fields': {'measV_HV2': -100.0, 'measI_HV2': -1.362905e-07, 'settV_HV2': -100.0, 'settI_HV2': 0.0}, 'tags': {'user': 'root'}}
2022-08-19 16:41:18 {'measurement': 'measName', 'fields': {'measV_HV2': -100.0, 'measI_HV2': -1.446488e-07, 'settV_HV2': -100.0, 'settI_HV2': 0.0}, 'tags': {'user': 'root'}}
2022-08-19 16:41:19 {'measurement': 'measName', 'fields': {'measV_HV2': -100.0, 'measI_HV2': -1.488619e-07, 'settV_HV2': -100.0, 'settI_HV2': 0.0}, 'tags': {'user': 'root'}}
2022-08-19 16:41:20 {'measurement': 'measName', 'fields': {'measV_HV2': -100.0, 'measI_HV2': -1.406254e-07, 'settV_HV2': -100.0, 'settI_HV2': 0.0}, 'tags': {'user': 'root'}}
2022-08-19 16:41:20 {'measurement': 'measName', 'fields': {'measV_HV2': -100.0, 'measI_HV2': -1.373597e-07, 'settV_HV2': -100.0, 'settI_HV2': 0.0}, 'tags': {'user': 'root'}}
2022-08-19 16:41:21 {'measurement': 'measName', 'fields': {'measV_HV2': -100.0, 'measI_HV2': -1.333138e-07, 'settV_HV2': -100.0, 'settI_HV2': 0.0}, 'tags': {'user': 'root'}}
2022-08-19 16:41:22 {'measurement': 'measName', 'fields': {'measV_HV2': -100.0, 'measI_HV2': -1.382732e-07, 'settV_HV2': -100.0, 'settI_HV2': 0.0}, 'tags': {'user': 'root'}}
2022-08-19 16:41:22 {'measurement': 'measName', 'fields': {'measV_HV2': -100.0, 'measI_HV2': -1.446771e-07, 'settV_HV2': -100.0, 'settI_HV2': 0.0}, 'tags': {'user': 'root'}}
2022-08-19 16:41:24 {'measurement': 'measName', 'fields': {'measV_HV2': -100.0, 'measI_HV2': -1.425381e-07, 'settV_HV2': -100.0, 'settI_HV2': 0.0}, 'tags': {'user': 'root'}}
2022-08-19 16:41:25 {'measurement': 'measName', 'fields': {'measV_HV2': -100.0, 'measI_HV2': -1.476329e-07, 'settV_HV2': -100.0, 'settI_HV2': 0.0}, 'tags': {'user': 'root'}}
2022-08-19 16:41:25 {'measurement': 'measName', 'fields': {'measV_HV2': -100.0, 'measI_HV2': -1.449167e-07, 'settV_HV2': -100.0, 'settI_HV2': 0.0}, 'tags': {'user': 'root'}}
2022-08-19 16:41:26 {'measurement': 'measName', 'fields': {'measV_HV2': -100.0, 'measI_HV2': -1.39605e-07, 'settV_HV2': -100.0, 'settI_HV2': 0.0}, 'tags': {'user': 'root'}}
2022-08-19 16:41:27 {'measurement': 'measName', 'fields': {'measV_HV2': -100.0, 'measI_HV2': -1.336347e-07, 'settV_HV2': -100.0, 'settI_HV2': 0.0}, 'tags': {'user': 'root'}}
2022-08-19 16:41:27 {'measurement': 'measName', 'fields': {'measV_HV2': -100.0, 'measI_HV2': -1.370092e-07, 'settV_HV2': -100.0, 'settI_HV2': 0.0}, 'tags': {'user': 'root'}}
2022-08-19 16:41:28 {'measurement': 'measName', 'fields': {'measV_HV2': -100.0, 'measI_HV2': -1.444282e-07, 'settV_HV2': -100.0, 'settI_HV2': 0.0}, 'tags': {'user': 'root'}}
2022-08-19 16:41:29 {'measurement': 'measName', 'fields': {'measV_HV2': -100.0, 'measI_HV2': -1.481944e-07, 'settV_HV2': -100.0, 'settI_HV2': 0.0}, 'tags': {'user': 'root'}}
2022-08-19 16:41:29 {'measurement': 'measName', 'fields': {'measV_HV2': -100.0, 'measI_HV2': -1.392162e-07, 'settV_HV2': -100.0, 'settI_HV2': 0.0}, 'tags': {'user': 'root'}}
2022-08-19 16:41:30 {'measurement': 'measName', 'fields': {'measV_HV2': -100.0, 'measI_HV2': -1.341213e-07, 'settV_HV2': -100.0, 'settI_HV2': 0.0}, 'tags': {'user': 'root'}}
2022-08-19 16:41:31 {'measurement': 'measName', 'fields': {'measV_HV2': -100.0, 'measI_HV2': -1.381932e-07, 'settV_HV2': -100.0, 'settI_HV2': 0.0}, 'tags': {'user': 'root'}}
2022-08-19 16:41:31 {'measurement': 'measName', 'fields': {'measV_HV2': -100.0, 'measI_HV2': -1.485656e-07, 'settV_HV2': -100.0, 'settI_HV2': 0.0}, 'tags': {'user': 'root'}}
2022-08-19 16:41:32 {'measurement': 'measName', 'fields': {'measV_HV2': -100.0, 'measI_HV2': -1.380606e-07, 'settV_HV2': -100.0, 'settI_HV2': 0.0}, 'tags': {'user': 'root'}}
2022-08-19 16:41:33 {'measurement': 'measName', 'fields': {'measV_HV2': -100.0, 'measI_HV2': -1.351079e-07, 'settV_HV2': -100.0, 'settI_HV2': 0.0}, 'tags': {'user': 'root'}}
2022-08-19 16:41:33 {'measurement': 'measName', 'fields': {'measV_HV2': -100.0, 'measI_HV2': -1.38801e-07, 'settV_HV2': -100.0, 'settI_HV2': 0.0}, 'tags': {'user': 'root'}}
2022-08-19 16:41:34 {'measurement': 'measName', 'fields': {'measV_HV2': -100.0, 'measI_HV2': -1.470932e-07, 'settV_HV2': -100.0, 'settI_HV2': 0.0}, 'tags': {'user': 'root'}}
2022-08-19 16:41:35 {'measurement': 'measName', 'fields': {'measV_HV2': -100.0, 'measI_HV2': -1.478652e-07, 'settV_HV2': -100.0, 'settI_HV2': 0.0}, 'tags': {'user': 'root'}}
2022-08-19 16:41:36 {'measurement': 'measName', 'fields': {'measV_HV2': -100.0, 'measI_HV2': -1.333723e-07, 'settV_HV2': -100.0, 'settI_HV2': 0.0}, 'tags': {'user': 'root'}}
2022-08-19 16:41:37 {'measurement': 'measName', 'fields': {'measV_HV2': -100.0, 'measI_HV2': -1.345559e-07, 'settV_HV2': -100.0, 'settI_HV2': 0.0}, 'tags': {'user': 'root'}}
2022-08-19 16:41:38 {'measurement': 'measName', 'fields': {'measV_HV2': -100.0, 'measI_HV2': -1.395574e-07, 'settV_HV2': -100.0, 'settI_HV2': 0.0}, 'tags': {'user': 'root'}}
2022-08-19 16:41:38 {'measurement': 'measName', 'fields': {'measV_HV2': -100.0, 'measI_HV2': -1.484179e-07, 'settV_HV2': -100.0, 'settI_HV2': 0.0}, 'tags': {'user': 'root'}}
2022-08-19 16:41:39 {'measurement': 'measName', 'fields': {'measV_HV2': -100.0, 'measI_HV2': -1.42025e-07, 'settV_HV2': -100.0, 'settI_HV2': 0.0}, 'tags': {'user': 'root'}}
2022-08-19 16:41:40 {'measurement': 'measName', 'fields': {'measV_HV2': -100.0, 'measI_HV2': -1.363333e-07, 'settV_HV2': -100.0, 'settI_HV2': 0.0}, 'tags': {'user': 'root'}}
2022-08-19 16:41:40 {'measurement': 'measName', 'fields': {'measV_HV2': -100.0, 'measI_HV2': -1.407075e-07, 'settV_HV2': -100.0, 'settI_HV2': 0.0}, 'tags': {'user': 'root'}}
2022-08-19 16:41:41 {'measurement': 'measName', 'fields': {'measV_HV2': -100.0, 'measI_HV2': -1.471971e-07, 'settV_HV2': -100.0, 'settI_HV2': 0.0}, 'tags': {'user': 'root'}}
2022-08-19 16:41:42 {'measurement': 'measName', 'fields': {'measV_HV2': -100.0, 'measI_HV2': -1.455949e-07, 'settV_HV2': -100.0, 'settI_HV2': 0.0}, 'tags': {'user': 'root'}}
2022-08-19 16:41:42 {'measurement': 'measName', 'fields': {'measV_HV2': -100.0, 'measI_HV2': -1.384947e-07, 'settV_HV2': -100.0, 'settI_HV2': 0.0}, 'tags': {'user': 'root'}}
2022-08-19 16:41:43 {'measurement': 'measName', 'fields': {'measV_HV2': -100.0, 'measI_HV2': -1.37159e-07, 'settV_HV2': -100.0, 'settI_HV2': 0.0}, 'tags': {'user': 'root'}}
2022-08-19 16:41:44 {'measurement': 'measName', 'fields': {'measV_HV2': -100.0, 'measI_HV2': -1.451222e-07, 'settV_HV2': -100.0, 'settI_HV2': 0.0}, 'tags': {'user': 'root'}}
2022-08-19 16:41:44 {'measurement': 'measName', 'fields': {'measV_HV2': -100.0, 'measI_HV2': -1.442632e-07, 'settV_HV2': -100.0, 'settI_HV2': 0.0}, 'tags': {'user': 'root'}}
2022-08-19 16:41:45 {'measurement': 'measName', 'fields': {'measV_HV2': -100.0, 'measI_HV2': -1.372954e-07, 'settV_HV2': -100.0, 'settI_HV2': 0.0}, 'tags': {'user': 'root'}}
2022-08-19 16:41:46 {'measurement': 'measName', 'fields': {'measV_HV2': -100.0, 'measI_HV2': -1.35207e-07, 'settV_HV2': -100.0, 'settI_HV2': 0.0}, 'tags': {'user': 'root'}}
2022-08-19 16:41:47 {'measurement': 'measName', 'fields': {'measV_HV2': -100.0, 'measI_HV2': -1.480342e-07, 'settV_HV2': -100.0, 'settI_HV2': 0.0}, 'tags': {'user': 'root'}}
2022-08-19 16:41:48 {'measurement': 'measName', 'fields': {'measV_HV2': -100.0, 'measI_HV2': -1.341823e-07, 'settV_HV2': -100.0, 'settI_HV2': 0.0}, 'tags': {'user': 'root'}}
2022-08-19 16:41:48 {'measurement': 'measName', 'fields': {'measV_HV2': -100.0, 'measI_HV2': -1.365801e-07, 'settV_HV2': -100.0, 'settI_HV2': 0.0}, 'tags': {'user': 'root'}}
2022-08-19 16:41:49 {'measurement': 'measName', 'fields': {'measV_HV2': -100.0, 'measI_HV2': -1.468241e-07, 'settV_HV2': -100.0, 'settI_HV2': 0.0}, 'tags': {'user': 'root'}}
2022-08-19 16:41:50 {'measurement': 'measName', 'fields': {'measV_HV2': -100.0, 'measI_HV2': -1.414593e-07, 'settV_HV2': -100.0, 'settI_HV2': 0.0}, 'tags': {'user': 'root'}}
2022-08-19 16:41:51 {'measurement': 'measName', 'fields': {'measV_HV2': -100.0, 'measI_HV2': -1.343345e-07, 'settV_HV2': -100.0, 'settI_HV2': 0.0}, 'tags': {'user': 'root'}}
2022-08-19 16:41:51 {'measurement': 'measName', 'fields': {'measV_HV2': -100.0, 'measI_HV2': -1.433469e-07, 'settV_HV2': -100.0, 'settI_HV2': 0.0}, 'tags': {'user': 'root'}}
2022-08-19 16:41:52 {'measurement': 'measName', 'fields': {'measV_HV2': -100.0, 'measI_HV2': -1.465385e-07, 'settV_HV2': -100.0, 'settI_HV2': 0.0}, 'tags': {'user': 'root'}}
2022-08-19 16:41:53 {'measurement': 'measName', 'fields': {'measV_HV2': -100.0, 'measI_HV2': -1.428311e-07, 'settV_HV2': -100.0, 'settI_HV2': 0.0}, 'tags': {'user': 'root'}}
2022-08-19 16:41:53 {'measurement': 'measName', 'fields': {'measV_HV2': -100.0, 'measI_HV2': -1.349113e-07, 'settV_HV2': -100.0, 'settI_HV2': 0.0}, 'tags': {'user': 'root'}}
2022-08-19 16:41:54 {'measurement': 'measName', 'fields': {'measV_HV2': -100.0, 'measI_HV2': -1.387718e-07, 'settV_HV2': -100.0, 'settI_HV2': 0.0}, 'tags': {'user': 'root'}}
2022-08-19 16:41:55 {'measurement': 'measName', 'fields': {'measV_HV2': -100.0, 'measI_HV2': -1.480784e-07, 'settV_HV2': -100.0, 'settI_HV2': 0.0}, 'tags': {'user': 'root'}}
2022-08-19 16:41:55 {'measurement': 'measName', 'fields': {'measV_HV2': -100.0, 'measI_HV2': -1.424182e-07, 'settV_HV2': -100.0, 'settI_HV2': 0.0}, 'tags': {'user': 'root'}}
2022-08-19 16:41:56 {'measurement': 'measName', 'fields': {'measV_HV2': -100.0, 'measI_HV2': -1.330464e-07, 'settV_HV2': -100.0, 'settI_HV2': 0.0}, 'tags': {'user': 'root'}}
2022-08-19 16:41:57 {'measurement': 'measName', 'fields': {'measV_HV2': -100.0, 'measI_HV2': -1.364129e-07, 'settV_HV2': -100.0, 'settI_HV2': 0.0}, 'tags': {'user': 'root'}}
2022-08-19 16:41:57 {'measurement': 'measName', 'fields': {'measV_HV2': -100.0, 'measI_HV2': -1.463483e-07, 'settV_HV2': -100.0, 'settI_HV2': 0.0}, 'tags': {'user': 'root'}}
2022-08-19 16:41:58 {'measurement': 'measName', 'fields': {'measV_HV2': -100.0, 'measI_HV2': -1.364846e-07, 'settV_HV2': -100.0, 'settI_HV2': 0.0}, 'tags': {'user': 'root'}}
2022-08-19 16:41:59 {'measurement': 'measName', 'fields': {'measV_HV2': -100.0, 'measI_HV2': -1.356595e-07, 'settV_HV2': -100.0, 'settI_HV2': 0.0}, 'tags': {'user': 'root'}}
2022-08-19 16:42:00 {'measurement': 'measName', 'fields': {'measV_HV2': -100.0, 'measI_HV2': -1.470577e-07, 'settV_HV2': -100.0, 'settI_HV2': 0.0}, 'tags': {'user': 'root'}}
2022-08-19 16:42:01 {'measurement': 'measName', 'fields': {'measV_HV2': -100.0, 'measI_HV2': -1.424694e-07, 'settV_HV2': -100.0, 'settI_HV2': 0.0}, 'tags': {'user': 'root'}}
2022-08-19 16:42:02 {'measurement': 'measName', 'fields': {'measV_HV2': -100.0, 'measI_HV2': -1.331729e-07, 'settV_HV2': -100.0, 'settI_HV2': 0.0}, 'tags': {'user': 'root'}}
2022-08-19 16:42:02 {'measurement': 'measName', 'fields': {'measV_HV2': -100.0, 'measI_HV2': -1.381177e-07, 'settV_HV2': -100.0, 'settI_HV2': 0.0}, 'tags': {'user': 'root'}}
2022-08-19 16:42:03 {'measurement': 'measName', 'fields': {'measV_HV2': -100.0, 'measI_HV2': -1.455044e-07, 'settV_HV2': -100.0, 'settI_HV2': 0.0}, 'tags': {'user': 'root'}}
2022-08-19 16:42:04 {'measurement': 'measName', 'fields': {'measV_HV2': -100.0, 'measI_HV2': -1.461499e-07, 'settV_HV2': -100.0, 'settI_HV2': 0.0}, 'tags': {'user': 'root'}}
2022-08-19 16:42:04 {'measurement': 'measName', 'fields': {'measV_HV2': -100.0, 'measI_HV2': -1.42077e-07, 'settV_HV2': -100.0, 'settI_HV2': 0.0}, 'tags': {'user': 'root'}}
2022-08-19 16:42:05 {'measurement': 'measName', 'fields': {'measV_HV2': -100.0, 'measI_HV2': -1.346455e-07, 'settV_HV2': -100.0, 'settI_HV2': 0.0}, 'tags': {'user': 'root'}}
2022-08-19 16:42:06 {'measurement': 'measName', 'fields': {'measV_HV2': -100.0, 'measI_HV2': -1.386343e-07, 'settV_HV2': -100.0, 'settI_HV2': 0.0}, 'tags': {'user': 'root'}}
2022-08-19 16:42:06 {'measurement': 'measName', 'fields': {'measV_HV2': -100.0, 'measI_HV2': -1.479372e-07, 'settV_HV2': -100.0, 'settI_HV2': 0.0}, 'tags': {'user': 'root'}}
2022-08-19 16:42:07 {'measurement': 'measName', 'fields': {'measV_HV2': -100.0, 'measI_HV2': -1.434429e-07, 'settV_HV2': -100.0, 'settI_HV2': 0.0}, 'tags': {'user': 'root'}}
2022-08-19 16:42:08 {'measurement': 'measName', 'fields': {'measV_HV2': -100.0, 'measI_HV2': -1.33446e-07, 'settV_HV2': -100.0, 'settI_HV2': 0.0}, 'tags': {'user': 'root'}}
2022-08-19 16:42:08 {'measurement': 'measName', 'fields': {'measV_HV2': -100.0, 'measI_HV2': -1.362125e-07, 'settV_HV2': -100.0, 'settI_HV2': 0.0}, 'tags': {'user': 'root'}}
2022-08-19 16:42:09 {'measurement': 'measName', 'fields': {'measV_HV2': -100.0, 'measI_HV2': -1.452119e-07, 'settV_HV2': -100.0, 'settI_HV2': 0.0}, 'tags': {'user': 'root'}}
2022-08-19 16:42:10 {'measurement': 'measName', 'fields': {'measV_HV2': -100.0, 'measI_HV2': -1.334345e-07, 'settV_HV2': -100.0, 'settI_HV2': 0.0}, 'tags': {'user': 'root'}}
2022-08-19 16:42:11 {'measurement': 'measName', 'fields': {'measV_HV2': -100.0, 'measI_HV2': -1.350428e-07, 'settV_HV2': -100.0, 'settI_HV2': 0.0}, 'tags': {'user': 'root'}}
2022-08-19 16:42:12 {'measurement': 'measName', 'fields': {'measV_HV2': -100.0, 'measI_HV2': -1.465716e-07, 'settV_HV2': -100.0, 'settI_HV2': 0.0}, 'tags': {'user': 'root'}}
2022-08-19 16:42:13 {'measurement': 'measName', 'fields': {'measV_HV2': -100.0, 'measI_HV2': -1.401033e-07, 'settV_HV2': -100.0, 'settI_HV2': 0.0}, 'tags': {'user': 'root'}}
2022-08-19 16:42:13 {'measurement': 'measName', 'fields': {'measV_HV2': -100.0, 'measI_HV2': -1.341997e-07, 'settV_HV2': -100.0, 'settI_HV2': 0.0}, 'tags': {'user': 'root'}}
2022-08-19 16:42:14 {'measurement': 'measName', 'fields': {'measV_HV2': -100.0, 'measI_HV2': -1.394185e-07, 'settV_HV2': -100.0, 'settI_HV2': 0.0}, 'tags': {'user': 'root'}}
2022-08-19 16:42:15 {'measurement': 'measName', 'fields': {'measV_HV2': -100.0, 'measI_HV2': -1.45973e-07, 'settV_HV2': -100.0, 'settI_HV2': 0.0}, 'tags': {'user': 'root'}}
2022-08-19 16:42:15 {'measurement': 'measName', 'fields': {'measV_HV2': -100.0, 'measI_HV2': -1.426804e-07, 'settV_HV2': -100.0, 'settI_HV2': 0.0}, 'tags': {'user': 'root'}}
2022-08-19 16:42:16 {'measurement': 'measName', 'fields': {'measV_HV2': -100.0, 'measI_HV2': -1.358369e-07, 'settV_HV2': -100.0, 'settI_HV2': 0.0}, 'tags': {'user': 'root'}}
2022-08-19 16:42:17 {'measurement': 'measName', 'fields': {'measV_HV2': -100.0, 'measI_HV2': -1.355883e-07, 'settV_HV2': -100.0, 'settI_HV2': 0.0}, 'tags': {'user': 'root'}}
2022-08-19 16:42:17 {'measurement': 'measName', 'fields': {'measV_HV2': -100.0, 'measI_HV2': -1.447459e-07, 'settV_HV2': -100.0, 'settI_HV2': 0.0}, 'tags': {'user': 'root'}}
2022-08-19 16:42:18 {'measurement': 'measName', 'fields': {'measV_HV2': -100.0, 'measI_HV2': -1.476221e-07, 'settV_HV2': -100.0, 'settI_HV2': 0.0}, 'tags': {'user': 'root'}}
2022-08-19 16:42:19 {'measurement': 'measName', 'fields': {'measV_HV2': -100.0, 'measI_HV2': -1.392882e-07, 'settV_HV2': -100.0, 'settI_HV2': 0.0}, 'tags': {'user': 'root'}}
2022-08-19 16:42:19 {'measurement': 'measName', 'fields': {'measV_HV2': -100.0, 'measI_HV2': -1.33846e-07, 'settV_HV2': -100.0, 'settI_HV2': 0.0}, 'tags': {'user': 'root'}}
2022-08-19 16:42:20 {'measurement': 'measName', 'fields': {'measV_HV2': -100.0, 'measI_HV2': -1.340812e-07, 'settV_HV2': -100.0, 'settI_HV2': 0.0}, 'tags': {'user': 'root'}}
2022-08-19 16:42:21 {'measurement': 'measName', 'fields': {'measV_HV2': -100.0, 'measI_HV2': -1.453084e-07, 'settV_HV2': -100.0, 'settI_HV2': 0.0}, 'tags': {'user': 'root'}}
2022-08-19 16:42:22 {'measurement': 'measName', 'fields': {'measV_HV2': -100.0, 'measI_HV2': -1.445568e-07, 'settV_HV2': -100.0, 'settI_HV2': 0.0}, 'tags': {'user': 'root'}}
2022-08-19 16:42:23 {'measurement': 'measName', 'fields': {'measV_HV2': -100.0, 'measI_HV2': -1.368844e-07, 'settV_HV2': -100.0, 'settI_HV2': 0.0}, 'tags': {'user': 'root'}}
2022-08-19 16:42:24 {'measurement': 'measName', 'fields': {'measV_HV2': -100.0, 'measI_HV2': -1.450755e-07, 'settV_HV2': -100.0, 'settI_HV2': 0.0}, 'tags': {'user': 'root'}}
2022-08-19 16:42:24 {'measurement': 'measName', 'fields': {'measV_HV2': -100.0, 'measI_HV2': -1.412731e-07, 'settV_HV2': -100.0, 'settI_HV2': 0.0}, 'tags': {'user': 'root'}}
2022-08-19 16:42:25 {'measurement': 'measName', 'fields': {'measV_HV2': -100.0, 'measI_HV2': -1.356333e-07, 'settV_HV2': -100.0, 'settI_HV2': 0.0}, 'tags': {'user': 'root'}}
2022-08-19 16:42:26 {'measurement': 'measName', 'fields': {'measV_HV2': -100.0, 'measI_HV2': -1.378215e-07, 'settV_HV2': -100.0, 'settI_HV2': 0.0}, 'tags': {'user': 'root'}}
2022-08-19 16:42:26 {'measurement': 'measName', 'fields': {'measV_HV2': -100.0, 'measI_HV2': -1.458054e-07, 'settV_HV2': -100.0, 'settI_HV2': 0.0}, 'tags': {'user': 'root'}}
2022-08-19 16:42:27 {'measurement': 'measName', 'fields': {'measV_HV2': -100.0, 'measI_HV2': -1.394141e-07, 'settV_HV2': -100.0, 'settI_HV2': 0.0}, 'tags': {'user': 'root'}}
2022-08-19 16:42:28 {'measurement': 'measName', 'fields': {'measV_HV2': -100.0, 'measI_HV2': -1.349971e-07, 'settV_HV2': -100.0, 'settI_HV2': 0.0}, 'tags': {'user': 'root'}}
2022-08-19 16:42:28 {'measurement': 'measName', 'fields': {'measV_HV2': -100.0, 'measI_HV2': -1.407438e-07, 'settV_HV2': -100.0, 'settI_HV2': 0.0}, 'tags': {'user': 'root'}}
2022-08-19 16:42:29 {'measurement': 'measName', 'fields': {'measV_HV2': -100.0, 'measI_HV2': -1.476294e-07, 'settV_HV2': -100.0, 'settI_HV2': 0.0}, 'tags': {'user': 'root'}}
2022-08-19 16:42:30 {'measurement': 'measName', 'fields': {'measV_HV2': -100.0, 'measI_HV2': -1.403396e-07, 'settV_HV2': -100.0, 'settI_HV2': 0.0}, 'tags': {'user': 'root'}}
2022-08-19 16:42:30 {'measurement': 'measName', 'fields': {'measV_HV2': -100.0, 'measI_HV2': -1.346925e-07, 'settV_HV2': -100.0, 'settI_HV2': 0.0}, 'tags': {'user': 'root'}}
2022-08-19 16:42:31 {'measurement': 'measName', 'fields': {'measV_HV2': -100.0, 'measI_HV2': -1.368481e-07, 'settV_HV2': -100.0, 'settI_HV2': 0.0}, 'tags': {'user': 'root'}}
2022-08-19 16:42:32 {'measurement': 'measName', 'fields': {'measV_HV2': -100.0, 'measI_HV2': -1.459743e-07, 'settV_HV2': -100.0, 'settI_HV2': 0.0}, 'tags': {'user': 'root'}}
2022-08-19 16:42:32 {'measurement': 'measName', 'fields': {'measV_HV2': -100.0, 'measI_HV2': -1.471483e-07, 'settV_HV2': -100.0, 'settI_HV2': 0.0}, 'tags': {'user': 'root'}}
2022-08-19 16:42:33 {'measurement': 'measName', 'fields': {'measV_HV2': -100.0, 'measI_HV2': -1.347488e-07, 'settV_HV2': -100.0, 'settI_HV2': 0.0}, 'tags': {'user': 'root'}}
2022-08-19 16:42:34 {'measurement': 'measName', 'fields': {'measV_HV2': -100.0, 'measI_HV2': -1.476424e-07, 'settV_HV2': -100.0, 'settI_HV2': 0.0}, 'tags': {'user': 'root'}}
2022-08-19 16:42:35 {'measurement': 'measName', 'fields': {'measV_HV2': -100.0, 'measI_HV2': -1.366911e-07, 'settV_HV2': -100.0, 'settI_HV2': 0.0}, 'tags': {'user': 'root'}}
2022-08-19 16:42:36 {'measurement': 'measName', 'fields': {'measV_HV2': -100.0, 'measI_HV2': -1.361092e-07, 'settV_HV2': -100.0, 'settI_HV2': 0.0}, 'tags': {'user': 'root'}}
2022-08-19 16:42:37 {'measurement': 'measName', 'fields': {'measV_HV2': -100.0, 'measI_HV2': -1.461062e-07, 'settV_HV2': -100.0, 'settI_HV2': 0.0}, 'tags': {'user': 'root'}}
2022-08-19 16:42:37 {'measurement': 'measName', 'fields': {'measV_HV2': -100.0, 'measI_HV2': -1.433574e-07, 'settV_HV2': -100.0, 'settI_HV2': 0.0}, 'tags': {'user': 'root'}}
2022-08-19 16:42:38 {'measurement': 'measName', 'fields': {'measV_HV2': -100.0, 'measI_HV2': -1.333825e-07, 'settV_HV2': -100.0, 'settI_HV2': 0.0}, 'tags': {'user': 'root'}}
2022-08-19 16:42:39 {'measurement': 'measName', 'fields': {'measV_HV2': -100.0, 'measI_HV2': -1.388387e-07, 'settV_HV2': -100.0, 'settI_HV2': 0.0}, 'tags': {'user': 'root'}}
2022-08-19 16:42:39 {'measurement': 'measName', 'fields': {'measV_HV2': -100.0, 'measI_HV2': -1.47726e-07, 'settV_HV2': -100.0, 'settI_HV2': 0.0}, 'tags': {'user': 'root'}}
2022-08-19 16:42:40 {'measurement': 'measName', 'fields': {'measV_HV2': -100.0, 'measI_HV2': -1.41015e-07, 'settV_HV2': -100.0, 'settI_HV2': 0.0}, 'tags': {'user': 'root'}}
2022-08-19 16:42:41 {'measurement': 'measName', 'fields': {'measV_HV2': -100.0, 'measI_HV2': -1.349568e-07, 'settV_HV2': -100.0, 'settI_HV2': 0.0}, 'tags': {'user': 'root'}}
2022-08-19 16:42:41 {'measurement': 'measName', 'fields': {'measV_HV2': -100.0, 'measI_HV2': -1.364932e-07, 'settV_HV2': -100.0, 'settI_HV2': 0.0}, 'tags': {'user': 'root'}}
2022-08-19 16:42:42 {'measurement': 'measName', 'fields': {'measV_HV2': -100.0, 'measI_HV2': -1.478176e-07, 'settV_HV2': -100.0, 'settI_HV2': 0.0}, 'tags': {'user': 'root'}}
2022-08-19 16:42:43 {'measurement': 'measName', 'fields': {'measV_HV2': -100.0, 'measI_HV2': -1.410812e-07, 'settV_HV2': -100.0, 'settI_HV2': 0.0}, 'tags': {'user': 'root'}}
2022-08-19 16:42:43 {'measurement': 'measName', 'fields': {'measV_HV2': -100.0, 'measI_HV2': -1.342732e-07, 'settV_HV2': -100.0, 'settI_HV2': 0.0}, 'tags': {'user': 'root'}}
2022-08-19 16:42:44 {'measurement': 'measName', 'fields': {'measV_HV2': -100.0, 'measI_HV2': -1.376091e-07, 'settV_HV2': -100.0, 'settI_HV2': 0.0}, 'tags': {'user': 'root'}}
2022-08-19 16:42:45 {'measurement': 'measName', 'fields': {'measV_HV2': -100.0, 'measI_HV2': -1.429392e-07, 'settV_HV2': -100.0, 'settI_HV2': 0.0}, 'tags': {'user': 'root'}}
2022-08-19 16:42:46 {'measurement': 'measName', 'fields': {'measV_HV2': -100.0, 'measI_HV2': -1.3588e-07, 'settV_HV2': -100.0, 'settI_HV2': 0.0}, 'tags': {'user': 'root'}}
2022-08-19 16:42:47 {'measurement': 'measName', 'fields': {'measV_HV2': -100.0, 'measI_HV2': -1.473937e-07, 'settV_HV2': -100.0, 'settI_HV2': 0.0}, 'tags': {'user': 'root'}}
2022-08-19 16:42:48 {'measurement': 'measName', 'fields': {'measV_HV2': -100.0, 'measI_HV2': -1.401909e-07, 'settV_HV2': -100.0, 'settI_HV2': 0.0}, 'tags': {'user': 'root'}}
2022-08-19 16:42:48 {'measurement': 'measName', 'fields': {'measV_HV2': -100.0, 'measI_HV2': -1.352387e-07, 'settV_HV2': -100.0, 'settI_HV2': 0.0}, 'tags': {'user': 'root'}}
2022-08-19 16:42:49 {'measurement': 'measName', 'fields': {'measV_HV2': -100.0, 'measI_HV2': -1.367784e-07, 'settV_HV2': -100.0, 'settI_HV2': 0.0}, 'tags': {'user': 'root'}}
2022-08-19 16:42:50 {'measurement': 'measName', 'fields': {'measV_HV2': -100.0, 'measI_HV2': -1.458203e-07, 'settV_HV2': -100.0, 'settI_HV2': 0.0}, 'tags': {'user': 'root'}}
2022-08-19 16:42:50 {'measurement': 'measName', 'fields': {'measV_HV2': -100.0, 'measI_HV2': -1.402793e-07, 'settV_HV2': -100.0, 'settI_HV2': 0.0}, 'tags': {'user': 'root'}}
2022-08-19 16:42:51 {'measurement': 'measName', 'fields': {'measV_HV2': -100.0, 'measI_HV2': -1.346762e-07, 'settV_HV2': -100.0, 'settI_HV2': 0.0}, 'tags': {'user': 'root'}}
2022-08-19 16:42:52 {'measurement': 'measName', 'fields': {'measV_HV2': -100.0, 'measI_HV2': -1.356949e-07, 'settV_HV2': -100.0, 'settI_HV2': 0.0}, 'tags': {'user': 'root'}}
2022-08-19 16:42:52 {'measurement': 'measName', 'fields': {'measV_HV2': -100.0, 'measI_HV2': -1.408354e-07, 'settV_HV2': -100.0, 'settI_HV2': 0.0}, 'tags': {'user': 'root'}}
2022-08-19 16:42:53 {'measurement': 'measName', 'fields': {'measV_HV2': -100.0, 'measI_HV2': -1.452908e-07, 'settV_HV2': -100.0, 'settI_HV2': 0.0}, 'tags': {'user': 'root'}}
2022-08-19 16:42:54 {'measurement': 'measName', 'fields': {'measV_HV2': -100.0, 'measI_HV2': -1.412014e-07, 'settV_HV2': -100.0, 'settI_HV2': 0.0}, 'tags': {'user': 'root'}}
2022-08-19 16:42:54 {'measurement': 'measName', 'fields': {'measV_HV2': -100.0, 'measI_HV2': -1.351664e-07, 'settV_HV2': -100.0, 'settI_HV2': 0.0}, 'tags': {'user': 'root'}}
2022-08-19 16:42:55 {'measurement': 'measName', 'fields': {'measV_HV2': -100.0, 'measI_HV2': -1.364941e-07, 'settV_HV2': -100.0, 'settI_HV2': 0.0}, 'tags': {'user': 'root'}}
2022-08-19 16:42:56 {'measurement': 'measName', 'fields': {'measV_HV2': -100.0, 'measI_HV2': -1.409908e-07, 'settV_HV2': -100.0, 'settI_HV2': 0.0}, 'tags': {'user': 'root'}}
2022-08-19 16:42:57 {'measurement': 'measName', 'fields': {'measV_HV2': -100.0, 'measI_HV2': -1.468526e-07, 'settV_HV2': -100.0, 'settI_HV2': 0.0}, 'tags': {'user': 'root'}}
2022-08-19 16:42:58 {'measurement': 'measName', 'fields': {'measV_HV2': -100.0, 'measI_HV2': -1.344338e-07, 'settV_HV2': -100.0, 'settI_HV2': 0.0}, 'tags': {'user': 'root'}}
2022-08-19 16:42:59 {'measurement': 'measName', 'fields': {'measV_HV2': -100.0, 'measI_HV2': -1.458483e-07, 'settV_HV2': -100.0, 'settI_HV2': 0.0}, 'tags': {'user': 'root'}}
2022-08-19 16:42:59 {'measurement': 'measName', 'fields': {'measV_HV2': -100.0, 'measI_HV2': -1.453981e-07, 'settV_HV2': -100.0, 'settI_HV2': 0.0}, 'tags': {'user': 'root'}}
2022-08-19 16:43:00 {'measurement': 'measName', 'fields': {'measV_HV2': -100.0, 'measI_HV2': -1.359039e-07, 'settV_HV2': -100.0, 'settI_HV2': 0.0}, 'tags': {'user': 'root'}}
2022-08-19 16:43:01 {'measurement': 'measName', 'fields': {'measV_HV2': -100.0, 'measI_HV2': -1.353358e-07, 'settV_HV2': -100.0, 'settI_HV2': 0.0}, 'tags': {'user': 'root'}}
2022-08-19 16:43:01 {'measurement': 'measName', 'fields': {'measV_HV2': -100.0, 'measI_HV2': -1.419691e-07, 'settV_HV2': -100.0, 'settI_HV2': 0.0}, 'tags': {'user': 'root'}}
2022-08-19 16:43:02 {'measurement': 'measName', 'fields': {'measV_HV2': -100.0, 'measI_HV2': -1.453645e-07, 'settV_HV2': -100.0, 'settI_HV2': 0.0}, 'tags': {'user': 'root'}}
2022-08-19 16:43:03 {'measurement': 'measName', 'fields': {'measV_HV2': -100.0, 'measI_HV2': -1.412349e-07, 'settV_HV2': -100.0, 'settI_HV2': 0.0}, 'tags': {'user': 'root'}}
2022-08-19 16:43:03 {'measurement': 'measName', 'fields': {'measV_HV2': -100.0, 'measI_HV2': -1.347736e-07, 'settV_HV2': -100.0, 'settI_HV2': 0.0}, 'tags': {'user': 'root'}}
2022-08-19 16:43:04 {'measurement': 'measName', 'fields': {'measV_HV2': -100.0, 'measI_HV2': -1.360567e-07, 'settV_HV2': -100.0, 'settI_HV2': 0.0}, 'tags': {'user': 'root'}}
2022-08-19 16:43:05 {'measurement': 'measName', 'fields': {'measV_HV2': -100.0, 'measI_HV2': -1.445371e-07, 'settV_HV2': -100.0, 'settI_HV2': 0.0}, 'tags': {'user': 'root'}}
2022-08-19 16:43:05 {'measurement': 'measName', 'fields': {'measV_HV2': -100.0, 'measI_HV2': -1.457179e-07, 'settV_HV2': -100.0, 'settI_HV2': 0.0}, 'tags': {'user': 'root'}}
2022-08-19 16:43:06 {'measurement': 'measName', 'fields': {'measV_HV2': -100.0, 'measI_HV2': -1.372892e-07, 'settV_HV2': -100.0, 'settI_HV2': 0.0}, 'tags': {'user': 'root'}}
2022-08-19 16:43:07 {'measurement': 'measName', 'fields': {'measV_HV2': -100.0, 'measI_HV2': -1.333472e-07, 'settV_HV2': -100.0, 'settI_HV2': 0.0}, 'tags': {'user': 'root'}}
2022-08-19 16:43:07 {'measurement': 'measName', 'fields': {'measV_HV2': -100.0, 'measI_HV2': -1.377675e-07, 'settV_HV2': -100.0, 'settI_HV2': 0.0}, 'tags': {'user': 'root'}}
2022-08-19 16:43:09 {'measurement': 'measName', 'fields': {'measV_HV2': -100.0, 'measI_HV2': -1.415997e-07, 'settV_HV2': -100.0, 'settI_HV2': 0.0}, 'tags': {'user': 'root'}}
2022-08-19 16:43:09 {'measurement': 'measName', 'fields': {'measV_HV2': -100.0, 'measI_HV2': -1.460819e-07, 'settV_HV2': -100.0, 'settI_HV2': 0.0}, 'tags': {'user': 'root'}}
2022-08-19 16:43:10 {'measurement': 'measName', 'fields': {'measV_HV2': -100.0, 'measI_HV2': -1.477243e-07, 'settV_HV2': -100.0, 'settI_HV2': 0.0}, 'tags': {'user': 'root'}}
2022-08-19 16:43:11 {'measurement': 'measName', 'fields': {'measV_HV2': -100.0, 'measI_HV2': -1.401789e-07, 'settV_HV2': -100.0, 'settI_HV2': 0.0}, 'tags': {'user': 'root'}}
2022-08-19 16:43:12 {'measurement': 'measName', 'fields': {'measV_HV2': -100.0, 'measI_HV2': -1.330049e-07, 'settV_HV2': -100.0, 'settI_HV2': 0.0}, 'tags': {'user': 'root'}}
2022-08-19 16:43:12 {'measurement': 'measName', 'fields': {'measV_HV2': -100.0, 'measI_HV2': -1.356483e-07, 'settV_HV2': -100.0, 'settI_HV2': 0.0}, 'tags': {'user': 'root'}}
2022-08-19 16:43:13 {'measurement': 'measName', 'fields': {'measV_HV2': -100.0, 'measI_HV2': -1.452944e-07, 'settV_HV2': -100.0, 'settI_HV2': 0.0}, 'tags': {'user': 'root'}}
2022-08-19 16:43:14 {'measurement': 'measName', 'fields': {'measV_HV2': -100.0, 'measI_HV2': -1.469446e-07, 'settV_HV2': -100.0, 'settI_HV2': 0.0}, 'tags': {'user': 'root'}}
2022-08-19 16:43:14 {'measurement': 'measName', 'fields': {'measV_HV2': -100.0, 'measI_HV2': -1.342605e-07, 'settV_HV2': -100.0, 'settI_HV2': 0.0}, 'tags': {'user': 'root'}}
2022-08-19 16:43:15 {'measurement': 'measName', 'fields': {'measV_HV2': -100.0, 'measI_HV2': -1.360484e-07, 'settV_HV2': -100.0, 'settI_HV2': 0.0}, 'tags': {'user': 'root'}}
2022-08-19 16:43:16 {'measurement': 'measName', 'fields': {'measV_HV2': -100.0, 'measI_HV2': -1.461917e-07, 'settV_HV2': -100.0, 'settI_HV2': 0.0}, 'tags': {'user': 'root'}}
2022-08-19 16:43:16 {'measurement': 'measName', 'fields': {'measV_HV2': -100.0, 'measI_HV2': -1.419107e-07, 'settV_HV2': -100.0, 'settI_HV2': 0.0}, 'tags': {'user': 'root'}}
2022-08-19 16:43:17 {'measurement': 'measName', 'fields': {'measV_HV2': -100.0, 'measI_HV2': -1.323473e-07, 'settV_HV2': -100.0, 'settI_HV2': 0.0}, 'tags': {'user': 'root'}}
2022-08-19 16:43:18 {'measurement': 'measName', 'fields': {'measV_HV2': -100.0, 'measI_HV2': -1.368019e-07, 'settV_HV2': -100.0, 'settI_HV2': 0.0}, 'tags': {'user': 'root'}}
2022-08-19 16:43:18 {'measurement': 'measName', 'fields': {'measV_HV2': -100.0, 'measI_HV2': -1.466071e-07, 'settV_HV2': -100.0, 'settI_HV2': 0.0}, 'tags': {'user': 'root'}}
2022-08-19 16:43:19 {'measurement': 'measName', 'fields': {'measV_HV2': -100.0, 'measI_HV2': -1.438071e-07, 'settV_HV2': -100.0, 'settI_HV2': 0.0}, 'tags': {'user': 'root'}}
2022-08-19 16:43:20 {'measurement': 'measName', 'fields': {'measV_HV2': -100.0, 'measI_HV2': -1.361411e-07, 'settV_HV2': -100.0, 'settI_HV2': 0.0}, 'tags': {'user': 'root'}}
2022-08-19 16:43:21 {'measurement': 'measName', 'fields': {'measV_HV2': -100.0, 'measI_HV2': -1.43729e-07, 'settV_HV2': -100.0, 'settI_HV2': 0.0}, 'tags': {'user': 'root'}}
2022-08-19 16:43:22 {'measurement': 'measName', 'fields': {'measV_HV2': -100.0, 'measI_HV2': -1.36115e-07, 'settV_HV2': -100.0, 'settI_HV2': 0.0}, 'tags': {'user': 'root'}}
2022-08-19 16:43:23 {'measurement': 'measName', 'fields': {'measV_HV2': -100.0, 'measI_HV2': -1.331489e-07, 'settV_HV2': -100.0, 'settI_HV2': 0.0}, 'tags': {'user': 'root'}}
2022-08-19 16:43:23 {'measurement': 'measName', 'fields': {'measV_HV2': -100.0, 'measI_HV2': -1.453731e-07, 'settV_HV2': -100.0, 'settI_HV2': 0.0}, 'tags': {'user': 'root'}}
2022-08-19 16:43:24 {'measurement': 'measName', 'fields': {'measV_HV2': -100.0, 'measI_HV2': -1.459775e-07, 'settV_HV2': -100.0, 'settI_HV2': 0.0}, 'tags': {'user': 'root'}}
2022-08-19 16:43:25 {'measurement': 'measName', 'fields': {'measV_HV2': -100.0, 'measI_HV2': -1.326679e-07, 'settV_HV2': -100.0, 'settI_HV2': 0.0}, 'tags': {'user': 'root'}}
2022-08-19 16:43:25 {'measurement': 'measName', 'fields': {'measV_HV2': -100.0, 'measI_HV2': -1.395665e-07, 'settV_HV2': -100.0, 'settI_HV2': 0.0}, 'tags': {'user': 'root'}}
2022-08-19 16:43:26 {'measurement': 'measName', 'fields': {'measV_HV2': -100.0, 'measI_HV2': -1.458159e-07, 'settV_HV2': -100.0, 'settI_HV2': 0.0}, 'tags': {'user': 'root'}}
2022-08-19 16:43:27 {'measurement': 'measName', 'fields': {'measV_HV2': -100.0, 'measI_HV2': -1.385405e-07, 'settV_HV2': -100.0, 'settI_HV2': 0.0}, 'tags': {'user': 'root'}}
2022-08-19 16:43:27 {'measurement': 'measName', 'fields': {'measV_HV2': -100.0, 'measI_HV2': -1.339304e-07, 'settV_HV2': -100.0, 'settI_HV2': 0.0}, 'tags': {'user': 'root'}}
2022-08-19 16:43:28 {'measurement': 'measName', 'fields': {'measV_HV2': -100.0, 'measI_HV2': -1.449435e-07, 'settV_HV2': -100.0, 'settI_HV2': 0.0}, 'tags': {'user': 'root'}}
2022-08-19 16:43:29 {'measurement': 'measName', 'fields': {'measV_HV2': -100.0, 'measI_HV2': -1.445848e-07, 'settV_HV2': -100.0, 'settI_HV2': 0.0}, 'tags': {'user': 'root'}}
2022-08-19 16:43:29 {'measurement': 'measName', 'fields': {'measV_HV2': -100.0, 'measI_HV2': -1.330659e-07, 'settV_HV2': -100.0, 'settI_HV2': 0.0}, 'tags': {'user': 'root'}}
2022-08-19 16:43:30 {'measurement': 'measName', 'fields': {'measV_HV2': -100.0, 'measI_HV2': -1.386066e-07, 'settV_HV2': -100.0, 'settI_HV2': 0.0}, 'tags': {'user': 'root'}}
2022-08-19 16:43:31 {'measurement': 'measName', 'fields': {'measV_HV2': -100.0, 'measI_HV2': -1.45819e-07, 'settV_HV2': -100.0, 'settI_HV2': 0.0}, 'tags': {'user': 'root'}}
2022-08-19 16:43:32 {'measurement': 'measName', 'fields': {'measV_HV2': -100.0, 'measI_HV2': -1.355576e-07, 'settV_HV2': -100.0, 'settI_HV2': 0.0}, 'tags': {'user': 'root'}}
2022-08-19 16:43:33 {'measurement': 'measName', 'fields': {'measV_HV2': -100.0, 'measI_HV2': -1.403518e-07, 'settV_HV2': -100.0, 'settI_HV2': 0.0}, 'tags': {'user': 'root'}}
2022-08-19 16:43:34 {'measurement': 'measName', 'fields': {'measV_HV2': -100.0, 'measI_HV2': -1.442125e-07, 'settV_HV2': -100.0, 'settI_HV2': 0.0}, 'tags': {'user': 'root'}}
2022-08-19 16:43:34 {'measurement': 'measName', 'fields': {'measV_HV2': -100.0, 'measI_HV2': -1.344047e-07, 'settV_HV2': -100.0, 'settI_HV2': 0.0}, 'tags': {'user': 'root'}}
2022-08-19 16:43:35 {'measurement': 'measName', 'fields': {'measV_HV2': -100.0, 'measI_HV2': -1.374891e-07, 'settV_HV2': -100.0, 'settI_HV2': 0.0}, 'tags': {'user': 'root'}}
2022-08-19 16:43:36 {'measurement': 'measName', 'fields': {'measV_HV2': -100.0, 'measI_HV2': -1.473432e-07, 'settV_HV2': -100.0, 'settI_HV2': 0.0}, 'tags': {'user': 'root'}}
2022-08-19 16:43:36 {'measurement': 'measName', 'fields': {'measV_HV2': -100.0, 'measI_HV2': -1.410093e-07, 'settV_HV2': -100.0, 'settI_HV2': 0.0}, 'tags': {'user': 'root'}}
2022-08-19 16:43:37 {'measurement': 'measName', 'fields': {'measV_HV2': -100.0, 'measI_HV2': -1.338673e-07, 'settV_HV2': -100.0, 'settI_HV2': 0.0}, 'tags': {'user': 'root'}}
2022-08-19 16:43:38 {'measurement': 'measName', 'fields': {'measV_HV2': -100.0, 'measI_HV2': -1.377019e-07, 'settV_HV2': -100.0, 'settI_HV2': 0.0}, 'tags': {'user': 'root'}}
2022-08-19 16:43:38 {'measurement': 'measName', 'fields': {'measV_HV2': -100.0, 'measI_HV2': -1.452907e-07, 'settV_HV2': -100.0, 'settI_HV2': 0.0}, 'tags': {'user': 'root'}}
2022-08-19 16:43:39 {'measurement': 'measName', 'fields': {'measV_HV2': -100.0, 'measI_HV2': -1.372239e-07, 'settV_HV2': -100.0, 'settI_HV2': 0.0}, 'tags': {'user': 'root'}}
2022-08-19 16:43:40 {'measurement': 'measName', 'fields': {'measV_HV2': -100.0, 'measI_HV2': -1.350366e-07, 'settV_HV2': -100.0, 'settI_HV2': 0.0}, 'tags': {'user': 'root'}}
2022-08-19 16:43:40 {'measurement': 'measName', 'fields': {'measV_HV2': -100.0, 'measI_HV2': -1.444606e-07, 'settV_HV2': -100.0, 'settI_HV2': 0.0}, 'tags': {'user': 'root'}}
2022-08-19 16:43:41 {'measurement': 'measName', 'fields': {'measV_HV2': -100.0, 'measI_HV2': -1.473612e-07, 'settV_HV2': -100.0, 'settI_HV2': 0.0}, 'tags': {'user': 'root'}}
2022-08-19 16:43:42 {'measurement': 'measName', 'fields': {'measV_HV2': -100.0, 'measI_HV2': -1.391219e-07, 'settV_HV2': -100.0, 'settI_HV2': 0.0}, 'tags': {'user': 'root'}}
2022-08-19 16:43:43 {'measurement': 'measName', 'fields': {'measV_HV2': -100.0, 'measI_HV2': -1.338783e-07, 'settV_HV2': -100.0, 'settI_HV2': 0.0}, 'tags': {'user': 'root'}}
2022-08-19 16:43:43 {'measurement': 'measName', 'fields': {'measV_HV2': -100.0, 'measI_HV2': -1.37874e-07, 'settV_HV2': -100.0, 'settI_HV2': 0.0}, 'tags': {'user': 'root'}}
2022-08-19 16:43:45 {'measurement': 'measName', 'fields': {'measV_HV2': -100.0, 'measI_HV2': -1.373692e-07, 'settV_HV2': -100.0, 'settI_HV2': 0.0}, 'tags': {'user': 'root'}}
2022-08-19 16:43:45 {'measurement': 'measName', 'fields': {'measV_HV2': -100.0, 'measI_HV2': -1.406911e-07, 'settV_HV2': -100.0, 'settI_HV2': 0.0}, 'tags': {'user': 'root'}}
2022-08-19 16:43:46 {'measurement': 'measName', 'fields': {'measV_HV2': -100.0, 'measI_HV2': -1.32913e-07, 'settV_HV2': -100.0, 'settI_HV2': 0.0}, 'tags': {'user': 'root'}}
2022-08-19 16:43:47 {'measurement': 'measName', 'fields': {'measV_HV2': -100.0, 'measI_HV2': -1.3725e-07, 'settV_HV2': -100.0, 'settI_HV2': 0.0}, 'tags': {'user': 'root'}}
2022-08-19 16:43:47 {'measurement': 'measName', 'fields': {'measV_HV2': -100.0, 'measI_HV2': -1.451791e-07, 'settV_HV2': -100.0, 'settI_HV2': 0.0}, 'tags': {'user': 'root'}}
2022-08-19 16:43:48 {'measurement': 'measName', 'fields': {'measV_HV2': -100.0, 'measI_HV2': -1.351002e-07, 'settV_HV2': -100.0, 'settI_HV2': 0.0}, 'tags': {'user': 'root'}}
2022-08-19 16:43:49 {'measurement': 'measName', 'fields': {'measV_HV2': -100.0, 'measI_HV2': -1.349062e-07, 'settV_HV2': -100.0, 'settI_HV2': 0.0}, 'tags': {'user': 'root'}}
2022-08-19 16:43:49 {'measurement': 'measName', 'fields': {'measV_HV2': -100.0, 'measI_HV2': -1.458725e-07, 'settV_HV2': -100.0, 'settI_HV2': 0.0}, 'tags': {'user': 'root'}}
2022-08-19 16:43:50 {'measurement': 'measName', 'fields': {'measV_HV2': -100.0, 'measI_HV2': -1.432978e-07, 'settV_HV2': -100.0, 'settI_HV2': 0.0}, 'tags': {'user': 'root'}}
2022-08-19 16:43:51 {'measurement': 'measName', 'fields': {'measV_HV2': -100.0, 'measI_HV2': -1.33245e-07, 'settV_HV2': -100.0, 'settI_HV2': 0.0}, 'tags': {'user': 'root'}}
2022-08-19 16:43:52 {'measurement': 'measName', 'fields': {'measV_HV2': -100.0, 'measI_HV2': -1.348815e-07, 'settV_HV2': -100.0, 'settI_HV2': 0.0}, 'tags': {'user': 'root'}}
2022-08-19 16:43:52 {'measurement': 'measName', 'fields': {'measV_HV2': -100.0, 'measI_HV2': -1.450504e-07, 'settV_HV2': -100.0, 'settI_HV2': 0.0}, 'tags': {'user': 'root'}}
2022-08-19 16:43:53 {'measurement': 'measName', 'fields': {'measV_HV2': -100.0, 'measI_HV2': -1.344269e-07, 'settV_HV2': -100.0, 'settI_HV2': 0.0}, 'tags': {'user': 'root'}}
2022-08-19 16:43:54 {'measurement': 'measName', 'fields': {'measV_HV2': -100.0, 'measI_HV2': -1.382354e-07, 'settV_HV2': -100.0, 'settI_HV2': 0.0}, 'tags': {'user': 'root'}}
2022-08-19 16:43:54 {'measurement': 'measName', 'fields': {'measV_HV2': -100.0, 'measI_HV2': -1.467461e-07, 'settV_HV2': -100.0, 'settI_HV2': 0.0}, 'tags': {'user': 'root'}}
2022-08-19 16:43:55 {'measurement': 'measName', 'fields': {'measV_HV2': -100.0, 'measI_HV2': -1.342105e-07, 'settV_HV2': -100.0, 'settI_HV2': 0.0}, 'tags': {'user': 'root'}}
2022-08-19 16:43:56 {'measurement': 'measName', 'fields': {'measV_HV2': -100.0, 'measI_HV2': -1.430844e-07, 'settV_HV2': -100.0, 'settI_HV2': 0.0}, 'tags': {'user': 'root'}}
2022-08-19 16:43:57 {'measurement': 'measName', 'fields': {'measV_HV2': -100.0, 'measI_HV2': -1.395365e-07, 'settV_HV2': -100.0, 'settI_HV2': 0.0}, 'tags': {'user': 'root'}}
2022-08-19 16:43:58 {'measurement': 'measName', 'fields': {'measV_HV2': -100.0, 'measI_HV2': -1.346436e-07, 'settV_HV2': -100.0, 'settI_HV2': 0.0}, 'tags': {'user': 'root'}}
2022-08-19 16:43:58 {'measurement': 'measName', 'fields': {'measV_HV2': -100.0, 'measI_HV2': -1.433462e-07, 'settV_HV2': -100.0, 'settI_HV2': 0.0}, 'tags': {'user': 'root'}}
2022-08-19 16:43:59 {'measurement': 'measName', 'fields': {'measV_HV2': -100.0, 'measI_HV2': -1.442094e-07, 'settV_HV2': -100.0, 'settI_HV2': 0.0}, 'tags': {'user': 'root'}}
2022-08-19 16:44:00 {'measurement': 'measName', 'fields': {'measV_HV2': -100.0, 'measI_HV2': -1.35643e-07, 'settV_HV2': -100.0, 'settI_HV2': 0.0}, 'tags': {'user': 'root'}}
2022-08-19 16:44:00 {'measurement': 'measName', 'fields': {'measV_HV2': -100.0, 'measI_HV2': -1.323128e-07, 'settV_HV2': -100.0, 'settI_HV2': 0.0}, 'tags': {'user': 'root'}}
2022-08-19 16:44:01 {'measurement': 'measName', 'fields': {'measV_HV2': -100.0, 'measI_HV2': -1.450006e-07, 'settV_HV2': -100.0, 'settI_HV2': 0.0}, 'tags': {'user': 'root'}}
2022-08-19 16:44:02 {'measurement': 'measName', 'fields': {'measV_HV2': -100.0, 'measI_HV2': -1.424091e-07, 'settV_HV2': -100.0, 'settI_HV2': 0.0}, 'tags': {'user': 'root'}}
2022-08-19 16:44:03 {'measurement': 'measName', 'fields': {'measV_HV2': -100.0, 'measI_HV2': -1.328739e-07, 'settV_HV2': -100.0, 'settI_HV2': 0.0}, 'tags': {'user': 'root'}}
2022-08-19 16:44:03 {'measurement': 'measName', 'fields': {'measV_HV2': -100.0, 'measI_HV2': -1.36416e-07, 'settV_HV2': -100.0, 'settI_HV2': 0.0}, 'tags': {'user': 'root'}}
2022-08-19 16:44:04 {'measurement': 'measName', 'fields': {'measV_HV2': -100.0, 'measI_HV2': -1.454344e-07, 'settV_HV2': -100.0, 'settI_HV2': 0.0}, 'tags': {'user': 'root'}}
2022-08-19 16:44:05 {'measurement': 'measName', 'fields': {'measV_HV2': -100.0, 'measI_HV2': -1.394861e-07, 'settV_HV2': -100.0, 'settI_HV2': 0.0}, 'tags': {'user': 'root'}}
2022-08-19 16:44:05 {'measurement': 'measName', 'fields': {'measV_HV2': -100.0, 'measI_HV2': -1.325681e-07, 'settV_HV2': -100.0, 'settI_HV2': 0.0}, 'tags': {'user': 'root'}}
2022-08-19 16:44:06 {'measurement': 'measName', 'fields': {'measV_HV2': -100.0, 'measI_HV2': -1.439051e-07, 'settV_HV2': -100.0, 'settI_HV2': 0.0}, 'tags': {'user': 'root'}}
2022-08-19 16:44:07 {'measurement': 'measName', 'fields': {'measV_HV2': -100.0, 'measI_HV2': -1.464815e-07, 'settV_HV2': -100.0, 'settI_HV2': 0.0}, 'tags': {'user': 'root'}}
2022-08-19 16:44:08 {'measurement': 'measName', 'fields': {'measV_HV2': -100.0, 'measI_HV2': -1.323587e-07, 'settV_HV2': -100.0, 'settI_HV2': 0.0}, 'tags': {'user': 'root'}}
2022-08-19 16:44:09 {'measurement': 'measName', 'fields': {'measV_HV2': -100.0, 'measI_HV2': -1.422053e-07, 'settV_HV2': -100.0, 'settI_HV2': 0.0}, 'tags': {'user': 'root'}}
2022-08-19 16:44:09 {'measurement': 'measName', 'fields': {'measV_HV2': -100.0, 'measI_HV2': -1.455688e-07, 'settV_HV2': -100.0, 'settI_HV2': 0.0}, 'tags': {'user': 'root'}}
2022-08-19 16:44:10 {'measurement': 'measName', 'fields': {'measV_HV2': -100.0, 'measI_HV2': -1.41608e-07, 'settV_HV2': -100.0, 'settI_HV2': 0.0}, 'tags': {'user': 'root'}}
2022-08-19 16:44:11 {'measurement': 'measName', 'fields': {'measV_HV2': -100.0, 'measI_HV2': -1.338586e-07, 'settV_HV2': -100.0, 'settI_HV2': 0.0}, 'tags': {'user': 'root'}}
2022-08-19 16:44:11 {'measurement': 'measName', 'fields': {'measV_HV2': -100.0, 'measI_HV2': -1.34296e-07, 'settV_HV2': -100.0, 'settI_HV2': 0.0}, 'tags': {'user': 'root'}}
2022-08-19 16:44:12 {'measurement': 'measName', 'fields': {'measV_HV2': -100.0, 'measI_HV2': -1.442263e-07, 'settV_HV2': -100.0, 'settI_HV2': 0.0}, 'tags': {'user': 'root'}}
2022-08-19 16:44:13 {'measurement': 'measName', 'fields': {'measV_HV2': -100.0, 'measI_HV2': -1.463757e-07, 'settV_HV2': -100.0, 'settI_HV2': 0.0}, 'tags': {'user': 'root'}}
2022-08-19 16:44:13 {'measurement': 'measName', 'fields': {'measV_HV2': -100.0, 'measI_HV2': -1.370565e-07, 'settV_HV2': -100.0, 'settI_HV2': 0.0}, 'tags': {'user': 'root'}}
2022-08-19 16:44:14 {'measurement': 'measName', 'fields': {'measV_HV2': -100.0, 'measI_HV2': -1.372842e-07, 'settV_HV2': -100.0, 'settI_HV2': 0.0}, 'tags': {'user': 'root'}}
2022-08-19 16:44:15 {'measurement': 'measName', 'fields': {'measV_HV2': -100.0, 'measI_HV2': -1.46065e-07, 'settV_HV2': -100.0, 'settI_HV2': 0.0}, 'tags': {'user': 'root'}}
2022-08-19 16:44:16 {'measurement': 'measName', 'fields': {'measV_HV2': -100.0, 'measI_HV2': -1.464548e-07, 'settV_HV2': -100.0, 'settI_HV2': 0.0}, 'tags': {'user': 'root'}}
2022-08-19 16:44:16 {'measurement': 'measName', 'fields': {'measV_HV2': -100.0, 'measI_HV2': -1.384432e-07, 'settV_HV2': -100.0, 'settI_HV2': 0.0}, 'tags': {'user': 'root'}}
2022-08-19 16:44:17 {'measurement': 'measName', 'fields': {'measV_HV2': -100.0, 'measI_HV2': -1.332212e-07, 'settV_HV2': -100.0, 'settI_HV2': 0.0}, 'tags': {'user': 'root'}}
2022-08-19 16:44:18 {'measurement': 'measName', 'fields': {'measV_HV2': -100.0, 'measI_HV2': -1.428227e-07, 'settV_HV2': -100.0, 'settI_HV2': 0.0}, 'tags': {'user': 'root'}}
2022-08-19 16:44:18 {'measurement': 'measName', 'fields': {'measV_HV2': -100.0, 'measI_HV2': -1.451876e-07, 'settV_HV2': -100.0, 'settI_HV2': 0.0}, 'tags': {'user': 'root'}}
2022-08-19 16:44:19 {'measurement': 'measName', 'fields': {'measV_HV2': -100.0, 'measI_HV2': -1.343271e-07, 'settV_HV2': -100.0, 'settI_HV2': 0.0}, 'tags': {'user': 'root'}}
2022-08-19 16:44:20 {'measurement': 'measName', 'fields': {'measV_HV2': -100.0, 'measI_HV2': -1.44498e-07, 'settV_HV2': -100.0, 'settI_HV2': 0.0}, 'tags': {'user': 'root'}}
2022-08-19 16:44:21 {'measurement': 'measName', 'fields': {'measV_HV2': -100.0, 'measI_HV2': -1.341969e-07, 'settV_HV2': -100.0, 'settI_HV2': 0.0}, 'tags': {'user': 'root'}}
2022-08-19 16:44:22 {'measurement': 'measName', 'fields': {'measV_HV2': -100.0, 'measI_HV2': -1.324743e-07, 'settV_HV2': -100.0, 'settI_HV2': 0.0}, 'tags': {'user': 'root'}}
