{
    "unit": {
        "Time": "s",
        "Voltage": "V",
        "Current": "A"
    },
    "V_step": -5,
    "Step_duration": 2,
    "N_measurements_per_step": 10,
    "A_Compliance": 1e-05,
    "Sensor_IV": [
        {
            "Time": 20.787503004074097,
            "Voltage": 0.0,
            "Current_mean": -3.1271592e-08,
            "Current_sigma": 1.2799985316567204e-08
        },
        {
            "Time": 26.92807650566101,
            "Voltage": -5.0,
            "Current_mean": -1.15263785e-07,
            "Current_sigma": 1.3220088262161682e-08
        },
        {
            "Time": 33.052661418914795,
            "Voltage": -10.0,
            "Current_mean": -1.2713207000000002e-07,
            "Current_sigma": 8.373625158800697e-09
        },
        {
            "Time": 39.36925482749939,
            "Voltage": -15.0,
            "Current_mean": -1.3138093e-07,
            "Current_sigma": 7.345712122054607e-09
        },
        {
            "Time": 45.781771183013916,
            "Voltage": -20.0,
            "Current_mean": -1.3190436e-07,
            "Current_sigma": 7.058905013697238e-09
        },
        {
            "Time": 51.77833127975464,
            "Voltage": -25.0,
            "Current_mean": -1.3199515e-07,
            "Current_sigma": 6.1690832051853535e-09
        },
        {
            "Time": 58.19063901901245,
            "Voltage": -30.0,
            "Current_mean": -1.3344676e-07,
            "Current_sigma": 5.670519408519826e-09
        },
        {
            "Time": 64.18739604949951,
            "Voltage": -35.0,
            "Current_mean": -1.349465e-07,
            "Current_sigma": 6.343809059863011e-09
        },
        {
            "Time": 70.59984993934631,
            "Voltage": -40.0,
            "Current_mean": -1.342975e-07,
            "Current_sigma": 5.814909217348107e-09
        },
        {
            "Time": 76.59641003608704,
            "Voltage": -45.0,
            "Current_mean": -1.3494807e-07,
            "Current_sigma": 5.911297783405945e-09
        },
        {
            "Time": 82.89684224128723,
            "Voltage": -50.0,
            "Current_mean": -1.3442183000000003e-07,
            "Current_sigma": 5.798076564870456e-09
        },
        {
            "Time": 88.89343523979187,
            "Voltage": -55.0,
            "Current_mean": -1.3602961000000002e-07,
            "Current_sigma": 5.859731468668167e-09
        },
        {
            "Time": 94.89022064208984,
            "Voltage": -60.0,
            "Current_mean": -1.3579567e-07,
            "Current_sigma": 4.930210311142922e-09
        },
        {
            "Time": 100.95083665847778,
            "Voltage": -65.0,
            "Current_mean": -1.3470986e-07,
            "Current_sigma": 5.067179044044133e-09
        },
        {
            "Time": 107.25139236450195,
            "Voltage": -70.0,
            "Current_mean": -1.3657492000000002e-07,
            "Current_sigma": 5.355944035891336e-09
        },
        {
            "Time": 113.61604499816895,
            "Voltage": -75.0,
            "Current_mean": -1.3746111000000002e-07,
            "Current_sigma": 5.754965634032925e-09
        },
        {
            "Time": 119.61284852027893,
            "Voltage": -80.0,
            "Current_mean": -1.3728391000000002e-07,
            "Current_sigma": 4.942156800719699e-09
        },
        {
            "Time": 126.02536010742188,
            "Voltage": -85.0,
            "Current_mean": -1.3866109e-07,
            "Current_sigma": 5.732627185584287e-09
        },
        {
            "Time": 132.0221574306488,
            "Voltage": -90.0,
            "Current_mean": -1.3761088e-07,
            "Current_sigma": 5.0818020700928526e-09
        },
        {
            "Time": 138.21073269844055,
            "Voltage": -95.0,
            "Current_mean": -1.3977625e-07,
            "Current_sigma": 5.58923333691661e-09
        },
        {
            "Time": 144.20758438110352,
            "Voltage": -100.0,
            "Current_mean": -1.3963906e-07,
            "Current_sigma": 5.128376824337304e-09
        },
        {
            "Time": 150.6201868057251,
            "Voltage": -105.0,
            "Current_mean": -1.3925889e-07,
            "Current_sigma": 5.136442303082944e-09
        },
        {
            "Time": 156.6168932914734,
            "Voltage": -110.0,
            "Current_mean": -1.3998046e-07,
            "Current_sigma": 5.015604234626172e-09
        },
        {
            "Time": 162.78960728645325,
            "Voltage": -115.0,
            "Current_mean": -1.4097608e-07,
            "Current_sigma": 4.791513161789292e-09
        },
        {
            "Time": 168.7864158153534,
            "Voltage": -120.0,
            "Current_mean": -1.4091574e-07,
            "Current_sigma": 5.182707766833862e-09
        },
        {
            "Time": 174.8791787624359,
            "Voltage": -125.0,
            "Current_mean": -1.4235878e-07,
            "Current_sigma": 4.780860056684362e-09
        },
        {
            "Time": 180.8757038116455,
            "Voltage": -130.0,
            "Current_mean": -1.4181342000000002e-07,
            "Current_sigma": 4.405994881022898e-09
        },
        {
            "Time": 186.87234497070312,
            "Voltage": -135.0,
            "Current_mean": -1.4186874000000002e-07,
            "Current_sigma": 4.558334186783591e-09
        },
        {
            "Time": 193.01300311088562,
            "Voltage": -140.0,
            "Current_mean": -1.4310978e-07,
            "Current_sigma": 4.6446557303636635e-09
        },
        {
            "Time": 199.31353664398193,
            "Voltage": -145.0,
            "Current_mean": -1.4463425000000003e-07,
            "Current_sigma": 4.219870845713173e-09
        },
        {
            "Time": 205.4700779914856,
            "Voltage": -150.0,
            "Current_mean": -1.4418808e-07,
            "Current_sigma": 3.827247299247854e-09
        },
        {
            "Time": 211.6108648777008,
            "Voltage": -155.0,
            "Current_mean": -1.4490315999999998e-07,
            "Current_sigma": 4.5110650694043435e-09
        },
        {
            "Time": 217.9114692211151,
            "Voltage": -160.0,
            "Current_mean": -1.455191e-07,
            "Current_sigma": 5.085890592610104e-09
        },
        {
            "Time": 223.90810084342957,
            "Voltage": -165.0,
            "Current_mean": -1.4684935e-07,
            "Current_sigma": 4.096901917852072e-09
        },
        {
            "Time": 230.43253326416016,
            "Voltage": -153.00000001526521,
            "Current_mean": -1.4629898e-07,
            "Current_sigma": 3.6232999174233404e-09
        },
        {
            "Time": 236.4292116165161,
            "Voltage": -175.0,
            "Current_mean": -1.4807628e-07,
            "Current_sigma": 3.959526514572165e-09
        },
        {
            "Time": 242.72980380058289,
            "Voltage": -180.0,
            "Current_mean": -1.4686915e-07,
            "Current_sigma": 4.54938627514745e-09
        },
        {
            "Time": 248.7266447544098,
            "Voltage": -185.0,
            "Current_mean": -1.4917565e-07,
            "Current_sigma": 4.180864555388039e-09
        },
        {
            "Time": 255.02723789215088,
            "Voltage": -190.0,
            "Current_mean": -1.4986241e-07,
            "Current_sigma": 4.072168571768613e-09
        },
        {
            "Time": 261.02387261390686,
            "Voltage": -195.0,
            "Current_mean": -1.5024232e-07,
            "Current_sigma": 3.4122077008294833e-09
        },
        {
            "Time": 267.16451811790466,
            "Voltage": -200.0,
            "Current_mean": -1.5051191000000004e-07,
            "Current_sigma": 3.591902992690638e-09
        }
    ]
}