{'measurement': 'measName', 'fields': {'measV_HV2': -150.0, 'measI_HV2': -8.918471e-08, 'settV_HV2': -150.0, 'settI_HV2': 0.0}, 'tags': {'user': 'root'}}
{'measurement': 'measName', 'fields': {'measV_HV2': -150.0, 'measI_HV2': -1.003214e-07, 'settV_HV2': -150.0, 'settI_HV2': 0.0}, 'tags': {'user': 'root'}}
{'measurement': 'measName', 'fields': {'measV_HV2': -150.0, 'measI_HV2': -8.970252e-08, 'settV_HV2': -150.0, 'settI_HV2': 0.0}, 'tags': {'user': 'root'}}
{'measurement': 'measName', 'fields': {'measV_HV2': -150.0, 'measI_HV2': -9.680615e-08, 'settV_HV2': -150.0, 'settI_HV2': 0.0}, 'tags': {'user': 'root'}}
{'measurement': 'measName', 'fields': {'measV_HV2': -150.0, 'measI_HV2': -9.344382e-08, 'settV_HV2': -150.0, 'settI_HV2': 0.0}, 'tags': {'user': 'root'}}
{'measurement': 'measName', 'fields': {'measV_HV2': -150.0, 'measI_HV2': -9.285012e-08, 'settV_HV2': -150.0, 'settI_HV2': 0.0}, 'tags': {'user': 'root'}}
{'measurement': 'measName', 'fields': {'measV_HV2': -150.0, 'measI_HV2': -1.009396e-07, 'settV_HV2': -150.0, 'settI_HV2': 0.0}, 'tags': {'user': 'root'}}
{'measurement': 'measName', 'fields': {'measV_HV2': -150.0, 'measI_HV2': -8.929604e-08, 'settV_HV2': -150.0, 'settI_HV2': 0.0}, 'tags': {'user': 'root'}}
{'measurement': 'measName', 'fields': {'measV_HV2': -150.0, 'measI_HV2': -9.998366e-08, 'settV_HV2': -150.0, 'settI_HV2': 0.0}, 'tags': {'user': 'root'}}
{'measurement': 'measName', 'fields': {'measV_HV2': -150.0, 'measI_HV2': -9.007686e-08, 'settV_HV2': -150.0, 'settI_HV2': 0.0}, 'tags': {'user': 'root'}}
{'measurement': 'measName', 'fields': {'measV_HV2': -150.0, 'measI_HV2': -9.985652e-08, 'settV_HV2': -150.0, 'settI_HV2': 0.0}, 'tags': {'user': 'root'}}
{'measurement': 'measName', 'fields': {'measV_HV2': -150.0, 'measI_HV2': -9.449261e-08, 'settV_HV2': -150.0, 'settI_HV2': 0.0}, 'tags': {'user': 'root'}}
{'measurement': 'measName', 'fields': {'measV_HV2': -150.0, 'measI_HV2': -9.638843e-08, 'settV_HV2': -150.0, 'settI_HV2': 0.0}, 'tags': {'user': 'root'}}
{'measurement': 'measName', 'fields': {'measV_HV2': -150.0, 'measI_HV2': -9.87023e-08, 'settV_HV2': -150.0, 'settI_HV2': 0.0}, 'tags': {'user': 'root'}}
{'measurement': 'measName', 'fields': {'measV_HV2': -150.0, 'measI_HV2': -9.034879e-08, 'settV_HV2': -150.0, 'settI_HV2': 0.0}, 'tags': {'user': 'root'}}
{'measurement': 'measName', 'fields': {'measV_HV2': -150.0, 'measI_HV2': -1.020611e-07, 'settV_HV2': -150.0, 'settI_HV2': 0.0}, 'tags': {'user': 'root'}}
{'measurement': 'measName', 'fields': {'measV_HV2': -150.0, 'measI_HV2': -9.190237e-08, 'settV_HV2': -150.0, 'settI_HV2': 0.0}, 'tags': {'user': 'root'}}
{'measurement': 'measName', 'fields': {'measV_HV2': -150.0, 'measI_HV2': -9.755396e-08, 'settV_HV2': -150.0, 'settI_HV2': 0.0}, 'tags': {'user': 'root'}}
{'measurement': 'measName', 'fields': {'measV_HV2': -150.0, 'measI_HV2': -9.675109e-08, 'settV_HV2': -150.0, 'settI_HV2': 0.0}, 'tags': {'user': 'root'}}
{'measurement': 'measName', 'fields': {'measV_HV2': -150.0, 'measI_HV2': -9.596003e-08, 'settV_HV2': -150.0, 'settI_HV2': 0.0}, 'tags': {'user': 'root'}}
{'measurement': 'measName', 'fields': {'measV_HV2': -150.0, 'measI_HV2': -1.010858e-07, 'settV_HV2': -150.0, 'settI_HV2': 0.0}, 'tags': {'user': 'root'}}
{'measurement': 'measName', 'fields': {'measV_HV2': -150.0, 'measI_HV2': -9.058305e-08, 'settV_HV2': -150.0, 'settI_HV2': 0.0}, 'tags': {'user': 'root'}}
{'measurement': 'measName', 'fields': {'measV_HV2': -150.0, 'measI_HV2': -9.981684e-08, 'settV_HV2': -150.0, 'settI_HV2': 0.0}, 'tags': {'user': 'root'}}
{'measurement': 'measName', 'fields': {'measV_HV2': -150.0, 'measI_HV2': -9.569732e-08, 'settV_HV2': -150.0, 'settI_HV2': 0.0}, 'tags': {'user': 'root'}}
{'measurement': 'measName', 'fields': {'measV_HV2': -150.0, 'measI_HV2': -9.186691e-08, 'settV_HV2': -150.0, 'settI_HV2': 0.0}, 'tags': {'user': 'root'}}
{'measurement': 'measName', 'fields': {'measV_HV2': -150.0, 'measI_HV2': -1.022528e-07, 'settV_HV2': -150.0, 'settI_HV2': 0.0}, 'tags': {'user': 'root'}}
{'measurement': 'measName', 'fields': {'measV_HV2': -150.0, 'measI_HV2': -9.039397e-08, 'settV_HV2': -150.0, 'settI_HV2': 0.0}, 'tags': {'user': 'root'}}
{'measurement': 'measName', 'fields': {'measV_HV2': -150.0, 'measI_HV2': -9.775513e-08, 'settV_HV2': -150.0, 'settI_HV2': 0.0}, 'tags': {'user': 'root'}}
{'measurement': 'measName', 'fields': {'measV_HV2': -150.0, 'measI_HV2': -9.899849e-08, 'settV_HV2': -150.0, 'settI_HV2': 0.0}, 'tags': {'user': 'root'}}
{'measurement': 'measName', 'fields': {'measV_HV2': -150.0, 'measI_HV2': -8.940582e-08, 'settV_HV2': -150.0, 'settI_HV2': 0.0}, 'tags': {'user': 'root'}}
{'measurement': 'measName', 'fields': {'measV_HV2': -150.0, 'measI_HV2': -1.007075e-07, 'settV_HV2': -150.0, 'settI_HV2': 0.0}, 'tags': {'user': 'root'}}
{'measurement': 'measName', 'fields': {'measV_HV2': -150.0, 'measI_HV2': -9.447132e-08, 'settV_HV2': -150.0, 'settI_HV2': 0.0}, 'tags': {'user': 'root'}}
{'measurement': 'measName', 'fields': {'measV_HV2': -150.0, 'measI_HV2': -9.31414e-08, 'settV_HV2': -150.0, 'settI_HV2': 0.0}, 'tags': {'user': 'root'}}
{'measurement': 'measName', 'fields': {'measV_HV2': -150.0, 'measI_HV2': -1.00595e-07, 'settV_HV2': -150.0, 'settI_HV2': 0.0}, 'tags': {'user': 'root'}}
{'measurement': 'measName', 'fields': {'measV_HV2': -150.0, 'measI_HV2': -8.896151e-08, 'settV_HV2': -150.0, 'settI_HV2': 0.0}, 'tags': {'user': 'root'}}
{'measurement': 'measName', 'fields': {'measV_HV2': -150.0, 'measI_HV2': -9.909342e-08, 'settV_HV2': -150.0, 'settI_HV2': 0.0}, 'tags': {'user': 'root'}}
{'measurement': 'measName', 'fields': {'measV_HV2': -150.0, 'measI_HV2': -9.577865e-08, 'settV_HV2': -150.0, 'settI_HV2': 0.0}, 'tags': {'user': 'root'}}
{'measurement': 'measName', 'fields': {'measV_HV2': -150.0, 'measI_HV2': -9.07593e-08, 'settV_HV2': -150.0, 'settI_HV2': 0.0}, 'tags': {'user': 'root'}}
{'measurement': 'measName', 'fields': {'measV_HV2': -150.0, 'measI_HV2': -1.018404e-07, 'settV_HV2': -150.0, 'settI_HV2': 0.0}, 'tags': {'user': 'root'}}
{'measurement': 'measName', 'fields': {'measV_HV2': -150.0, 'measI_HV2': -9.257079e-08, 'settV_HV2': -150.0, 'settI_HV2': 0.0}, 'tags': {'user': 'root'}}
{'measurement': 'measName', 'fields': {'measV_HV2': -150.0, 'measI_HV2': -9.789385e-08, 'settV_HV2': -150.0, 'settI_HV2': 0.0}, 'tags': {'user': 'root'}}
{'measurement': 'measName', 'fields': {'measV_HV2': -150.0, 'measI_HV2': -9.929695e-08, 'settV_HV2': -150.0, 'settI_HV2': 0.0}, 'tags': {'user': 'root'}}
{'measurement': 'measName', 'fields': {'measV_HV2': -150.0, 'measI_HV2': -9.113354e-08, 'settV_HV2': -150.0, 'settI_HV2': 0.0}, 'tags': {'user': 'root'}}
{'measurement': 'measName', 'fields': {'measV_HV2': -150.0, 'measI_HV2': -1.02126e-07, 'settV_HV2': -150.0, 'settI_HV2': 0.0}, 'tags': {'user': 'root'}}
{'measurement': 'measName', 'fields': {'measV_HV2': -150.0, 'measI_HV2': -9.085417e-08, 'settV_HV2': -150.0, 'settI_HV2': 0.0}, 'tags': {'user': 'root'}}
{'measurement': 'measName', 'fields': {'measV_HV2': -150.0, 'measI_HV2': -9.606789e-08, 'settV_HV2': -150.0, 'settI_HV2': 0.0}, 'tags': {'user': 'root'}}
{'measurement': 'measName', 'fields': {'measV_HV2': -150.0, 'measI_HV2': -1.013384e-07, 'settV_HV2': -150.0, 'settI_HV2': 0.0}, 'tags': {'user': 'root'}}
{'measurement': 'measName', 'fields': {'measV_HV2': -150.0, 'measI_HV2': -8.970921e-08, 'settV_HV2': -150.0, 'settI_HV2': 0.0}, 'tags': {'user': 'root'}}
{'measurement': 'measName', 'fields': {'measV_HV2': -150.0, 'measI_HV2': -1.00368e-07, 'settV_HV2': -150.0, 'settI_HV2': 0.0}, 'tags': {'user': 'root'}}
{'measurement': 'measName', 'fields': {'measV_HV2': -150.0, 'measI_HV2': -9.4965e-08, 'settV_HV2': -150.0, 'settI_HV2': 0.0}, 'tags': {'user': 'root'}}
{'measurement': 'measName', 'fields': {'measV_HV2': -150.0, 'measI_HV2': -9.502239e-08, 'settV_HV2': -150.0, 'settI_HV2': 0.0}, 'tags': {'user': 'root'}}
{'measurement': 'measName', 'fields': {'measV_HV2': -150.0, 'measI_HV2': -1.007449e-07, 'settV_HV2': -150.0, 'settI_HV2': 0.0}, 'tags': {'user': 'root'}}
{'measurement': 'measName', 'fields': {'measV_HV2': -150.0, 'measI_HV2': -9.054983e-08, 'settV_HV2': -150.0, 'settI_HV2': 0.0}, 'tags': {'user': 'root'}}
{'measurement': 'measName', 'fields': {'measV_HV2': -150.0, 'measI_HV2': -1.001824e-07, 'settV_HV2': -150.0, 'settI_HV2': 0.0}, 'tags': {'user': 'root'}}
{'measurement': 'measName', 'fields': {'measV_HV2': -150.0, 'measI_HV2': -9.357539e-08, 'settV_HV2': -150.0, 'settI_HV2': 0.0}, 'tags': {'user': 'root'}}
{'measurement': 'measName', 'fields': {'measV_HV2': -150.0, 'measI_HV2': -9.864834e-08, 'settV_HV2': -150.0, 'settI_HV2': 0.0}, 'tags': {'user': 'root'}}
{'measurement': 'measName', 'fields': {'measV_HV2': -150.0, 'measI_HV2': -9.896215e-08, 'settV_HV2': -150.0, 'settI_HV2': 0.0}, 'tags': {'user': 'root'}}
{'measurement': 'measName', 'fields': {'measV_HV2': -150.0, 'measI_HV2': -9.176825e-08, 'settV_HV2': -150.0, 'settI_HV2': 0.0}, 'tags': {'user': 'root'}}
{'measurement': 'measName', 'fields': {'measV_HV2': -150.0, 'measI_HV2': -1.019973e-07, 'settV_HV2': -150.0, 'settI_HV2': 0.0}, 'tags': {'user': 'root'}}
{'measurement': 'measName', 'fields': {'measV_HV2': -150.0, 'measI_HV2': -8.904162e-08, 'settV_HV2': -150.0, 'settI_HV2': 0.0}, 'tags': {'user': 'root'}}
{'measurement': 'measName', 'fields': {'measV_HV2': -150.0, 'measI_HV2': -9.872049e-08, 'settV_HV2': -150.0, 'settI_HV2': 0.0}, 'tags': {'user': 'root'}}
{'measurement': 'measName', 'fields': {'measV_HV2': -150.0, 'measI_HV2': -9.478862e-08, 'settV_HV2': -150.0, 'settI_HV2': 0.0}, 'tags': {'user': 'root'}}
{'measurement': 'measName', 'fields': {'measV_HV2': -150.0, 'measI_HV2': -9.498522e-08, 'settV_HV2': -150.0, 'settI_HV2': 0.0}, 'tags': {'user': 'root'}}
{'measurement': 'measName', 'fields': {'measV_HV2': -150.0, 'measI_HV2': -1.013221e-07, 'settV_HV2': -150.0, 'settI_HV2': 0.0}, 'tags': {'user': 'root'}}
{'measurement': 'measName', 'fields': {'measV_HV2': -150.0, 'measI_HV2': -9.040307e-08, 'settV_HV2': -150.0, 'settI_HV2': 0.0}, 'tags': {'user': 'root'}}
{'measurement': 'measName', 'fields': {'measV_HV2': -150.0, 'measI_HV2': -9.847552e-08, 'settV_HV2': -150.0, 'settI_HV2': 0.0}, 'tags': {'user': 'root'}}
{'measurement': 'measName', 'fields': {'measV_HV2': -150.0, 'measI_HV2': -1.000759e-07, 'settV_HV2': -150.0, 'settI_HV2': 0.0}, 'tags': {'user': 'root'}}
{'measurement': 'measName', 'fields': {'measV_HV2': -150.0, 'measI_HV2': -9.034543e-08, 'settV_HV2': -150.0, 'settI_HV2': 0.0}, 'tags': {'user': 'root'}}
{'measurement': 'measName', 'fields': {'measV_HV2': -150.0, 'measI_HV2': -9.977633e-08, 'settV_HV2': -150.0, 'settI_HV2': 0.0}, 'tags': {'user': 'root'}}
{'measurement': 'measName', 'fields': {'measV_HV2': -150.0, 'measI_HV2': -9.638582e-08, 'settV_HV2': -150.0, 'settI_HV2': 0.0}, 'tags': {'user': 'root'}}
{'measurement': 'measName', 'fields': {'measV_HV2': -150.0, 'measI_HV2': -9.100505e-08, 'settV_HV2': -150.0, 'settI_HV2': 0.0}, 'tags': {'user': 'root'}}
{'measurement': 'measName', 'fields': {'measV_HV2': -150.0, 'measI_HV2': -1.017482e-07, 'settV_HV2': -150.0, 'settI_HV2': 0.0}, 'tags': {'user': 'root'}}
{'measurement': 'measName', 'fields': {'measV_HV2': -150.0, 'measI_HV2': -9.039001e-08, 'settV_HV2': -150.0, 'settI_HV2': 0.0}, 'tags': {'user': 'root'}}
{'measurement': 'measName', 'fields': {'measV_HV2': -150.0, 'measI_HV2': -9.859266e-08, 'settV_HV2': -150.0, 'settI_HV2': 0.0}, 'tags': {'user': 'root'}}
{'measurement': 'measName', 'fields': {'measV_HV2': -150.0, 'measI_HV2': -1.005446e-07, 'settV_HV2': -150.0, 'settI_HV2': 0.0}, 'tags': {'user': 'root'}}
{'measurement': 'measName', 'fields': {'measV_HV2': -150.0, 'measI_HV2': -8.988257e-08, 'settV_HV2': -150.0, 'settI_HV2': 0.0}, 'tags': {'user': 'root'}}
{'measurement': 'measName', 'fields': {'measV_HV2': -150.0, 'measI_HV2': -1.015456e-07, 'settV_HV2': -150.0, 'settI_HV2': 0.0}, 'tags': {'user': 'root'}}
{'measurement': 'measName', 'fields': {'measV_HV2': -150.0, 'measI_HV2': -9.39034e-08, 'settV_HV2': -150.0, 'settI_HV2': 0.0}, 'tags': {'user': 'root'}}
{'measurement': 'measName', 'fields': {'measV_HV2': -150.0, 'measI_HV2': -9.822912e-08, 'settV_HV2': -150.0, 'settI_HV2': 0.0}, 'tags': {'user': 'root'}}
{'measurement': 'measName', 'fields': {'measV_HV2': -150.0, 'measI_HV2': -1.004995e-07, 'settV_HV2': -150.0, 'settI_HV2': 0.0}, 'tags': {'user': 'root'}}
{'measurement': 'measName', 'fields': {'measV_HV2': -150.0, 'measI_HV2': -8.9709e-08, 'settV_HV2': -150.0, 'settI_HV2': 0.0}, 'tags': {'user': 'root'}}
{'measurement': 'measName', 'fields': {'measV_HV2': -150.0, 'measI_HV2': -9.779954e-08, 'settV_HV2': -150.0, 'settI_HV2': 0.0}, 'tags': {'user': 'root'}}
{'measurement': 'measName', 'fields': {'measV_HV2': -150.0, 'measI_HV2': -9.862318e-08, 'settV_HV2': -150.0, 'settI_HV2': 0.0}, 'tags': {'user': 'root'}}
{'measurement': 'measName', 'fields': {'measV_HV2': -150.0, 'measI_HV2': -8.998058e-08, 'settV_HV2': -150.0, 'settI_HV2': 0.0}, 'tags': {'user': 'root'}}
{'measurement': 'measName', 'fields': {'measV_HV2': -150.0, 'measI_HV2': -1.003081e-07, 'settV_HV2': -150.0, 'settI_HV2': 0.0}, 'tags': {'user': 'root'}}
{'measurement': 'measName', 'fields': {'measV_HV2': -150.0, 'measI_HV2': -9.600643e-08, 'settV_HV2': -150.0, 'settI_HV2': 0.0}, 'tags': {'user': 'root'}}
{'measurement': 'measName', 'fields': {'measV_HV2': -150.0, 'measI_HV2': -9.112905e-08, 'settV_HV2': -150.0, 'settI_HV2': 0.0}, 'tags': {'user': 'root'}}
{'measurement': 'measName', 'fields': {'measV_HV2': -150.0, 'measI_HV2': -1.016403e-07, 'settV_HV2': -150.0, 'settI_HV2': 0.0}, 'tags': {'user': 'root'}}
{'measurement': 'measName', 'fields': {'measV_HV2': -150.0, 'measI_HV2': -8.948219e-08, 'settV_HV2': -150.0, 'settI_HV2': 0.0}, 'tags': {'user': 'root'}}
{'measurement': 'measName', 'fields': {'measV_HV2': -150.0, 'measI_HV2': -1.006406e-07, 'settV_HV2': -150.0, 'settI_HV2': 0.0}, 'tags': {'user': 'root'}}
{'measurement': 'measName', 'fields': {'measV_HV2': -150.0, 'measI_HV2': -9.327348e-08, 'settV_HV2': -150.0, 'settI_HV2': 0.0}, 'tags': {'user': 'root'}}
{'measurement': 'measName', 'fields': {'measV_HV2': -150.0, 'measI_HV2': -9.290486e-08, 'settV_HV2': -150.0, 'settI_HV2': 0.0}, 'tags': {'user': 'root'}}
{'measurement': 'measName', 'fields': {'measV_HV2': -150.0, 'measI_HV2': -1.023524e-07, 'settV_HV2': -150.0, 'settI_HV2': 0.0}, 'tags': {'user': 'root'}}
{'measurement': 'measName', 'fields': {'measV_HV2': -150.0, 'measI_HV2': -9.052251e-08, 'settV_HV2': -150.0, 'settI_HV2': 0.0}, 'tags': {'user': 'root'}}
{'measurement': 'measName', 'fields': {'measV_HV2': -150.0, 'measI_HV2': -1.017245e-07, 'settV_HV2': -150.0, 'settI_HV2': 0.0}, 'tags': {'user': 'root'}}
{'measurement': 'measName', 'fields': {'measV_HV2': -150.0, 'measI_HV2': -9.695615e-08, 'settV_HV2': -150.0, 'settI_HV2': 0.0}, 'tags': {'user': 'root'}}
{'measurement': 'measName', 'fields': {'measV_HV2': -150.0, 'measI_HV2': -9.27041e-08, 'settV_HV2': -150.0, 'settI_HV2': 0.0}, 'tags': {'user': 'root'}}
{'measurement': 'measName', 'fields': {'measV_HV2': -150.0, 'measI_HV2': -1.018205e-07, 'settV_HV2': -150.0, 'settI_HV2': 0.0}, 'tags': {'user': 'root'}}
{'measurement': 'measName', 'fields': {'measV_HV2': -150.0, 'measI_HV2': -9.074112e-08, 'settV_HV2': -150.0, 'settI_HV2': 0.0}, 'tags': {'user': 'root'}}
{'measurement': 'measName', 'fields': {'measV_HV2': -150.0, 'measI_HV2': -9.977975e-08, 'settV_HV2': -150.0, 'settI_HV2': 0.0}, 'tags': {'user': 'root'}}
{'measurement': 'measName', 'fields': {'measV_HV2': -150.0, 'measI_HV2': -9.357741e-08, 'settV_HV2': -150.0, 'settI_HV2': 0.0}, 'tags': {'user': 'root'}}
{'measurement': 'measName', 'fields': {'measV_HV2': -150.0, 'measI_HV2': -9.126321e-08, 'settV_HV2': -150.0, 'settI_HV2': 0.0}, 'tags': {'user': 'root'}}
{'measurement': 'measName', 'fields': {'measV_HV2': -150.0, 'measI_HV2': -1.015695e-07, 'settV_HV2': -150.0, 'settI_HV2': 0.0}, 'tags': {'user': 'root'}}
{'measurement': 'measName', 'fields': {'measV_HV2': -150.0, 'measI_HV2': -9.284908e-08, 'settV_HV2': -150.0, 'settI_HV2': 0.0}, 'tags': {'user': 'root'}}
{'measurement': 'measName', 'fields': {'measV_HV2': -150.0, 'measI_HV2': -9.622222e-08, 'settV_HV2': -150.0, 'settI_HV2': 0.0}, 'tags': {'user': 'root'}}
{'measurement': 'measName', 'fields': {'measV_HV2': -150.0, 'measI_HV2': -1.002854e-07, 'settV_HV2': -150.0, 'settI_HV2': 0.0}, 'tags': {'user': 'root'}}
{'measurement': 'measName', 'fields': {'measV_HV2': -150.0, 'measI_HV2': -8.926076e-08, 'settV_HV2': -150.0, 'settI_HV2': 0.0}, 'tags': {'user': 'root'}}
{'measurement': 'measName', 'fields': {'measV_HV2': -150.0, 'measI_HV2': -9.837004e-08, 'settV_HV2': -150.0, 'settI_HV2': 0.0}, 'tags': {'user': 'root'}}
{'measurement': 'measName', 'fields': {'measV_HV2': -150.0, 'measI_HV2': -9.687366e-08, 'settV_HV2': -150.0, 'settI_HV2': 0.0}, 'tags': {'user': 'root'}}
{'measurement': 'measName', 'fields': {'measV_HV2': -150.0, 'measI_HV2': -9.146689e-08, 'settV_HV2': -150.0, 'settI_HV2': 0.0}, 'tags': {'user': 'root'}}
{'measurement': 'measName', 'fields': {'measV_HV2': -150.0, 'measI_HV2': -1.023802e-07, 'settV_HV2': -150.0, 'settI_HV2': 0.0}, 'tags': {'user': 'root'}}
{'measurement': 'measName', 'fields': {'measV_HV2': -150.0, 'measI_HV2': -9.265271e-08, 'settV_HV2': -150.0, 'settI_HV2': 0.0}, 'tags': {'user': 'root'}}
{'measurement': 'measName', 'fields': {'measV_HV2': -150.0, 'measI_HV2': -9.437692e-08, 'settV_HV2': -150.0, 'settI_HV2': 0.0}, 'tags': {'user': 'root'}}
{'measurement': 'measName', 'fields': {'measV_HV2': -150.0, 'measI_HV2': -1.00821e-07, 'settV_HV2': -150.0, 'settI_HV2': 0.0}, 'tags': {'user': 'root'}}
{'measurement': 'measName', 'fields': {'measV_HV2': -150.0, 'measI_HV2': -9.10095e-08, 'settV_HV2': -150.0, 'settI_HV2': 0.0}, 'tags': {'user': 'root'}}
{'measurement': 'measName', 'fields': {'measV_HV2': -150.0, 'measI_HV2': -1.017999e-07, 'settV_HV2': -150.0, 'settI_HV2': 0.0}, 'tags': {'user': 'root'}}
{'measurement': 'measName', 'fields': {'measV_HV2': -150.0, 'measI_HV2': -9.06523e-08, 'settV_HV2': -150.0, 'settI_HV2': 0.0}, 'tags': {'user': 'root'}}
{'measurement': 'measName', 'fields': {'measV_HV2': -150.0, 'measI_HV2': -9.711859e-08, 'settV_HV2': -150.0, 'settI_HV2': 0.0}, 'tags': {'user': 'root'}}
{'measurement': 'measName', 'fields': {'measV_HV2': -150.0, 'measI_HV2': -9.698962e-08, 'settV_HV2': -150.0, 'settI_HV2': 0.0}, 'tags': {'user': 'root'}}
{'measurement': 'measName', 'fields': {'measV_HV2': -150.0, 'measI_HV2': -9.069217e-08, 'settV_HV2': -150.0, 'settI_HV2': 0.0}, 'tags': {'user': 'root'}}
{'measurement': 'measName', 'fields': {'measV_HV2': -150.0, 'measI_HV2': -1.022817e-07, 'settV_HV2': -150.0, 'settI_HV2': 0.0}, 'tags': {'user': 'root'}}
{'measurement': 'measName', 'fields': {'measV_HV2': -150.0, 'measI_HV2': -9.308096e-08, 'settV_HV2': -150.0, 'settI_HV2': 0.0}, 'tags': {'user': 'root'}}
{'measurement': 'measName', 'fields': {'measV_HV2': -150.0, 'measI_HV2': -9.955971e-08, 'settV_HV2': -150.0, 'settI_HV2': 0.0}, 'tags': {'user': 'root'}}
{'measurement': 'measName', 'fields': {'measV_HV2': -150.0, 'measI_HV2': -9.870946e-08, 'settV_HV2': -150.0, 'settI_HV2': 0.0}, 'tags': {'user': 'root'}}
{'measurement': 'measName', 'fields': {'measV_HV2': -150.0, 'measI_HV2': -9.047369e-08, 'settV_HV2': -150.0, 'settI_HV2': 0.0}, 'tags': {'user': 'root'}}
{'measurement': 'measName', 'fields': {'measV_HV2': -150.0, 'measI_HV2': -9.914449e-08, 'settV_HV2': -150.0, 'settI_HV2': 0.0}, 'tags': {'user': 'root'}}
{'measurement': 'measName', 'fields': {'measV_HV2': -150.0, 'measI_HV2': -9.520821e-08, 'settV_HV2': -150.0, 'settI_HV2': 0.0}, 'tags': {'user': 'root'}}
{'measurement': 'measName', 'fields': {'measV_HV2': -150.0, 'measI_HV2': -9.281353e-08, 'settV_HV2': -150.0, 'settI_HV2': 0.0}, 'tags': {'user': 'root'}}
{'measurement': 'measName', 'fields': {'measV_HV2': -150.0, 'measI_HV2': -1.011146e-07, 'settV_HV2': -150.0, 'settI_HV2': 0.0}, 'tags': {'user': 'root'}}
{'measurement': 'measName', 'fields': {'measV_HV2': -150.0, 'measI_HV2': -9.087012e-08, 'settV_HV2': -150.0, 'settI_HV2': 0.0}, 'tags': {'user': 'root'}}
{'measurement': 'measName', 'fields': {'measV_HV2': -150.0, 'measI_HV2': -1.005994e-07, 'settV_HV2': -150.0, 'settI_HV2': 0.0}, 'tags': {'user': 'root'}}
{'measurement': 'measName', 'fields': {'measV_HV2': -150.0, 'measI_HV2': -9.076452e-08, 'settV_HV2': -150.0, 'settI_HV2': 0.0}, 'tags': {'user': 'root'}}
{'measurement': 'measName', 'fields': {'measV_HV2': -150.0, 'measI_HV2': -9.455414e-08, 'settV_HV2': -150.0, 'settI_HV2': 0.0}, 'tags': {'user': 'root'}}
{'measurement': 'measName', 'fields': {'measV_HV2': -150.0, 'measI_HV2': -1.005762e-07, 'settV_HV2': -150.0, 'settI_HV2': 0.0}, 'tags': {'user': 'root'}}
{'measurement': 'measName', 'fields': {'measV_HV2': -150.0, 'measI_HV2': -8.960573e-08, 'settV_HV2': -150.0, 'settI_HV2': 0.0}, 'tags': {'user': 'root'}}
{'measurement': 'measName', 'fields': {'measV_HV2': -150.0, 'measI_HV2': -1.005065e-07, 'settV_HV2': -150.0, 'settI_HV2': 0.0}, 'tags': {'user': 'root'}}
{'measurement': 'measName', 'fields': {'measV_HV2': -150.0, 'measI_HV2': -9.328252e-08, 'settV_HV2': -150.0, 'settI_HV2': 0.0}, 'tags': {'user': 'root'}}
{'measurement': 'measName', 'fields': {'measV_HV2': -150.0, 'measI_HV2': -9.35993e-08, 'settV_HV2': -150.0, 'settI_HV2': 0.0}, 'tags': {'user': 'root'}}
{'measurement': 'measName', 'fields': {'measV_HV2': -150.0, 'measI_HV2': -1.001671e-07, 'settV_HV2': -150.0, 'settI_HV2': 0.0}, 'tags': {'user': 'root'}}
{'measurement': 'measName', 'fields': {'measV_HV2': -150.0, 'measI_HV2': -9.02719e-08, 'settV_HV2': -150.0, 'settI_HV2': 0.0}, 'tags': {'user': 'root'}}
{'measurement': 'measName', 'fields': {'measV_HV2': -150.0, 'measI_HV2': -1.019433e-07, 'settV_HV2': -150.0, 'settI_HV2': 0.0}, 'tags': {'user': 'root'}}
{'measurement': 'measName', 'fields': {'measV_HV2': -150.0, 'measI_HV2': -9.184371e-08, 'settV_HV2': -150.0, 'settI_HV2': 0.0}, 'tags': {'user': 'root'}}
{'measurement': 'measName', 'fields': {'measV_HV2': -150.0, 'measI_HV2': -9.26385e-08, 'settV_HV2': -150.0, 'settI_HV2': 0.0}, 'tags': {'user': 'root'}}
{'measurement': 'measName', 'fields': {'measV_HV2': -150.0, 'measI_HV2': -1.01175e-07, 'settV_HV2': -150.0, 'settI_HV2': 0.0}, 'tags': {'user': 'root'}}
{'measurement': 'measName', 'fields': {'measV_HV2': -150.0, 'measI_HV2': -9.075874e-08, 'settV_HV2': -150.0, 'settI_HV2': 0.0}, 'tags': {'user': 'root'}}
{'measurement': 'measName', 'fields': {'measV_HV2': -150.0, 'measI_HV2': -9.853796e-08, 'settV_HV2': -150.0, 'settI_HV2': 0.0}, 'tags': {'user': 'root'}}
{'measurement': 'measName', 'fields': {'measV_HV2': -150.0, 'measI_HV2': -9.234386e-08, 'settV_HV2': -150.0, 'settI_HV2': 0.0}, 'tags': {'user': 'root'}}
{'measurement': 'measName', 'fields': {'measV_HV2': -150.0, 'measI_HV2': -9.562498e-08, 'settV_HV2': -150.0, 'settI_HV2': 0.0}, 'tags': {'user': 'root'}}
{'measurement': 'measName', 'fields': {'measV_HV2': -150.0, 'measI_HV2': -9.931578e-08, 'settV_HV2': -150.0, 'settI_HV2': 0.0}, 'tags': {'user': 'root'}}
{'measurement': 'measName', 'fields': {'measV_HV2': -150.0, 'measI_HV2': -9.112178e-08, 'settV_HV2': -150.0, 'settI_HV2': 0.0}, 'tags': {'user': 'root'}}
{'measurement': 'measName', 'fields': {'measV_HV2': -150.0, 'measI_HV2': -1.021636e-07, 'settV_HV2': -150.0, 'settI_HV2': 0.0}, 'tags': {'user': 'root'}}
{'measurement': 'measName', 'fields': {'measV_HV2': -150.0, 'measI_HV2': -8.920082e-08, 'settV_HV2': -150.0, 'settI_HV2': 0.0}, 'tags': {'user': 'root'}}
{'measurement': 'measName', 'fields': {'measV_HV2': -150.0, 'measI_HV2': -1.006462e-07, 'settV_HV2': -150.0, 'settI_HV2': 0.0}, 'tags': {'user': 'root'}}
{'measurement': 'measName', 'fields': {'measV_HV2': -150.0, 'measI_HV2': -9.317318e-08, 'settV_HV2': -150.0, 'settI_HV2': 0.0}, 'tags': {'user': 'root'}}
{'measurement': 'measName', 'fields': {'measV_HV2': -150.0, 'measI_HV2': -9.428442e-08, 'settV_HV2': -150.0, 'settI_HV2': 0.0}, 'tags': {'user': 'root'}}
{'measurement': 'measName', 'fields': {'measV_HV2': -150.0, 'measI_HV2': -1.00133e-07, 'settV_HV2': -150.0, 'settI_HV2': 0.0}, 'tags': {'user': 'root'}}
{'measurement': 'measName', 'fields': {'measV_HV2': -150.0, 'measI_HV2': -8.953891e-08, 'settV_HV2': -150.0, 'settI_HV2': 0.0}, 'tags': {'user': 'root'}}
{'measurement': 'measName', 'fields': {'measV_HV2': -150.0, 'measI_HV2': -1.017086e-07, 'settV_HV2': -150.0, 'settI_HV2': 0.0}, 'tags': {'user': 'root'}}
{'measurement': 'measName', 'fields': {'measV_HV2': -150.0, 'measI_HV2': -9.165802e-08, 'settV_HV2': -150.0, 'settI_HV2': 0.0}, 'tags': {'user': 'root'}}
{'measurement': 'measName', 'fields': {'measV_HV2': -150.0, 'measI_HV2': -9.712195e-08, 'settV_HV2': -150.0, 'settI_HV2': 0.0}, 'tags': {'user': 'root'}}
{'measurement': 'measName', 'fields': {'measV_HV2': -150.0, 'measI_HV2': -9.630518e-08, 'settV_HV2': -150.0, 'settI_HV2': 0.0}, 'tags': {'user': 'root'}}
{'measurement': 'measName', 'fields': {'measV_HV2': -150.0, 'measI_HV2': -9.28535e-08, 'settV_HV2': -150.0, 'settI_HV2': 0.0}, 'tags': {'user': 'root'}}
{'measurement': 'measName', 'fields': {'measV_HV2': -150.0, 'measI_HV2': -1.021044e-07, 'settV_HV2': -150.0, 'settI_HV2': 0.0}, 'tags': {'user': 'root'}}
{'measurement': 'measName', 'fields': {'measV_HV2': -150.0, 'measI_HV2': -9.045704e-08, 'settV_HV2': -150.0, 'settI_HV2': 0.0}, 'tags': {'user': 'root'}}
{'measurement': 'measName', 'fields': {'measV_HV2': -150.0, 'measI_HV2': -1.018304e-07, 'settV_HV2': -150.0, 'settI_HV2': 0.0}, 'tags': {'user': 'root'}}
{'measurement': 'measName', 'fields': {'measV_HV2': -150.0, 'measI_HV2': -9.21951e-08, 'settV_HV2': -150.0, 'settI_HV2': 0.0}, 'tags': {'user': 'root'}}
{'measurement': 'measName', 'fields': {'measV_HV2': -150.0, 'measI_HV2': -9.407854e-08, 'settV_HV2': -150.0, 'settI_HV2': 0.0}, 'tags': {'user': 'root'}}
{'measurement': 'measName', 'fields': {'measV_HV2': -150.0, 'measI_HV2': -9.932499e-08, 'settV_HV2': -150.0, 'settI_HV2': 0.0}, 'tags': {'user': 'root'}}
{'measurement': 'measName', 'fields': {'measV_HV2': -150.0, 'measI_HV2': -8.997426e-08, 'settV_HV2': -150.0, 'settI_HV2': 0.0}, 'tags': {'user': 'root'}}
{'measurement': 'measName', 'fields': {'measV_HV2': -150.0, 'measI_HV2': -1.005452e-07, 'settV_HV2': -150.0, 'settI_HV2': 0.0}, 'tags': {'user': 'root'}}
{'measurement': 'measName', 'fields': {'measV_HV2': -150.0, 'measI_HV2': -9.420436e-08, 'settV_HV2': -150.0, 'settI_HV2': 0.0}, 'tags': {'user': 'root'}}
{'measurement': 'measName', 'fields': {'measV_HV2': -150.0, 'measI_HV2': -9.123745e-08, 'settV_HV2': -150.0, 'settI_HV2': 0.0}, 'tags': {'user': 'root'}}
{'measurement': 'measName', 'fields': {'measV_HV2': -150.0, 'measI_HV2': -9.965639e-08, 'settV_HV2': -150.0, 'settI_HV2': 0.0}, 'tags': {'user': 'root'}}
{'measurement': 'measName', 'fields': {'measV_HV2': -150.0, 'measI_HV2': -8.912117e-08, 'settV_HV2': -150.0, 'settI_HV2': 0.0}, 'tags': {'user': 'root'}}
{'measurement': 'measName', 'fields': {'measV_HV2': -150.0, 'measI_HV2': -1.009948e-07, 'settV_HV2': -150.0, 'settI_HV2': 0.0}, 'tags': {'user': 'root'}}

