{
    "unit": {
        "Time": "s",
        "Voltage": "V",
        "Current": "A"
    },
    "V_step": -5,
    "Step_duration": 2,
    "N_measurements_per_step": 10,
    "A_Compliance": 1e-05,
    "Sensor_IV": [
        {
            "Time": 6.105464696884155,
            "Voltage": 0.0,
            "Current_mean": 6.3992553e-09,
            "Current_sigma": 8.131998827911068e-09
        },
        {
            "Time": 12.099401712417603,
            "Voltage": -5.0,
            "Current_mean": -3.4283181400000005e-08,
            "Current_sigma": 1.2996867748038127e-08
        },
        {
            "Time": 18.093018054962158,
            "Voltage": -10.0,
            "Current_mean": -9.885997800000001e-09,
            "Current_sigma": 1.942070486491044e-09
        },
        {
            "Time": 24.086913347244263,
            "Voltage": -15.0,
            "Current_mean": -3.6641558e-08,
            "Current_sigma": 2.6080681028140336e-09
        },
        {
            "Time": 30.080721616744995,
            "Voltage": -20.0,
            "Current_mean": -2.0890580999999997e-08,
            "Current_sigma": 4.660282784768431e-09
        },
        {
            "Time": 36.07466459274292,
            "Voltage": -25.0,
            "Current_mean": -3.1132374e-08,
            "Current_sigma": 3.5657858129399754e-09
        },
        {
            "Time": 42.06844234466553,
            "Voltage": -30.0,
            "Current_mean": -2.8827539e-08,
            "Current_sigma": 5.368352485767771e-09
        },
        {
            "Time": 48.06242537498474,
            "Voltage": -35.0,
            "Current_mean": -3.1116068e-08,
            "Current_sigma": 1.3987212977988138e-09
        },
        {
            "Time": 54.056166887283325,
            "Voltage": -40.0,
            "Current_mean": -3.3890789999999995e-08,
            "Current_sigma": 7.721904361231122e-10
        },
        {
            "Time": 60.0501024723053,
            "Voltage": -45.0,
            "Current_mean": -2.2894664e-08,
            "Current_sigma": 3.979914606958798e-09
        },
        {
            "Time": 66.0439202785492,
            "Voltage": -50.0,
            "Current_mean": -2.3249426000000002e-08,
            "Current_sigma": 2.9998799936304117e-09
        },
        {
            "Time": 72.03770732879639,
            "Voltage": -55.0,
            "Current_mean": -5.0793907e-08,
            "Current_sigma": 1.0055789436841849e-09
        },
        {
            "Time": 78.03156757354736,
            "Voltage": -60.0,
            "Current_mean": -9.1663871e-08,
            "Current_sigma": 5.910710879488948e-09
        },
        {
            "Time": 84.02551484107971,
            "Voltage": -65.0,
            "Current_mean": -2.1575326999999996e-07,
            "Current_sigma": 3.2869491365246263e-09
        },
        {
            "Time": 90.01910853385925,
            "Voltage": -70.0,
            "Current_mean": -3.7662741999999996e-07,
            "Current_sigma": 1.8152335617214622e-09
        },
        {
            "Time": 96.01293563842773,
            "Voltage": -75.0,
            "Current_mean": -5.3656273e-07,
            "Current_sigma": 2.3235832582672857e-09
        },
        {
            "Time": 102.00659894943237,
            "Voltage": -80.0,
            "Current_mean": -7.355975899999999e-07,
            "Current_sigma": 4.585500170853771e-09
        },
        {
            "Time": 108.00030446052551,
            "Voltage": -85.0,
            "Current_mean": -9.359730599999999e-07,
            "Current_sigma": 6.169155172987638e-09
        },
        {
            "Time": 113.99404788017273,
            "Voltage": -90.0,
            "Current_mean": -1.1420609e-06,
            "Current_sigma": 5.845495949019219e-09
        },
        {
            "Time": 119.98780274391174,
            "Voltage": -95.0,
            "Current_mean": -1.3468969999999999e-06,
            "Current_sigma": 3.771273259789028e-09
        },
        {
            "Time": 125.98158073425293,
            "Voltage": -100.0,
            "Current_mean": -1.5650991000000002e-06,
            "Current_sigma": 2.8748066526290208e-09
        },
        {
            "Time": 131.9754343032837,
            "Voltage": -105.0,
            "Current_mean": -1.7986190999999999e-06,
            "Current_sigma": 3.1769677508592956e-09
        },
        {
            "Time": 137.9693546295166,
            "Voltage": -110.0,
            "Current_mean": -2.0271283e-06,
            "Current_sigma": 3.086511689593959e-09
        },
        {
            "Time": 143.96310448646545,
            "Voltage": -115.0,
            "Current_mean": -2.2711596000000004e-06,
            "Current_sigma": 2.8749984069560947e-09
        },
        {
            "Time": 149.9570496082306,
            "Voltage": -120.0,
            "Current_mean": -2.4973261e-06,
            "Current_sigma": 4.043332349683908e-09
        },
        {
            "Time": 155.95096731185913,
            "Voltage": -125.0,
            "Current_mean": -2.7573777e-06,
            "Current_sigma": 2.180507282721213e-09
        },
        {
            "Time": 161.9448037147522,
            "Voltage": -130.0,
            "Current_mean": -2.9967625999999997e-06,
            "Current_sigma": 6.363181817298654e-09
        },
        {
            "Time": 167.93878531455994,
            "Voltage": -135.0,
            "Current_mean": -3.2580478999999992e-06,
            "Current_sigma": 6.2516688244020214e-09
        },
        {
            "Time": 173.9323697090149,
            "Voltage": -140.0,
            "Current_mean": -3.5221548e-06,
            "Current_sigma": 5.8935102409345496e-09
        },
        {
            "Time": 179.92624974250793,
            "Voltage": -145.0,
            "Current_mean": -3.7962865999999996e-06,
            "Current_sigma": 7.988668652535228e-09
        },
        {
            "Time": 185.92030262947083,
            "Voltage": -150.0,
            "Current_mean": -4.084276e-06,
            "Current_sigma": 4.5988360266486386e-09
        },
        {
            "Time": 191.91400408744812,
            "Voltage": -155.0,
            "Current_mean": -4.3464452e-06,
            "Current_sigma": 1.0004391513730416e-08
        },
        {
            "Time": 197.90775084495544,
            "Voltage": -160.0,
            "Current_mean": -4.6864547e-06,
            "Current_sigma": 6.1496899442166196e-09
        },
        {
            "Time": 203.90166401863098,
            "Voltage": -165.0,
            "Current_mean": -4.9912035e-06,
            "Current_sigma": 3.765269904004198e-09
        },
        {
            "Time": 209.89540195465088,
            "Voltage": -170.0,
            "Current_mean": -5.2870909e-06,
            "Current_sigma": 6.086655032938695e-09
        },
        {
            "Time": 215.8892045021057,
            "Voltage": -175.0,
            "Current_mean": -5.609564800000001e-06,
            "Current_sigma": 7.174470862718607e-09
        },
        {
            "Time": 221.8832335472107,
            "Voltage": -180.0,
            "Current_mean": -5.9439364e-06,
            "Current_sigma": 7.762859346915977e-09
        },
        {
            "Time": 227.87695384025574,
            "Voltage": -185.0,
            "Current_mean": -6.302260299999999e-06,
            "Current_sigma": 8.39267048143794e-09
        },
        {
            "Time": 233.8707447052002,
            "Voltage": -190.0,
            "Current_mean": -6.6869838e-06,
            "Current_sigma": 7.290120435219212e-09
        },
        {
            "Time": 239.86448097229004,
            "Voltage": -195.0,
            "Current_mean": -7.0492066e-06,
            "Current_sigma": 8.625091700382166e-09
        },
        {
            "Time": 245.85833883285522,
            "Voltage": -200.0,
            "Current_mean": -7.422715e-06,
            "Current_sigma": 1.0237804002812235e-08
        }
    ]
}