{
    "Data": [0.0, 0.0, 0.0, 0.0, 0.0, 0.0, 0.0, 0.0, 0.0, 0.0, 0.0, 0.0, 0.0, 0.0, 0.0, 0.0, 0.0, 0.0, 3.0, 10.0, 0.0, 1.0, 3.0, 69.0, 112.0, 53.0, 20.0, 59.0, 477.0, 505.0, 295.0, 169.0, 210.0, 899.0, 1456.0, 1313.0, 895.0, 501.0, 995.0, 1256.0, 1147.0, 985.0, 676.0, 822.0, 1246.0, 1353.0, 1390.0, 911.0, 758.0, 656.0, 548.0, 471.0, 417.0, 429.0, 410.0, 339.0, 331.0, 294.0, 260.0, 282.0, 196.0, 185.0, 159.0, 153.0, 139.0, 133.0, 107.0, 92.0, 95.0, 68.0, 76.0, 74.0, 57.0, 51.0, 46.0, 56.0, 59.0, 50.0, 38.0, 25.0, 40.0, 22.0, 25.0, 34.0, 23.0, 31.0, 22.0, 25.0, 19.0, 21.0, 14.0, 12.0, 21.0, 21.0, 12.0, 15.0, 14.0, 19.0, 19.0, 16.0, 13.0, 14.0, 9.0, 12.0, 11.0, 11.0, 3.0, 12.0, 16.0, 2.0, 10.0, 7.0, 6.0, 2.0, 7.0, 3.0, 6.0, 8.0, 8.0, 2.0, 3.0, 1.0, 1.0, 3.0, 4.0, 4.0, 2.0, 2.0, 3.0, 1.0, 4.0, 1.0, 2.0, 4.0, 0.0, 0.0, 1.0, 3.0, 1.0, 4.0, 1.0, 2.0, 0.0, 2.0, 2.0, 0.0, 1.0, 1.0, 1.0, 0.0, 2.0, 1.0, 0.0, 1.0, 0.0, 1.0, 0.0, 1.0, 0.0, 0.0, 0.0, 2.0, 0.0, 0.0, 0.0, 1.0, 0.0, 1.0, 1.0, 0.0, 2.0, 1.0, 0.0, 0.0, 1.0, 0.0, 1.0, 3.0, 0.0, 0.0, 1.0, 1.0, 0.0, 0.0, 0.0, 0.0, 0.0, 0.0, 0.0, 0.0, 0.0, 0.0, 0.0, 0.0, 0.0, 0.0, 0.0, 0.0, 0.0, 0.0, 0.0],
    "Name": "TimePerFitDist-0",
    "Overflow": 41.0,
    "Type": "Histo1d",
    "Underflow": 0.0,
    "x": {
        "AxisTitle": "Fit Time [us]",
        "Bins": 201,
        "High": 401.0,
        "Low": -1.0
    },
    "y": {
        "AxisTitle": "Number of Pixels"
    },
    "z": {
        "AxisTitle": "z"
    }
}