{
    "Data": [277.0, 3665.0, 6017.0, 4223.0, 3009.0, 2112.0, 1527.0, 1052.0, 763.0, 579.0, 409.0, 344.0, 270.0, 196.0, 163.0, 140.0, 112.0, 96.0, 77.0, 71.0, 60.0, 50.0, 53.0, 50.0, 43.0, 52.0, 36.0, 29.0, 27.0, 18.0, 32.0, 18.0, 21.0, 25.0, 14.0, 11.0, 21.0, 10.0, 13.0, 12.0, 10.0, 9.0, 7.0, 8.0, 6.0, 6.0, 8.0, 10.0, 5.0, 5.0, 1.0],
    "Name": "Chi2Dist-0",
    "Overflow": 0.0,
    "Type": "Histo1d",
    "Underflow": 0.0,
    "x": {
        "AxisTitle": "Fit Chi/ndf",
        "Bins": 51,
        "High": 2.5250000953674318,
        "Low": -0.02500000037252903
    },
    "y": {
        "AxisTitle": "Number of Pixels"
    },
    "z": {
        "AxisTitle": "z"
    }
}