{
    "Data": [0.0, 1.0, 2.0, 0.0, 1.0, 2.0, 1.0, 1.0, 3.0, 0.0, 0.0, 1.0, 0.0, 0.0, 2.0, 2.0, 2.0, 0.0, 1.0, 1.0, 1.0, 1.0, 0.0, 1.0, 1.0, 1.0, 2.0, 0.0, 1.0, 0.0, 0.0, 0.0, 0.0, 0.0, 0.0, 1.0, 0.0, 0.0, 0.0, 0.0, 0.0, 1.0, 0.0, 2.0, 0.0, 1.0, 1.0, 1.0, 0.0, 2.0, 0.0, 0.0, 0.0, 0.0, 0.0, 2.0, 0.0, 2.0, 0.0, 0.0, 0.0, 0.0, 1.0, 0.0, 0.0, 0.0, 0.0, 0.0, 0.0, 1.0, 0.0, 1.0, 1.0, 0.0, 0.0, 2.0, 0.0, 0.0, 0.0, 0.0, 1.0, 0.0, 0.0, 1.0, 0.0, 0.0, 0.0, 1.0, 3.0, 0.0, 1.0, 2.0, 2.0, 2.0, 0.0, 0.0, 2.0, 2.0, 1.0, 1.0, 0.0, 0.0, 1.0, 0.0, 1.0, 1.0, 0.0, 0.0, 2.0, 0.0, 1.0, 0.0, 0.0, 0.0, 0.0, 1.0, 2.0, 0.0, 0.0, 1.0, 1.0, 0.0, 0.0, 0.0, 2.0, 1.0, 0.0, 0.0, 0.0, 1.0, 1.0, 0.0, 0.0, 0.0, 2.0, 0.0, 1.0, 1.0, 0.0, 0.0, 1.0, 0.0, 0.0, 0.0, 1.0, 1.0, 0.0, 1.0, 0.0, 0.0, 0.0, 0.0, 0.0, 0.0, 0.0, 1.0, 0.0, 0.0, 2.0, 2.0, 2.0, 0.0, 0.0, 0.0, 0.0, 0.0, 0.0, 0.0, 0.0, 0.0, 0.0, 0.0, 0.0, 0.0, 1.0, 0.0, 0.0, 1.0, 0.0, 0.0, 0.0, 0.0, 1.0, 1.0, 1.0, 1.0, 0.0, 1.0, 2.0, 0.0, 0.0, 0.0, 2.0, 0.0, 1.0, 0.0, 0.0, 0.0, 0.0, 1.0, 1.0, 2.0, 0.0, 0.0, 0.0, 1.0, 0.0, 0.0, 1.0, 0.0, 1.0, 1.0, 0.0, 0.0, 0.0, 1.0, 0.0, 0.0, 0.0, 0.0, 0.0, 0.0, 1.0, 1.0, 0.0, 0.0, 1.0, 1.0, 1.0, 0.0, 0.0, 0.0, 0.0, 0.0, 1.0, 0.0, 0.0, 0.0, 0.0, 0.0, 0.0, 0.0, 1.0, 0.0, 0.0, 0.0, 0.0, 0.0, 0.0, 0.0, 1.0, 0.0, 0.0, 0.0, 0.0, 0.0, 0.0, 0.0, 0.0, 0.0, 0.0, 0.0, 0.0, 0.0, 0.0, 0.0, 0.0, 0.0, 1.0, 0.0, 0.0, 0.0, 0.0, 0.0, 1.0, 0.0, 1.0, 0.0, 0.0, 0.0, 0.0, 0.0, 0.0, 0.0, 0.0, 1.0, 0.0, 0.0, 0.0, 0.0, 0.0, 0.0, 0.0, 0.0, 0.0, 0.0, 1.0, 0.0, 0.0, 0.0, 1.0, 1.0, 2.0, 0.0, 0.0, 0.0, 0.0, 0.0, 1.0, 1.0, 0.0, 0.0, 0.0, 0.0, 0.0, 0.0, 0.0, 0.0, 0.0, 0.0, 0.0, 0.0, 1.0, 0.0, 0.0, 0.0, 0.0, 0.0, 0.0, 0.0, 0.0, 0.0, 0.0, 0.0, 0.0, 0.0, 0.0, 0.0, 0.0, 0.0, 0.0, 0.0, 0.0, 0.0, 0.0, 0.0, 0.0, 0.0, 0.0, 0.0, 0.0, 0.0, 0.0, 0.0, 0.0, 0.0, 0.0, 0.0, 0.0, 0.0, 0.0, 1.0, 0.0, 1.0, 0.0, 0.0, 0.0, 0.0, 0.0, 0.0, 0.0, 0.0, 0.0, 0.0, 0.0, 0.0, 0.0, 0.0, 0.0, 0.0, 0.0, 0.0, 0.0, 0.0, 1.0, 0.0, 0.0, 0.0, 0.0, 0.0, 0.0, 0.0, 0.0, 0.0, 0.0, 0.0, 0.0, 0.0, 0.0, 0.0, 0.0, 0.0, 0.0, 0.0, 0.0, 0.0, 0.0, 0.0, 0.0, 0.0, 0.0, 0.0, 0.0, 0.0, 0.0, 0.0, 0.0, 0.0, 0.0, 0.0, 0.0, 0.0, 0.0, 0.0, 0.0, 0.0, 0.0, 0.0, 0.0, 0.0, 0.0, 0.0, 0.0, 0.0, 0.0, 0.0, 0.0, 0.0, 0.0, 1.0, 0.0, 0.0, 0.0, 0.0, 0.0, 0.0, 0.0, 0.0, 0.0, 0.0, 0.0, 0.0, 0.0, 0.0, 0.0, 0.0, 0.0, 0.0, 0.0, 0.0, 0.0, 0.0, 0.0, 0.0, 0.0, 0.0, 1.0, 0.0, 0.0, 0.0, 0.0, 0.0, 0.0, 0.0, 0.0, 0.0, 0.0, 0.0, 0.0, 0.0, 0.0, 0.0, 0.0, 0.0, 0.0, 0.0, 0.0, 0.0, 0.0, 0.0, 0.0, 0.0, 0.0, 0.0, 0.0, 0.0, 0.0, 0.0, 0.0, 0.0, 0.0, 0.0, 0.0, 0.0, 0.0, 0.0, 0.0, 0.0, 0.0, 0.0, 0.0, 0.0, 0.0, 0.0, 0.0, 0.0, 0.0, 0.0, 0.0, 0.0, 0.0, 0.0, 0.0, 0.0, 0.0, 0.0, 0.0, 0.0, 0.0, 0.0, 0.0, 0.0, 0.0, 0.0, 0.0, 0.0, 0.0, 0.0, 0.0, 0.0, 0.0, 0.0, 0.0, 0.0, 0.0, 0.0, 0.0, 0.0, 0.0, 0.0, 0.0, 0.0, 0.0, 0.0, 0.0, 0.0, 0.0, 0.0, 0.0, 0.0, 0.0, 0.0, 0.0, 0.0, 0.0, 0.0, 0.0, 0.0, 0.0, 0.0, 0.0, 0.0, 0.0, 0.0, 0.0, 0.0, 0.0, 0.0, 0.0, 0.0, 0.0, 0.0, 0.0, 0.0, 0.0, 0.0, 0.0, 0.0, 0.0, 0.0, 0.0, 0.0, 0.0, 0.0, 0.0, 0.0, 0.0, 0.0, 0.0, 0.0, 1.0, 0.0, 0.0, 0.0, 0.0, 0.0, 0.0, 0.0, 0.0, 0.0, 0.0, 0.0, 0.0, 0.0, 0.0, 0.0, 0.0, 0.0, 0.0, 0.0, 0.0, 0.0, 0.0, 0.0, 0.0, 0.0, 0.0, 0.0, 0.0, 0.0, 0.0, 0.0, 0.0, 0.0, 0.0, 0.0, 0.0, 0.0, 0.0, 0.0, 0.0, 0.0, 0.0, 0.0, 0.0, 0.0, 0.0, 0.0, 0.0, 0.0, 0.0, 0.0, 0.0, 0.0, 0.0, 0.0, 0.0, 0.0, 0.0, 0.0, 0.0, 0.0, 0.0, 0.0, 0.0, 0.0, 0.0, 0.0, 0.0, 0.0, 0.0, 0.0, 0.0, 0.0, 0.0, 0.0, 0.0, 0.0, 0.0, 0.0, 0.0, 0.0, 0.0, 0.0, 0.0, 0.0, 0.0, 0.0, 0.0, 0.0, 0.0, 0.0, 0.0, 0.0, 0.0, 0.0, 0.0, 0.0, 0.0, 0.0, 0.0, 0.0, 0.0, 0.0, 0.0, 0.0, 0.0, 0.0, 0.0, 0.0, 0.0, 0.0, 0.0, 0.0, 0.0, 0.0, 0.0, 0.0, 0.0, 1.0, 0.0, 0.0, 0.0, 0.0, 0.0, 0.0, 0.0, 0.0, 0.0, 0.0, 0.0, 0.0, 0.0, 0.0, 0.0, 0.0, 0.0, 0.0, 0.0, 0.0, 0.0, 0.0, 0.0, 0.0, 0.0, 0.0, 0.0, 0.0, 0.0, 0.0, 0.0, 0.0, 0.0, 0.0, 0.0, 0.0, 0.0, 0.0, 0.0, 0.0, 0.0, 0.0, 0.0, 0.0, 0.0, 0.0, 0.0, 0.0, 0.0, 0.0, 0.0, 0.0, 0.0, 0.0, 0.0, 0.0, 0.0, 0.0, 0.0, 0.0, 0.0, 0.0, 0.0, 0.0, 0.0, 0.0, 0.0, 0.0, 0.0, 0.0, 0.0, 0.0, 0.0, 0.0, 0.0, 0.0, 0.0, 0.0, 0.0, 0.0, 0.0, 0.0, 0.0, 0.0, 0.0, 0.0, 0.0, 0.0, 0.0, 0.0, 0.0, 0.0, 0.0, 0.0, 0.0, 0.0, 0.0, 0.0, 0.0, 0.0, 0.0, 0.0, 0.0, 0.0, 0.0, 0.0, 0.0, 0.0, 0.0, 0.0, 0.0, 0.0, 0.0, 0.0, 0.0, 0.0, 0.0, 0.0, 0.0, 0.0, 0.0, 0.0, 0.0, 0.0, 0.0, 0.0, 0.0, 0.0, 0.0, 0.0, 0.0, 0.0, 0.0, 0.0, 0.0, 0.0, 0.0, 0.0, 0.0, 0.0, 0.0, 0.0, 0.0, 0.0, 0.0, 0.0, 1.0, 0.0, 0.0, 0.0, 0.0, 0.0, 0.0, 0.0, 0.0, 0.0, 0.0, 0.0, 0.0, 0.0, 0.0, 0.0, 0.0, 0.0, 0.0, 0.0, 1.0, 0.0, 0.0, 0.0, 0.0, 0.0, 1.0, 0.0, 0.0, 0.0, 0.0, 0.0, 1.0, 0.0, 0.0, 0.0, 0.0, 0.0, 0.0, 0.0, 0.0, 0.0, 0.0, 0.0, 0.0, 0.0, 0.0, 0.0, 0.0, 0.0, 0.0, 0.0, 0.0, 0.0, 0.0, 0.0, 0.0, 0.0, 0.0, 0.0, 0.0, 0.0, 0.0, 0.0, 0.0, 0.0, 0.0, 1.0, 0.0, 0.0, 0.0, 0.0, 0.0, 0.0, 0.0, 0.0, 0.0, 0.0, 0.0, 0.0, 0.0, 0.0, 1.0, 0.0, 0.0, 0.0, 1.0, 0.0, 0.0, 0.0, 0.0, 0.0, 0.0, 0.0, 0.0, 0.0, 0.0, 0.0, 0.0, 0.0, 0.0, 0.0, 0.0, 0.0, 0.0, 0.0, 0.0, 0.0, 0.0, 1.0, 0.0, 0.0, 0.0, 0.0, 0.0, 0.0, 0.0, 0.0, 0.0, 0.0, 0.0, 0.0, 0.0, 0.0, 0.0, 0.0, 0.0, 0.0, 0.0, 0.0, 0.0, 0.0, 0.0, 0.0, 0.0, 0.0, 1.0, 1.0, 0.0, 0.0, 0.0, 0.0, 0.0, 1.0, 0.0, 0.0, 0.0, 0.0, 0.0, 0.0, 0.0, 0.0, 1.0, 0.0, 0.0, 0.0, 0.0, 0.0, 0.0, 0.0, 1.0, 0.0, 0.0, 0.0, 0.0, 0.0, 0.0, 0.0, 0.0, 0.0, 1.0, 0.0, 1.0, 0.0, 1.0, 0.0, 0.0, 0.0, 0.0, 0.0, 1.0, 0.0, 0.0, 0.0, 0.0, 0.0, 0.0, 0.0, 1.0, 0.0, 0.0, 0.0, 0.0, 1.0, 1.0, 1.0, 1.0, 0.0, 1.0, 0.0, 0.0, 0.0, 1.0, 1.0, 0.0, 1.0, 0.0, 0.0, 1.0, 0.0, 0.0, 0.0, 0.0, 0.0, 0.0, 0.0, 0.0, 0.0, 0.0, 0.0, 1.0, 0.0, 1.0, 0.0, 0.0, 1.0, 0.0, 0.0, 0.0, 0.0, 0.0, 1.0, 1.0, 1.0, 0.0, 0.0, 0.0, 0.0, 0.0, 0.0, 1.0, 0.0, 0.0, 0.0, 1.0, 0.0, 0.0, 1.0, 1.0, 0.0, 1.0, 1.0, 1.0, 1.0, 0.0, 1.0, 0.0, 0.0, 1.0, 0.0, 2.0, 1.0, 0.0, 1.0, 1.0, 1.0, 0.0, 2.0, 0.0, 2.0, 0.0, 1.0, 1.0, 0.0, 2.0, 3.0, 2.0, 1.0, 2.0, 1.0, 1.0, 0.0, 2.0, 3.0, 0.0, 2.0, 1.0, 0.0, 1.0, 2.0, 1.0, 0.0, 0.0, 0.0, 0.0, 0.0, 2.0, 0.0, 1.0, 1.0, 1.0, 2.0, 0.0, 2.0, 2.0, 1.0, 4.0, 2.0, 1.0, 1.0, 1.0, 2.0, 0.0, 2.0, 0.0, 4.0, 0.0, 5.0, 2.0, 1.0, 1.0, 0.0, 1.0, 0.0, 0.0, 1.0, 3.0, 2.0, 0.0, 3.0, 2.0, 1.0, 0.0, 3.0, 1.0, 2.0, 3.0, 2.0, 1.0, 2.0, 2.0, 2.0, 1.0, 4.0, 4.0, 2.0, 3.0, 2.0, 2.0, 2.0, 0.0, 2.0, 5.0, 4.0, 5.0, 3.0, 0.0, 5.0, 5.0, 4.0, 1.0, 1.0, 3.0, 5.0, 3.0, 5.0, 2.0, 3.0, 4.0, 2.0, 3.0, 6.0, 2.0, 3.0, 6.0, 3.0, 2.0, 6.0, 4.0, 10.0, 5.0, 2.0, 3.0, 4.0, 9.0, 4.0, 6.0, 3.0, 8.0, 4.0, 7.0, 4.0, 7.0, 2.0, 10.0, 6.0, 7.0, 9.0, 2.0, 3.0, 9.0, 8.0, 2.0, 6.0, 6.0, 6.0, 2.0, 5.0, 2.0, 7.0, 5.0, 7.0, 8.0, 10.0, 6.0, 11.0, 5.0, 7.0, 11.0, 11.0, 6.0, 9.0, 12.0, 9.0, 10.0, 12.0, 6.0, 2.0, 17.0, 12.0, 10.0, 9.0, 18.0, 22.0, 9.0, 21.0, 10.0, 9.0, 9.0, 19.0, 12.0, 12.0, 15.0, 12.0, 11.0, 14.0, 11.0, 12.0, 17.0, 14.0, 13.0, 10.0, 15.0, 24.0, 10.0, 18.0, 17.0, 21.0, 21.0, 16.0, 12.0, 20.0, 22.0, 15.0, 29.0, 24.0, 15.0, 18.0, 25.0, 28.0, 20.0, 30.0, 14.0, 24.0, 22.0, 17.0, 26.0, 26.0, 16.0, 22.0, 16.0, 25.0, 26.0, 26.0, 31.0, 34.0, 19.0, 30.0, 32.0, 26.0, 25.0, 35.0, 26.0, 28.0, 32.0, 34.0, 29.0, 22.0, 33.0, 32.0, 37.0, 31.0, 33.0, 30.0, 26.0, 37.0, 35.0, 46.0, 27.0, 34.0, 41.0, 34.0, 34.0, 33.0, 47.0, 49.0, 30.0, 40.0, 34.0, 41.0, 52.0, 33.0, 33.0, 37.0, 31.0, 45.0, 39.0, 50.0, 46.0, 42.0, 29.0, 35.0, 39.0, 41.0, 46.0, 50.0, 40.0, 52.0, 56.0, 51.0, 52.0, 50.0, 43.0, 48.0, 55.0, 54.0, 51.0, 49.0, 43.0, 48.0, 51.0, 58.0, 45.0, 44.0, 64.0, 71.0, 55.0, 50.0, 57.0, 50.0, 47.0, 57.0, 64.0, 64.0, 53.0, 36.0, 52.0, 44.0, 52.0, 53.0, 59.0, 45.0, 54.0, 49.0, 53.0, 58.0, 58.0, 64.0, 57.0, 46.0, 50.0, 67.0, 49.0, 45.0, 51.0, 58.0, 53.0, 56.0, 55.0, 47.0, 62.0, 49.0, 66.0, 55.0, 62.0, 53.0, 64.0, 52.0, 55.0, 42.0, 57.0, 61.0, 66.0, 45.0, 48.0, 59.0, 44.0, 61.0, 56.0, 57.0, 51.0, 43.0, 36.0, 60.0, 53.0, 54.0, 52.0, 61.0, 59.0, 45.0, 53.0, 58.0, 55.0, 52.0, 65.0, 54.0, 41.0, 55.0, 54.0, 68.0, 54.0, 52.0, 61.0, 54.0, 66.0, 67.0, 56.0, 43.0, 67.0, 55.0, 54.0, 54.0, 52.0, 50.0, 44.0, 53.0, 46.0, 52.0, 52.0, 49.0, 52.0, 71.0, 56.0, 51.0, 51.0, 63.0, 51.0, 47.0, 54.0, 58.0, 53.0, 51.0, 47.0, 43.0, 42.0, 46.0, 45.0, 49.0, 55.0, 45.0, 55.0, 38.0, 33.0, 53.0, 48.0, 57.0, 41.0, 45.0, 55.0, 42.0, 48.0, 41.0, 40.0, 23.0, 55.0, 49.0, 30.0, 28.0, 50.0, 39.0, 34.0, 45.0, 35.0, 48.0, 44.0, 41.0, 39.0, 47.0, 42.0, 34.0, 38.0, 44.0, 34.0, 33.0, 27.0, 45.0, 25.0, 32.0, 35.0, 37.0, 38.0, 28.0, 35.0, 29.0, 29.0, 40.0, 32.0, 36.0, 33.0, 35.0, 34.0, 27.0, 29.0, 35.0, 40.0, 28.0, 30.0, 26.0, 27.0, 39.0, 31.0, 24.0, 40.0, 29.0, 33.0, 40.0, 23.0, 30.0, 33.0, 24.0, 41.0, 31.0, 32.0, 23.0, 30.0, 23.0, 19.0, 25.0, 32.0, 27.0, 41.0, 27.0, 30.0, 30.0, 24.0, 23.0, 24.0, 34.0, 29.0, 38.0, 38.0, 35.0, 29.0, 39.0, 33.0, 26.0, 35.0, 24.0, 23.0, 24.0, 30.0, 34.0, 30.0, 36.0, 26.0, 34.0, 32.0, 26.0, 36.0, 26.0, 20.0, 25.0, 29.0, 29.0, 35.0, 26.0, 26.0, 32.0, 40.0, 22.0, 34.0, 29.0, 19.0, 21.0, 30.0, 28.0, 29.0, 26.0, 36.0, 35.0, 26.0, 26.0, 28.0, 22.0, 23.0, 39.0, 22.0, 22.0, 25.0, 28.0, 34.0, 23.0, 30.0, 24.0, 31.0, 36.0, 31.0, 21.0, 28.0, 28.0, 37.0, 31.0, 33.0, 23.0, 26.0, 32.0, 30.0, 30.0, 26.0, 32.0, 39.0, 24.0, 34.0, 30.0, 43.0, 26.0, 21.0, 32.0, 25.0, 27.0, 33.0, 27.0, 32.0, 35.0, 21.0, 30.0, 21.0, 28.0, 27.0, 30.0, 26.0, 29.0, 38.0, 30.0, 27.0, 26.0, 33.0, 24.0, 21.0, 32.0, 28.0, 34.0, 28.0, 30.0, 27.0, 34.0, 26.0, 31.0, 34.0, 37.0, 21.0, 23.0, 41.0, 32.0, 26.0, 34.0, 21.0, 24.0, 22.0, 29.0, 23.0, 33.0, 39.0, 32.0, 29.0, 28.0, 21.0, 23.0, 27.0, 38.0, 25.0, 40.0, 39.0, 38.0, 34.0, 39.0, 38.0, 23.0, 30.0, 36.0, 29.0, 29.0, 27.0, 32.0, 30.0, 36.0, 25.0, 31.0, 29.0, 26.0, 18.0, 28.0, 36.0, 30.0, 31.0, 37.0, 27.0, 33.0, 29.0, 36.0, 26.0, 24.0, 37.0, 23.0, 27.0, 29.0, 28.0, 28.0, 36.0, 23.0, 28.0, 30.0, 34.0, 24.0, 29.0, 24.0, 35.0, 21.0, 25.0, 26.0, 29.0, 30.0, 27.0, 27.0, 31.0, 26.0, 26.0, 30.0, 24.0, 24.0, 30.0, 29.0, 25.0, 27.0, 22.0, 21.0, 20.0, 41.0, 18.0, 17.0, 22.0, 23.0, 24.0, 22.0, 28.0, 22.0, 29.0, 32.0, 26.0, 28.0, 25.0, 19.0, 21.0, 21.0, 27.0, 26.0, 32.0, 30.0, 27.0, 20.0, 27.0, 23.0, 38.0, 34.0, 23.0, 43.0, 11.0, 34.0, 22.0, 25.0, 24.0, 24.0, 30.0, 34.0, 23.0, 30.0, 26.0, 27.0, 25.0, 15.0, 31.0, 23.0, 16.0, 19.0, 17.0, 12.0, 17.0, 14.0, 28.0, 23.0, 22.0, 25.0, 20.0, 27.0, 23.0, 22.0, 23.0, 17.0, 18.0, 19.0, 13.0, 19.0, 16.0, 28.0, 29.0, 19.0, 21.0, 19.0, 25.0, 27.0, 16.0, 15.0, 17.0, 16.0, 18.0, 21.0, 14.0, 19.0, 24.0, 24.0, 18.0, 19.0, 19.0, 10.0, 27.0, 11.0, 16.0, 16.0, 23.0, 17.0, 22.0, 25.0, 21.0, 18.0, 14.0, 13.0, 16.0, 21.0, 15.0, 19.0, 16.0, 16.0, 14.0, 15.0, 22.0, 18.0, 13.0, 19.0, 20.0, 11.0, 19.0, 16.0, 24.0, 21.0, 20.0, 20.0, 18.0, 12.0, 24.0, 17.0, 10.0, 20.0, 21.0, 15.0, 15.0, 19.0, 20.0, 12.0, 15.0, 11.0, 19.0, 19.0, 14.0, 22.0, 16.0, 12.0, 18.0, 16.0, 22.0, 14.0, 16.0, 13.0, 25.0, 11.0, 19.0, 16.0, 18.0, 18.0, 17.0, 12.0, 10.0, 19.0, 13.0, 14.0, 17.0, 22.0, 16.0, 16.0, 11.0, 18.0, 16.0, 10.0, 25.0, 16.0, 17.0, 9.0, 21.0, 9.0, 18.0, 16.0, 8.0, 13.0, 9.0, 8.0, 18.0, 17.0, 13.0, 12.0, 12.0, 12.0, 7.0, 9.0, 15.0, 10.0, 14.0, 13.0, 15.0, 9.0, 9.0, 21.0, 16.0, 15.0, 15.0, 11.0, 10.0, 12.0, 14.0, 9.0, 7.0, 8.0, 10.0, 9.0, 13.0, 10.0, 9.0, 7.0, 14.0, 12.0, 10.0, 7.0, 7.0, 14.0, 15.0, 8.0, 11.0, 10.0, 8.0, 14.0, 15.0, 6.0, 16.0, 9.0, 8.0, 9.0, 8.0, 8.0, 7.0, 13.0, 8.0, 9.0, 6.0, 9.0, 6.0, 8.0, 4.0, 14.0, 10.0, 11.0, 11.0, 8.0, 7.0, 14.0, 12.0, 9.0, 13.0, 11.0, 9.0, 11.0, 12.0, 7.0, 4.0, 5.0, 6.0, 7.0, 7.0, 9.0, 11.0, 8.0, 6.0, 6.0, 3.0, 15.0, 10.0, 7.0, 8.0, 5.0, 6.0, 8.0, 13.0, 7.0, 8.0, 6.0, 12.0, 7.0, 11.0, 14.0, 9.0, 6.0, 7.0, 6.0, 2.0, 6.0, 7.0, 4.0, 4.0, 6.0, 8.0, 6.0, 9.0, 12.0, 10.0, 5.0, 3.0, 9.0, 8.0, 8.0, 5.0, 5.0, 4.0, 2.0, 6.0, 4.0, 6.0, 8.0, 7.0, 6.0, 9.0, 3.0, 7.0, 4.0, 3.0, 4.0, 5.0, 5.0, 7.0, 6.0, 1.0, 4.0, 3.0, 9.0, 5.0, 6.0, 3.0, 5.0, 6.0, 1.0, 8.0, 3.0, 7.0, 5.0, 8.0, 9.0, 3.0, 5.0, 2.0, 2.0, 2.0, 7.0, 3.0, 5.0, 5.0, 9.0, 7.0, 3.0, 4.0, 7.0, 4.0, 6.0, 1.0, 2.0, 6.0, 6.0, 3.0, 7.0, 5.0, 3.0, 3.0, 5.0, 4.0, 6.0, 3.0, 3.0, 3.0, 4.0, 6.0, 4.0, 3.0, 6.0, 2.0, 2.0, 1.0, 4.0, 3.0, 7.0, 6.0, 3.0, 3.0, 7.0, 4.0, 4.0, 2.0, 2.0, 6.0, 4.0, 4.0, 0.0, 5.0, 1.0, 1.0, 2.0, 8.0, 3.0, 4.0, 1.0, 6.0, 1.0, 3.0, 2.0, 2.0, 3.0, 5.0, 5.0, 1.0, 2.0, 3.0, 6.0, 4.0, 2.0, 3.0, 3.0, 8.0, 2.0, 3.0, 4.0, 2.0, 5.0, 4.0, 2.0, 1.0, 1.0, 2.0, 1.0, 3.0, 0.0, 3.0, 3.0, 4.0, 1.0, 1.0, 1.0, 4.0, 1.0, 0.0, 3.0, 2.0, 4.0, 2.0, 2.0, 1.0, 0.0, 4.0, 3.0, 5.0, 1.0, 1.0, 7.0, 3.0, 1.0, 5.0, 2.0, 0.0, 5.0, 1.0, 0.0, 0.0, 1.0, 6.0, 2.0, 2.0, 2.0, 4.0, 2.0, 2.0, 2.0, 1.0, 2.0, 2.0, 2.0, 5.0, 4.0, 5.0, 5.0, 2.0, 5.0, 0.0, 2.0, 3.0, 2.0, 0.0, 1.0, 1.0, 5.0, 2.0, 2.0, 2.0, 4.0, 2.0, 6.0, 1.0, 0.0, 2.0, 3.0, 2.0, 0.0, 0.0, 1.0, 4.0, 1.0, 3.0, 1.0, 1.0, 3.0, 4.0, 1.0, 1.0, 1.0, 3.0, 1.0, 1.0, 1.0, 2.0, 1.0, 2.0, 1.0, 2.0, 0.0, 3.0, 0.0, 3.0, 4.0, 0.0, 0.0, 1.0, 3.0, 4.0, 2.0, 3.0, 1.0, 0.0, 0.0, 1.0, 1.0, 0.0, 5.0, 1.0, 0.0, 0.0, 2.0, 3.0, 0.0, 1.0, 3.0, 3.0, 0.0, 1.0, 1.0, 1.0, 0.0, 2.0, 4.0, 1.0, 1.0, 1.0, 0.0, 6.0, 3.0, 5.0, 0.0, 1.0, 0.0, 0.0, 0.0, 4.0, 0.0, 0.0, 1.0, 0.0, 2.0, 1.0, 3.0, 0.0, 2.0, 2.0, 1.0, 2.0, 1.0, 2.0, 2.0, 2.0, 1.0, 1.0, 3.0, 1.0, 1.0, 0.0, 2.0, 4.0, 1.0, 1.0, 1.0, 0.0, 0.0, 4.0, 1.0, 2.0, 2.0, 1.0, 1.0, 2.0, 0.0, 0.0, 3.0, 0.0, 1.0, 4.0, 0.0, 1.0, 0.0, 0.0, 0.0, 2.0, 2.0, 0.0, 1.0, 0.0, 1.0, 0.0, 0.0, 1.0, 0.0, 1.0, 1.0, 0.0, 2.0, 1.0, 0.0, 0.0, 1.0, 1.0, 1.0, 1.0, 2.0, 2.0, 1.0, 0.0, 0.0, 0.0, 1.0, 1.0, 1.0, 1.0, 1.0, 3.0, 1.0, 0.0, 1.0, 0.0, 1.0, 0.0, 1.0, 0.0, 3.0, 1.0, 1.0, 2.0, 0.0, 0.0, 0.0, 1.0, 0.0, 0.0, 1.0, 0.0, 1.0, 1.0, 5.0, 2.0, 0.0, 1.0, 2.0, 0.0, 3.0, 0.0, 1.0, 1.0, 1.0, 0.0, 1.0, 1.0, 0.0, 2.0, 3.0, 2.0, 1.0, 2.0, 1.0, 1.0, 1.0, 1.0, 0.0, 1.0, 2.0, 0.0, 0.0, 1.0, 0.0, 0.0, 1.0, 2.0, 0.0, 0.0, 0.0, 0.0, 0.0, 0.0, 0.0, 1.0, 0.0, 0.0, 1.0, 4.0, 1.0, 0.0, 2.0, 2.0, 0.0, 0.0, 0.0, 0.0, 1.0, 0.0, 0.0, 0.0, 0.0, 0.0, 0.0, 1.0, 1.0, 0.0, 0.0, 2.0, 1.0, 1.0, 0.0, 1.0, 0.0, 0.0, 2.0, 1.0, 0.0, 1.0, 0.0, 0.0, 2.0, 1.0, 0.0, 0.0, 2.0, 0.0, 1.0, 1.0, 0.0, 0.0, 0.0, 1.0, 0.0, 0.0, 0.0, 2.0, 2.0, 2.0, 0.0, 0.0, 0.0, 0.0, 0.0, 1.0, 1.0, 2.0, 0.0, 0.0, 0.0, 0.0, 0.0, 0.0, 1.0, 1.0, 0.0, 1.0, 2.0, 1.0, 0.0, 1.0, 1.0, 0.0, 1.0, 1.0, 1.0, 1.0, 0.0, 1.0, 1.0, 2.0, 1.0, 0.0, 1.0, 2.0, 0.0, 0.0, 0.0, 0.0, 1.0, 0.0, 0.0, 0.0, 0.0, 0.0, 1.0, 2.0, 0.0, 0.0, 2.0, 2.0, 1.0, 0.0, 1.0, 0.0, 1.0, 2.0, 1.0, 1.0, 0.0, 1.0, 3.0, 2.0, 2.0, 1.0, 0.0, 1.0, 0.0, 0.0, 0.0, 0.0, 1.0, 0.0, 1.0, 0.0, 0.0, 1.0, 0.0, 1.0, 1.0, 0.0, 0.0, 0.0, 0.0, 0.0, 1.0, 0.0, 0.0, 1.0, 0.0, 0.0, 0.0, 0.0, 1.0, 0.0, 0.0, 0.0, 0.0, 1.0, 0.0, 1.0, 1.0, 0.0, 0.0, 1.0, 2.0, 1.0, 0.0, 0.0, 2.0, 0.0, 1.0, 0.0, 0.0, 1.0, 0.0, 0.0, 0.0, 0.0, 1.0, 0.0, 1.0, 0.0, 1.0, 0.0, 1.0, 0.0, 0.0, 0.0, 0.0, 0.0, 0.0, 1.0, 0.0, 0.0, 0.0, 0.0, 1.0, 2.0, 1.0, 1.0, 0.0, 2.0, 1.0, 0.0, 0.0, 0.0, 0.0, 0.0, 0.0, 0.0, 1.0, 0.0, 1.0, 1.0, 0.0, 2.0, 1.0, 0.0, 1.0, 0.0, 0.0, 0.0, 0.0, 0.0, 0.0, 0.0, 1.0, 0.0, 1.0, 0.0, 0.0, 0.0, 0.0, 0.0, 0.0, 0.0, 1.0, 0.0, 1.0, 1.0, 0.0, 0.0, 0.0, 0.0, 0.0, 2.0, 0.0, 2.0, 1.0, 0.0, 0.0, 1.0, 0.0, 0.0, 1.0, 0.0, 0.0, 1.0, 0.0, 0.0, 2.0, 0.0, 0.0, 0.0, 0.0, 0.0, 0.0, 0.0, 1.0, 1.0, 0.0, 0.0, 0.0, 1.0, 0.0, 2.0, 0.0, 0.0, 0.0, 0.0, 0.0, 0.0, 0.0, 0.0, 0.0, 0.0, 1.0, 1.0, 0.0, 0.0, 1.0, 0.0, 0.0, 1.0, 0.0, 0.0, 0.0, 0.0, 0.0, 0.0, 0.0, 0.0, 1.0, 0.0, 0.0, 0.0, 0.0, 0.0, 0.0, 1.0, 0.0, 0.0, 1.0, 0.0, 0.0, 2.0, 0.0, 1.0, 0.0, 0.0, 0.0, 0.0, 0.0, 2.0, 0.0, 1.0, 0.0, 0.0, 0.0, 0.0, 0.0, 1.0, 1.0, 0.0, 0.0, 0.0, 0.0, 0.0, 1.0, 0.0, 0.0, 0.0, 0.0, 1.0, 1.0, 0.0, 0.0, 0.0, 0.0, 0.0, 0.0, 0.0, 1.0, 0.0, 0.0, 1.0, 1.0, 2.0, 1.0, 0.0, 1.0, 0.0, 0.0, 0.0, 0.0, 0.0, 1.0, 1.0, 0.0, 0.0, 0.0, 0.0, 0.0, 0.0, 0.0, 1.0, 0.0, 1.0, 0.0, 0.0, 0.0, 0.0, 0.0, 0.0, 0.0, 0.0, 1.0, 0.0, 0.0, 1.0, 0.0, 0.0, 0.0, 0.0, 0.0, 0.0, 1.0, 0.0, 0.0, 0.0, 0.0, 0.0, 1.0, 0.0, 0.0, 0.0, 0.0, 0.0, 0.0, 0.0, 1.0, 0.0, 0.0, 0.0, 0.0, 0.0, 1.0, 0.0, 0.0, 1.0, 0.0, 0.0, 1.0, 0.0, 0.0, 1.0, 0.0, 1.0, 0.0, 0.0, 0.0, 1.0, 0.0, 0.0, 0.0, 0.0, 0.0, 0.0, 0.0, 0.0, 0.0, 1.0, 0.0, 0.0, 0.0, 0.0, 0.0, 0.0, 0.0, 0.0, 0.0, 0.0, 0.0, 0.0, 0.0, 1.0, 0.0, 0.0, 0.0, 0.0, 1.0, 0.0, 0.0, 0.0, 1.0, 1.0, 1.0, 1.0, 0.0, 0.0, 0.0, 0.0, 0.0, 0.0, 0.0, 0.0, 0.0, 0.0, 0.0, 0.0, 0.0, 0.0, 0.0, 0.0, 0.0, 0.0, 0.0, 0.0, 0.0, 0.0, 1.0, 1.0, 0.0, 1.0, 0.0, 0.0, 0.0, 0.0, 0.0, 0.0, 1.0, 0.0, 0.0, 0.0, 0.0, 0.0, 0.0, 0.0, 0.0, 0.0, 1.0, 0.0, 0.0, 0.0, 0.0, 0.0, 0.0, 0.0, 0.0, 0.0, 0.0, 0.0, 0.0, 0.0, 0.0, 0.0, 0.0, 0.0, 0.0, 0.0, 0.0, 0.0, 0.0, 0.0, 0.0, 0.0, 0.0, 0.0, 0.0, 1.0, 0.0, 0.0, 0.0, 0.0, 0.0, 0.0, 0.0, 0.0, 0.0, 0.0, 0.0, 0.0, 0.0, 0.0, 0.0, 0.0, 0.0, 0.0, 0.0, 0.0, 0.0, 0.0, 0.0, 0.0, 0.0, 1.0, 1.0, 0.0, 1.0, 0.0, 0.0, 1.0, 0.0, 0.0, 0.0, 0.0, 0.0, 0.0, 0.0, 0.0, 0.0, 0.0, 0.0, 0.0, 0.0, 0.0, 0.0, 0.0, 0.0, 0.0, 0.0, 0.0, 0.0, 0.0, 0.0, 0.0, 0.0, 0.0, 0.0, 0.0, 0.0, 0.0, 0.0, 0.0, 0.0, 0.0, 0.0, 0.0, 0.0, 0.0, 0.0, 0.0, 0.0, 0.0, 0.0, 1.0, 0.0, 0.0, 0.0, 0.0, 0.0, 0.0, 0.0, 0.0, 0.0, 0.0, 0.0, 0.0, 1.0, 0.0, 0.0, 1.0, 0.0, 0.0, 0.0, 0.0, 0.0, 0.0, 0.0, 0.0, 0.0, 0.0, 0.0, 0.0, 0.0, 1.0, 0.0, 0.0, 0.0, 0.0, 0.0, 0.0, 0.0, 0.0, 0.0, 0.0, 0.0, 0.0, 0.0, 0.0, 0.0, 0.0, 0.0, 0.0, 0.0, 0.0, 0.0, 0.0, 0.0, 0.0, 0.0, 0.0, 0.0, 0.0, 0.0, 0.0, 0.0, 0.0, 0.0, 0.0, 0.0, 0.0, 0.0, 0.0, 0.0, 0.0, 0.0, 0.0, 0.0, 0.0, 0.0, 0.0, 0.0, 0.0, 0.0, 0.0, 0.0, 0.0, 0.0, 0.0, 0.0, 0.0, 0.0, 0.0, 0.0, 0.0, 0.0, 0.0, 0.0, 0.0, 0.0, 0.0, 0.0, 0.0, 0.0, 1.0, 0.0, 0.0, 0.0, 0.0, 0.0, 0.0],
    "Name": "ThresholdDist-0",
    "Overflow": 3.0,
    "Type": "Histo1d",
    "Underflow": 218.0,
    "x": {
        "AxisTitle": "Threshold [e]",
        "Bins": 3251,
        "High": 41475.0,
        "Low": 8965.0
    },
    "y": {
        "AxisTitle": "Number of Pixels"
    },
    "z": {
        "AxisTitle": "z"
    }
}