{
    "Data": [0.0, 1.0, 0.0, 0.0, 0.0, 0.0, 1.0, 0.0, 1.0, 1.0, 0.0, 0.0, 0.0, 0.0, 0.0, 0.0, 0.0, 0.0, 0.0, 0.0, 0.0, 0.0, 0.0, 0.0, 0.0, 0.0, 0.0, 0.0, 1.0, 1.0, 0.0, 0.0, 0.0, 1.0, 0.0, 2.0, 1.0, 0.0, 2.0, 2.0, 1.0, 3.0, 1.0, 3.0, 4.0, 2.0, 6.0, 11.0, 2.0, 5.0, 9.0, 10.0, 6.0, 5.0, 7.0, 14.0, 11.0, 8.0, 7.0, 11.0, 11.0, 11.0, 13.0, 4.0, 11.0, 15.0, 7.0, 6.0, 12.0, 8.0, 14.0, 9.0, 8.0, 10.0, 6.0, 10.0, 19.0, 16.0, 11.0, 18.0, 18.0, 24.0, 19.0, 25.0, 26.0, 40.0, 53.0, 48.0, 60.0, 59.0, 80.0, 98.0, 98.0, 116.0, 118.0, 136.0, 171.0, 161.0, 186.0, 203.0, 222.0, 257.0, 257.0, 235.0, 297.0, 284.0, 310.0, 351.0, 350.0, 341.0, 388.0, 335.0, 352.0, 368.0, 342.0, 367.0, 348.0, 340.0, 355.0, 369.0, 336.0, 290.0, 291.0, 327.0, 319.0, 308.0, 297.0, 262.0, 277.0, 242.0, 263.0, 212.0, 242.0, 195.0, 223.0, 231.0, 193.0, 190.0, 188.0, 164.0, 147.0, 147.0, 173.0, 172.0, 148.0, 161.0, 163.0, 153.0, 175.0, 148.0, 140.0, 157.0, 138.0, 128.0, 136.0, 125.0, 133.0, 112.0, 129.0, 106.0, 106.0, 112.0, 107.0, 109.0, 111.0, 112.0, 98.0, 90.0, 99.0, 105.0, 117.0, 107.0, 103.0, 96.0, 96.0, 78.0, 90.0, 80.0, 81.0, 94.0, 104.0, 86.0, 84.0, 84.0, 73.0, 74.0, 80.0, 67.0, 83.0, 72.0, 78.0, 62.0, 54.0, 59.0, 81.0, 71.0, 71.0, 61.0, 71.0, 68.0, 67.0, 62.0, 80.0, 65.0, 68.0, 74.0, 58.0, 64.0, 57.0, 61.0, 67.0, 74.0, 67.0, 43.0, 62.0, 56.0, 54.0, 56.0, 53.0, 57.0, 59.0, 53.0, 43.0, 57.0, 46.0, 43.0, 58.0, 42.0, 60.0, 49.0, 46.0, 44.0, 44.0, 49.0, 46.0, 51.0, 39.0, 42.0, 50.0, 41.0, 40.0, 30.0, 35.0, 38.0, 44.0, 45.0, 40.0, 44.0, 35.0, 42.0, 40.0, 40.0, 42.0, 37.0, 39.0, 26.0, 43.0, 38.0, 31.0, 21.0, 20.0, 29.0, 33.0, 35.0, 21.0, 33.0, 37.0, 27.0, 32.0, 22.0, 30.0, 21.0, 26.0, 25.0, 23.0, 24.0, 32.0, 24.0, 31.0, 29.0, 22.0, 23.0, 31.0, 31.0, 24.0, 23.0, 21.0, 25.0, 24.0, 21.0, 17.0, 22.0, 23.0, 16.0, 16.0, 23.0, 20.0, 23.0, 11.0, 21.0, 24.0, 16.0, 10.0, 17.0, 11.0, 18.0, 15.0, 20.0, 18.0, 19.0, 20.0, 18.0, 16.0, 23.0, 17.0, 9.0, 12.0, 19.0, 15.0, 19.0, 16.0, 22.0, 11.0, 8.0, 9.0, 13.0, 19.0, 9.0, 12.0, 12.0, 14.0, 12.0, 7.0, 13.0, 11.0, 10.0, 15.0, 13.0, 20.0, 8.0, 8.0, 9.0, 11.0, 10.0, 9.0, 7.0, 8.0, 9.0, 9.0, 9.0, 8.0, 10.0, 11.0, 9.0, 16.0, 8.0, 9.0, 14.0, 11.0, 10.0, 8.0, 9.0, 10.0, 6.0, 6.0, 8.0, 5.0, 8.0, 9.0, 11.0, 6.0, 9.0, 7.0, 10.0, 5.0, 5.0, 9.0, 6.0, 3.0, 5.0, 7.0, 5.0, 7.0, 7.0, 6.0, 6.0, 5.0, 4.0, 2.0, 11.0, 9.0, 3.0, 7.0, 6.0, 2.0, 7.0, 8.0, 5.0, 7.0, 5.0, 9.0, 6.0, 4.0, 8.0, 9.0, 5.0, 3.0, 6.0, 5.0, 2.0, 8.0, 4.0, 7.0, 5.0, 6.0, 4.0, 6.0, 8.0, 5.0, 9.0, 3.0, 6.0, 5.0, 3.0, 5.0, 6.0, 5.0, 4.0, 2.0, 2.0, 5.0, 4.0, 2.0, 4.0, 2.0, 2.0, 2.0, 12.0, 3.0, 4.0, 4.0, 4.0, 2.0, 3.0, 1.0, 5.0, 1.0, 7.0, 4.0, 5.0, 5.0, 4.0, 4.0, 8.0, 1.0, 3.0, 4.0, 6.0, 1.0, 5.0, 4.0, 2.0, 3.0, 2.0, 3.0, 5.0, 2.0, 2.0, 7.0, 4.0, 3.0, 4.0, 2.0, 6.0, 1.0, 0.0, 5.0, 0.0, 2.0, 4.0, 4.0, 1.0, 3.0, 3.0, 2.0, 3.0, 4.0, 7.0, 1.0, 3.0, 1.0, 3.0, 4.0, 3.0, 4.0, 5.0, 5.0, 2.0, 3.0, 5.0, 6.0, 4.0, 3.0, 2.0, 1.0, 1.0, 4.0, 3.0, 2.0, 3.0, 2.0, 2.0, 4.0, 3.0, 4.0, 1.0, 3.0, 3.0, 2.0, 2.0, 4.0, 3.0, 2.0, 0.0, 2.0, 2.0, 1.0, 4.0, 4.0, 2.0, 0.0, 2.0, 6.0, 2.0, 2.0, 6.0, 3.0, 3.0, 2.0, 3.0, 4.0, 1.0, 1.0, 1.0, 1.0, 2.0, 2.0, 4.0, 1.0, 1.0, 2.0, 4.0, 4.0, 1.0, 5.0, 1.0, 1.0, 1.0, 1.0, 1.0, 2.0, 1.0, 1.0, 1.0, 4.0, 0.0, 4.0, 3.0, 0.0, 1.0, 3.0, 2.0, 1.0, 2.0, 1.0, 2.0, 0.0, 1.0, 2.0, 4.0, 3.0, 3.0, 1.0, 1.0, 1.0, 0.0, 0.0, 0.0, 2.0, 1.0, 2.0, 2.0, 3.0, 0.0, 2.0, 1.0, 2.0, 1.0, 0.0, 3.0, 2.0, 2.0, 4.0, 5.0, 3.0, 4.0, 0.0, 0.0, 0.0, 0.0, 2.0, 1.0, 3.0, 0.0, 0.0, 1.0, 1.0, 2.0, 1.0, 0.0, 1.0, 3.0, 1.0, 0.0, 1.0, 1.0, 1.0, 1.0, 0.0, 3.0, 2.0, 4.0, 0.0, 3.0, 1.0, 1.0, 2.0, 0.0],
    "Name": "NoiseDist-0",
    "Overflow": 124.0,
    "Type": "Histo1d",
    "Underflow": 0.0,
    "x": {
        "AxisTitle": "Noise [e]",
        "Bins": 638,
        "High": 3191.0,
        "Low": -2.0
    },
    "y": {
        "AxisTitle": "Number of Pixels"
    },
    "z": {
        "AxisTitle": "z"
    }
}