{
    "unit": {
        "Time": "s",
        "Voltage": "V",
        "Current": "A"
    },
    "V_step": -5,
    "Step_duration": 2,
    "N_measurements_per_step": 10,
    "A_Compliance": 1e-05,
    "Sensor_IV": [
        {
            "Time": 20.298278093338013,
            "Voltage": 0.0,
            "Current_mean": -5.1535434999999994e-08,
            "Current_sigma": 8.517871475066115e-09
        },
        {
            "Time": 26.29202127456665,
            "Voltage": -5.0,
            "Current_mean": -1.1592016999999999e-07,
            "Current_sigma": 1.194468522423676e-08
        },
        {
            "Time": 32.286044120788574,
            "Voltage": -10.0,
            "Current_mean": -1.5386998e-07,
            "Current_sigma": 4.851162499607694e-09
        },
        {
            "Time": 38.28002381324768,
            "Voltage": -15.0,
            "Current_mean": -1.4529946e-07,
            "Current_sigma": 5.51821761354153e-09
        },
        {
            "Time": 44.27381920814514,
            "Voltage": -20.0,
            "Current_mean": -1.5248172999999998e-07,
            "Current_sigma": 7.508850111708184e-09
        },
        {
            "Time": 50.267667293548584,
            "Voltage": -25.0,
            "Current_mean": -1.574466e-07,
            "Current_sigma": 3.419066054348761e-09
        },
        {
            "Time": 56.26154375076294,
            "Voltage": -30.0,
            "Current_mean": -1.5307955999999998e-07,
            "Current_sigma": 5.96691983559357e-09
        },
        {
            "Time": 62.25521397590637,
            "Voltage": -35.0,
            "Current_mean": -1.4837594000000003e-07,
            "Current_sigma": 4.185574815052288e-09
        },
        {
            "Time": 68.24899172782898,
            "Voltage": -40.0,
            "Current_mean": -1.5244559e-07,
            "Current_sigma": 6.582487346657033e-09
        },
        {
            "Time": 74.24278831481934,
            "Voltage": -45.0,
            "Current_mean": -1.5991584e-07,
            "Current_sigma": 3.1820823745465803e-09
        },
        {
            "Time": 80.23657441139221,
            "Voltage": -50.0,
            "Current_mean": -1.5834166000000001e-07,
            "Current_sigma": 5.8891462819665115e-09
        },
        {
            "Time": 86.23040413856506,
            "Voltage": -55.0,
            "Current_mean": -1.5998906000000002e-07,
            "Current_sigma": 4.338239798858518e-09
        },
        {
            "Time": 92.22419619560242,
            "Voltage": -60.0,
            "Current_mean": -1.5167761e-07,
            "Current_sigma": 3.0600904589407124e-09
        },
        {
            "Time": 98.2180986404419,
            "Voltage": -65.0,
            "Current_mean": -1.6167665e-07,
            "Current_sigma": 3.0679860658907797e-09
        },
        {
            "Time": 104.21186423301697,
            "Voltage": -70.0,
            "Current_mean": -1.5265886999999997e-07,
            "Current_sigma": 1.2734383895972325e-09
        },
        {
            "Time": 110.2056725025177,
            "Voltage": -75.0,
            "Current_mean": -1.6494986e-07,
            "Current_sigma": 2.3414660647551565e-09
        },
        {
            "Time": 116.19935321807861,
            "Voltage": -80.0,
            "Current_mean": -1.5470008e-07,
            "Current_sigma": 2.968134936555278e-09
        },
        {
            "Time": 122.19313383102417,
            "Voltage": -85.0,
            "Current_mean": -1.6094189e-07,
            "Current_sigma": 3.2630649412630463e-09
        },
        {
            "Time": 128.18683576583862,
            "Voltage": -90.0,
            "Current_mean": -1.5754395999999996e-07,
            "Current_sigma": 3.650986552755298e-09
        },
        {
            "Time": 134.18057322502136,
            "Voltage": -95.0,
            "Current_mean": -1.6954432e-07,
            "Current_sigma": 2.2866258744272075e-09
        },
        {
            "Time": 140.17412114143372,
            "Voltage": -100.0,
            "Current_mean": -1.6491025e-07,
            "Current_sigma": 4.356285069012353e-09
        },
        {
            "Time": 146.16791701316833,
            "Voltage": -105.0,
            "Current_mean": -1.6171486000000004e-07,
            "Current_sigma": 1.386591267244966e-09
        },
        {
            "Time": 152.16168928146362,
            "Voltage": -110.0,
            "Current_mean": -1.7397587e-07,
            "Current_sigma": 3.873972090000134e-09
        },
        {
            "Time": 158.1554992198944,
            "Voltage": -115.0,
            "Current_mean": -1.7351065000000003e-07,
            "Current_sigma": 4.408552314592626e-09
        },
        {
            "Time": 164.14950799942017,
            "Voltage": -120.0,
            "Current_mean": -1.7754633999999998e-07,
            "Current_sigma": 2.3088292176772206e-09
        },
        {
            "Time": 170.14331769943237,
            "Voltage": -125.0,
            "Current_mean": -1.817566e-07,
            "Current_sigma": 1.3516662665022025e-09
        },
        {
            "Time": 176.13701629638672,
            "Voltage": -130.0,
            "Current_mean": -1.8706949e-07,
            "Current_sigma": 1.6392097806260171e-09
        },
        {
            "Time": 182.13085961341858,
            "Voltage": -135.0,
            "Current_mean": -1.8651555e-07,
            "Current_sigma": 2.8671222343143997e-09
        },
        {
            "Time": 188.12492871284485,
            "Voltage": -140.0,
            "Current_mean": -1.9401728000000002e-07,
            "Current_sigma": 1.2970395983161036e-09
        },
        {
            "Time": 194.11893129348755,
            "Voltage": -145.0,
            "Current_mean": -1.9792541000000003e-07,
            "Current_sigma": 5.893293585933087e-10
        },
        {
            "Time": 200.1125180721283,
            "Voltage": -150.0,
            "Current_mean": -1.9270758e-07,
            "Current_sigma": 3.6556251875158087e-09
        },
        {
            "Time": 206.1064658164978,
            "Voltage": -155.0,
            "Current_mean": -1.9607389e-07,
            "Current_sigma": 3.733503881998786e-09
        },
        {
            "Time": 212.1003589630127,
            "Voltage": -160.0,
            "Current_mean": -1.9961234e-07,
            "Current_sigma": 1.4576930631652173e-09
        },
        {
            "Time": 218.09401440620422,
            "Voltage": -165.0,
            "Current_mean": -2.0005926999999998e-07,
            "Current_sigma": 1.7812814208035797e-09
        },
        {
            "Time": 224.0878586769104,
            "Voltage": -170.0,
            "Current_mean": -2.0564774e-07,
            "Current_sigma": 1.5301128410676098e-09
        },
        {
            "Time": 230.08174586296082,
            "Voltage": -175.0,
            "Current_mean": -2.1374769999999999e-07,
            "Current_sigma": 1.2289417463818159e-09
        },
        {
            "Time": 236.07554817199707,
            "Voltage": -180.0,
            "Current_mean": -2.1274638999999998e-07,
            "Current_sigma": 2.5473283366892437e-09
        },
        {
            "Time": 242.06937909126282,
            "Voltage": -185.0,
            "Current_mean": -2.0986371e-07,
            "Current_sigma": 1.079647657756919e-09
        },
        {
            "Time": 248.0634274482727,
            "Voltage": -190.0,
            "Current_mean": -2.2075558e-07,
            "Current_sigma": 1.9896835254884166e-09
        },
        {
            "Time": 254.05727291107178,
            "Voltage": -195.0,
            "Current_mean": -2.2395409e-07,
            "Current_sigma": 2.3651577226265486e-09
        },
        {
            "Time": 260.05111813545227,
            "Voltage": -200.0,
            "Current_mean": -2.2503300999999998e-07,
            "Current_sigma": 3.5476786459458227e-09
        }
    ]
}